alpha: 0.5
beta: 0.5
gamma: 1.5
stagT: 5
Random frameSizes and framesize is choosen randomly between 1 - maxframesize
When an improvement is found the usefullFramesize is set to the size of the removedassumptions
Maximum runtime: 600

Starting solving at: 306 ms
done
PrepModelIt duration: 509 ms
amount madeAssumptions: 35533
Objval best sol: 325
search limit: 1
useful search limit: 1
max frame size: 0
frame size: 0
useful frame size: 0
stag: 0/5
total spend time up to now: 462 ms
max time: 600
> Current optimal value 325 after 511 ms
> Current optimal value 324 after 567 ms
> Current optimal value 323 after 667 ms
> Current optimal value 322 after 913 ms
> Current optimal value 321 after 1073 ms
> Current optimal value 320 after 1331 ms
> Current optimal value 319 after 1474 ms
> Current optimal value 318 after 1608 ms
> Current optimal value 317 after 1793 ms
> Current optimal value 316 after 1917 ms
> Current optimal value 315 after 2037 ms
> Current optimal value 314 after 2206 ms
> Current optimal value 313 after 2320 ms
> Current optimal value 312 after 2480 ms
> Current optimal value 311 after 2593 ms
> Current optimal value 310 after 2704 ms
> Current optimal value 309 after 2901 ms
> Current optimal value 308 after 3008 ms
> Current optimal value 307 after 3067 ms
> Current optimal value 306 after 3217 ms
> Current optimal value 305 after 3320 ms
> Current optimal value 304 after 3465 ms
> Current optimal value 303 after 3567 ms
> Current optimal value 302 after 3791 ms
> Current optimal value 301 after 4012 ms
> Current optimal value 300 after 4154 ms
> Current optimal value 299 after 4213 ms
> Current optimal value 298 after 4358 ms
> Current optimal value 297 after 4458 ms
> Current optimal value 296 after 4599 ms
> Current optimal value 295 after 4702 ms
> Current optimal value 294 after 4929 ms
> Current optimal value 293 after 5078 ms
> Current optimal value 292 after 5259 ms
> Current optimal value 291 after 5397 ms
> Current optimal value 290 after 5877 ms
> Current optimal value 289 after 6268 ms
> Current optimal value 288 after 7200 ms
> Current optimal value 287 after 7346 ms
> Current optimal value 286 after 10671 ms
> Current optimal value 285 after 10740 ms
> Current optimal value 284 after 10807 ms
> Current optimal value 283 after 10955 ms
> Current optimal value 282 after 20335 ms
> Current optimal value 281 after 20398 ms
> Current optimal value 280 after 20457 ms
> Current optimal value 279 after 20515 ms
> Current optimal value 278 after 20574 ms
> Current optimal value 277 after 20631 ms
> Current optimal value 276 after 20689 ms
> Current optimal value 275 after 20746 ms
> Current optimal value 274 after 20840 ms
> Current optimal value 273 after 20895 ms
> Current optimal value 272 after 24549 ms
> Current optimal value 271 after 24665 ms
> Current optimal value 270 after 24715 ms
> Current optimal value 269 after 24765 ms
> Current optimal value 268 after 24882 ms
> Current optimal value 267 after 24931 ms
> Current optimal value 266 after 25013 ms
> Current optimal value 265 after 40727 ms
> Current optimal value 264 after 40789 ms
> Current optimal value 263 after 40848 ms
> Current optimal value 262 after 40907 ms
> Current optimal value 261 after 41037 ms
