alpha: 0.5
beta: 0.5
gamma: 1.5
stagT: 5
Random frameSizes and framesize is choosen randomly between 1 - maxframesize
When an improvement is found the usefullFramesize is set to the size of the removedassumptions
Maximum runtime: 600

Starting solving at: 652 ms
done
PrepModelIt duration: 1106 ms
amount madeAssumptions: 75683
Objval best sol: 475
search limit: 1
useful search limit: 1
max frame size: 0
frame size: 0
useful frame size: 0
stag: 0/5
total spend time up to now: 1008 ms
max time: 600
> Current optimal value 475 after 1107 ms
> Current optimal value 474 after 1346 ms
> Current optimal value 473 after 1867 ms
> Current optimal value 472 after 2541 ms
> Current optimal value 471 after 3203 ms
> Current optimal value 470 after 3807 ms
> Current optimal value 469 after 4021 ms
> Current optimal value 468 after 4294 ms
> Current optimal value 467 after 4775 ms
> Current optimal value 466 after 5240 ms
> Current optimal value 465 after 5409 ms
> Current optimal value 464 after 5824 ms
> Current optimal value 463 after 6102 ms
> Current optimal value 462 after 6496 ms
> Current optimal value 461 after 6643 ms
> Current optimal value 460 after 7015 ms
> Current optimal value 459 after 7273 ms
> Current optimal value 458 after 7641 ms
> Current optimal value 457 after 7887 ms
> Current optimal value 456 after 8132 ms
> Current optimal value 455 after 8472 ms
> Current optimal value 454 after 8712 ms
> Current optimal value 453 after 9048 ms
> Current optimal value 452 after 9279 ms
> Current optimal value 451 after 9507 ms
> Current optimal value 450 after 9836 ms
> Current optimal value 449 after 10252 ms
> Current optimal value 448 after 10480 ms
> Current optimal value 447 after 10701 ms
> Current optimal value 446 after 10927 ms
> Current optimal value 445 after 11150 ms
> Current optimal value 444 after 11645 ms
> Current optimal value 443 after 12139 ms
> Current optimal value 442 after 12449 ms
> Current optimal value 441 after 12671 ms
> Current optimal value 440 after 12890 ms
> Current optimal value 439 after 13200 ms
> Current optimal value 438 after 13508 ms
> Current optimal value 437 after 13725 ms
> Current optimal value 436 after 13945 ms
> Current optimal value 435 after 14257 ms
> Current optimal value 434 after 14835 ms
> Current optimal value 433 after 19765 ms
> Current optimal value 432 after 20442 ms
> Current optimal value 431 after 20755 ms
> Current optimal value 430 after 21070 ms
> Current optimal value 429 after 25832 ms
> Current optimal value 428 after 26532 ms
> Current optimal value 427 after 26864 ms
> Current optimal value 426 after 27194 ms
> Current optimal value 425 after 27513 ms
> Current optimal value 424 after 27846 ms
> Current optimal value 423 after 28080 ms
> Current optimal value 422 after 28311 ms
> Current optimal value 421 after 28640 ms
> Current optimal value 420 after 28870 ms
> Current optimal value 419 after 29102 ms
> Current optimal value 418 after 29431 ms
> Current optimal value 417 after 29662 ms
> Current optimal value 416 after 29806 ms
> Current optimal value 415 after 52845 ms
> Current optimal value 414 after 53188 ms
> Current optimal value 413 after 53341 ms
> Current optimal value 412 after 53679 ms
> Current optimal value 411 after 54021 ms
> Current optimal value 410 after 54354 ms
> Current optimal value 409 after 54688 ms
> Current optimal value 408 after 54838 ms
> Current optimal value 407 after 55173 ms
> Current optimal value 406 after 55415 ms
> Current optimal value 405 after 55753 ms
> Current optimal value 404 after 55999 ms
> Current optimal value 403 after 56237 ms
> Current optimal value 402 after 56661 ms
> Current optimal value 401 after 64195 ms
> Current optimal value 400 after 64344 ms
> Current optimal value 399 after 64495 ms
> Current optimal value 398 after 64643 ms
> Current optimal value 397 after 64792 ms
> Current optimal value 396 after 65035 ms
> Current optimal value 395 after 65186 ms
> Current optimal value 394 after 65335 ms
> Current optimal value 393 after 65481 ms
> Current optimal value 392 after 65630 ms
> Current optimal value 391 after 65775 ms
> Current optimal value 390 after 65923 ms
> Current optimal value 389 after 66071 ms
> Current optimal value 388 after 66218 ms
> Current optimal value 387 after 66367 ms
> Current optimal value 386 after 66515 ms
