alpha: 0.5
beta: 0.5
gamma: 1.5
stagT: 5
Random frameSizes and framesize is choosen randomly between 1 - maxframesize
When an improvement is found the usefullFramesize is set to the size of the removedassumptions
Maximum runtime: 600

Starting solving at: 651 ms
done
PrepModelIt duration: 730 ms
amount madeAssumptions: 668
Objval best sol: 10908
search limit: 32
useful search limit: 32
max frame size: 444
frame size: 222
useful frame size: 222
stag: 0/5
total spend time up to now: 720 ms
max time: 600
> Current optimal value 10908 after 734 ms
> Current optimal value 10819 after 1023 ms
> Current optimal value 10813 after 1464 ms
> Current optimal value 10756 after 1763 ms
> Current optimal value 10742 after 2396 ms
> Current optimal value 10730 after 3046 ms
> Current optimal value 10726 after 3575 ms
> Current optimal value 10722 after 3914 ms
> Current optimal value 10712 after 4471 ms
> Current optimal value 10711 after 4718 ms
> Current optimal value 10707 after 5076 ms
> Current optimal value 10683 after 5567 ms
> Current optimal value 10649 after 6499 ms
> Current optimal value 10622 after 6787 ms
> Current optimal value 10587 after 7402 ms
> Current optimal value 10516 after 10863 ms
> Current optimal value 10466 after 11316 ms
> Current optimal value 10427 after 13314 ms
> Current optimal value 10421 after 14292 ms
> Current optimal value 10349 after 14410 ms
> Current optimal value 10305 after 14783 ms
> Current optimal value 10294 after 15108 ms
> Current optimal value 10187 after 15402 ms
> Current optimal value 10140 after 16846 ms
> Current optimal value 10120 after 16969 ms
> Current optimal value 10064 after 17221 ms
> Current optimal value 10043 after 18053 ms
> Current optimal value 9968 after 18133 ms
> Current optimal value 9961 after 18825 ms
> Current optimal value 9948 after 19279 ms
> Current optimal value 9945 after 19596 ms
> Current optimal value 9870 after 24413 ms
> Current optimal value 9866 after 62013 ms
> Current optimal value 9834 after 71936 ms
> Current optimal value 9806 after 72452 ms
> Current optimal value 9766 after 79815 ms
> Current optimal value 9724 after 87749 ms
> Current optimal value 9695 after 88005 ms
> Current optimal value 9671 after 91464 ms
> Current optimal value 9667 after 96047 ms
> Current optimal value 9655 after 105154 ms
> Current optimal value 9635 after 184758 ms
> Current optimal value 9592 after 304747 ms
> Current optimal value 9586 after 310083 ms
> Current optimal value 9492 after 330501 ms
> Current optimal value 9483 after 370391 ms
> Current optimal value 9461 after 383066 ms
> Current optimal value 9452 after 467914 ms
> Current optimal value 9442 after 471012 ms
> Current optimal value 9390 after 471994 ms
> Current optimal value 9369 after 503299 ms
> Current optimal value 9338 after 571080 ms
