alpha: 0.5
beta: 0.5
gamma: 1.5
stagT: 5
Random frameSizes and framesize is choosen randomly between 1 - maxframesize
When an improvement is found the usefullFramesize is set to the size of the removedassumptions
Maximum runtime: 600

Starting solving at: 417 ms
done
PrepModelIt duration: 459 ms
amount madeAssumptions: 484
Objval best sol: 639564
search limit: 19
useful search limit: 19
max frame size: 310
frame size: 155
useful frame size: 155
stag: 0/5
total spend time up to now: 449 ms
max time: 600
> Current optimal value 639564 after 462 ms
> Current optimal value 626775 after 520 ms
> Current optimal value 625571 after 828 ms
> Current optimal value 614816 after 877 ms
> Current optimal value 613221 after 1111 ms
> Current optimal value 613191 after 1301 ms
> Current optimal value 611777 after 1402 ms
> Current optimal value 611570 after 1550 ms
> Current optimal value 599180 after 1936 ms
> Current optimal value 586468 after 1967 ms
> Current optimal value 573170 after 2188 ms
> Current optimal value 572147 after 2408 ms
> Current optimal value 560243 after 2667 ms
> Current optimal value 559736 after 2922 ms
> Current optimal value 543920 after 3168 ms
> Current optimal value 540412 after 3482 ms
> Current optimal value 539977 after 3567 ms
> Current optimal value 532027 after 4573 ms
> Current optimal value 531690 after 4638 ms
> Current optimal value 518379 after 4792 ms
> Current optimal value 517327 after 5052 ms
> Current optimal value 517266 after 5176 ms
> Current optimal value 516872 after 5462 ms
> Current optimal value 515679 after 5760 ms
> Current optimal value 513678 after 5794 ms
> Current optimal value 504483 after 7879 ms
> Current optimal value 504129 after 7930 ms
> Current optimal value 503134 after 8481 ms
> Current optimal value 502754 after 8604 ms
> Current optimal value 502483 after 9872 ms
> Current optimal value 499741 after 11300 ms
> Current optimal value 498911 after 22969 ms
> Current optimal value 485187 after 23109 ms
> Current optimal value 485186 after 23374 ms
> Current optimal value 484206 after 23448 ms
> Current optimal value 484195 after 23600 ms
> Current optimal value 483994 after 24208 ms
> Current optimal value 483824 after 25845 ms
> Current optimal value 483657 after 26422 ms
> Current optimal value 483456 after 28781 ms
> Current optimal value 473215 after 71659 ms
> Current optimal value 464571 after 95122 ms
> Current optimal value 463406 after 98550 ms
> Current optimal value 459149 after 98740 ms
> Current optimal value 448226 after 118165 ms
> Current optimal value 448215 after 118561 ms
> Current optimal value 448170 after 148600 ms
> Current optimal value 445327 after 357707 ms
> Current optimal value 432688 after 362649 ms
> Current optimal value 431722 after 517871 ms
