Starting solving at 83 ms
>>> Search start
> Conflicts |          ORIGINAL         |          LEARNT          | Progress
>           |    Vars  Clauses Literals |    Limit  Clauses Lit/Cl |         
|         0 |    1522      160     1803 |     5424        1      2 |
> restarts              : 1
> decisions             : 716  (0 % random)
> conflicts             : 34
> propagations          : 10215
> conflict literals     : 2725  (8.95423 % deleted)
> Current optimal value 667 after 478 ms
|        34 |    2290     1574     4591 |     8257     7085     86 |
> restarts              : 2
> decisions             : 818  (0 % random)
> conflicts             : 38
> propagations          : 13009
> conflict literals     : 3166  (7.88478 % deleted)
> Current optimal value 664 after 486 ms
|        38 |    2395     1784     5011 |     8333     7104     87 |
> restarts              : 3
> decisions             : 878  (0 % random)
> conflicts             : 46
> propagations          : 16139
> conflict literals     : 4128  (6.22444 % deleted)
> Current optimal value 659 after 493 ms
|        46 |    2444     1882     5207 |     8410     7237     86 |
> restarts              : 4
> decisions             : 918  (0 % random)
> conflicts             : 47
> propagations          : 18660
> conflict literals     : 4238  (6.09351 % deleted)
> Current optimal value 648 after 498 ms
|        47 |    2457     1908     5259 |     8427     7263     86 |
> restarts              : 5
> decisions             : 962  (0 % random)
> conflicts             : 48
> propagations          : 21145
> conflict literals     : 4314  (5.99259 % deleted)
> Current optimal value 637 after 502 ms
|        48 |    2468     1930     5303 |     8438     7272     86 |
> restarts              : 6
> decisions             : 1019  (0 % random)
> conflicts             : 60
> propagations          : 24903
> conflict literals     : 6090  (4.56041 % deleted)
> Current optimal value 629 after 513 ms
|        60 |    2499     1992     5427 |     8613     7737     84 |
> restarts              : 7
> decisions             : 1073  (0 % random)
> conflicts             : 69
> propagations          : 28138
> conflict literals     : 7341  (3.97646 % deleted)
> Current optimal value 607 after 521 ms
|        69 |    2522     2038     5519 |     8704     7962     83 |
> restarts              : 8
> decisions             : 1121  (0 % random)
> conflicts             : 72
> propagations          : 31100
> conflict literals     : 7878  (3.89167 % deleted)
> Current optimal value 603 after 529 ms
|        72 |    2546     2086     5615 |     8792     8179     82 |
> restarts              : 9
> decisions             : 1169  (0 % random)
> conflicts             : 74
> propagations          : 33849
> conflict literals     : 8167  (3.8158 % deleted)
> Current optimal value 597 after 535 ms
|        74 |    2562     2118     5679 |     8825     8247     81 |
> restarts              : 11
> decisions             : 1329  (0 % random)
> conflicts             : 118
> propagations          : 43250
> conflict literals     : 14243  (3.23392 % deleted)
> Current optimal value 591 after 581 ms
|       118 |    2667     2328     6099 |     7996     5550     69 |
|       218 |    2854     2702     6847 |     8796     9006     57 |
> restarts              : 12
> decisions             : 1632  (0 % random)
> conflicts             : 270
> propagations          : 61999
> conflict literals     : 37555  (2.47734 % deleted)
> Current optimal value 584 after 682 ms
|       270 |    2947     2888     7219 |    10223    11670     53 |
> restarts              : 13
> decisions             : 1674  (0 % random)
> conflicts             : 272
> propagations          : 65127
> conflict literals     : 37924  (2.50649 % deleted)
> Current optimal value 579 after 693 ms
|       272 |    2952     2898     7239 |     8343     6021     38 |
> restarts              : 15
> decisions             : 1794  (0 % random)
> conflicts             : 306
> propagations          : 75289
> conflict literals     : 43489  (2.45823 % deleted)
> Current optimal value 568 after 723 ms
|       306 |    3013     3020     7483 |     8831     7361     39 |
> restarts              : 16
> decisions             : 1894  (0 % random)
> conflicts             : 338
> propagations          : 81331
> conflict literals     : 48536  (2.60465 % deleted)
> Current optimal value 567 after 753 ms
|       338 |    3081     3156     7755 |     9444     9065     38 |
> restarts              : 17
> decisions             : 2019  (0 % random)
> conflicts             : 382
> propagations          : 89527
> conflict literals     : 56070  (2.84011 % deleted)
> Current optimal value 565 after 788 ms
|       382 |    3175     3344     8131 |    10120    10906     39 |
> restarts              : 18
> decisions             : 2123  (0 % random)
> conflicts             : 391
> propagations          : 93698
> conflict literals     : 57423  (2.81948 % deleted)
> Current optimal value 564 after 803 ms
|       391 |    3233     3460     8363 |     8428     5713     40 |
> restarts              : 19
> decisions             : 2176  (0 % random)
> conflicts             : 401
> propagations          : 97463
> conflict literals     : 59190  (2.79671 % deleted)
> Current optimal value 563 after 811 ms
|       401 |    3247     3488     8419 |     8488     5866     40 |
> restarts              : 20
> decisions             : 2219  (0 % random)
> conflicts             : 402
> propagations          : 100775
> conflict literals     : 59328  (2.80153 % deleted)
> Current optimal value 554 after 817 ms
|       402 |    3253     3500     8443 |     8516     5937     41 |
> restarts              : 21
> decisions             : 2316  (0 % random)
> conflicts             : 440
> propagations          : 107020
> conflict literals     : 65836  (2.80357 % deleted)
> Current optimal value 553 after 844 ms
|       440 |    3303     3600     8643 |     9022     7354     41 |
> restarts              : 22
> decisions             : 2385  (0 % random)
> conflicts             : 463
> propagations          : 113833
> conflict literals     : 70310  (2.76452 % deleted)
> Current optimal value 552 after 864 ms
|       463 |    3338     3670     8783 |     9394     8402     41 |
> restarts              : 23
> decisions             : 2433  (0 % random)
> conflicts             : 473
> propagations          : 118448
> conflict literals     : 72403  (2.75995 % deleted)
> Current optimal value 547 after 872 ms
|       473 |    3351     3696     8835 |     9459     8570     41 |
> restarts              : 24
> decisions             : 2484  (0 % random)
> conflicts             : 480
> propagations          : 122730
> conflict literals     : 73991  (2.75985 % deleted)
> Current optimal value 543 after 882 ms
|       480 |    3373     3740     8923 |     9589     8916     41 |
|       580 |    3550     4094     9631 |    10548     7008     42 |
|       731 |    3825     4644    10731 |    11603    11108     40 |
|       957 |    4209     5411    12265 |    12763     8868     45 |
|      1296 |    4717     6427    14297 |    14039    12966     43 |
|      1804 |    5501     7994    17431 |    15443    13969     43 |
|      2564 |    6347     9686    20815 |    16988    12507     45 |
|      3703 |    7327    11646    24735 |    18686    18184     42 |
> restarts              : 39
> decisions             : 12307  (0 % random)
> conflicts             : 5264
> propagations          : 752435
> conflict literals     : 973953  (4.3689 % deleted)
> Current optimal value 539 after 5583 ms
|      5264 |    8314    13619    28681 |    15855    17835     45 |
> restarts              : 41
> decisions             : 12519  (0 % random)
> conflicts             : 5334
> propagations          : 777252
> conflict literals     : 988377  (4.37668 % deleted)
> Current optimal value 538 after 5657 ms
|      5334 |    8416    13823    29089 |    14089    12333     48 |
|      5435 |    8522    14035    29513 |    15498    14976     47 |
|      5586 |    8623    14237    29917 |    17048    12837     49 |
> restarts              : 45
> decisions             : 13485  (0 % random)
> conflicts             : 5795
> propagations          : 852655
> conflict literals     : 1094302  (4.42877 % deleted)
> Current optimal value 534 after 6015 ms
|      5795 |    8709    14409    30261 |    18156    23949     45 |
> restarts              : 47
> decisions             : 13697  (0 % random)
> conflicts             : 5869
> propagations          : 876064
> conflict literals     : 1107209  (4.44592 % deleted)
> Current optimal value 533 after 6091 ms
|      5869 |    8792    14575    30593 |    15443    15643     47 |
|      5969 |    8876    14743    30929 |    16987    22375     44 |
|      6119 |    8952    14895    31233 |    18686    21057     43 |
|      6344 |    9011    15013    31469 |    20555    26248     42 |
> restarts              : 49
> decisions             : 15347  (0 % random)
> conflicts             : 6664
> propagations          : 992537
> conflict literals     : 1273493  (4.49244 % deleted)
> Current optimal value 531 after 6954 ms
|      6664 |    9162    15315    32073 |    15787    15934     46 |
> restarts              : 50
> decisions             : 15402  (0 % random)
> conflicts             : 6666
> propagations          : 1001892
> conflict literals     : 1273833  (4.49488 % deleted)
> Current optimal value 530 after 6965 ms
|      6666 |    9194    15379    32201 |    15842    16037     46 |
|      6767 |    9289    15569    32581 |    17426    10921     50 |
> restarts              : 53
> decisions             : 15915  (0 % random)
> conflicts             : 6895
> propagations          : 1053593
> conflict literals     : 1325616  (4.50299 % deleted)
> Current optimal value 529 after 7153 ms
|      6895 |    9349    15689    32821 |    16257    16970     46 |
|      6995 |    9422    15835    33113 |    17882    15014     46 |
> restarts              : 55
> decisions             : 16347  (0 % random)
> conflicts             : 7050
> propagations          : 1091722
> conflict literals     : 1371228  (4.46355 % deleted)
> Current optimal value 528 after 7327 ms
|      7050 |    9474    15939    33321 |    16641    17873     45 |
|      7151 |    9550    16091    33625 |    18305    14850     47 |
|      7302 |    9602    16195    33833 |    20136    12471     48 |
|      7529 |    9706    16403    34249 |    22149    22101     42 |
|      7867 |    9801    16593    34629 |    24364    23662     44 |
|      8374 |   10012    17015    35473 |    26801    31773     40 |
|      9134 |   10279    17549    36541 |    29481    21382     41 |
|     10273 |   10655    18301    38045 |    32429    31861     37 |
> restarts              : 64
> decisions             : 25236  (0 % random)
> conflicts             : 11137
> propagations          : 1693330
> conflict literals     : 2159250  (4.65515 % deleted)
> Current optimal value 523 after 12505 ms
|     11137 |   10787    18565    38573 |    20335    26330     40 |
> restarts              : 65
> decisions             : 25415  (0 % random)
> conflicts             : 11177
> propagations          : 1708703
> conflict literals     : 2164909  (4.66534 % deleted)
> Current optimal value 517 after 12537 ms
|     11177 |   10817    18625    38693 |    16256    14031     43 |
|     11277 |   10843    18677    38797 |    17881    20513     41 |
|     11427 |   10852    18695    38833 |    19669    17283     41 |
|     11652 |   10868    18727    38897 |    21636    29086     40 |
|     11989 |   10898    18787    39017 |    23800    31982     40 |
|     12495 |   10944    18879    39201 |    26180    34738     39 |
> restarts              : 66
> decisions             : 28731  (0 % random)
> conflicts             : 12871
> propagations          : 1903427
> conflict literals     : 2474627  (4.74067 % deleted)
> Current optimal value 512 after 14182 ms
|     12871 |   10957    18905    39253 |    23502    35489     39 |
|     12971 |   10992    18975    39393 |    25852    24733     41 |
|     13121 |   11004    18999    39441 |    28437    33974     40 |
|     13346 |   11032    19055    39553 |    31281    34958     38 |
> restarts              : 67
> decisions             : 30254  (0 % random)
> conflicts             : 13511
> propagations          : 1984984
> conflict literals     : 2592084  (4.75017 % deleted)
> Current optimal value 511 after 14953 ms
|     13511 |   11044    19079    39601 |    20074    25032     40 |
> restarts              : 68
> decisions             : 30338  (0 % random)
> conflicts             : 13521
> propagations          : 1997148
> conflict literals     : 2593642  (4.75176 % deleted)
> Current optimal value 499 after 14972 ms
|     13521 |   11070    19131    39705 |    15969    12666     45 |
> restarts              : 69
> decisions             : 30404  (0 % random)
> conflicts             : 13540
> propagations          : 2009950
> conflict literals     : 2596993  (4.75479 % deleted)
> Current optimal value 498 after 14991 ms
|     13540 |   11096    19183    39809 |    16208    13330     44 |
|     13640 |   11130    19251    39945 |    17829    18224     43 |
|     13791 |   11156    19303    40049 |    19612    17261     43 |
|     14016 |   11163    19317    40077 |    21573    30084     41 |
|     14356 |   11229    19449    40341 |    23730    14019     46 |
|     14865 |   11314    19619    40681 |    26103    29373     41 |
|     15626 |   11359    19709    40861 |    28714    26717     41 |
> restarts              : 79
> decisions             : 35484  (0 % random)
> conflicts             : 15937
> propagations          : 2384549
> conflict literals     : 3096338  (4.81253 % deleted)
> Current optimal value 496 after 17383 ms
|     15937 |   11374    19739    40921 |    23242    33877     39 |
> restarts              : 80
> decisions             : 35524  (0 % random)
> conflicts             : 15940
> propagations          : 2396048
> conflict literals     : 3096572  (4.81303 % deleted)
> Current optimal value 490 after 17400 ms
|     15940 |   11398    19787    41017 |    17641    17025     43 |
|     16040 |   11421    19833    41109 |    19405    21696     42 |
|     16191 |   11444    19879    41201 |    21346    19462     42 |
> restarts              : 83
> decisions             : 36455  (0 % random)
> conflicts             : 16316
> propagations          : 2473839
> conflict literals     : 3160804  (4.85266 % deleted)
> Current optimal value 488 after 17813 ms
|     16316 |   11478    19947    41337 |    16788    14305     43 |
> restarts              : 84
> decisions             : 36645  (0 % random)
> conflicts             : 16374
> propagations          : 2489684
> conflict literals     : 3167799  (4.86273 % deleted)
> Current optimal value 484 after 17878 ms
|     16374 |   11502    19995    41433 |    18050    18045     42 |
|     16475 |   11538    20067    41577 |    19855    13996     43 |
|     16625 |   11540    20071    41585 |    21841    23188     41 |
|     16851 |   11572    20135    41713 |    24025    22399     41 |
|     17190 |   11586    20163    41769 |    26427    29095     39 |
> restarts              : 91
> decisions             : 39091  (0 % random)
> conflicts             : 17384
> propagations          : 2680461
> conflict literals     : 3378701  (4.88917 % deleted)
> Current optimal value 479 after 19078 ms
|     17384 |   11617    20225    41893 |    19926    23441     42 |
|     17485 |   11660    20311    42065 |    21918    15776     45 |
|     17635 |   11663    20317    42077 |    24110    23550     43 |
|     17861 |   11702    20395    42233 |    26521    23107     41 |
|     18198 |   11737    20465    42373 |    29173    34933     39 |
|     18705 |   11816    20623    42689 |    32091    26780     38 |
|     19464 |   11914    20819    43081 |    35300    35538     38 |
|     20607 |   12181    21353    44149 |    38830    18712     38 |
|     22325 |   12587    22165    45773 |    42713    36991     36 |
|     24898 |   12965    22921    47285 |    46984    44553     36 |
|     28749 |   13365    23720    48883 |    51682    47300     34 |
|     34516 |   13635    24260    49963 |    56851    49531     35 |
> restarts              : 131
> decisions             : 88624  (0 % random)
> conflicts             : 38055
> propagations          : 5645179
> conflict literals     : 6862282  (7.18039 % deleted)
> Current optimal value 477 after 49119 ms
|     38055 |   13866    24722    50887 |    26507    38687     35 |
> restarts              : 132
> decisions             : 88817  (0 % random)
> conflicts             : 38100
> propagations          : 5664149
> conflict literals     : 6868981  (7.18874 % deleted)
> Current optimal value 473 after 49181 ms
|     38100 |   13884    24758    50959 |    20966    22029     36 |
> restarts              : 133
> decisions             : 88948  (0 % random)
> conflicts             : 38153
> propagations          : 5682802
> conflict literals     : 6877090  (7.19742 % deleted)
> Current optimal value 471 after 49238 ms
|     38153 |   13899    24788    51019 |    18210    13732     38 |
|     38254 |   13934    24858    51159 |    20031    20418     37 |
|     38404 |   13934    24858    51159 |    22034    30671     37 |
|     38630 |   13949    24888    51219 |    24238    13782     38 |
|     38969 |   13984    24958    51359 |    26662    34363     37 |
|     39479 |   14052    25094    51631 |    29328    21121     38 |
|     40239 |   14067    25124    51691 |    32261    26046     38 |
|     41384 |   14217    25424    52291 |    35487    29292     38 |
> restarts              : 155
> decisions             : 97841  (0 % random)
> conflicts             : 42328
> propagations          : 6438159
> conflict literals     : 7717718  (7.61085 % deleted)
> Current optimal value 468 after 53796 ms
|     42328 |   14322    25634    52711 |    20420    19516     43 |
|     42429 |   14355    25700    52843 |    22462    13031     45 |
|     42579 |   14355    25700    52843 |    24709    18948     43 |
|     42805 |   14369    25728    52899 |    27179    15487     45 |
> restarts              : 158
> decisions             : 99019  (0 % random)
> conflicts             : 42930
> propagations          : 6539441
> conflict literals     : 7869874  (7.61486 % deleted)
> Current optimal value 465 after 54289 ms
|     42930 |   14369    25728    52899 |    20783    20510     44 |
|     43030 |   14387    25764    52971 |    22861    24921     43 |
|     43180 |   14387    25764    52971 |    25147    33551     42 |
|     43405 |   14388    25766    52975 |    27662    29520     41 |
> restarts              : 160
> decisions             : 100604  (0 % random)
> conflicts             : 43634
> propagations          : 6645250
> conflict literals     : 8012335  (7.65495 % deleted)
> Current optimal value 464 after 55022 ms
|     43634 |   14545    26080    53603 |    21740    23030     41 |
> restarts              : 161
> decisions             : 100787  (0 % random)
> conflicts             : 43683
> propagations          : 6663792
> conflict literals     : 8022300  (7.6556 % deleted)
> Current optimal value 461 after 55084 ms
|     43683 |   14624    26238    53919 |    18724    13824     45 |
|     43784 |   14654    26298    54039 |    20597    18357     43 |
|     43936 |   14680    26350    54143 |    22656    12761     45 |
|     44162 |   14699    26388    54219 |    24922    23777     41 |
|     44499 |   14701    26392    54227 |    27414    26516     39 |
|     45010 |   14777    26544    54531 |    30156    20517     43 |
|     45772 |   14842    26674    54791 |    33171    23296     39 |
|     46915 |   14903    26796    55035 |    36489    22845     41 |
> restarts              : 181
> decisions             : 108044  (0 % random)
> conflicts             : 47425
> propagations          : 7346882
> conflict literals     : 8840234  (7.91466 % deleted)
> Current optimal value 459 after 58750 ms
|     47425 |   14949    26888    55219 |    28524    42574     40 |
|     47525 |   14972    26934    55311 |    31377    25336     43 |
|     47675 |   14972    26934    55311 |    34514    32283     42 |
|     47902 |   15009    27008    55459 |    37966    25740     41 |
|     48242 |   15063    27116    55675 |    41762    20839     41 |
|     48749 |   15075    27140    55723 |    45939    43760     40 |
|     49509 |   15092    27174    55791 |    50533    33847     37 |
|     50649 |   15107    27204    55851 |    55586    60636     38 |
> restarts              : 191
> decisions             : 115149  (0 % random)
> conflicts             : 51476
> propagations          : 7904812
> conflict literals     : 9583571  (8.40441 % deleted)
> Current optimal value 455 after 62215 ms
|     51476 |   15130    27250    55943 |    36667    66640     38 |
|     51576 |   15148    27286    56015 |    40334    36353     39 |
|     51726 |   15148    27286    56015 |    44367    40677     39 |
> restarts              : 192
> decisions             : 115785  (0 % random)
> conflicts             : 51871
> propagations          : 7953867
> conflict literals     : 9660316  (8.44249 % deleted)
> Current optimal value 448 after 62441 ms
|     51871 |   15148    27286    56015 |    29481    45045     39 |
|     51971 |   15169    27328    56099 |    32429    29659     41 |
|     52121 |   15169    27328    56099 |    35672    39861     40 |
> restarts              : 193
> decisions             : 116383  (0 % random)
> conflicts             : 52254
> propagations          : 8011893
> conflict literals     : 9730427  (8.48316 % deleted)
> Current optimal value 445 after 62847 ms
|     52254 |   15169    27328    56099 |    30866    49160     39 |
|     52354 |   15188    27366    56175 |    33953    31250     39 |
> restarts              : 194
> decisions             : 116579  (0 % random)
> conflicts             : 52360
> propagations          : 8038521
> conflict literals     : 9751081  (8.49335 % deleted)
> Current optimal value 443 after 62964 ms
|     52360 |   15188    27366    56175 |    24968    31426     39 |
|     52460 |   15201    27392    56227 |    27464    20760     41 |
|     52610 |   15201    27392    56227 |    30211    25623     41 |
> restarts              : 195
> decisions             : 117150  (0 % random)
> conflicts             : 52748
> propagations          : 8091114
> conflict literals     : 9837098  (8.52764 % deleted)
> Current optimal value 440 after 63231 ms
|     52748 |   15201    27392    56227 |    25066    31694     41 |
|     52848 |   15217    27424    56291 |    27572    19276     43 |
> restarts              : 196
> decisions             : 117506  (0 % random)
> conflicts             : 52970
> propagations          : 8127462
> conflict literals     : 9880668  (8.55249 % deleted)
> Current optimal value 439 after 63420 ms
|     52970 |   15217    27424    56291 |    23657    27437     41 |
> restarts              : 197
> decisions             : 117666  (0 % random)
> conflicts             : 53057
> propagations          : 8151453
> conflict literals     : 9895825  (8.56939 % deleted)
> Current optimal value 436 after 63488 ms
|     53057 |   15237    27464    56371 |    20177    16957     42 |
|     53157 |   15258    27506    56455 |    22195    22282     41 |
|     53307 |   15258    27506    56455 |    24414    29887     40 |
> restarts              : 198
> decisions             : 118192  (0 % random)
> conflicts             : 53422
> propagations          : 8203266
> conflict literals     : 9958909  (8.62702 % deleted)
> Current optimal value 435 after 63820 ms
|     53422 |   15258    27506    56455 |    27539    39001     39 |
> restarts              : 199
> decisions             : 118332  (0 % random)
> conflicts             : 53480
> propagations          : 8225156
> conflict literals     : 9969975  (8.63607 % deleted)
> Current optimal value 430 after 63866 ms
|     53480 |   15279    27548    56539 |    21521    20903     41 |
|     53580 |   15292    27574    56591 |    23673    24807     41 |
|     53730 |   15292    27574    56591 |    26040    35071     40 |
|     53955 |   15292    27574    56591 |    28644    29514     38 |
|     54292 |   15292    27574    56591 |    31508    34910     37 |
> restarts              : 200
> decisions             : 119659  (0 % random)
> conflicts             : 54325
> propagations          : 8333016
> conflict literals     : 10134517  (8.73117 % deleted)
> Current optimal value 426 after 64762 ms
|     54325 |   15292    27574    56591 |    26934    37118     37 |
> restarts              : 201
> decisions             : 119768  (0 % random)
> conflicts             : 54371
> propagations          : 8352583
> conflict literals     : 10143995  (8.73875 % deleted)
> Current optimal value 424 after 64809 ms
|     54371 |   15306    27602    56647 |    21261    20071     40 |
> restarts              : 203
> decisions             : 119894  (0 % random)
> conflicts             : 54408
> propagations          : 8385996
> conflict literals     : 10150086  (8.74562 % deleted)
> Current optimal value 421 after 64851 ms
|     54408 |   15340    27670    56783 |    21726    21396     40 |
|     54509 |   15364    27718    56879 |    23898    13056     42 |
|     54659 |   15364    27718    56879 |    26288    21252     40 |
|     54884 |   15364    27718    56879 |    28917    36144     38 |
|     55222 |   15380    27750    56943 |    31809    43080     37 |
|     55729 |   15399    27788    57019 |    34989    32811     37 |
|     56493 |   15600    28190    57823 |    38488    39100     38 |
> restarts              : 217
> decisions             : 125315  (0 % random)
> conflicts             : 57343
> propagations          : 8910306
> conflict literals     : 10801732  (8.93873 % deleted)
> Current optimal value 419 after 67827 ms
|     57343 |   15688    28366    58175 |    22602    23329     41 |
> restarts              : 218
> decisions             : 125375  (0 % random)
> conflicts             : 57355
> propagations          : 8927289
> conflict literals     : 10803854  (8.94071 % deleted)
> Current optimal value 417 after 67854 ms
|     57355 |   15702    28394    58231 |    19008    12518     46 |
|     57456 |   15733    28456    58355 |    20908    16746     44 |
|     57606 |   15733    28456    58355 |    22999    25972     41 |
|     57832 |   15753    28495    58433 |    25299    19051     41 |
|     58169 |   15754    28497    58437 |    27829    40600     38 |
|     58676 |   15766    28521    58485 |    30612    32425     37 |
|     59435 |   15766    28521    58485 |    33673    41236     39 |
> restarts              : 222
> decisions             : 130059  (0 % random)
> conflicts             : 59935
> propagations          : 9241080
> conflict literals     : 11324480  (9.16144 % deleted)
> Current optimal value 415 after 69994 ms
|     59935 |   15766    28521    58485 |    26439    34684     40 |
|     60035 |   15783    28555    58553 |    29082    23848     41 |
|     60185 |   15783    28555    58553 |    31991    36880     39 |
|     60412 |   15813    28615    58673 |    35190    34665     37 |
|     60752 |   15849    28687    58817 |    38709    28824     39 |
|     61259 |   15866    28721    58885 |    42580    28892     39 |
|     62024 |   15942    28873    59189 |    46838    40606     42 |
> restarts              : 236
> decisions             : 134500  (0 % random)
> conflicts             : 62172
> propagations          : 9681313
> conflict literals     : 11871033  (9.25228 % deleted)
> Current optimal value 414 after 72060 ms
|     62172 |   15984    28957    59357 |    31389    49099     41 |
|     62272 |   16000    28989    59421 |    34528    28403     43 |
|     62422 |   16000    28989    59421 |    37981    35605     42 |
|     62649 |   16039    29067    59577 |    41779    29026     42 |
|     62988 |   16071    29131    59705 |    45957    44486     41 |
|     63497 |   16115    29219    59881 |    50552    46967     40 |
|     64261 |   16173    29335    60113 |    55608    41662     37 |
|     65403 |   16194    29377    60197 |    61168    42921     37 |
|     67112 |   16203    29395    60233 |    67285    76658     36 |
|     69675 |   16225    29439    60321 |    74014    45903     35 |
|     73520 |   16236    29461    60365 |    81415    67119     38 |
> restarts              : 255
> decisions             : 160718  (0 % random)
> conflicts             : 76643
> propagations          : 11491031
> conflict literals     : 14667713  (10.1565 % deleted)
> Current optimal value 412 after 86535 ms
|     76643 |   16244    29477    60397 |    32487    51873     36 |
|     76743 |   16255    29499    60441 |    35736    31118     38 |
|     76893 |   16255    29499    60441 |    39309    37912     38 |
|     77121 |   16294    29577    60597 |    43240    27501     38 |
|     77460 |   16322    29633    60709 |    47564    28445     37 |
|     77968 |   16348    29685    60813 |    52321    34497     37 |
|     78733 |   16462    29913    61269 |    57553    47181     38 |
> restarts              : 270
> decisions             : 166149  (0 % random)
> conflicts             : 79290
> propagations          : 12003773
> conflict literals     : 15103656  (10.2606 % deleted)
> Current optimal value 410 after 89032 ms
|     79290 |   16472    29933    61309 |    27739    37173     38 |
> restarts              : 271
> decisions             : 166200  (0 % random)
> conflicts             : 79297
> propagations          : 12020758
> conflict literals     : 15104570  (10.261 % deleted)
> Current optimal value 407 after 89055 ms
|     79297 |   16486    29961    61365 |    21618    18783     39 |
|     79398 |   16522    30033    61509 |    23780    21255     39 |
|     79549 |   16545    30079    61601 |    26158    29471     39 |
|     79776 |   16575    30139    61721 |    28774    22874     39 |
> restarts              : 278
> decisions             : 167969  (0 % random)
> conflicts             : 80112
> propagations          : 12214656
> conflict literals     : 15249049  (10.266 % deleted)
> Current optimal value 406 after 89785 ms
|     80112 |   16597    30183    61809 |    23458    24080     39 |
|     80212 |   16612    30213    61869 |    25804    16592     40 |
> restarts              : 279
> decisions             : 168372  (0 % random)
> conflicts             : 80339
> propagations          : 12252562
> conflict literals     : 15283105  (10.274 % deleted)
> Current optimal value 402 after 89960 ms
|     80339 |   16612    30213    61869 |    23087    22936     39 |
> restarts              : 280
> decisions             : 168441  (0 % random)
> conflicts             : 80340
> propagations          : 12269241
> conflict literals     : 15283197  (10.2741 % deleted)
> Current optimal value 397 after 89975 ms
|     80340 |   16655    30299    62041 |    23149    23036     39 |
|     80441 |   16746    30481    62405 |    25463    15851     39 |
|     80592 |   16762    30513    62469 |    28010    27330     38 |
|     80819 |   16788    30565    62573 |    30811    21969     38 |
|     81156 |   16788    30565    62573 |    33892    39037     38 |
> restarts              : 286
> decisions             : 170448  (0 % random)
> conflicts             : 81357
> propagations          : 12464593
> conflict literals     : 15475146  (10.3125 % deleted)
> Current optimal value 393 after 90884 ms
|     81357 |   16801    30591    62625 |    23553    23956     40 |
> restarts              : 287
> decisions             : 170493  (0 % random)
> conflicts             : 81358
> propagations          : 12481416
> conflict literals     : 15475281  (10.3126 % deleted)
> Current optimal value 392 after 90902 ms
|     81358 |   16816    30621    62685 |    19618    12121     43 |
|     81458 |   16864    30717    62877 |    21579    17271     41 |
|     81608 |   16864    30717    62877 |    23737    26105     40 |
|     81833 |   16864    30717    62877 |    26111    39903     39 |
|     82172 |   16886    30761    62965 |    28722    27688     38 |
|     82681 |   16919    30827    63097 |    31594    33185     36 |
|     83444 |   16971    30931    63305 |    34754    27627     37 |
|     84588 |   17017    31023    63489 |    38229    42640     37 |
|     86304 |   17153    31295    64033 |    42052    24878     38 |
|     88874 |   17240    31469    64381 |    46258    53089     38 |
|     92719 |   17251    31491    64425 |    50884    62142     39 |
> restarts              : 342
> decisions             : 201129  (0 % random)
> conflicts             : 97571
> propagations          : 15142599
> conflict literals     : 18699525  (10.6405 % deleted)
> Current optimal value 388 after 107667 ms
|     97571 |   17599    32187    65817 |    34134    54104     38 |
|     97672 |   17621    32231    65905 |    37547    31218     38 |
|     97823 |   17632    32253    65949 |    41302    21985     38 |
> restarts              : 347
> decisions             : 202163  (0 % random)
> conflicts             : 98015
> propagations          : 15273553
> conflict literals     : 18784216  (10.6524 % deleted)
> Current optimal value 382 after 108116 ms
|     98015 |   17656    32301    66045 |    26507    31109     38 |
> restarts              : 348
> decisions             : 202339  (0 % random)
> conflicts             : 98108
> propagations          : 15298502
> conflict literals     : 18801395  (10.6602 % deleted)
> Current optimal value 379 after 108197 ms
|     98108 |   17664    32317    66077 |    22704    19685     39 |
|     98209 |   17684    32357    66157 |    24975    12826     39 |
|     98359 |   17684    32357    66157 |    27472    20732     39 |
|     98584 |   17684    32357    66157 |    30219    38008     37 |
> restarts              : 350
> decisions             : 203603  (0 % random)
> conflicts             : 98842
> propagations          : 15405463
> conflict literals     : 18923521  (10.6844 % deleted)
> Current optimal value 375 after 108858 ms
|     98842 |   17684    32357    66157 |    24193    24111     38 |
|     98942 |   17693    32375    66193 |    26612    29054     38 |
|     99092 |   17693    32375    66193 |    29273    36696     38 |
|     99317 |   17693    32375    66193 |    32201    46611     38 |
|     99654 |   17693    32375    66193 |    35421    44634     36 |
> restarts              : 352
> decisions             : 205363  (0 % random)
> conflicts             : 99832
> propagations          : 15540219
> conflict literals     : 19065514  (10.7226 % deleted)
> Current optimal value 373 after 109797 ms
|     99832 |   17703    32395    66233 |    26869    32102     35 |
|     99933 |   17726    32441    66325 |    29556    19464     36 |
|    100084 |   17726    32441    66325 |    32512    25393     36 |
|    100311 |   17753    32495    66433 |    35763    20129     36 |
|    100648 |   17753    32495    66433 |    39339    48305     35 |
|    101158 |   17789    32567    66577 |    43273    25315     34 |
|    101921 |   17822    32633    66709 |    47601    25661     36 |
|    103063 |   17853    32695    66833 |    52361    47539     35 |
|    104782 |   17973    32935    67313 |    57597    36466     35 |
|    107346 |   17988    32965    67373 |    63357    54218     36 |
> restarts              : 382
> decisions             : 222805  (0 % random)
> conflicts             : 108708
> propagations          : 16987301
> conflict literals     : 20618302  (11.0945 % deleted)
> Current optimal value 372 after 118805 ms
|    108708 |   17995    32979    67401 |    42787    79271     37 |
|    108808 |   18001    32991    67425 |    47066    41922     38 |
|    108958 |   18001    32991    67425 |    51772    46479     38 |
|    109183 |   18001    32991    67425 |    56949    60233     37 |
|    109520 |   18001    32991    67425 |    62644    43485     37 |
|    110026 |   18001    32991    67425 |    68909    75105     36 |
|    110786 |   18014    33017    67477 |    75800    47463     35 |
> restarts              : 385
> decisions             : 226604  (0 % random)
> conflicts             : 110806
> propagations          : 17258744
> conflict literals     : 20995834  (11.1997 % deleted)
> Current optimal value 371 after 120910 ms
|    110806 |   18018    33025    67493 |    32437    48176     35 |
|    110907 |   18039    33067    67577 |    35681    27265     36 |
> restarts              : 387
> decisions             : 226887  (0 % random)
> conflicts             : 110961
> propagations          : 17308037
> conflict literals     : 21021702  (11.2118 % deleted)
> Current optimal value 370 after 121026 ms
|    110961 |   18039    33067    67577 |    26213    29462     36 |
|    111062 |   18054    33097    67637 |    28835    18313     37 |
|    111213 |   18063    33115    67673 |    31718    26522     37 |
|    111438 |   18063    33115    67673 |    34890    36352     37 |
|    111777 |   18082    33153    67749 |    38379    26245     38 |
|    112287 |   18117    33223    67889 |    42217    41269     36 |
> restarts              : 397
> decisions             : 230457  (0 % random)
> conflicts             : 112773
> propagations          : 17651919
> conflict literals     : 21320146  (11.2674 % deleted)
> Current optimal value 369 after 122518 ms
|    112773 |   18126    33241    67925 |    29328    38632     37 |
> restarts              : 398
> decisions             : 230505  (0 % random)
> conflicts             : 112778
> propagations          : 17670489
> conflict literals     : 21320919  (11.2679 % deleted)
> Current optimal value 368 after 122540 ms
|    112778 |   18139    33267    67977 |    22992    19597     37 |
|    112879 |   18160    33309    68061 |    25291    24193     37 |
> restarts              : 401
> decisions             : 230835  (0 % random)
> conflicts             : 112914
> propagations          : 17733959
> conflict literals     : 21342256  (11.2724 % deleted)
> Current optimal value 367 after 122652 ms
|    112914 |   18176    33341    68125 |    24758    24823     37 |
|    113014 |   18183    33355    68153 |    27234    30540     37 |
|    113165 |   18198    33385    68213 |    29957    20024     36 |
> restarts              : 404
> decisions             : 231738  (0 % random)
> conflicts             : 113388
> propagations          : 17830753
> conflict literals     : 21422550  (11.2862 % deleted)
> Current optimal value 365 after 123035 ms
|    113388 |   18198    33385    68213 |    26540    30123     37 |
> restarts              : 406
> decisions             : 231882  (0 % random)
> conflicts             : 113418
> propagations          : 17869316
> conflict literals     : 21428395  (11.2871 % deleted)
> Current optimal value 364 after 123077 ms
|    113418 |   18220    33429    68301 |    21800    15861     37 |
|    113519 |   18239    33467    68377 |    23980    20184     37 |
|    113669 |   18239    33467    68377 |    26378    29895     37 |
|    113896 |   18239    33467    68377 |    29016    24061     37 |
|    114235 |   18239    33467    68377 |    31918    26344     37 |
|    114742 |   18249    33487    68417 |    35110    37213     36 |
|    115502 |   18260    33509    68461 |    38621    35138     36 |
|    116641 |   18260    33509    68461 |    42483    47961     37 |
> restarts              : 422
> decisions             : 241054  (0 % random)
> conflicts             : 118122
> propagations          : 18608499
> conflict literals     : 22230321  (11.4606 % deleted)
> Current optimal value 363 after 127438 ms
|    118122 |   18343    33675    68793 |    25131    25607     34 |
> restarts              : 423
> decisions             : 241232  (0 % random)
> conflicts             : 118194
> propagations          : 18632775
> conflict literals     : 22240738  (11.4639 % deleted)
> Current optimal value 357 after 127503 ms
|    118194 |   18352    33693    68829 |    21934    15999     35 |
> restarts              : 425
> decisions             : 241320  (0 % random)
> conflicts             : 118207
> propagations          : 18670388
> conflict literals     : 22242838  (11.4651 % deleted)
> Current optimal value 356 after 127535 ms
|    118207 |   18375    33739    68921 |    22145    16585     35 |
|    118308 |   18388    33765    68973 |    24359    20925     36 |
|    118458 |   18388    33765    68973 |    26795    27087     36 |
|    118684 |   18399    33787    69017 |    29475    27313     35 |
|    119022 |   18411    33811    69065 |    32422    22402     36 |
> restarts              : 429
> decisions             : 242883  (0 % random)
> conflicts             : 119033
> propagations          : 18811424
> conflict literals     : 22371318  (11.5026 % deleted)
> Current optimal value 353 after 128195 ms
|    119033 |   18411    33811    69065 |    24171    22591     36 |
> restarts              : 430
> decisions             : 242977  (0 % random)
> conflicts             : 119069
> propagations          : 18832370
> conflict literals     : 22378288  (11.504 % deleted)
> Current optimal value 351 after 128222 ms
|    119069 |   18422    33833    69109 |    24465    23450     37 |
> restarts              : 431
> decisions             : 243080  (0 % random)
> conflicts             : 119114
> propagations          : 18853861
> conflict literals     : 22384167  (11.5085 % deleted)
> Current optimal value 350 after 128264 ms
|    119114 |   18434    33857    69157 |    25085    25288     37 |
|    119214 |   18453    33895    69233 |    27594    29743     37 |
|    119364 |   18453    33895    69233 |    30353    37100     37 |
|    119589 |   18453    33895    69233 |    33389    27278     36 |
|    119929 |   18502    33993    69429 |    36727    28050     35 |
|    120436 |   18514    34017    69477 |    40400    49517     34 |
|    121201 |   18604    34197    69837 |    44440    41295     35 |
|    122342 |   18615    34219    69881 |    48884    51959     36 |
|    124051 |   18623    34235    69913 |    53773    33954     34 |
|    126614 |   18628    34245    69933 |    59150    59412     34 |
> restarts              : 451
> decisions             : 260478  (0 % random)
> conflicts             : 127847
> propagations          : 19994946
> conflict literals     : 23727823  (11.806 % deleted)
> Current optimal value 348 after 136066 ms
|    127847 |   18695    34379    70201 |    28961    36392     36 |
> restarts              : 452
> decisions             : 260538  (0 % random)
> conflicts             : 127857
> propagations          : 20014487
> conflict literals     : 23730540  (11.8055 % deleted)
> Current optimal value 347 after 136092 ms
|    127857 |   18707    34403    70249 |    23105    18801     35 |
|    127958 |   18729    34447    70337 |    25415    23430     36 |
|    128110 |   18752    34493    70429 |    27957    15618     35 |
> restarts              : 456
> decisions             : 261165  (0 % random)
> conflicts             : 128158
> propagations          : 20111311
> conflict literals     : 23783835  (11.8169 % deleted)
> Current optimal value 345 after 136315 ms
|    128158 |   18752    34493    70429 |    22629    17283     36 |
|    128258 |   18775    34539    70521 |    24892    20294     36 |
|    128410 |   18801    34591    70625 |    27381    13559     35 |
|    128636 |   18816    34621    70685 |    30119    18426     37 |
|    128973 |   18816    34621    70685 |    33131    30247     38 |
|    129480 |   18826    34641    70725 |    36444    50118     38 |
|    130243 |   18874    34737    70917 |    40089    22014     36 |
> restarts              : 469
> decisions             : 266777  (0 % random)
> conflicts             : 131037
> propagations          : 20574932
> conflict literals     : 24266545  (11.9723 % deleted)
> Current optimal value 344 after 138512 ms
|    131037 |   18911    34811    71065 |    25053    24237     35 |
> restarts              : 470
> decisions             : 266824  (0 % random)
> conflicts             : 131041
> propagations          : 20594153
> conflict literals     : 24267121  (11.9729 % deleted)
> Current optimal value 342 after 138526 ms
|    131041 |   18919    34827    71097 |    25096    24351     35 |
|    131142 |   18931    34851    71145 |    27606    14366     36 |
|    131293 |   18940    34869    71181 |    30366    21208     36 |
|    131520 |   18958    34905    71253 |    33403    16580     35 |
|    131857 |   18958    34905    71253 |    36744    32441     36 |
> restarts              : 476
> decisions             : 268458  (0 % random)
> conflicts             : 131901
> propagations          : 20777458
> conflict literals     : 24412009  (12.023 % deleted)
> Current optimal value 341 after 139206 ms
|    131901 |   18965    34919    71281 |    28481    34414     36 |
> restarts              : 477
> decisions             : 268534  (0 % random)
> conflicts             : 131932
> propagations          : 20798278
> conflict literals     : 24416302  (12.0252 % deleted)
> Current optimal value 340 after 139239 ms
|    131932 |   18973    34935    71313 |    23105    18269     36 |
|    132032 |   18983    34955    71353 |    25415    22843     37 |
> restarts              : 478
> decisions             : 268764  (0 % random)
> conflicts             : 132045
> propagations          : 20825838
> conflict literals     : 24432188  (12.0343 % deleted)
> Current optimal value 339 after 139327 ms
|    132045 |   18983    34955    71353 |    24808    23359     37 |
|    132145 |   18996    34981    71405 |    27289    28694     36 |
|    132295 |   18996    34981    71405 |    30018    38496     36 |
|    132520 |   18996    34981    71405 |    33020    33249     34 |
|    132858 |   19002    34993    71429 |    36322    28593     35 |
|    133368 |   19037    35063    71569 |    39954    27435     34 |
|    134131 |   19070    35129    71701 |    43950    33281     35 |
> restarts              : 490
> decisions             : 274140  (0 % random)
> conflicts             : 134355
> propagations          : 21262043
> conflict literals     : 24819597  (12.0868 % deleted)
> Current optimal value 335 after 141816 ms
|    134355 |   19091    35171    71785 |    32009    44746     35 |
|    134455 |   19100    35189    71821 |    35210    27519     36 |
|    134606 |   19112    35213    71869 |    38731    35746     36 |
|    134831 |   19112    35213    71869 |    42604    49772     36 |
> restarts              : 492
> decisions             : 275364  (0 % random)
> conflicts             : 135053
> propagations          : 21365606
> conflict literals     : 24913668  (12.1142 % deleted)
> Current optimal value 331 after 142389 ms
|    135053 |   19112    35213    71869 |    36506    58194     36 |
|    135153 |   19116    35221    71885 |    40156    33846     36 |
|    135304 |   19125    35239    71921 |    44172    21193     35 |
> restarts              : 495
> decisions             : 276130  (0 % random)
> conflicts             : 135405
> propagations          : 21454492
> conflict literals     : 24975199  (12.118 % deleted)
> Current optimal value 330 after 142728 ms
|    135405 |   19137    35263    71969 |    26110    26955     36 |
> restarts              : 496
> decisions             : 276207  (0 % random)
> conflicts             : 135428
> propagations          : 21475267
> conflict literals     : 24978955  (12.1192 % deleted)
> Current optimal value 328 after 142756 ms
|    135428 |   19150    35289    72021 |    21865    14194     35 |
|    135528 |   19159    35307    72057 |    24051    24286     34 |
|    135679 |   19164    35317    72077 |    26456    20475     34 |
|    135905 |   19174    35337    72117 |    29102    19047     35 |
|    136243 |   19177    35343    72129 |    32012    24442     33 |
|    136753 |   19208    35405    72253 |    35213    31169     36 |
> restarts              : 506
> decisions             : 280236  (0 % random)
> conflicts             : 137209
> propagations          : 21834241
> conflict literals     : 25252751  (12.1739 % deleted)
> Current optimal value 326 after 144594 ms
|    137209 |   19222    35433    72309 |    29273    36274     35 |
|    137309 |   19233    35455    72353 |    32200    20808     35 |
|    137460 |   19242    35473    72389 |    35420    30040     36 |
|    137685 |   19242    35473    72389 |    38962    49927     35 |
|    138022 |   19242    35473    72389 |    42858    37214     34 |
|    138528 |   19242    35473    72389 |    47144    33015     33 |
|    139288 |   19251    35491    72425 |    51858    38820     35 |
|    140427 |   19252    35493    72429 |    57044    62320     35 |
> restarts              : 509
> decisions             : 288843  (0 % random)
> conflicts             : 141491
> propagations          : 22267569
> conflict literals     : 25859213  (12.3587 % deleted)
> Current optimal value 325 after 148333 ms
|    141491 |   19254    35497    72437 |    36422    57659     35 |
> restarts              : 510
> decisions             : 288886  (0 % random)
> conflicts             : 141492
> propagations          : 22286872
> conflict literals     : 25859349  (12.3589 % deleted)
> Current optimal value 324 after 148357 ms
|    141492 |   19265    35519    72481 |    26868    28973     34 |
|    141592 |   19275    35539    72521 |    29554    17623     35 |
|    141742 |   19275    35539    72521 |    32510    24414     36 |
> restarts              : 511
> decisions             : 289508  (0 % random)
> conflicts             : 141855
> propagations          : 22332443
> conflict literals     : 25927503  (12.375 % deleted)
> Current optimal value 323 after 148598 ms
|    141855 |   19275    35539    72521 |    26858    28925     36 |
|    141955 |   19281    35551    72545 |    29544    20058     35 |
|    142105 |   19281    35551    72545 |    32498    29087     35 |
|    142332 |   19297    35583    72609 |    35748    19036     35 |
|    142671 |   19321    35631    72705 |    39323    33463     36 |
|    143180 |   19372    35733    72909 |    43256    38236     35 |
|    143944 |   19405    35799    73041 |    47581    38113     34 |
> restarts              : 526
> decisions             : 294964  (0 % random)
> conflicts             : 144317
> propagations          : 22826039
> conflict literals     : 26285152  (12.4806 % deleted)
> Current optimal value 322 after 150906 ms
|    144317 |   19423    35835    73113 |    29110    35384     33 |
|    144417 |   19432    35853    73149 |    32021    25899     33 |
|    144567 |   19432    35853    73149 |    35223    41895     33 |
|    144794 |   19442    35873    73189 |    38745    34061     34 |
> restarts              : 530
> decisions             : 296203  (0 % random)
> conflicts             : 144868
> propagations          : 22966010
> conflict literals     : 26375736  (12.4858 % deleted)
> Current optimal value 321 after 151570 ms
|    144868 |   19449    35887    73217 |    29799    37400     34 |
|    144968 |   19455    35899    73241 |    32779    23049     35 |
|    145120 |   19476    35941    73325 |    36057    29704     36 |
> restarts              : 533
> decisions             : 296761  (0 % random)
> conflicts             : 145130
> propagations          : 23052132
> conflict literals     : 26422737  (12.4925 % deleted)
> Current optimal value 320 after 151787 ms
|    145130 |   19476    35941    73325 |    27366    30047     36 |
|    145230 |   19486    35961    73365 |    30103    18327     36 |
> restarts              : 535
> decisions             : 297120  (0 % random)
> conflicts             : 145306
> propagations          : 23107417
> conflict literals     : 26450962  (12.5007 % deleted)
> Current optimal value 316 after 151922 ms
|    145306 |   19495    35979    73401 |    24691    21983     37 |
|    145407 |   19512    36013    73469 |    27160    13168     36 |
|    145557 |   19512    36013    73469 |    29876    19300     37 |
|    145784 |   19529    36047    73537 |    32864    17928     35 |
|    146123 |   19540    36069    73581 |    36150    41171     35 |
> restarts              : 541
> decisions             : 299037  (0 % random)
> conflicts             : 146247
> propagations          : 23325206
> conflict literals     : 26598710  (12.5156 % deleted)
> Current optimal value 315 after 152779 ms
|    146247 |   19540    36069    73581 |    32347    44862     35 |
> restarts              : 542
> decisions             : 299149  (0 % random)
> conflicts             : 146286
> propagations          : 23347545
> conflict literals     : 26606044  (12.5167 % deleted)
> Current optimal value 313 after 152822 ms
|    146286 |   19545    36079    73601 |    25364    23902     35 |
> restarts              : 543
> decisions             : 299293  (0 % random)
> conflicts             : 146335
> propagations          : 23371248
> conflict literals     : 26615117  (12.5192 % deleted)
> Current optimal value 311 after 152855 ms
|    146335 |   19579    36147    73737 |    25699    24838     35 |
|    146436 |   19592    36173    73789 |    28268    14538     36 |
|    146587 |   19599    36187    73817 |    31095    21693     36 |
|    146814 |   19610    36209    73861 |    34205    18103     33 |
> restarts              : 549
> decisions             : 300608  (0 % random)
> conflicts             : 146935
> propagations          : 23539842
> conflict literals     : 26705994  (12.5415 % deleted)
> Current optimal value 305 after 153372 ms
|    146935 |   19625    36239    73921 |    24694    21731     34 |
|    147035 |   19636    36261    73965 |    27163    27116     35 |
|    147186 |   19646    36281    74005 |    29879    17623     35 |
|    147413 |   19663    36315    74073 |    32867    31475     36 |
> restarts              : 553
> decisions             : 301777  (0 % random)
> conflicts             : 147470
> propagations          : 23668930
> conflict literals     : 26782236  (12.5546 % deleted)
> Current optimal value 304 after 153834 ms
|    147470 |   19663    36315    74073 |    28832    34069     36 |
|    147571 |   19676    36341    74125 |    31715    22947     34 |
> restarts              : 556
> decisions             : 302322  (0 % random)
> conflicts             : 147665
> propagations          : 23744626
> conflict literals     : 26813392  (12.5574 % deleted)
> Current optimal value 302 after 154016 ms
|    147665 |   19680    36349    74141 |    26304    26452     35 |
|    147765 |   19685    36359    74161 |    28934    29217     35 |
|    147916 |   19695    36379    74201 |    31828    22090     35 |
|    148141 |   19695    36379    74201 |    35011    45065     34 |
> restarts              : 558
> decisions             : 304189  (0 % random)
> conflicts             : 148473
> propagations          : 23869902
> conflict literals     : 26924036  (12.5857 % deleted)
> Current optimal value 300 after 154977 ms
|    148473 |   19695    36379    74201 |    32564    45203     33 |
|    148573 |   19706    36401    74245 |    35821    24450     33 |
|    148725 |   19720    36429    74301 |    39403    33384     34 |
|    148951 |   19730    36449    74341 |    43343    25434     33 |
|    149290 |   19745    36479    74401 |    47677    54167     34 |
> restarts              : 565
> decisions             : 306862  (0 % random)
> conflicts             : 149580
> propagations          : 24120178
> conflict literals     : 27093376  (12.6195 % deleted)
> Current optimal value 298 after 156363 ms
|    149580 |   19757    36503    74449 |    36869    57994     33 |
|    149680 |   19769    36527    74497 |    40556    34288     33 |
|    149832 |   19783    36555    74553 |    44612    23922     34 |
|    150058 |   19783    36555    74553 |    49073    43026     34 |
|    150397 |   19783    36555    74553 |    53980    39415     34 |
> restarts              : 572
> decisions             : 309343  (0 % random)
> conflicts             : 150683
> propagations          : 24379770
> conflict literals     : 27260755  (12.6466 % deleted)
> Current optimal value 296 after 157543 ms
|    150683 |   19787    36563    74569 |    35134    52729     35 |
|    150783 |   19793    36575    74593 |    38648    30418     35 |
|    150934 |   19799    36587    74617 |    42512    39481     35 |
|    151159 |   19799    36587    74617 |    46764    56629     35 |
|    151496 |   19799    36587    74617 |    51440    47231     34 |
|    152002 |   19799    36587    74617 |    56584    39453     35 |
> restarts              : 574
> decisions             : 312669  (0 % random)
> conflicts             : 152397
> propagations          : 24597801
> conflict literals     : 27515793  (12.7273 % deleted)
> Current optimal value 293 after 159263 ms
|    152397 |   19799    36587    74617 |    40407    68522     35 |
|    152498 |   19810    36609    74661 |    44447    39276     34 |
> restarts              : 577
> decisions             : 313009  (0 % random)
> conflicts             : 152535
> propagations          : 24668750
> conflict literals     : 27541985  (12.7335 % deleted)
> Current optimal value 292 after 159417 ms
|    152535 |   19821    36631    74705 |    31469    41664     34 |
|    152636 |   19836    36661    74765 |    34615    24915     35 |
|    152787 |   19841    36671    74785 |    38077    33484     35 |
|    153014 |   19861    36711    74865 |    41885    23520     34 |
> restarts              : 582
> decisions             : 314468  (0 % random)
> conflicts             : 153284
> propagations          : 24843271
> conflict literals     : 27671567  (12.7705 % deleted)
> Current optimal value 289 after 160061 ms
|    153284 |   19861    36711    74865 |    29168    34681     36 |
|    153384 |   19869    36727    74897 |    32084    22387     36 |
|    153536 |   19923    36835    75113 |    35293    32182     36 |
|    153762 |   19929    36847    75137 |    38822    24006     35 |
> restarts              : 587
> decisions             : 315667  (0 % random)
> conflicts             : 153867
> propagations          : 24996813
> conflict literals     : 27756710  (12.797 % deleted)
> Current optimal value 286 after 160586 ms
|    153867 |   19936    36861    75165 |    26711    27161     36 |
|    153968 |   19948    36885    75213 |    29382    16601     35 |
> restarts              : 589
> decisions             : 316065  (0 % random)
> conflicts             : 154084
> propagations          : 25054587
> conflict literals     : 27786068  (12.8089 % deleted)
> Current optimal value 285 after 160739 ms
|    154084 |   19948    36885    75213 |    24907    21725     36 |
|    154184 |   19952    36893    75229 |    27398    28454     36 |
|    154335 |   19963    36915    75273 |    30137    19076     33 |
|    154562 |   19971    36931    75305 |    33151    32372     35 |
|    154902 |   19992    36973    75389 |    36466    18678     33 |
|    155409 |   20000    36989    75421 |    40113    29951     33 |
|    156174 |   20024    37037    75517 |    44124    24641     33 |
|    157315 |   20030    37049    75541 |    48537    39528     33 |
> restarts              : 606
> decisions             : 323670  (0 % random)
> conflicts             : 157644
> propagations          : 25780084
> conflict literals     : 28271048  (12.8899 % deleted)
> Current optimal value 283 after 165040 ms
|    157644 |   20040    37069    75581 |    36762    57106     34 |
|    157744 |   20050    37089    75621 |    40438    33191     34 |
|    157894 |   20050    37089    75621 |    44482    43776     34 |
|    158119 |   20050    37089    75621 |    48930    58369     35 |
|    158456 |   20050    37089    75621 |    53823    47624     34 |
|    158962 |   20050    37089    75621 |    59206    50171     34 |
|    159726 |   20060    37109    75661 |    65126    64544     34 |
> restarts              : 616
> decisions             : 329463  (0 % random)
> conflicts             : 160465
> propagations          : 26248486
> conflict literals     : 28594027  (13.013 % deleted)
> Current optimal value 279 after 168102 ms
|    160465 |   20095    37179    75801 |    33405    46925     33 |
|    160565 |   20100    37189    75821 |    36745    29690     33 |
|    160717 |   20117    37223    75889 |    40420    20155     32 |
|    160943 |   20144    37277    75997 |    44462    30085     34 |
> restarts              : 620
> decisions             : 330691  (0 % random)
> conflicts             : 161114
> propagations          : 26396099
> conflict literals     : 28695050  (13.032 % deleted)
> Current optimal value 275 after 168678 ms
|    161114 |   20144    37277    75997 |    30346    37649     35 |
|    161214 |   20148    37285    76013 |    33380    24644     34 |
|    161365 |   20157    37303    76049 |    36718    34294     35 |
|    161592 |   20172    37333    76109 |    40390    23797     35 |
|    161932 |   20261    37511    76465 |    44429    23419     35 |
|    162439 |   20270    37529    76501 |    48872    56725     35 |
> restarts              : 631
> decisions             : 334191  (0 % random)
> conflicts             : 162842
> propagations          : 26791752
> conflict literals     : 28967927  (13.0916 % deleted)
> Current optimal value 271 after 170406 ms
|    162842 |   20293    37575    76593 |    34718    50467     35 |
> restarts              : 632
> decisions             : 334267  (0 % random)
> conflicts             : 162844
> propagations          : 26812141
> conflict literals     : 28968233  (13.0918 % deleted)
> Current optimal value 266 after 170429 ms
|    162844 |   20298    37585    76613 |    26357    25375     35 |
|    162945 |   20309    37607    76657 |    28993    16263     34 |
|    163095 |   20309    37607    76657 |    31892    24063     35 |
|    163321 |   20319    37627    76697 |    35081    35620     35 |
|    163659 |   20338    37665    76773 |    38589    32210     35 |
|    164165 |   20338    37665    76773 |    42448    36976     35 |
|    164925 |   20365    37719    76881 |    46693    35621     34 |
> restarts              : 637
> decisions             : 338906  (0 % random)
> conflicts             : 165308
> propagations          : 27162839
> conflict literals     : 29360325  (13.2072 % deleted)
> Current optimal value 262 after 172830 ms
|    165308 |   20365    37719    76881 |    37645    59106     35 |
> restarts              : 638
> decisions             : 338978  (0 % random)
> conflicts             : 165309
> propagations          : 27183411
> conflict literals     : 29360550  (13.2075 % deleted)
> Current optimal value 261 after 172858 ms
|    165309 |   20397    37783    77009 |    27865    29701     35 |
|    165409 |   20421    37831    77105 |    30651    19268     34 |
> restarts              : 639
> decisions             : 339246  (0 % random)
> conflicts             : 165440
> propagations          : 27216932
> conflict literals     : 29380265  (13.2161 % deleted)
> Current optimal value 259 after 172960 ms
|    165440 |   20421    37831    77105 |    24706    20175     34 |
|    165540 |   20431    37851    77145 |    27176    25140     35 |
|    165690 |   20431    37851    77145 |    29894    32171     35 |
> restarts              : 640
> decisions             : 339935  (0 % random)
> conflicts             : 165848
> propagations          : 27275948
> conflict literals     : 29431768  (13.2322 % deleted)
> Current optimal value 257 after 173246 ms
|    165848 |   20431    37851    77145 |    30935    38842     36 |
|    165949 |   20441    37871    77185 |    34028    24765     35 |
|    166099 |   20441    37871    77185 |    37431    35676     35 |
|    166327 |   20476    37941    77325 |    41174    30826     34 |
|    166665 |   20483    37955    77353 |    45291    30565     34 |
|    167174 |   20502    37993    77429 |    49821    39009     34 |
|    167937 |   20528    38045    77533 |    54803    45663     34 |
|    169079 |   20546    38081    77605 |    60283    52075     34 |
|    170798 |   20639    38267    77977 |    66311    47149     35 |
|    173363 |   20680    38349    78141 |    72943    65661     33 |
|    177225 |   20810    38609    78661 |    80237    72585     34 |
|    183005 |   20825    38639    78721 |    88261    94348     34 |
> restarts              : 708
> decisions             : 380740  (0 % random)
> conflicts             : 185678
> propagations          : 30856680
> conflict literals     : 32026934  (13.7795 % deleted)
> Current optimal value 255 after 195423 ms
|    185678 |   20857    38703    78849 |    45937    82998     36 |
|    185779 |   20868    38725    78893 |    50531    47596     35 |
|    185931 |   20876    38741    78925 |    55584    30142     34 |
|    186157 |   20877    38743    78929 |    61143    39517     35 |
|    186496 |   20887    38763    78969 |    67257    68696     35 |
|    187004 |   20900    38789    79021 |    73983    60475     34 |
|    187764 |   20910    38809    79061 |    81381    63251     34 |
|    188910 |   20950    38889    79221 |    89519    60071     33 |
|    190625 |   20980    38949    79341 |    98471   102665     34 |
|    193194 |   21009    39007    79457 |   108318   100810     35 |
|    197056 |   21056    39101    79645 |   119150   111880     35 |
> restarts              : 763
> decisions             : 407210  (0 % random)
> conflicts             : 198417
> propagations          : 33421102
> conflict literals     : 33663806  (14.0764 % deleted)
> Current optimal value 254 after 209565 ms
|    198417 |   21072    39133    79709 |    64076   136985     35 |
|    198517 |   21075    39139    79721 |    70484    73442     34 |
|    198667 |   21075    39139    79721 |    77532    80787     34 |
|    198892 |   21075    39139    79721 |    85286    96119     35 |
|    199230 |   21079    39147    79737 |    93814    75557     34 |
|    199736 |   21079    39147    79737 |   103196   109232     35 |
|    200495 |   21079    39147    79737 |   113515    81144     35 |
> restarts              : 765
> decisions             : 411119  (0 % random)
> conflicts             : 200533
> propagations          : 33673464
> conflict literals     : 33937954  (14.1385 % deleted)
> Current optimal value 251 after 211508 ms
|    200533 |   21079    39147    79737 |    45750    81992     35 |
|    200633 |   21089    39167    79777 |    50325    44886     35 |
|    200783 |   21089    39167    79777 |    55357    54890     35 |
|    201008 |   21089    39167    79777 |    60893    72386     35 |
|    201345 |   21089    39167    79777 |    66983    62051     34 |
|    201851 |   21089    39167    79777 |    73681    62329     33 |
|    202611 |   21090    39169    79781 |    81049    75860     34 |
|    203750 |   21090    39169    79781 |    89154    65888     33 |
|    205458 |   21090    39169    79781 |    98069   107661     35 |
|    208020 |   21090    39169    79781 |   107876    85165     34 |
|    211864 |   21090    39169    79781 |   118664    69828     33 |
|    217645 |   21167    39323    80089 |   130531   123859     33 |
> restarts              : 798
> decisions             : 458408  (0 % random)
> conflicts             : 221637
> propagations          : 36654664
> conflict literals     : 36832870  (14.778 % deleted)
> Current optimal value 250 after 237653 ms
|    221637 |   21216    39421    80285 |    49755    93734     34 |
|    221737 |   21219    39427    80297 |    54731    52681     34 |
|    221887 |   21219    39427    80297 |    60204    61050     34 |
|    222112 |   21219    39427    80297 |    66224    75108     35 |
|    222449 |   21219    39427    80297 |    72847    59433     34 |
|    222956 |   21222    39433    80309 |    80131    53737     33 |
|    223720 |   21222    39433    80309 |    88145    73095     34 |
|    224866 |   21226    39441    80325 |    96959    77227     33 |
|    226580 |   21234    39457    80357 |   106655    93656     34 |
|    229152 |   21234    39457    80357 |   117321   111376     34 |
|    232998 |   21244    39477    80397 |   129053   104585     33 |
|    238789 |   21309    39607    80657 |   141958    75777     33 |
|    247473 |   21351    39691    80825 |   156154   144847     34 |
> restarts              : 893
> decisions             : 524356  (0 % random)
> conflicts             : 252735
> propagations          : 42071986
> conflict literals     : 41067081  (15.865 % deleted)
> Current optimal value 246 after 275598 ms
|    252735 |   21351    39691    80825 |    56971   115112     35 |
|    252835 |   21360    39709    80861 |    62668    61520     35 |
|    252985 |   21360    39709    80861 |    68935    70877     35 |
|    253211 |   21366    39721    80885 |    75829    41637     34 |
|    253550 |   21366    39721    80885 |    83412    64186     35 |
|    254060 |   21392    39773    80989 |    91753    53701     34 |
|    254823 |   21427    39843    81129 |   100928    69060     33 |
|    255966 |   21445    39879    81201 |   111021   119936     33 |
> restarts              : 914
> decisions             : 533148  (0 % random)
> conflicts             : 256991
> propagations          : 42974480
> conflict literals     : 41638965  (15.9617 % deleted)
> Current optimal value 243 after 280679 ms
|    256991 |   21485    39959    81361 |    58157   118402     34 |
> restarts              : 915
> decisions             : 533217  (0 % random)
> conflicts             : 256995
> propagations          : 42996183
> conflict literals     : 41639254  (15.962 % deleted)
> Current optimal value 240 after 280722 ms
|    256995 |   21491    39971    81385 |    38511    59451     34 |
> restarts              : 917
> decisions             : 533333  (0 % random)
> conflicts             : 257025
> propagations          : 43041562
> conflict literals     : 41642391  (15.9635 % deleted)
> Current optimal value 238 after 280773 ms
|    257025 |   21502    39993    81429 |    28962    30783     32 |
|    257126 |   21510    40009    81461 |    31858    20360     31 |
> restarts              : 919
> decisions             : 533617  (0 % random)
> conflicts             : 257152
> propagations          : 43097232
> conflict literals     : 41659896  (15.9692 % deleted)
> Current optimal value 237 after 280893 ms
|    257152 |   21510    40009    81461 |    25765    21176     31 |
|    257252 |   21514    40017    81477 |    28342    26893     32 |
|    257404 |   21522    40033    81509 |    31176    18544     30 |
|    257630 |   21522    40033    81509 |    34294    20999     30 |
|    257967 |   21522    40033    81509 |    37723    39420     32 |
|    258474 |   21522    40033    81509 |    41495    50889     33 |
|    259234 |   21526    40041    81525 |    45645    38386     33 |
|    260373 |   21527    40043    81529 |    50209    59397     31 |
|    262092 |   21554    40097    81637 |    55230    38183     32 |
> restarts              : 940
> decisions             : 546912  (0 % random)
> conflicts             : 263270
> propagations          : 44225058
> conflict literals     : 42471931  (16.0544 % deleted)
> Current optimal value 236 after 288603 ms
|    263270 |   21572    40133    81709 |    40930    66547     33 |
|    263370 |   21576    40141    81725 |    45023    37860     32 |
|    263520 |   21576    40141    81725 |    49526    42863     33 |
|    263747 |   21580    40149    81741 |    54478    33006     31 |
|    264086 |   21580    40149    81741 |    59926    58732     32 |
> restarts              : 946
> decisions             : 548905  (0 % random)
> conflicts             : 264130
> propagations          : 44446443
> conflict literals     : 42586621  (16.0698 % deleted)
> Current optimal value 231 after 289577 ms
|    264130 |   21580    40149    81741 |    39287    61601     33 |
> restarts              : 947
> decisions             : 548949  (0 % random)
> conflicts             : 264131
> propagations          : 44468029
> conflict literals     : 42586714  (16.0698 % deleted)
> Current optimal value 229 after 289604 ms
|    264131 |   21584    40157    81757 |    29069    30938     31 |
> restarts              : 948
> decisions             : 549040  (0 % random)
> conflicts             : 264162
> propagations          : 44493426
> conflict literals     : 42590293  (16.0709 % deleted)
> Current optimal value 228 after 289653 ms
|    264162 |   21589    40167    81777 |    24548    17365     30 |
|    264262 |   21602    40193    81829 |    27002    25752     31 |
|    264413 |   21604    40197    81837 |    29703    23358     30 |
|    264640 |   21620    40229    81901 |    32673    25721     30 |
|    264979 |   21620    40229    81901 |    35940    32047     30 |
|    265486 |   21627    40243    81929 |    39534    34509     30 |
|    266246 |   21635    40259    81961 |    43488    31281     32 |
|    267385 |   21635    40259    81961 |    47837    41315     31 |
|    269094 |   21647    40283    82009 |    52620    64108     32 |
|    271662 |   21654    40297    82037 |    57882    46980     32 |
|    275525 |   21672    40333    82109 |    63671    44772     32 |
> restarts              : 984
> decisions             : 575858  (0 % random)
> conflicts             : 275801
> propagations          : 46488905
> conflict literals     : 43865015  (16.3158 % deleted)
> Current optimal value 221 after 304410 ms
|    275801 |   21672    40333    82109 |    39952    63412     33 |
|    275902 |   21685    40359    82161 |    43947    39553     32 |
> restarts              : 986
> decisions             : 576433  (0 % random)
> conflicts             : 276047
> propagations          : 46557522
> conflict literals     : 43892397  (16.3215 % deleted)
> Current optimal value 216 after 304713 ms
|    276047 |   21685    40359    82161 |    35437    49842     33 |
|    276147 |   21693    40375    82193 |    38981    31615     32 |
|    276297 |   21693    40375    82193 |    42879    42201     33 |
|    276523 |   21695    40379    82201 |    47167    58942     34 |
|    276860 |   21695    40379    82201 |    51884    51873     32 |
|    277366 |   21695    40379    82201 |    57072    54147     32 |
|    278128 |   21695    40379    82201 |    62779    54885     33 |
|    279273 |   21704    40397    82237 |    69057    57618     32 |
|    280987 |   21713    40415    82273 |    75963    90034     34 |
|    283564 |   21725    40439    82321 |    83560    41577     31 |
> restarts              : 1019
> decisions             : 596436  (0 % random)
> conflicts             : 284920
> propagations          : 48184543
> conflict literals     : 44885471  (16.5437 % deleted)
> Current optimal value 214 after 314884 ms
|    284920 |   21725    40439    82321 |    48981    90394     32 |
|    285020 |   21729    40447    82337 |    53879    50698     32 |
|    285170 |   21729    40447    82337 |    59267    59443     33 |
|    285395 |   21730    40449    82341 |    65194    71430     33 |
> restarts              : 1020
> decisions             : 597741  (0 % random)
> conflicts             : 285538
> propagations          : 48259617
> conflict literals     : 44966703  (16.5622 % deleted)
> Current optimal value 210 after 315416 ms
|    285538 |   21730    40449    82341 |    44648    77385     34 |
|    285638 |   21732    40453    82349 |    49113    45603     33 |
|    285788 |   21732    40453    82349 |    54024    52230     34 |
|    286014 |   21733    40455    82353 |    59427    33596     33 |
> restarts              : 1022
> decisions             : 598876  (0 % random)
> conflicts             : 286172
> propagations          : 48360862
> conflict literals     : 45050658  (16.5837 % deleted)
> Current optimal value 206 after 315930 ms
|    286172 |   21733    40455    82353 |    32026    39511     34 |
|    286272 |   21742    40473    82389 |    35228    24253     32 |
|    286422 |   21742    40473    82389 |    38751    35242     33 |
|    286647 |   21742    40473    82389 |    42626    52291     34 |
|    286984 |   21742    40473    82389 |    46889    45362     33 |
> restarts              : 1023
> decisions             : 600751  (0 % random)
> conflicts             : 287230
> propagations          : 48493596
> conflict literals     : 45197593  (16.6151 % deleted)
> Current optimal value 204 after 316991 ms
|    287230 |   21742    40473    82389 |    37552    56071     33 |
|    287330 |   21745    40479    82401 |    41307    33110     33 |
|    287480 |   21745    40479    82401 |    45437    39067     34 |
|    287705 |   21745    40479    82401 |    49981    49942     34 |
|    288042 |   21745    40479    82401 |    54979    67338     34 |
|    288548 |   21745    40479    82401 |    60477    59185     34 |
|    289307 |   21745    40479    82401 |    66525    78939     33 |
|    290446 |   21747    40483    82409 |    73178    88166     31 |
|    292154 |   21748    40485    82413 |    80496    58498     31 |
|    294716 |   21751    40491    82425 |    88545    82763     32 |
|    298560 |   21835    40659    82761 |    97400    72770     33 |
|    304356 |   21998    40985    83413 |   107140    73068     32 |
> restarts              : 1066
> decisions             : 645263  (0 % random)
> conflicts             : 308378
> propagations          : 51585996
> conflict literals     : 47844510  (17.2928 % deleted)
> Current optimal value 201 after 340058 ms
|    308378 |   22101    41191    83825 |    38257    57470     34 |
> restarts              : 1067
> decisions             : 645306  (0 % random)
> conflicts             : 308383
> propagations          : 51608496
> conflict literals     : 47845399  (17.293 % deleted)
> Current optimal value 198 after 340085 ms
|    308383 |   22110    41209    83861 |    28788    29045     33 |
|    308484 |   22127    41243    83929 |    31667    17910     31 |
|    308634 |   22127    41243    83929 |    34834    26582     32 |
|    308860 |   22131    41251    83945 |    38317    22321     31 |
|    309197 |   22131    41251    83945 |    42149    54836     33 |
|    309705 |   22145    41279    84001 |    46364    29879     31 |
|    310469 |   22179    41347    84137 |    51000    29209     30 |
|    311615 |   22215    41419    84281 |    56100    41930     32 |
|    313325 |   22222    41433    84309 |    61711    49416     32 |
> restarts              : 1087
> decisions             : 660502  (0 % random)
> conflicts             : 315833
> propagations          : 52818497
> conflict literals     : 48791077  (17.5471 % deleted)
> Current optimal value 195 after 348010 ms
|    315833 |   22229    41447    84337 |    36195    51026     32 |
|    315933 |   22230    41449    84341 |    39814    30354     30 |
|    316083 |   22230    41449    84341 |    43795    40378     32 |
|    316308 |   22230    41449    84341 |    48175    55568     33 |
> restarts              : 1088
> decisions             : 661718  (0 % random)
> conflicts             : 316460
> propagations          : 52898277
> conflict literals     : 48851738  (17.5722 % deleted)
> Current optimal value 193 after 348578 ms
|    316460 |   22230    41449    84341 |    41051    65592     33 |
|    316560 |   22234    41457    84357 |    45156    39439     32 |
|    316710 |   22234    41457    84357 |    49671    47470     33 |
> restarts              : 1089
> decisions             : 662383  (0 % random)
> conflicts             : 316784
> propagations          : 52948501
> conflict literals     : 48887218  (17.5864 % deleted)
> Current optimal value 188 after 348858 ms
|    316784 |   22234    41457    84357 |    36308    51355     33 |
|    316884 |   22238    41465    84373 |    39938    29633     31 |
|    317034 |   22238    41465    84373 |    43932    38604     32 |
|    317259 |   22238    41465    84373 |    48325    58162     33 |
|    317596 |   22238    41465    84373 |    53158    39969     31 |
|    318106 |   22253    41495    84433 |    58474    45438     32 |
|    318869 |   22268    41525    84493 |    64321    50003     33 |
|    320012 |   22274    41537    84517 |    70754    78337     33 |
|    321729 |   22291    41571    84585 |    77829    49071     30 |
|    324298 |   22348    41685    84813 |    85612    63473     32 |
|    328157 |   22443    41875    85193 |    94173    96526     32 |
|    333940 |   22508    42005    85453 |   103590    69809     32 |
|    342590 |   22515    42019    85481 |   113950    88847     33 |
|    355621 |   22793    42575    86593 |   125345    58514     32 |
> restarts              : 1217
> decisions             : 758601  (0 % random)
> conflicts             : 362319
> propagations          : 60544830
> conflict literals     : 54592566  (18.8785 % deleted)
> Current optimal value 185 after 401725 ms
|    362319 |   22860    42709    86861 |    61515   125726     34 |
|    362420 |   22875    42739    86921 |    67667    34180     31 |
|    362571 |   22879    42747    86937 |    74433    46001     32 |
|    362797 |   22897    42783    87009 |    81877    61778     32 |
|    363135 |   22899    42787    87017 |    90065    47854     31 |
|    363645 |   22909    42807    87057 |    99071    83508     32 |
|    364407 |   22910    42809    87061 |   108978    71867     32 |
|    365550 |   22924    42837    87117 |   119876    92723     33 |
|    367268 |   22944    42877    87197 |   131864    73081     33 |
|    369832 |   22949    42887    87217 |   145050    93352     33 |
> restarts              : 1249
> decisions             : 775669  (0 % random)
> conflicts             : 370316
> propagations          : 62108122
> conflict literals     : 55533669  (19.1051 % deleted)
> Current optimal value 182 after 410251 ms
|    370316 |   22953    42895    87233 |    60156   121463     34 |
|    370417 |   22960    42909    87261 |    66172    34273     31 |
|    370567 |   22960    42909    87261 |    72789    47969     32 |
|    370793 |   22964    42917    87277 |    80068    60912     33 |
|    371132 |   22975    42939    87321 |    88075    45277     32 |
|    371642 |   22987    42963    87369 |    96882    74257     33 |
> restarts              : 1259
> decisions             : 778933  (0 % random)
> conflicts             : 371915
> propagations          : 62499670
> conflict literals     : 55713738  (19.1623 % deleted)
> Current optimal value 181 after 412001 ms
|    371915 |   22997    42983    87409 |    50864    93499     34 |
|    372015 |   23002    42993    87429 |    55951    49273     33 |
|    372165 |   23002    42993    87429 |    61546    58720     33 |
|    372392 |   23011    43011    87465 |    67700    37459     32 |
|    372732 |   23027    43043    87529 |    74470    60728     33 |
> restarts              : 1265
> decisions             : 780429  (0 % random)
> conflicts             : 372735
> propagations          : 62716217
> conflict literals     : 55806701  (19.1883 % deleted)
> Current optimal value 170 after 412780 ms
|    372735 |   23027    43043    87529 |    40068    61050     33 |
|    372836 |   23039    43067    87577 |    44075    36810     31 |
|    372986 |   23039    43067    87577 |    48482    46213     32 |
|    373212 |   23044    43077    87597 |    53330    31420     30 |
|    373551 |   23056    43101    87645 |    58664    68395     32 |
|    374061 |   23080    43149    87741 |    64530    37519     30 |
|    374821 |   23080    43149    87741 |    70983    84763     32 |
|    375961 |   23084    43157    87757 |    78081    66606     32 |
|    377670 |   23087    43163    87769 |    85890    87659     33 |
|    380233 |   23091    43171    87785 |    94479    56020     31 |
|    384077 |   23095    43179    87801 |   103926   113305     31 |
|    389844 |   23116    43221    87885 |   114319    69450     30 |
> restarts              : 1279
> decisions             : 828555  (0 % random)
> conflicts             : 396015
> propagations          : 65389370
> conflict literals     : 58278562  (19.7224 % deleted)
> Current optimal value 169 after 438876 ms
|    396015 |   23119    43227    87897 |    47626    83541     32 |
|    396115 |   23125    43239    87921 |    52389    44486     30 |
|    396265 |   23125    43239    87921 |    57628    53550     31 |
|    396490 |   23125    43239    87921 |    63391    64601     32 |
|    396827 |   23125    43239    87921 |    69730    45604     30 |
> restarts              : 1280
> decisions             : 830269  (0 % random)
> conflicts             : 396956
> propagations          : 65493983
> conflict literals     : 58378717  (19.7469 % deleted)
> Current optimal value 168 after 439725 ms
|    396956 |   23126    43241    87925 |    37823    54116     31 |
|    397056 |   23128    43245    87933 |    41605    33752     29 |
|    397206 |   23128    43245    87933 |    45765    49027     31 |
|    397431 |   23128    43245    87933 |    50342    67799     31 |
|    397768 |   23128    43245    87933 |    55376    70456     30 |
|    398274 |   23128    43245    87933 |    60914    72771     31 |
|    399033 |   23128    43245    87933 |    67005    70358     32 |
|    400177 |   23138    43265    87973 |    73706    47325     32 |
|    401893 |   23161    43311    88065 |    81076    83879     32 |
|    404469 |   23232    43453    88349 |    89184    92541     32 |
|    408324 |   23265    43519    88481 |    98103    58482     31 |
|    414112 |   23387    43763    88969 |   107913    79638     33 |
|    422786 |   23497    43983    89409 |   118704   106729     32 |
|    435799 |   23664    44317    90077 |   130575   116419     28 |
|    455310 |   23759    44507    90457 |   143632    96048     30 |
|    484580 |   24024    45037    91517 |   157996   129975     31 |
