Starting solving at 49 ms
>>> Search start
> Conflicts |          ORIGINAL         |          LEARNT          | Progress
>           |    Vars  Clauses Literals |    Limit  Clauses Lit/Cl |         
|         0 |     530       96      699 |     1636        1      2 |
> restarts              : 1
> decisions             : 231  (0 % random)
> conflicts             : 19
> propagations          : 2305
> conflict literals     : 475  (0 % deleted)
> Current optimal value 249 after 88 ms
|        19 |     804      570     1623 |     2265     1413     50 |
> restarts              : 2
> decisions             : 269  (0 % random)
> conflicts             : 32
> propagations          : 3788
> conflict literals     : 1284  (0.155521 % deleted)
> Current optimal value 246 after 91 ms
|        32 |     851      664     1811 |     2343     1555     48 |
> restarts              : 3
> decisions             : 372  (0 % random)
> conflicts             : 79
> propagations          : 8520
> conflict literals     : 5337  (0.872957 % deleted)
> Current optimal value 244 after 101 ms
|        79 |     960      882     2247 |     2698     2402     40 |
> restarts              : 4
> decisions             : 410  (0 % random)
> conflicts             : 84
> propagations          : 9841
> conflict literals     : 5920  (0.937082 % deleted)
> Current optimal value 242 after 103 ms
|        84 |     982      926     2335 |     2738     2476     40 |
> restarts              : 5
> decisions             : 450  (0 % random)
> conflicts             : 92
> propagations          : 11414
> conflict literals     : 6605  (1.03386 % deleted)
> Current optimal value 240 after 105 ms
|        92 |    1003      968     2419 |     2777     2553     40 |
> restarts              : 7
> decisions             : 542  (0 % random)
> conflicts             : 125
> propagations          : 15386
> conflict literals     : 9698  (1.39298 % deleted)
> Current optimal value 238 after 112 ms
|       125 |    1053     1068     2619 |     2933     2920     39 |
> restarts              : 8
> decisions             : 592  (0 % random)
> conflicts             : 140
> propagations          : 17380
> conflict literals     : 11215  (1.54508 % deleted)
> Current optimal value 233 after 115 ms
|       140 |    1082     1126     2735 |     3016     3112     38 |
> restarts              : 9
> decisions             : 623  (0 % random)
> conflicts             : 141
> propagations          : 18471
> conflict literals     : 11314  (1.5489 % deleted)
> Current optimal value 229 after 116 ms
|       141 |    1089     1140     2763 |     3024     3120     38 |
> restarts              : 10
> decisions             : 660  (0 % random)
> conflicts             : 149
> propagations          : 19922
> conflict literals     : 12294  (1.50617 % deleted)
> Current optimal value 224 after 118 ms
|       149 |    1098     1158     2799 |     3066     3230     38 |
|       249 |    1241     1444     3371 |     3373     3161     24 |
> restarts              : 11
> decisions             : 871  (0 % random)
> conflicts             : 272
> propagations          : 31147
> conflict literals     : 23938  (1.84919 % deleted)
> Current optimal value 223 after 157 ms
|       272 |    1269     1500     3483 |     3354     3752     24 |
> restarts              : 12
> decisions             : 919  (0 % random)
> conflicts             : 291
> propagations          : 33317
> conflict literals     : 26371  (1.8169 % deleted)
> Current optimal value 220 after 161 ms
|       291 |    1291     1544     3571 |     2775     1970     29 |
> restarts              : 14
> decisions             : 1130  (0 % random)
> conflicts             : 336
> propagations          : 38928
> conflict literals     : 29864  (1.82452 % deleted)
> Current optimal value 218 after 179 ms
|       336 |    1467     1894     4271 |     3342     3321     26 |
|       436 |    1608     2176     4835 |     3676     3879     27 |
> restarts              : 15
> decisions             : 1367  (0 % random)
> conflicts             : 491
> propagations          : 52532
> conflict literals     : 45108  (2.22608 % deleted)
> Current optimal value 206 after 221 ms
|       491 |    1654     2268     5019 |     3319     2878     31 |
|       592 |    1780     2520     5523 |     3651     3931     29 |
|       744 |    1946     2852     6187 |     4016     4619     30 |
> restarts              : 19
> decisions             : 2161  (0 % random)
> conflicts             : 866
> propagations          : 85328
> conflict literals     : 78162  (2.91882 % deleted)
> Current optimal value 205 after 340 ms
|       866 |    2065     3090     6663 |     4530     5688     28 |
|       967 |    2164     3288     7059 |     4983     6114     28 |
|      1118 |    2337     3634     7751 |     5481     5676     29 |
|      1344 |    2527     4014     8511 |     6029     6997     27 |
> restarts              : 23
> decisions             : 3231  (0 % random)
> conflicts             : 1422
> propagations          : 132157
> conflict literals     : 133959  (3.81207 % deleted)
> Current optimal value 203 after 522 ms
|      1422 |    2577     4114     8711 |     4542     4700     32 |
|      1522 |    2662     4284     9051 |     4996     5481     28 |
> restarts              : 24
> decisions             : 3439  (0 % random)
> conflicts             : 1524
> propagations          : 140796
> conflict literals     : 144694  (3.9631 % deleted)
> Current optimal value 202 after 552 ms
|      1524 |    2666     4292     9067 |     4890     5567     27 |
> restarts              : 25
> decisions             : 3539  (0 % random)
> conflicts             : 1568
> propagations          : 145846
> conflict literals     : 149597  (4.04728 % deleted)
> Current optimal value 200 after 566 ms
|      1568 |    2712     4384     9251 |     4442     4131     32 |
|      1669 |    2781     4522     9527 |     4886     5495     28 |
|      1821 |    2892     4744     9971 |     5375     6151     28 |
|      2047 |    2989     4938    10359 |     5912     4810     28 |
|      2384 |    3154     5268    11019 |     6504     6085     27 |
> restarts              : 31
> decisions             : 6365  (0 % random)
> conflicts             : 2822
> propagations          : 247868
> conflict literals     : 255982  (4.5139 % deleted)
> Current optimal value 198 after 1072 ms
|      2822 |    3296     5552    11587 |     5531     6230     27 |
> restarts              : 32
> decisions             : 6417  (0 % random)
> conflicts             : 2844
> propagations          : 252658
> conflict literals     : 258008  (4.56131 % deleted)
> Current optimal value 195 after 1080 ms
|      2844 |    3316     5592    11667 |     4694     3678     29 |
|      2944 |    3347     5654    11791 |     5163     7128     26 |
> restarts              : 33
> decisions             : 6737  (0 % random)
> conflicts             : 3030
> propagations          : 268682
> conflict literals     : 275880  (4.71289 % deleted)
> Current optimal value 194 after 1139 ms
|      3030 |    3352     5664    11811 |     5570     6235     27 |
> restarts              : 34
> decisions             : 6795  (0 % random)
> conflicts             : 3054
> propagations          : 273233
> conflict literals     : 278198  (4.72867 % deleted)
> Current optimal value 192 after 1149 ms
|      3054 |    3373     5706    11895 |     4836     3990     30 |
|      3154 |    3404     5768    12019 |     5319     6823     26 |
|      3306 |    3451     5862    12207 |     5851     4139     31 |
> restarts              : 38
> decisions             : 7663  (0 % random)
> conflicts             : 3469
> propagations          : 311138
> conflict literals     : 316884  (4.80219 % deleted)
> Current optimal value 191 after 1278 ms
|      3469 |    3474     5908    12299 |     5487     5741     29 |
|      3569 |    3500     5960    12403 |     6035     6625     26 |
|      3721 |    3542     6043    12569 |     6639     4251     30 |
> restarts              : 42
> decisions             : 8616  (0 % random)
> conflicts             : 3875
> propagations          : 349559
> conflict literals     : 350395  (5.08008 % deleted)
> Current optimal value 190 after 1409 ms
|      3875 |    3560     6079    12641 |     6915     9854     25 |
|      3975 |    3572     6103    12689 |     7606     8528     26 |
> restarts              : 45
> decisions             : 9072  (0 % random)
> conflicts             : 4103
> propagations          : 373770
> conflict literals     : 371347  (5.17186 % deleted)
> Current optimal value 187 after 1485 ms
|      4103 |    3604     6167    12817 |     4973     3942     33 |
> restarts              : 46
> decisions             : 9101  (0 % random)
> conflicts             : 4104
> propagations          : 377387
> conflict literals     : 371388  (5.17204 % deleted)
> Current optimal value 185 after 1487 ms
|      4104 |    3613     6185    12853 |     4997     3994     33 |
> restarts              : 47
> decisions             : 9131  (0 % random)
> conflicts             : 4111
> propagations          : 381305
> conflict literals     : 371916  (5.18611 % deleted)
> Current optimal value 184 after 1490 ms
|      4111 |    3624     6207    12897 |     5062     4168     33 |
|      4211 |    3644     6247    12977 |     5568     7233     28 |
> restarts              : 48
> decisions             : 9514  (0 % random)
> conflicts             : 4286
> propagations          : 395901
> conflict literals     : 389768  (5.32074 % deleted)
> Current optimal value 179 after 1546 ms
|      4286 |    3645     6249    12981 |     5486     5397     30 |
> restarts              : 49
> decisions             : 9546  (0 % random)
> conflicts             : 4293
> propagations          : 399848
> conflict literals     : 390407  (5.33752 % deleted)
> Current optimal value 178 after 1549 ms
|      4293 |    3654     6267    13017 |     5555     5587     30 |
> restarts              : 51
> decisions             : 9634  (0 % random)
> conflicts             : 4312
> propagations          : 407972
> conflict literals     : 392247  (5.36316 % deleted)
> Current optimal value 176 after 1559 ms
|      4312 |    3677     6313    13109 |     4779     3213     33 |
|      4413 |    3700     6359    13201 |     5257     3517     33 |
> restarts              : 53
> decisions             : 9858  (0 % random)
> conflicts             : 4417
> propagations          : 420646
> conflict literals     : 402887  (5.51541 % deleted)
> Current optimal value 175 after 1591 ms
|      4417 |    3700     6359    13201 |     4953     3690     32 |
|      4517 |    3712     6383    13249 |     5449     7075     27 |
|      4668 |    3723     6405    13293 |     5993     8134     26 |
|      4895 |    3753     6465    13413 |     6593     7144     28 |
> restarts              : 58
> decisions             : 11032  (0 % random)
> conflicts             : 5018
> propagations          : 475634
> conflict literals     : 460447  (5.86678 % deleted)
> Current optimal value 172 after 1803 ms
|      5018 |    3760     6479    13441 |     5892     6387     29 |
|      5119 |    3777     6513    13509 |     6481     6830     27 |
|      5269 |    3788     6535    13553 |     7130     7316     28 |
|      5495 |    3832     6623    13729 |     7843    10532     26 |
|      5833 |    3846     6651    13785 |     8627    10281     26 |
|      6339 |    3854     6667    13817 |     9490    10688     26 |
> restarts              : 62
> decisions             : 13303  (0 % random)
> conflicts             : 6394
> propagations          : 574787
> conflict literals     : 593333  (6.70762 % deleted)
> Current optimal value 168 after 2228 ms
|      6394 |    3855     6669    13821 |     7784    11872     26 |
> restarts              : 63
> decisions             : 13362  (0 % random)
> conflicts             : 6413
> propagations          : 579725
> conflict literals     : 595032  (6.72822 % deleted)
> Current optimal value 165 after 2235 ms
|      6413 |    3867     6693    13869 |     5894     6177     31 |
> restarts              : 64
> decisions             : 13397  (0 % random)
> conflicts             : 6421
> propagations          : 583911
> conflict literals     : 595657  (6.73653 % deleted)
> Current optimal value 161 after 2240 ms
|      6421 |    3874     6707    13897 |     4959     3360     33 |
> restarts              : 65
> decisions             : 13452  (0 % random)
> conflicts             : 6429
> propagations          : 588294
> conflict literals     : 596368  (6.75135 % deleted)
> Current optimal value 160 after 2245 ms
|      6429 |    3894     6747    13977 |     5053     3600     32 |
> restarts              : 66
> decisions             : 13481  (0 % random)
> conflicts             : 6432
> propagations          : 592313
> conflict literals     : 596626  (6.75446 % deleted)
> Current optimal value 159 after 2248 ms
|      6432 |    3905     6769    14021 |     5089     3686     32 |
> restarts              : 67
> decisions             : 13520  (0 % random)
> conflicts             : 6442
> propagations          : 596759
> conflict literals     : 597457  (6.76651 % deleted)
> Current optimal value 157 after 2252 ms
|      6442 |    3911     6781    14045 |     5177     3938     32 |
|      6543 |    3939     6837    14157 |     5694     7347     27 |
|      6694 |    3951     6861    14205 |     6264     7863     27 |
|      6920 |    3967     6893    14269 |     6890     5227     31 |
> restarts              : 71
> decisions             : 14802  (0 % random)
> conflicts             : 7143
> propagations          : 651793
> conflict literals     : 662026  (7.35855 % deleted)
> Current optimal value 156 after 2455 ms
|      7143 |    3971     6901    14285 |     6500     7787     27 |
|      7244 |    3991     6941    14365 |     7150     6470     27 |
> restarts              : 74
> decisions             : 15227  (0 % random)
> conflicts             : 7315
> propagations          : 671884
> conflict literals     : 680809  (7.44105 % deleted)
> Current optimal value 152 after 2505 ms
|      7315 |    4004     6967    14417 |     5522     4788     31 |
|      7415 |    4009     6977    14437 |     6074     8780     26 |
|      7566 |    4016     6991    14465 |     6682     7126     28 |
|      7792 |    4023     7005    14493 |     7350     9152     27 |
|      8130 |    4034     7027    14537 |     8085    10210     26 |
> restarts              : 79
> decisions             : 16802  (0 % random)
> conflicts             : 8272
> propagations          : 752895
> conflict literals     : 776652  (8.04608 % deleted)
> Current optimal value 149 after 2757 ms
|      8272 |    4041     7041    14565 |     6620     8008     28 |
> restarts              : 80
> decisions             : 16967  (0 % random)
> conflicts             : 8368
> propagations          : 763137
> conflict literals     : 785418  (8.16241 % deleted)
> Current optimal value 148 after 2780 ms
|      8368 |    4046     7051    14585 |     6045     6272     29 |
> restarts              : 81
> decisions             : 17047  (0 % random)
> conflicts             : 8411
> propagations          : 769535
> conflict literals     : 789445  (8.20172 % deleted)
> Current optimal value 145 after 2792 ms
|      8411 |    4049     7057    14597 |     5286     3990     31 |
|      8511 |    4058     7075    14633 |     5814     7231     27 |
|      8661 |    4060     7079    14641 |     6396     6289     29 |
|      8886 |    4060     7079    14641 |     7036     9458     26 |
> restarts              : 82
> decisions             : 17822  (0 % random)
> conflicts             : 8887
> propagations          : 799005
> conflict literals     : 833127  (8.60246 % deleted)
> Current optimal value 144 after 2919 ms
|      8887 |    4060     7079    14641 |     7118     9463     26 |
|      8987 |    4070     7099    14681 |     7829     8399     26 |
|      9139 |    4087     7133    14749 |     8612     6776     27 |
|      9365 |    4111     7181    14845 |     9474    11064     24 |
|      9703 |    4122     7203    14889 |    10421     6630     25 |
> restarts              : 88
> decisions             : 19752  (0 % random)
> conflicts             : 9842
> propagations          : 886626
> conflict literals     : 912967  (8.94405 % deleted)
> Current optimal value 142 after 3266 ms
|      9842 |    4126     7211    14905 |     7423    10248     24 |
|      9943 |    4143     7245    14973 |     8166     7832     26 |
|     10094 |    4147     7253    14989 |     8982     7555     27 |
|     10321 |    4166     7291    15065 |     9880     5489     29 |
|     10658 |    4167     7293    15069 |    10868     8249     26 |
> restarts              : 94
> decisions             : 21603  (0 % random)
> conflicts             : 10891
> propagations          : 976602
> conflict literals     : 1017401  (9.47641 % deleted)
> Current optimal value 141 after 3578 ms
|     10891 |    4175     7309    15101 |     6811     8313     27 |
> restarts              : 95
> decisions             : 21710  (0 % random)
> conflicts             : 10945
> propagations          : 983759
> conflict literals     : 1022847  (9.50547 % deleted)
> Current optimal value 140 after 3593 ms
|     10945 |    4181     7321    15125 |     5886     5526     30 |
|     11045 |    4186     7331    15145 |     6474     7666     28 |
|     11195 |    4186     7331    15145 |     7122     8751     26 |
|     11420 |    4187     7333    15149 |     7834    10827     25 |
> restarts              : 96
> decisions             : 22640  (0 % random)
> conflicts             : 11438
> propagations          : 1017680
> conflict literals     : 1071902  (9.68376 % deleted)
> Current optimal value 139 after 3749 ms
|     11438 |    4187     7333    15149 |     7947    11698     24 |
|     11539 |    4198     7355    15193 |     8742     8615     27 |
|     11689 |    4198     7355    15193 |     9616     7189     27 |
|     11917 |    4218     7395    15273 |    10578     9484     26 |
|     12255 |    4227     7413    15309 |    11636    12967     24 |
|     12764 |    4251     7461    15405 |    12799     9772     25 |
|     13527 |    4293     7545    15573 |    14079    15505     23 |
|     14669 |    4330     7619    15721 |    15487    16064     22 |
|     16388 |    4397     7753    15989 |    17036    14762     23 |
> restarts              : 125
> decisions             : 34019  (0 % random)
> conflicts             : 17693
> propagations          : 1517048
> conflict literals     : 1607324  (12.1768 % deleted)
> Current optimal value 138 after 5796 ms
|     17693 |    4419     7797    16077 |    11148    20836     21 |
|     17794 |    4434     7827    16137 |    12263    12537     22 |
> restarts              : 127
> decisions             : 34423  (0 % random)
> conflicts             : 17911
> propagations          : 1537078
> conflict literals     : 1625335  (12.2979 % deleted)
> Current optimal value 134 after 5849 ms
|     17911 |    4434     7827    16137 |     9392    15537     22 |
|     18011 |    4442     7843    16169 |    10331    10964     23 |
|     18161 |    4444     7847    16177 |    11364     8691     23 |
|     18386 |    4445     7849    16181 |    12500    15649     21 |
|     18723 |    4472     7903    16289 |    13750    15625     20 |
|     19229 |    4475     7909    16301 |    15125    12529     21 |
|     19988 |    4481     7921    16325 |    16638    12571     21 |
|     21130 |    4550     8059    16601 |    18302    15840     19 |
|     22848 |    4736     8431    17345 |    20132    19180     20 |
|     25421 |    4837     8633    17749 |    22145    15598     19 |
> restarts              : 159
> decisions             : 54060  (0 % random)
> conflicts             : 27990
> propagations          : 2327459
> conflict literals     : 2384563  (15.2843 % deleted)
> Current optimal value 131 after 9712 ms
|     27990 |    4880     8719    17921 |    13431    26764     20 |
|     28090 |    4882     8723    17929 |    14774    16635     21 |
|     28240 |    4884     8727    17937 |    16252    14914     20 |
|     28465 |    4885     8729    17941 |    17877    13264     21 |
|     28802 |    4898     8755    17993 |    19665    12448     20 |
> restarts              : 160
> decisions             : 55711  (0 % random)
> conflicts             : 28833
> propagations          : 2390811
> conflict literals     : 2454899  (15.442 % deleted)
> Current optimal value 130 after 10094 ms
|     28833 |    4898     8755    17993 |     9149    13881     20 |
|     28934 |    4905     8769    18021 |    10064     9357     21 |
|     29084 |    4906     8771    18025 |    11070    14143     21 |
|     29312 |    4913     8785    18053 |    12177    11445     20 |
|     29650 |    4914     8787    18057 |    13395     9386     21 |
|     30159 |    4920     8799    18081 |    14735    15254     20 |
|     30922 |    4943     8845    18173 |    16208    18887     19 |
|     32064 |    4957     8873    18229 |    17829    15733     19 |
> restarts              : 182
> decisions             : 64724  (0 % random)
> conflicts             : 33121
> propagations          : 2754526
> conflict literals     : 2760813  (16.3922 % deleted)
> Current optimal value 129 after 11688 ms
|     33121 |    4976     8911    18305 |     9975    16203     21 |
|     33222 |    4983     8925    18333 |    10972    10130     22 |
|     33372 |    4983     8925    18333 |    12070     9785     21 |
|     33599 |    4987     8933    18349 |    13277     9171     22 |
|     33938 |    4992     8943    18369 |    14604    13854     21 |
|     34445 |    4998     8955    18393 |    16065    19610     21 |
> restarts              : 190
> decisions             : 68025  (0 % random)
> conflicts             : 35077
> propagations          : 2921555
> conflict literals     : 2919177  (16.8186 % deleted)
> Current optimal value 128 after 12310 ms
|     35077 |    5001     8961    18405 |     8418    11482     22 |
|     35177 |    5007     8973    18429 |     9260     7849     24 |
|     35327 |    5007     8973    18429 |    10186    12701     23 |
|     35552 |    5007     8973    18429 |    11204    13478     21 |
|     35889 |    5007     8973    18429 |    12325     9821     22 |
|     36395 |    5007     8973    18429 |    13557    14044     20 |
|     37159 |    5021     9001    18485 |    14913    14097     21 |
|     38305 |    5036     9031    18545 |    16404     8549     21 |
|     40019 |    5053     9064    18611 |    18045     9189     21 |
> restarts              : 216
> decisions             : 79422  (0 % random)
> conflicts             : 41295
> propagations          : 3441421
> conflict literals     : 3415575  (17.7348 % deleted)
> Current optimal value 127 after 14577 ms
|     41295 |    5067     9092    18667 |    10520    17656     21 |
|     41395 |    5068     9094    18671 |    11572    13724     21 |
|     41547 |    5073     9104    18691 |    12729     8587     22 |
|     41773 |    5078     9114    18711 |    14002     9186     22 |
|     42111 |    5080     9118    18719 |    15402     8101     22 |
|     42617 |    5082     9122    18727 |    16942    11175     20 |
|     43377 |    5087     9132    18747 |    18636    16424     18 |
|     44517 |    5088     9134    18751 |    20500    15529     18 |
> restarts              : 229
> decisions             : 87056  (0 % random)
> conflicts             : 45426
> propagations          : 3775259
> conflict literals     : 3684112  (18.2737 % deleted)
> Current optimal value 126 after 16206 ms
|     45426 |    5105     9168    18819 |    10079    16258     20 |
|     45526 |    5110     9178    18839 |    11087    11160     22 |
> restarts              : 230
> decisions             : 87298  (0 % random)
> conflicts             : 45575
> propagations          : 3787756
> conflict literals     : 3693129  (18.3065 % deleted)
> Current optimal value 125 after 16246 ms
|     45575 |    5110     9178    18839 |     8840    12531     21 |
|     45675 |    5111     9180    18843 |     9724     9523     22 |
|     45826 |    5114     9186    18855 |    10696    14595     21 |
|     46053 |    5118     9194    18871 |    11766     8195     22 |
|     46392 |    5120     9198    18879 |    12943    14221     20 |
|     46899 |    5123     9204    18891 |    14237    14960     20 |
|     47660 |    5124     9206    18895 |    15661     9377     20 |
|     48806 |    5133     9224    18931 |    17227    14722     20 |
|     50520 |    5148     9253    18989 |    18950    20653     19 |
> restarts              : 252
> decisions             : 97506  (0 % random)
> conflicts             : 50553
> propagations          : 4214128
> conflict literals     : 4054426  (18.5625 % deleted)
> Current optimal value 124 after 18224 ms
|     50553 |    5148     9253    18989 |    12121    22298     19 |
|     50653 |    5149     9255    18993 |    13333    13645     20 |
|     50804 |    5154     9265    19013 |    14666    13507     20 |
|     51029 |    5154     9265    19013 |    16133    16189     19 |
|     51366 |    5154     9265    19013 |    17746    14207     20 |
|     51872 |    5154     9265    19013 |    19520    22525     20 |
> restarts              : 254
> decisions             : 100152  (0 % random)
> conflicts             : 51954
> propagations          : 4316359
> conflict literals     : 4146883  (18.7176 % deleted)
> Current optimal value 123 after 18749 ms
|     51954 |    5154     9265    19013 |    12781    24268     20 |
|     52054 |    5156     9269    19021 |    14059    15008     20 |
|     52204 |    5156     9269    19021 |    15465    12618     19 |
|     52429 |    5156     9269    19021 |    17012    15235     19 |
|     52766 |    5156     9269    19021 |    18713    14518     18 |
|     53272 |    5159     9275    19033 |    20585    20959     17 |
|     54032 |    5163     9283    19049 |    22643    18727     19 |
|     55171 |    5163     9283    19049 |    24907    20786     19 |
|     56879 |    5169     9295    19073 |    27398    26771     17 |
|     59441 |    5181     9319    19121 |    30138    25059     17 |
|     63285 |    5188     9333    19149 |    33152    29929     18 |
> restarts              : 270
> decisions             : 136718  (0 % random)
> conflicts             : 68863
> propagations          : 5483621
> conflict literals     : 5071836  (19.6778 % deleted)
> Current optimal value 120 after 26432 ms
|     68863 |    5215     9386    19255 |    12938    24616     19 |
|     68963 |    5219     9394    19271 |    14231    14857     20 |
> restarts              : 271
> decisions             : 136966  (0 % random)
> conflicts             : 69014
> propagations          : 5497565
> conflict literals     : 5080986  (19.6914 % deleted)
> Current optimal value 119 after 26471 ms
|     69014 |    5219     9394    19271 |    10061    15979     20 |
> restarts              : 272
> decisions             : 136992  (0 % random)
> conflicts             : 69015
> propagations          : 5502832
> conflict literals     : 5081043  (19.6919 % deleted)
> Current optimal value 118 after 26476 ms
|     69015 |    5223     9402    19287 |     7413     8025     20 |
|     69116 |    5224     9404    19291 |     8154     4594     18 |
|     69266 |    5224     9404    19291 |     8969    10148     19 |
> restarts              : 275
> decisions             : 137796  (0 % random)
> conflicts             : 69392
> propagations          : 5538108
> conflict literals     : 5099182  (19.7398 % deleted)
> Current optimal value 117 after 26602 ms
|     69392 |    5224     9404    19291 |     7684     8838     20 |
> restarts              : 276
> decisions             : 137835  (0 % random)
> conflicts             : 69395
> propagations          : 5543396
> conflict literals     : 5099349  (19.74 % deleted)
> Current optimal value 116 after 26607 ms
|     69395 |    5228     9412    19307 |     6254     4540     19 |
|     69496 |    5234     9424    19331 |     6880     7846     19 |
|     69646 |    5234     9424    19331 |     7568    10041     19 |
|     69872 |    5236     9428    19339 |     8324     7716     18 |
|     70212 |    5245     9446    19375 |     9157     6647     19 |
|     70721 |    5251     9458    19399 |    10073    13466     17 |
|     71481 |    5255     9466    19415 |    11080     7995     18 |
> restarts              : 287
> decisions             : 143266  (0 % random)
> conflicts             : 71915
> propagations          : 5769759
> conflict literals     : 5240732  (19.7879 % deleted)
> Current optimal value 115 after 27872 ms
|     71915 |    5262     9480    19443 |     8625    11585     18 |
|     72015 |    5266     9488    19459 |     9488     9350     18 |
|     72165 |    5266     9488    19459 |    10437     7912     19 |
> restarts              : 288
> decisions             : 143794  (0 % random)
> conflicts             : 72181
> propagations          : 5789444
> conflict literals     : 5256608  (19.8198 % deleted)
> Current optimal value 114 after 27963 ms
|     72181 |    5266     9488    19459 |     7556     8370     19 |
|     72281 |    5268     9492    19467 |     8312     7380     18 |
|     72431 |    5268     9492    19467 |     9143     7003     19 |
|     72656 |    5268     9492    19467 |    10057    10817     18 |
|     72993 |    5268     9492    19467 |    11063    10151     19 |
|     73500 |    5270     9496    19475 |    12170    13397     18 |
> restarts              : 292
> decisions             : 146621  (0 % random)
> conflicts             : 73707
> propagations          : 5907676
> conflict literals     : 5345395  (19.899 % deleted)
> Current optimal value 113 after 28493 ms
|     73707 |    5272     9500    19483 |     8530    11279     20 |
> restarts              : 293
> decisions             : 146679  (0 % random)
> conflicts             : 73732
> propagations          : 5914204
> conflict literals     : 5346967  (19.9057 % deleted)
> Current optimal value 109 after 28501 ms
|     73732 |    5274     9504    19491 |     6828     6170     20 |
|     73833 |    5287     9529    19541 |     7511     5597     18 |
|     73984 |    5292     9539    19561 |     8262     9024     19 |
|     74211 |    5296     9547    19577 |     9088     7094     20 |
|     74550 |    5300     9555    19593 |     9997    10285     19 |
> restarts              : 301
> decisions             : 149328  (0 % random)
> conflicts             : 74876
> propagations          : 6023746
> conflict literals     : 5418465  (19.9911 % deleted)
> Current optimal value 108 after 29003 ms
|     74876 |    5300     9555    19593 |     8384    10785     19 |
> restarts              : 302
> decisions             : 149360  (0 % random)
> conflicts             : 74883
> propagations          : 6029409
> conflict literals     : 5418852  (19.9931 % deleted)
> Current optimal value 106 after 29008 ms
|     74883 |    5303     9561    19605 |     6662     5614     18 |
|     74983 |    5321     9597    19677 |     7328     8598     19 |
|     75135 |    5328     9611    19705 |     8061     5447     17 |
|     75361 |    5330     9615    19713 |     8867     8524     17 |
|     75701 |    5340     9635    19753 |     9754     7200     18 |
|     76209 |    5345     9645    19773 |    10729     7553     19 |
|     76973 |    5345     9645    19773 |    11802    12208     18 |
|     78114 |    5394     9743    19969 |    12983    10681     17 |
|     79823 |    5404     9763    20009 |    14281    13036     16 |
> restarts              : 319
> decisions             : 162242  (0 % random)
> conflicts             : 80524
> propagations          : 6497420
> conflict literals     : 5711460  (20.1521 % deleted)
> Current optimal value 105 after 31799 ms
|     80524 |    5404     9763    20009 |     8737    11638     17 |
|     80624 |    5408     9771    20025 |     9611     9140     17 |
|     80774 |    5408     9771    20025 |    10572    14064     18 |
|     80999 |    5408     9771    20025 |    11629    14676     18 |
> restarts              : 320
> decisions             : 163388  (0 % random)
> conflicts             : 81126
> propagations          : 6533080
> conflict literals     : 5741405  (20.2044 % deleted)
> Current optimal value 104 after 31987 ms
|     81126 |    5408     9771    20025 |     8442    10744     17 |
> restarts              : 321
> decisions             : 163420  (0 % random)
> conflicts             : 81127
> propagations          : 6538563
> conflict literals     : 5741462  (20.2052 % deleted)
> Current optimal value 103 after 31993 ms
|     81127 |    5415     9785    20053 |     6706     5523     17 |
|     81227 |    5417     9789    20061 |     7377     8133     18 |
|     81377 |    5417     9789    20061 |     8115     7529     18 |
|     81602 |    5417     9789    20061 |     8926    11330     18 |
|     81939 |    5417     9789    20061 |     9819    10556     18 |
|     82445 |    5417     9789    20061 |    10801     8336     18 |
|     83207 |    5426     9807    20097 |    11881    11398     19 |
|     84353 |    5436     9827    20137 |    13069    12277     19 |
> restarts              : 334
> decisions             : 170376  (0 % random)
> conflicts             : 85049
> propagations          : 6823879
> conflict literals     : 5958360  (20.7409 % deleted)
> Current optimal value 102 after 33294 ms
|     85049 |    5444     9843    20169 |     8763    11634     20 |
|     85149 |    5448     9851    20185 |     9639     9659     20 |
|     85299 |    5448     9851    20185 |    10603     8846     19 |
|     85524 |    5448     9851    20185 |    11663     9065     19 |
|     85863 |    5452     9859    20201 |    12829    10650     19 |
|     86372 |    5456     9867    20217 |    14112    10380     19 |
|     87135 |    5466     9887    20257 |    15524    14797     18 |
|     88279 |    5470     9895    20273 |    17076    19377     19 |
|     89988 |    5471     9897    20277 |    18784    14181     17 |
|     92564 |    5498     9951    20385 |    20662    18410     18 |
|     96424 |    5532    10019    20521 |    22728    16407     20 |
> restarts              : 382
> decisions             : 198532  (0 % random)
> conflicts             : 99647
> propagations          : 7989787
> conflict literals     : 6735708  (22.071 % deleted)
> Current optimal value 100 after 38681 ms
|     99647 |    5537    10029    20541 |     9857    14732     20 |
> restarts              : 383
> decisions             : 198586  (0 % random)
> conflicts             : 99648
> propagations          : 7995331
> conflict literals     : 6735796  (22.0708 % deleted)
> Current optimal value 95 after 38687 ms
|     99648 |    5540    10035    20553 |     7414     7395     20 |
|     99748 |    5551    10057    20597 |     8155    10219     20 |
|     99898 |    5551    10057    20597 |     8970     8629     20 |
> restarts              : 384
> decisions             : 199028  (0 % random)
> conflicts             : 99949
> propagations          : 8019842
> conflict literals     : 6754827  (22.1094 % deleted)
> Current optimal value 90 after 38771 ms
|     99949 |    5551    10057    20597 |     8222     9799     20 |
|    100049 |    5552    10059    20601 |     9044     7946     20 |
|    100199 |    5552    10059    20601 |     9949    13307     20 |
|    100424 |    5552    10059    20601 |    10944    13495     20 |
|    100761 |    5552    10059    20601 |    12038    10458     20 |
|    101267 |    5552    10059    20601 |    13242    13044     20 |
|    102030 |    5567    10089    20661 |    14566    11355     20 |
|    103175 |    5578    10111    20705 |    16023    15342     20 |
|    104889 |    5603    10161    20805 |    17626    14687     19 |
|    107463 |    5631    10217    20917 |    19388    23480     18 |
|    111321 |    5652    10259    21001 |    21327    16536     19 |
> restarts              : 445
> decisions             : 228696  (0 % random)
> conflicts             : 116110
> propagations          : 9374824
> conflict literals     : 7703353  (23.5295 % deleted)
> Current optimal value 89 after 44400 ms
|    116110 |    5668    10291    21065 |    10760    17178     20 |
|    116210 |    5682    10319    21121 |    11836    11343     20 |
|    116360 |    5682    10319    21121 |    13020     8969     19 |
|    116585 |    5682    10319    21121 |    14322    10490     19 |
|    116922 |    5682    10319    21121 |    15754    19057     18 |
|    117429 |    5688    10331    21145 |    17329    12247     17 |
|    118193 |    5702    10359    21201 |    19062    18632     19 |
|    119339 |    5708    10371    21225 |    20968    22219     19 |
> restarts              : 461
> decisions             : 236145  (0 % random)
> conflicts             : 120065
> propagations          : 9717377
> conflict literals     : 7922810  (23.7115 % deleted)
> Current optimal value 88 after 45843 ms
|    120065 |    5715    10385    21253 |     9565    13500     19 |
|    120165 |    5717    10389    21261 |    10522    11717     19 |
|    120315 |    5717    10389    21261 |    11574    10839     18 |
|    120540 |    5717    10389    21261 |    12731    11604     18 |
|    120879 |    5717    10389    21261 |    14005    12335     18 |
|    121389 |    5721    10397    21277 |    15405    11965     18 |
|    122152 |    5726    10407    21297 |    16946    12820     18 |
|    123295 |    5731    10417    21317 |    18640    12312     17 |
|    125004 |    5731    10417    21317 |    20504    19058     17 |
|    127580 |    5744    10443    21369 |    22555    25963     17 |
|    131440 |    5755    10465    21413 |    24810    15200     17 |
|    137209 |    5757    10469    21421 |    27291    15963     19 |
|    145859 |    5760    10475    21433 |    30021    19088     18 |
|    158834 |    5764    10483    21449 |    33023    24775     17 |
|    178295 |    5771    10497    21477 |    36325    23035     17 |
> restarts              : 561
> decisions             : 387165  (0 % random)
> conflicts             : 192808
> propagations          : 15195401
> conflict literals     : 11025622  (28.1027 % deleted)
> Current optimal value 86 after 76344 ms
|    192808 |    5807    10569    21621 |    15694    31703     18 |
|    192909 |    5810    10575    21633 |    17264     9420     17 |
|    193060 |    5810    10575    21633 |    18990    13148     18 |
|    193286 |    5810    10575    21633 |    20889    22318     19 |
|    193624 |    5810    10575    21633 |    22978    12952     18 |
|    194134 |    5812    10579    21641 |    25276    15423     19 |
|    194896 |    5812    10579    21641 |    27804    25022     18 |
|    196036 |    5815    10585    21653 |    30584    22294     18 |
|    197745 |    5818    10591    21665 |    33642    35639     18 |
|    200307 |    5818    10591    21665 |    37007    39075     17 |
|    204171 |    5827    10609    21701 |    40707    29013     17 |
> restarts              : 606
> decisions             : 416539  (0 % random)
> conflicts             : 207311
> propagations          : 16406543
> conflict literals     : 11696119  (28.456 % deleted)
> Current optimal value 85 after 82056 ms
|    207311 |    5840    10635    21753 |    20263    45343     18 |
|    207411 |    5844    10643    21769 |    22289    14446     17 |
|    207561 |    5844    10643    21769 |    24518    21133     18 |
|    207786 |    5844    10643    21769 |    26970    30399     18 |
|    208123 |    5844    10643    21769 |    29667    29628     18 |
|    208631 |    5844    10643    21769 |    32634    34732     18 |
|    209394 |    5847    10649    21781 |    35897    37059     17 |
|    210540 |    5855    10665    21813 |    39487    39030     17 |
|    212255 |    5855    10665    21813 |    43436    31807     17 |
|    214827 |    5858    10671    21825 |    47779    31215     17 |
|    218672 |    5862    10679    21841 |    52557    32272     18 |
|    224439 |    5864    10683    21849 |    57813    52300     18 |
|    233119 |    5887    10729    21941 |    63595    41120     18 |
> restarts              : 702
> decisions             : 487325  (0 % random)
> conflicts             : 243215
> propagations          : 19497056
> conflict literals     : 13242330  (29.4298 % deleted)
> Current optimal value 84 after 97270 ms
|    243215 |    5917    10789    22061 |    27849    67946     19 |
> restarts              : 703
> decisions             : 487363  (0 % random)
> conflicts             : 243216
> propagations          : 19502976
> conflict literals     : 13242369  (29.4298 % deleted)
> Current optimal value 83 after 97286 ms
|    243216 |    5918    10791    22065 |    10875    17023     18 |
|    243316 |    5920    10795    22073 |    11962    11969     17 |
> restarts              : 704
> decisions             : 487703  (0 % random)
> conflicts             : 243398
> propagations          : 19518754
> conflict literals     : 13251356  (29.438 % deleted)
> Current optimal value 81 after 97338 ms
|    243398 |    5920    10795    22073 |     9954    14256     18 |
|    243498 |    5921    10797    22077 |    10949    10820     17 |
|    243648 |    5921    10797    22077 |    12044     8827     17 |
|    243873 |    5921    10797    22077 |    13249    17280     18 |
|    244210 |    5921    10797    22077 |    14574    12060     18 |
|    244716 |    5921    10797    22077 |    16031    14917     18 |
> restarts              : 705
> decisions             : 490031  (0 % random)
> conflicts             : 244790
> propagations          : 19618015
> conflict literals     : 13332884  (29.4551 % deleted)
> Current optimal value 79 after 97812 ms
|    244790 |    5921    10797    22077 |    11223    18060     18 |
|    244890 |    5921    10797    22077 |    12345    14268     18 |
|    245040 |    5921    10797    22077 |    13579    10251     17 |
|    245267 |    5922    10799    22081 |    14937    10837     17 |
|    245605 |    5925    10805    22093 |    16431    19102     18 |
|    246114 |    5927    10809    22101 |    18074    18155     18 |
|    246877 |    5932    10819    22121 |    19882    21430     17 |
|    248020 |    5933    10821    22125 |    21870    13107     16 |
|    249738 |    5938    10831    22145 |    24057    17262     16 |
|    252303 |    5938    10831    22145 |    26463    15056     17 |
> restarts              : 733
> decisions             : 505417  (0 % random)
> conflicts             : 252497
> propagations          : 20297922
> conflict literals     : 13681198  (29.6335 % deleted)
> Current optimal value 77 after 100805 ms
|    252497 |    5938    10831    22145 |    12724    22530     18 |
|    252597 |    5941    10837    22157 |    13996    13931     17 |
|    252749 |    5946    10847    22177 |    15396    10094     16 |
|    252975 |    5946    10847    22177 |    16936    10668     16 |
|    253315 |    5946    10847    22177 |    18629    10777     17 |
|    253823 |    5950    10855    22193 |    20492    10774     17 |
|    254587 |    5961    10877    22237 |    22541    16638     17 |
|    255728 |    5961    10877    22237 |    24796    13635     16 |
> restarts              : 751
> decisions             : 512570  (0 % random)
> conflicts             : 256088
> propagations          : 20616113
> conflict literals     : 13842866  (29.7592 % deleted)
> Current optimal value 76 after 102050 ms
|    256088 |    5961    10877    22237 |    15115    29658     18 |
|    256189 |    5967    10889    22261 |    16627    17650     18 |
> restarts              : 754
> decisions             : 512975  (0 % random)
> conflicts             : 256299
> propagations          : 20644007
> conflict literals     : 13853285  (29.7669 % deleted)
> Current optimal value 75 after 102110 ms
|    256299 |    5967    10889    22261 |     9012    11337     17 |
> restarts              : 755
> decisions             : 513009  (0 % random)
> conflicts             : 256300
> propagations          : 20649983
> conflict literals     : 13853321  (29.767 % deleted)
> Current optimal value 72 after 102115 ms
|    256300 |    5968    10891    22265 |     7155     5764     13 |
|    256401 |    5968    10891    22265 |     7871     4952     12 |
|    256552 |    5968    10891    22265 |     8658     6839     14 |
> restarts              : 758
> decisions             : 513749  (0 % random)
> conflicts             : 256673
> propagations          : 20690371
> conflict literals     : 13870318  (29.7728 % deleted)
> Current optimal value 71 after 102257 ms
|    256673 |    5968    10891    22265 |     9221    11962     16 |
> restarts              : 760
> decisions             : 513994  (0 % random)
> conflicts             : 256771
> propagations          : 20707849
> conflict literals     : 13874440  (29.7771 % deleted)
> Current optimal value 70 after 102303 ms
|    256771 |    5970    10895    22273 |     8863    10884     16 |
|    256872 |    5972    10899    22281 |     9750    10025     15 |
|    257022 |    5972    10899    22281 |    10725    12646     15 |
|    257248 |    5972    10899    22281 |    11797     8803     15 |
|    257585 |    5972    10899    22281 |    12977    12694     16 |
|    258092 |    5981    10917    22317 |    14275    15805     17 |
|    258851 |    5981    10917    22317 |    15702    18460     17 |
|    259991 |    5984    10923    22329 |    17272    13201     16 |
|    261699 |    5984    10923    22329 |    19000    15541     16 |
|    264262 |    5986    10927    22337 |    20900    12710     15 |
|    268106 |    5986    10927    22337 |    22990    14454     15 |
|    273873 |    5990    10935    22353 |    25289    16980     17 |
|    282527 |    5992    10939    22361 |    27817    20774     15 |
|    295556 |    6009    10973    22429 |    30599    27428     16 |
> restarts              : 861
> decisions             : 619080  (0 % random)
> conflicts             : 307809
> propagations          : 24711585
> conflict literals     : 15835128  (31.098 % deleted)
> Current optimal value 69 after 123807 ms
|    307809 |    6058    11071    22625 |    15731    31311     18 |
|    307909 |    6059    11073    22629 |    17304    18560     17 |
|    308059 |    6059    11073    22629 |    19034    22944     18 |
|    308284 |    6059    11073    22629 |    20938    19859     18 |
|    308621 |    6059    11073    22629 |    23032    23628     17 |
|    309127 |    6059    11073    22629 |    25335    18424     17 |
|    309891 |    6062    11079    22641 |    27869    29600     16 |
|    311037 |    6065    11085    22653 |    30655    32069     17 |
|    312751 |    6065    11085    22653 |    33721    18361     17 |
|    315324 |    6071    11097    22677 |    37093    21793     16 |
|    319170 |    6073    11101    22685 |    40803    22870     17 |
|    324937 |    6073    11101    22685 |    44883    44520     18 |
|    333617 |    6090    11135    22753 |    49371    31911     17 |
|    346629 |    6098    11151    22785 |    54308    32416     16 |
> restarts              : 987
> decisions             : 702496  (0 % random)
> conflicts             : 352106
> propagations          : 28141764
> conflict literals     : 17833725  (32.8699 % deleted)
> Current optimal value 68 after 139936 ms
|    352106 |    6117    11189    22861 |    15974    31921     17 |
> restarts              : 988
> decisions             : 702560  (0 % random)
> conflicts             : 352129
> propagations          : 28148830
> conflict literals     : 17835157  (32.8716 % deleted)
> Current optimal value 67 after 139946 ms
|    352129 |    6119    11193    22869 |    10725    16171     16 |
|    352229 |    6121    11197    22877 |    11797     9776     16 |
|    352380 |    6121    11197    22877 |    12977    14155     17 |
|    352607 |    6122    11199    22881 |    14275     8595     15 |
|    352946 |    6122    11199    22881 |    15702    14555     16 |
|    353454 |    6126    11207    22897 |    17273    13357     15 |
|    354219 |    6130    11215    22913 |    19000    13781     15 |
|    355359 |    6130    11215    22913 |    20900    21109     15 |
|    357078 |    6135    11225    22933 |    22990    25317     16 |
|    359645 |    6139    11233    22949 |    25289    24649     14 |
|    363491 |    6147    11249    22981 |    27818    18361     14 |
|    369257 |    6148    11251    22985 |    30600    20974     15 |
|    377907 |    6151    11257    22997 |    33660    24233     16 |
> restarts              : 1023
> decisions             : 784405  (0 % random)
> conflicts             : 390423
> propagations          : 30652030
> conflict literals     : 19235960  (34.7917 % deleted)
> Current optimal value 66 after 154916 ms
|    390423 |    6153    11261    23005 |    15296    29815     17 |
|    390523 |    6156    11267    23017 |    16825    17635     16 |
|    390673 |    6156    11267    23017 |    18508    11703     16 |
|    390898 |    6156    11267    23017 |    20358    22799     17 |
|    391235 |    6156    11267    23017 |    22394    22794     17 |
|    391741 |    6156    11267    23017 |    24634    19146     15 |
|    392500 |    6156    11267    23017 |    27097    21048     16 |
|    393639 |    6156    11267    23017 |    29807    29015     16 |
> restarts              : 1024
> decisions             : 792100  (0 % random)
> conflicts             : 394582
> propagations          : 30901856
> conflict literals     : 19392183  (35.0137 % deleted)
> Current optimal value 64 after 156449 ms
|    394582 |    6156    11267    23017 |    16831    34416     17 |
|    394682 |    6157    11269    23021 |    18514    19500     16 |
|    394832 |    6157    11269    23021 |    20366    13153     15 |
|    395057 |    6157    11269    23021 |    22402    22082     16 |
|    395394 |    6157    11269    23021 |    24643    23048     16 |
|    395900 |    6157    11269    23021 |    27107    18409     15 |
|    396659 |    6157    11269    23021 |    29818    32168     16 |
|    397798 |    6157    11269    23021 |    32800    33219     16 |
|    399506 |    6157    11269    23021 |    36080    20451     15 |
> restarts              : 1025
> decisions             : 806009  (0 % random)
> conflicts             : 401703
> propagations          : 31337023
> conflict literals     : 19662867  (35.3641 % deleted)
> Current optimal value 63 after 159141 ms
|    401703 |    6159    11273    23029 |    16543    33546     16 |
|    401803 |    6159    11273    23029 |    18198    20564     16 |
|    401953 |    6159    11273    23029 |    20017    12822     15 |
|    402178 |    6159    11273    23029 |    22019    14337     14 |
|    402515 |    6159    11273    23029 |    24221    27737     15 |
|    403021 |    6159    11273    23029 |    26643    18219     15 |
|    403780 |    6166    11287    23057 |    29308    28503     14 |
|    404919 |    6167    11289    23061 |    32238    20086     14 |
|    406627 |    6168    11291    23065 |    35462    20956     15 |
|    409194 |    6172    11299    23081 |    39009    24007     15 |
|    413059 |    6183    11321    23125 |    42910    28723     16 |
|    418843 |    6193    11341    23165 |    47201    44886     18 |
|    427512 |    6203    11361    23205 |    51921    33379     17 |
|    440543 |    6225    11405    23293 |    57113    48786     18 |
> restarts              : 1151
> decisions             : 902622  (0 % random)
> conflicts             : 452462
> propagations          : 35080850
> conflict literals     : 21754148  (36.9837 % deleted)
> Current optimal value 61 after 176313 ms
|    452462 |    6227    11409    23301 |    19301    41684     17 |
|    452562 |    6229    11413    23309 |    21231    22743     17 |
|    452712 |    6229    11413    23309 |    23355    27157     17 |
|    452939 |    6230    11415    23313 |    25690    20198     17 |
|    453278 |    6230    11415    23313 |    28259    14945     17 |
|    453786 |    6232    11419    23321 |    31085    18667     16 |
|    454551 |    6235    11425    23333 |    34194    30507     17 |
|    455692 |    6236    11427    23337 |    37613    23491     16 |
|    457410 |    6250    11455    23393 |    41374    28352     16 |
|    459978 |    6253    11461    23405 |    45512    28832     17 |
|    463837 |    6258    11471    23425 |    50063    51303     17 |
|    469620 |    6260    11475    23433 |    55069    28960     15 |
|    478299 |    6269    11493    23469 |    60576    36574     16 |
> restarts              : 1259
> decisions             : 963217  (0 % random)
> conflicts             : 482178
> propagations          : 37618552
> conflict literals     : 22898285  (37.5545 % deleted)
> Current optimal value 59 after 187957 ms
|    482178 |    6271    11497    23477 |    27006    64711     16 |
|    482278 |    6275    11505    23493 |    29707    18967     15 |
|    482430 |    6275    11505    23493 |    32678    29822     15 |
|    482656 |    6275    11505    23493 |    35945    38400     16 |
|    482996 |    6277    11509    23501 |    39540    39613     15 |
|    483504 |    6278    11511    23505 |    43494    37465     16 |
|    484268 |    6278    11511    23505 |    47843    29984     15 |
|    485409 |    6279    11513    23509 |    52628    44445     16 |
|    487119 |    6286    11527    23537 |    57891    52113     16 |
> restarts              : 1277
> decisions             : 975494  (0 % random)
> conflicts             : 488405
> propagations          : 38067183
> conflict literals     : 23084703  (37.7052 % deleted)
> Current optimal value 58 after 190108 ms
|    488405 |    6286    11527    23537 |    17179    35198     17 |
|    488505 |    6288    11531    23545 |    18896    20124     15 |
|    488655 |    6288    11531    23545 |    20786    24850     16 |
|    488880 |    6288    11531    23545 |    22865    20284     15 |
|    489217 |    6288    11531    23545 |    25151    28416     14 |
|    489723 |    6289    11533    23549 |    27666    26572     14 |
|    490483 |    6289    11533    23549 |    30433    31456     14 |
|    491622 |    6289    11533    23549 |    33477    26765     14 |
|    493330 |    6295    11545    23573 |    36824    24949     13 |
|    495892 |    6301    11557    23597 |    40507    36216     13 |
|    499736 |    6312    11579    23641 |    44557    36018     13 |
|    505517 |    6339    11633    23749 |    49013    31255     14 |
|    514197 |    6355    11665    23813 |    53915    36388     15 |
> restarts              : 1329
> decisions             : 1035463  (0 % random)
> conflicts             : 514794
> propagations          : 40164235
> conflict literals     : 23883399  (38.0763 % deleted)
> Current optimal value 57 after 202836 ms
|    514794 |    6356    11667    23817 |    17039    34640     16 |
|    514895 |    6357    11669    23821 |    18743    12086     14 |
|    515046 |    6358    11671    23825 |    20617    18361     15 |
|    515271 |    6358    11671    23825 |    22679    19275     15 |
|    515611 |    6361    11677    23837 |    24947    20300     15 |
|    516120 |    6363    11681    23845 |    27442    23620     14 |
|    516881 |    6365    11685    23853 |    30186    31363     15 |
|    518021 |    6366    11687    23857 |    33205    25116     15 |
|    519730 |    6366    11687    23857 |    36526    31930     15 |
|    522293 |    6367    11689    23861 |    40178    25117     15 |
|    526157 |    6369    11693    23869 |    44196    32984     16 |
|    531945 |    6372    11699    23881 |    48616    24189     15 |
|    540614 |    6373    11701    23885 |    53477    48565     13 |
|    553619 |    6374    11703    23889 |    58825    39889     15 |
|    573143 |    6375    11705    23893 |    64708    63199     15 |
|    602370 |    6383    11721    23925 |    71178    69441     14 |
|    646222 |    6398    11751    23985 |    78296    45859     14 |
|    712097 |    6420    11795    24073 |    86126    55750     15 |
> restarts              : 1790
> decisions             : 1520491  (0 % random)
> conflicts             : 723043
> propagations          : 57461218
> conflict literals     : 29571564  (41.3222 % deleted)
> Current optimal value 56 after 305467 ms
|    723043 |    6422    11799    24081 |    24961    58272     15 |
|    723143 |    6422    11799    24081 |    27457    31465     16 |
|    723293 |    6422    11799    24081 |    30202    20882     15 |
|    723518 |    6422    11799    24081 |    33223    35802     16 |
|    723855 |    6422    11799    24081 |    36545    36676     15 |
|    724361 |    6422    11799    24081 |    40199    36372     16 |
|    725120 |    6422    11799    24081 |    44219    42459     16 |
|    726259 |    6422    11799    24081 |    48641    41662     15 |
|    727967 |    6422    11799    24081 |    53506    34242     16 |
|    730529 |    6422    11799    24081 |    58856    56339     15 |
|    734379 |    6422    11799    24081 |    64742    36724     17 |
|    740169 |    6422    11799    24081 |    71216    69098     17 |
|    748849 |    6422    11799    24081 |    78338    70446     16 |
|    761864 |    6431    11817    24117 |    86172    54538     16 |
> restarts              : 1916
> decisions             : 1620206  (0 % random)
> conflicts             : 771442
> propagations          : 61264559
> conflict literals     : 30951122  (42.3036 % deleted)
> Current optimal value 54 after 325070 ms
|    771442 |    6433    11821    24125 |    28854    69931     16 |
|    771542 |    6433    11821    24125 |    31740    20115     14 |
|    771692 |    6433    11821    24125 |    34914    25103     15 |
|    771920 |    6433    11821    24125 |    38405    33888     15 |
|    772259 |    6433    11821    24125 |    42246    25995     14 |
|    772767 |    6433    11821    24125 |    46470    28341     14 |
|    773532 |    6434    11823    24129 |    51117    38371     15 |
|    774673 |    6434    11823    24129 |    56229    32823     14 |
|    776391 |    6434    11823    24129 |    61852    52303     15 |
|    778959 |    6434    11823    24129 |    68037    65799     16 |
|    782818 |    6437    11829    24141 |    74841    59268     16 |
|    788601 |    6437    11829    24141 |    82325    55560     15 |
|    797280 |    6438    11831    24145 |    90558    45180     13 |
|    810288 |    6441    11837    24157 |    99614    92855     14 |
|    829751 |    6443    11841    24165 |   109575    64220     14 |
|    858944 |    6444    11843    24169 |   120533    71141     14 |
|    902733 |    6444    11843    24169 |   132586   100240     16 |
|    968418 |    6445    11845    24173 |   145845   123524     15 |
|   1067132 |    6452    11859    24201 |   160429   115212     14 |
|   1215244 |    6492    11939    24361 |   176472   117642     15 |
