Starting solving at: 42 ms
done
PrepModelIt duration: 48 ms
> Current optimal value 168 after 48 ms
> Current optimal value 161 after 40 ms
> Current optimal value 156 after 43 ms
> Current optimal value 147 after 46 ms
> Current optimal value 135 after 51 ms
> Current optimal value 129 after 79 ms
> Current optimal value 127 after 84 ms
> Current optimal value 119 after 87 ms
> Current optimal value 98 after 90 ms
> Current optimal value 95 after 95 ms
> Current optimal value 88 after 109 ms
> Current optimal value 87 after 51422 ms
> Current optimal value 84 after 52388 ms
> Current optimal value 82 after 52413 ms
> Current optimal value 81 after 52589 ms
> Current optimal value 78 after 52749 ms
> Current optimal value 77 after 57233 ms
> Current optimal value 72 after 57349 ms
> Current optimal value 69 after 57822 ms
> Current optimal value 66 after 57895 ms
> Current optimal value 64 after 71563 ms
