Starting solving at: 41 ms
done
PrepModelIt duration: 46 ms
> Current optimal value 141 after 47 ms
> Current optimal value 128 after 40 ms
> Current optimal value 120 after 44 ms
> Current optimal value 117 after 50 ms
> Current optimal value 116 after 55 ms
> Current optimal value 112 after 82 ms
> Current optimal value 100 after 90 ms
> Current optimal value 88 after 93 ms
> Current optimal value 82 after 96 ms
> Current optimal value 81 after 87094 ms
> Current optimal value 78 after 87520 ms
> Current optimal value 76 after 87548 ms
> Current optimal value 74 after 87553 ms
> Current optimal value 73 after 87560 ms
> Current optimal value 66 after 87601 ms
> Current optimal value 60 after 87682 ms
> Current optimal value 56 after 146422 ms
