Starting solving at: 55 ms
done
PrepModelIt duration: 72 ms
> Current optimal value 383 after 73 ms
> Current optimal value 371 after 98 ms
> Current optimal value 349 after 138 ms
> Current optimal value 344 after 156 ms
> Current optimal value 339 after 177 ms
> Current optimal value 334 after 6126 ms
> Current optimal value 325 after 6180 ms
> Current optimal value 319 after 6188 ms
> Current optimal value 315 after 6204 ms
> Current optimal value 312 after 6232 ms
> Current optimal value 307 after 6796 ms
> Current optimal value 294 after 6887 ms
