alpha: 0.5
beta: 0.5
gamma: 1.5
stagT: 5
Random frameSizes and framesize is choosen randomly between 1 - maxframesize
When an improvement is found the usefullFramesize is set to the size of the removedassumptions
Maximum runtime: 600

Starting solving at: 1438 ms
done
PrepModelIt duration: 90168 ms
amount madeAssumptions: 1491
Objval best sol: 36
search limit: 137980
useful search limit: 137980
max frame size: 1336
frame size: 668
useful frame size: 668
stag: 0/5
total spend time up to now: 90161 ms
max time: 600
> Current optimal value 36 after 90169 ms
