alpha: 0.5
beta: 0.5
gamma: 1.5
stagT: 5
Random frameSizes and framesize is choosen randomly between 1 - maxframesize
When an improvement is found the usefullFramesize is set to the size of the removedassumptions
Maximum runtime: 600

Starting solving at: 898 ms
done
PrepModelIt duration: 87284 ms
amount madeAssumptions: 1119
Objval best sol: 24
search limit: 172701
useful search limit: 172701
max frame size: 992
frame size: 496
useful frame size: 496
stag: 0/5
total spend time up to now: 87277 ms
max time: 600
> Current optimal value 24 after 87286 ms
no more models to explore, program will end
end program after: 264801 ms
Total time spend: 264802 ms
Amount of new found models: 10
Feasible object value: 24
Result object value: 24
