alpha: 0.5
beta: 0.5
gamma: 1.5
stagT: 5
Random frameSizes and framesize is choosen randomly between 1 - maxframesize
When an improvement is found the usefullFramesize is set to the size of the removedassumptions
Maximum runtime: 600

Starting solving at: 953 ms
done
PrepModelIt duration: 13249 ms
amount madeAssumptions: 1166
Objval best sol: 23
search limit: 33397
useful search limit: 33397
max frame size: 1037
frame size: 518
useful frame size: 518
stag: 0/5
total spend time up to now: 13242 ms
max time: 600
> Current optimal value 23 after 13251 ms
no more models to explore, program will end
end program after: 304883 ms
Total time spend: 304884 ms
Amount of new found models: 116
Feasible object value: 23
Result object value: 23
