alpha: 0.5
beta: 0.5
gamma: 1.5
stagT: 5
Random frameSizes and framesize is choosen randomly between 1 - maxframesize
When an improvement is found the usefullFramesize is set to the size of the removedassumptions
Maximum runtime: 600

Starting solving at: 1099 ms
done
PrepModelIt duration: 96287 ms
amount madeAssumptions: 1266
Objval best sol: 27
search limit: 148553
useful search limit: 148553
max frame size: 1129
frame size: 564
useful frame size: 564
stag: 0/5
total spend time up to now: 96279 ms
max time: 600
> Current optimal value 27 after 96288 ms
no more models to explore, program will end
end program after: 330967 ms
Total time spend: 330968 ms
Amount of new found models: 121
Feasible object value: 27
Result object value: 27
