alpha: 0.5
beta: 0.5
gamma: 1.5
stagT: 5
Random frameSizes and framesize is choosen randomly between 1 - maxframesize
When an improvement is found the usefullFramesize is set to the size of the removedassumptions
Maximum runtime: 600

Starting solving at: 4962 ms
done
PrepModelIt duration: 5600 ms
amount madeAssumptions: 10910
Objval best sol: 31
search limit: 1
useful search limit: 1
max frame size: 225
frame size: 112
useful frame size: 112
stag: 0/5
total spend time up to now: 5582 ms
max time: 600
> Current optimal value 31 after 5601 ms
> Current optimal value 30 after 10099 ms
> Current optimal value 29 after 36821 ms
> Current optimal value 28 after 217929 ms
> Current optimal value 27 after 279999 ms
