Starting solving at 3626 ms
>>> Search start
> Conflicts |          ORIGINAL         |          LEARNT          | Progress
>           |    Vars  Clauses Literals |    Limit  Clauses Lit/Cl |         
|       101 |  861900  1641969  4084500 |   821670      129    110 |
> restarts              : 3
> decisions             : 369747  (0 % random)
> conflicts             : 220
> propagations          : 10494403
> conflict literals     : 32361  (0 % deleted)
> 1 model found
>>> Search done
nrmodels&&1
total-solving-time3626 ms
First objective value: 83 at 7967 ms
DETECTED HARD NEIGHBORHOODS: 
Coloring/1 <- "c93" "c55" "c90" "c63" "c23" "c56" "c27" "c31" "c91" "c12" "c87" "c26" "c34" "c14" "c48" "c61" "c35" "c8" "c43" "c51" "c16" "c17" "c37" "c11" "c5" "c80" "c42" "c71" "c15" "c99" "c6" "c95" "c44" "c49" "c68" "c82" "c98" "c97" "c59" "c41" "c96" "c36" "c65" "c40" "c20" "c32" "c47" "c10" "c4" "c33" "c62" "c30" "c1" "c45" "c3" "c21" "c18" "c19" "c22" "c94" "c13" "c24" "c53" "c25" "c92" "c54" "c9" "c2" "c28" "c50" "c52" "c79" "c0" "c57" "c58" "c60" "c78" "c64" "c66" "c67" "c69" "c46" "c7" "c70" "c73" "c72" "c74" "c75" "c76" "c83" "c77" "c81" "c38" "c84" "c85" "c29" "c86" "c39" "c88" "c89" 
Starting local search at 9882 ms
Initial objective value: 83 at 9883 ms
Strengthened objective value: 83 at 16263 ms
Starting solving at 20665 ms
>>> Search start
|       101 |  862000  1687069  4219600 |   838450      100     24 |
|       252 |  862000  1687069  4219600 |   922295      250     16 |
|       478 |  862000  1687069  4219600 |  1014525      475     12 |
|       818 |  862000  1687069  4219600 |  1115978      812     12 |
|      1326 |  862000  1687069  4219600 |  1227575     1318     13 |
|      2090 |  862000  1687069  4219600 |  1350333     2081     17 |
|      3231 |  862000  1687069  4219600 |  1485366     3266     21 |
|      4950 |  862000  1687069  4219600 |  1633903     4992     19 |
|      7517 |  862000  1687069  4219600 |  1797293     7577     19 |
|     11377 |  862000  1687069  4219600 |  1977023    11462     19 |
|     17159 |  862000  1687069  4219600 |  2174725    17278     18 |
|     25839 |  862000  1687069  4219600 |  2392197    26003     17 |
|     38846 |  862000  1687069  4219600 |  2631417    39127     17 |
