Starting solving at 2276 ms
>>> Search start
> Conflicts |          ORIGINAL         |          LEARNT          | Progress
>           |    Vars  Clauses Literals |    Limit  Clauses Lit/Cl |         
> restarts              : 1
> decisions             : 12744  (0 % random)
> conflicts             : 0
> propagations          : 534037
> conflict literals     : 0  (-nan % deleted)
> 1 model found
>>> Search done
nrmodels&&1
total-solving-time223 ms
First objective value: 24 at 2909 ms
DETECTED HARD NEIGHBORHOODS: 
Coloring/1 <- "c95" "c93" "c41" "c27" "c99" "c12" "c5" "c82" "c34" "c61" "c15" "c91" "c56" "c23" "c31" "c2" "c3" "c43" "c98" "c51" "c16" "c85" "c37" "c59" "c30" "c88" "c71" "c42" "c49" "c39" "c68" "c47" "c76" "c97" "c72" "c40" "c92" "c20" "c46" "c54" "c44" "c62" "c9" "c33" "c94" "c90" "c38" "c36" "c65" "c4" "c10" "c48" "c96" "c32" "c84" "c45" "c74" "c0" "c1" "c18" "c19" "c13" "c21" "c22" "c24" "c53" "c25" "c28" "c50" "c7" "c52" "c55" "c57" "c58" "c6" "c60" "c63" "c64" "c66" "c67" "c69" "c70" "c73" "c75" "c77" "c26" "c78" "c79" "c8" "c80" "c29" "c81" "c11" "c83" "c14" "c86" "c35" "c87" "c17" "c89" 
Starting local search at 2986 ms
Initial objective value: 24 at 2987 ms
Strengthened objective value: 24 at 6015 ms
Starting solving at 8265 ms
>>> Search start
> restarts              : 1
> decisions             : 168  (0 % random)
> conflicts             : 0
> propagations          : 555118
> conflict literals     : 0  (-nan % deleted)
> 1 model found
>>> Search done
nrmodels&&1
total-solving-time220 ms
Starting local search at 8842 ms
Initial objective value: 23 at 8845 ms
Strengthened objective value: 23 at 12010 ms
Starting solving at 14276 ms
>>> Search start
> restarts              : 1
> decisions             : 319  (0 % random)
> conflicts             : 7
> propagations          : 563792
> conflict literals     : 426  (0 % deleted)
> 1 model found
>>> Search done
nrmodels&&1
total-solving-time303 ms
Starting local search at 14937 ms
Initial objective value: 22 at 14940 ms
Strengthened objective value: 22 at 18075 ms
Starting solving at 20356 ms
>>> Search start
> restarts              : 1
> decisions             : 456  (0 % random)
> conflicts             : 54
> propagations          : 614827
> conflict literals     : 1725  (0 % deleted)
> 1 model found
>>> Search done
nrmodels&&1
total-solving-time321 ms
Starting local search at 21033 ms
Initial objective value: 21 at 21038 ms
Strengthened objective value: 21 at 24167 ms
Starting solving at 26459 ms
>>> Search start
> restarts              : 1
> decisions             : 618  (0 % random)
> conflicts             : 28
> propagations          : 916234
> conflict literals     : 3279  (0 % deleted)
> 1 model found
>>> Search done
nrmodels&&1
total-solving-time394 ms
Starting local search at 27209 ms
Initial objective value: 20 at 27213 ms
Strengthened objective value: 20 at 30395 ms
Starting solving at 32700 ms
>>> Search start
> restarts              : 2
> decisions             : 798  (0 % random)
> conflicts             : 100
> propagations          : 1121884
> conflict literals     : 57665  (0.0398696 % deleted)
> 1 model found
>>> Search done
nrmodels&&1
total-solving-time524 ms
Starting local search at 33575 ms
Initial objective value: 19 at 33577 ms
Strengthened objective value: 19 at 36667 ms
Starting solving at 38948 ms
>>> Search start
> restarts              : 2
> decisions             : 744  (0 % random)
> conflicts             : 100
> propagations          : 1116440
> conflict literals     : 19365  (0 % deleted)
> 1 model found
>>> Search done
nrmodels&&1
total-solving-time497 ms
Starting local search at 39796 ms
Initial objective value: 18 at 39801 ms
Strengthened objective value: 18 at 42904 ms
Starting solving at 45233 ms
>>> Search start
|       101 |  534300  1145092  2899100 |   491848      100    191 |
|       252 |  534300  1145092  2899100 |   541033      250    510 |
> restarts              : 3
> decisions             : 1022  (0 % random)
> conflicts             : 254
> propagations          : 1667897
> conflict literals     : 128027  (0.010934 % deleted)
> 1 model found
>>> Search done
nrmodels&&1
total-solving-time619 ms
Starting local search at 46207 ms
Initial objective value: 17 at 46210 ms
Strengthened objective value: 17 at 49272 ms
Starting solving at 51582 ms
>>> Search start
|       101 |  534400  1159592  2942400 |   497408      102    653 |
> restarts              : 3
> decisions             : 3965  (0 % random)
> conflicts             : 223
> propagations          : 3098726
> conflict literals     : 189089  (0.0459889 % deleted)
> 1 model found
>>> Search done
nrmodels&&1
total-solving-time1183 ms
Starting local search at 53118 ms
Initial objective value: 16 at 53123 ms
Strengthened objective value: 16 at 56226 ms
Starting solving at 58606 ms
>>> Search start
|       101 |  534500  1174092  2985700 |   502968      100    169 |
|       252 |  534500  1174092  2985700 |   553265      251   1036 |
> restarts              : 4
> decisions             : 5386  (0 % random)
> conflicts             : 345
> propagations          : 2495303
> conflict literals     : 550531  (0.00308783 % deleted)
> 1 model found
>>> Search done
nrmodels&&1
total-solving-time1099 ms
Starting local search at 60063 ms
Initial objective value: 15 at 60066 ms
Strengthened objective value: 15 at 63156 ms
Starting solving at 65501 ms
>>> Search start
|       101 |  534600  1188592  3029000 |   508528      100    159 |
|       252 |  534600  1188592  3029000 |   559381      250   1806 |
|       478 |  534600  1188592  3029000 |   615319      476   3082 |
|       818 |  534600  1188592  3029000 |   676851      825   3843 |
|      1326 |  534600  1188592  3029000 |   744537     1338   4680 |
|      2090 |  534600  1188592  3029000 |   818990     2116   4727 |
|      3231 |  534600  1188592  3029000 |   900889     3295   5220 |
|      4950 |  534600  1188592  3029000 |   990978     5038   5240 |
|      7517 |  534600  1188592  3029000 |  1090076     7664   6255 |
|     11377 |  534600  1188592  3029000 |  1199084    11590   6366 |
|     17159 |  534600  1188592  3029000 |  1318993    17462   8306 |
|     25839 |  534600  1188592  3029000 |  1450892    26295   7576 |
> restarts              : 109
> decisions             : 776701  (0 % random)
> conflicts             : 29537
> propagations          : 211945400
> conflict literals     : 219303436  (0.02358 % deleted)
> 1 model found
>>> Search done
nrmodels&&1
total-solving-time140026 ms
Starting local search at 205967 ms
Initial objective value: 14 at 205968 ms
Strengthened objective value: 14 at 209073 ms
Starting solving at 211427 ms
>>> Search start
|       101 |  534700  1203092  3072300 |   514089      100    141 |
|       252 |  534700  1203092  3072300 |   565497      252   1070 |
|       478 |  534700  1203092  3072300 |   622047      482   2132 |
|       818 |  534700  1203092  3072300 |   684252      826   3011 |
|      1326 |  534700  1203092  3072300 |   752677     1349   3772 |
|      2090 |  534700  1203092  3072300 |   827945     2129   4171 |
|      3231 |  534700  1203092  3072300 |   910740     3291   6762 |
|      4950 |  534700  1203092  3072300 |  1001814     5030   6109 |
|      7517 |  534700  1203092  3072300 |  1101995     7641   6290 |
|     11377 |  534700  1203092  3072300 |  1212195    11566   6518 |
|     17159 |  534700  1203092  3072300 |  1333414    17421   7249 |
|     25839 |  534700  1203092  3072300 |  1466756    26228   7121 |
|     38846 |  534700  1203092  3072300 |  1613431    39473   8394 |
|     58367 |  534700  1203092  3072300 |  1774774    59285   8064 |
