Starting solving at 8813 ms
>>> Search start
> Conflicts |          ORIGINAL         |          LEARNT          | Progress
>           |    Vars  Clauses Literals |    Limit  Clauses Lit/Cl |         
>>> Initializing inductive definition 943
> Number of rules : 78120.
> Number of recursive atoms in positive loops : 77841.
> restarts              : 1
> decisions             : 512  (0 % random)
> conflicts             : 6
> propagations          : 158459
> conflict literals     : 119696  (0.000835443 % deleted)
> 1 model found
>>> Search done
nrmodels&&1
total-solving-time2124 ms
First objective value: 33998 at 11277 ms
DETECTED HARD NEIGHBORHOODS: 
InPath/0 1 Reachable/0 <- 195 193 4 187 30 229 186 31 184 181 180 178 174 73 173 270 172 191 228 170 166 1 165 177 164 159 261 157 119 156 225 154 152 258 150 149 146 52 141 220 138 250 137 234 183 135 246 134 223 190 269 133 167 132 131 38 128 36 127 34 126 125 185 155 124 214 123 175 122 230 121 118 168 69 117 153 116 163 68 115 33 46 90 48 49 142 53 74 151 54 147 75 57 58 59 176 80 179 82 105 60 62 64 65 85 87 70 226 72 76 77 206 81 83 94 199 130 233 237 201 245 273 7 251 248 231 136 84 188 95 257 256 279 278 6 47 262 198 24 139 45 113 86 260 200 56 50 143 259 55 268 272 212 22 111 267 249 243 255 232 252 271 209 266 5 274 235 210 239 242 275 218 27 277 213 244 227 26 112 217 224 222 240 28 204 15 216 247 276 88 219 207 89 208 203 265 44 202 263 21 108 236 158 14 96 10 264 144 12 99 32 11 97 41 16 241 35 254 2 196 253 238 17 3 13 104 79 120 42 20 91 8 51 78 182 98 9 39 221 23 160 25 92 43 192 63 61 145 189 29 71 197 215 19 107 40 37 129 100 205 101 211 102 103 93 106 169 18 109 140 171 110 148 194 161 66 114 162 67 
Starting local search at 325115 ms
Initial objective value: 33998 at 325117 ms
