Starting solving at 148741 ms
>>> Search start
> Conflicts |          ORIGINAL         |          LEARNT          | Progress
>           |    Vars  Clauses Literals |    Limit  Clauses Lit/Cl |         
>>> Initializing inductive definition 943
> Number of rules : 100806.
> Number of recursive atoms in positive loops : 100489.
> restarts              : 1
> decisions             : 1022  (0 % random)
> conflicts             : 5
> propagations          : 204975
> conflict literals     : 136489  (0 % deleted)
> 1 model found
>>> Search done
nrmodels&&1
total-solving-time2365 ms
First objective value: 575210 at 151554 ms
