Starting solving at 4217 ms
>>> Search start
> Conflicts |          ORIGINAL         |          LEARNT          | Progress
>           |    Vars  Clauses Literals |    Limit  Clauses Lit/Cl |         
>>> Initializing inductive definition 943
> Number of rules : 162006.
> Number of recursive atoms in positive loops : 161604.
> restarts              : 1
> decisions             : 960  (0 % random)
> conflicts             : 7
> propagations          : 327605
> conflict literals     : 130438  (0.00459967 % deleted)
> 1 model found
>>> Search done
nrmodels&&1
total-solving-time5204 ms
First objective value: 7643 at 10089 ms
