alpha: 0.5
beta: 0.5
gamma: 1.5
stagT: 5
Random frameSizes and framesize is choosen randomly between 1 - maxframesize
When an improvement is found the usefullFramesize is set to the size of the removedassumptions
Maximum runtime: 600

Starting solving at: 1127 ms
done
PrepModelIt duration: 114869 ms
amount madeAssumptions: 1287
Objval best sol: 31
search limit: 198697
useful search limit: 198697
max frame size: 1146
frame size: 573
useful frame size: 573
stag: 0/5
total spend time up to now: 114863 ms
max time: 600
> Current optimal value 31 after 114871 ms
