alpha: 0.5
beta: 0.5
gamma: 1.5
stagT: 5
Random frameSizes and framesize is choosen randomly between 1 - maxframesize
When an improvement is found the usefullFramesize is set to the size of the removedassumptions
Maximum runtime: 600

Starting solving at: 1145 ms
done
PrepModelIt duration: 30907 ms
amount madeAssumptions: 1291
Objval best sol: 28
search limit: 60625
useful search limit: 60625
max frame size: 1152
frame size: 576
useful frame size: 576
stag: 0/5
total spend time up to now: 30900 ms
max time: 600
> Current optimal value 28 after 30908 ms
no more models to explore, program will end
end program after: 435928 ms
Total time spend: 435929 ms
Amount of new found models: 122
Feasible object value: 28
Result object value: 28
