alpha: 0.5
beta: 0.5
gamma: 1.5
stagT: 5
Random frameSizes and framesize is choosen randomly between 1 - maxframesize
When an improvement is found the usefullFramesize is set to the size of the removedassumptions
Maximum runtime: 600

Starting solving at: 1324 ms
done
PrepModelIt duration: 33408 ms
amount madeAssumptions: 1407
Objval best sol: 36
search limit: 68200
useful search limit: 68200
max frame size: 1256
frame size: 628
useful frame size: 628
stag: 0/5
total spend time up to now: 33401 ms
max time: 600
> Current optimal value 36 after 33410 ms
no more models to explore, program will end
end program after: 90741 ms
Total time spend: 90743 ms
Amount of new found models: 2
Feasible object value: 36
Result object value: 36
