alpha: 0.5
beta: 0.5
gamma: 1.5
stagT: 5
Random frameSizes and framesize is choosen randomly between 1 - maxframesize
When an improvement is found the usefullFramesize is set to the size of the removedassumptions
Maximum runtime: 600

Starting solving at: 1299 ms
done
PrepModelIt duration: 55406 ms
amount madeAssumptions: 1383
Objval best sol: 35
search limit: 114624
useful search limit: 114624
max frame size: 1234
frame size: 617
useful frame size: 617
stag: 0/5
total spend time up to now: 55398 ms
max time: 600
> Current optimal value 35 after 55408 ms
no more models to explore, program will end
end program after: 209650 ms
Total time spend: 209650 ms
Amount of new found models: 0
Feasible object value: 35
Result object value: 35
