alpha: 0.5
beta: 0.5
gamma: 1.5
stagT: 5
Random frameSizes and framesize is choosen randomly between 1 - maxframesize
When an improvement is found the usefullFramesize is set to the size of the removedassumptions
Maximum runtime: 600

Starting solving at: 1411 ms
done
PrepModelIt duration: 422753 ms
amount madeAssumptions: 1455
Objval best sol: 38
search limit: 537369
useful search limit: 537369
max frame size: 1300
frame size: 650
useful frame size: 650
stag: 0/5
total spend time up to now: 422746 ms
max time: 600
> Current optimal value 38 after 422755 ms
