alpha: 0.5
beta: 0.5
gamma: 1.5
stagT: 5
Random frameSizes and framesize is choosen randomly between 1 - maxframesize
When an improvement is found the usefullFramesize is set to the size of the removedassumptions
Maximum runtime: 600

Starting solving at: 266 ms
done
PrepModelIt duration: 287 ms
amount madeAssumptions: 311
Objval best sol: 3509
search limit: 22
useful search limit: 22
max frame size: 200
frame size: 100
useful frame size: 100
stag: 0/5
total spend time up to now: 278 ms
max time: 600
> Current optimal value 3509 after 289 ms
> Current optimal value 3456 after 369 ms
> Current optimal value 3440 after 448 ms
> Current optimal value 3438 after 524 ms
> Current optimal value 3421 after 620 ms
> Current optimal value 3396 after 751 ms
> Current optimal value 3383 after 816 ms
> Current optimal value 3355 after 903 ms
> Current optimal value 3296 after 1143 ms
> Current optimal value 3251 after 1623 ms
> Current optimal value 3240 after 1709 ms
> Current optimal value 3239 after 1794 ms
> Current optimal value 3211 after 1950 ms
> Current optimal value 3198 after 2288 ms
> Current optimal value 3196 after 2509 ms
> Current optimal value 3175 after 2535 ms
> Current optimal value 3163 after 3234 ms
> Current optimal value 3156 after 3274 ms
> Current optimal value 3130 after 3876 ms
> Current optimal value 3111 after 3930 ms
> Current optimal value 3109 after 4001 ms
> Current optimal value 3097 after 4609 ms
> Current optimal value 3082 after 5346 ms
> Current optimal value 3066 after 5365 ms
> Current optimal value 3035 after 16601 ms
> Current optimal value 3010 after 22405 ms
> Current optimal value 2903 after 23938 ms
> Current optimal value 2898 after 24122 ms
> Current optimal value 2878 after 28429 ms
> Current optimal value 2869 after 31775 ms
> Current optimal value 2866 after 32640 ms
> Current optimal value 2826 after 41273 ms
> Current optimal value 2818 after 41392 ms
> Current optimal value 2763 after 117183 ms
> Current optimal value 2755 after 118212 ms
> Current optimal value 2726 after 119684 ms
> Current optimal value 2714 after 120077 ms
> Current optimal value 2711 after 124715 ms
no more models to explore, program will end
end program after: 307436 ms
Total time spend: 307437 ms
Amount of new found models: 37833
Feasible object value: 3509
Result object value: 2711
