alpha: 0.5
beta: 0.5
gamma: 1.5
stagT: 5
Random frameSizes and framesize is choosen randomly between 1 - maxframesize
When an improvement is found the usefullFramesize is set to the size of the removedassumptions
Maximum runtime: 600

Starting solving at: 144 ms
done
PrepModelIt duration: 150 ms
amount madeAssumptions: 183
Objval best sol: 1678
search limit: 5
useful search limit: 5
max frame size: 114
frame size: 57
useful frame size: 57
stag: 0/5
total spend time up to now: 142 ms
max time: 600
> Current optimal value 1678 after 152 ms
> Current optimal value 1595 after 184 ms
> Current optimal value 1581 after 213 ms
> Current optimal value 1580 after 252 ms
> Current optimal value 1578 after 400 ms
> Current optimal value 1576 after 596 ms
> Current optimal value 1575 after 612 ms
> Current optimal value 1555 after 854 ms
> Current optimal value 1550 after 988 ms
> Current optimal value 1529 after 1222 ms
> Current optimal value 1516 after 1647 ms
> Current optimal value 1513 after 4149 ms
> Current optimal value 1508 after 4681 ms
> Current optimal value 1505 after 4701 ms
> Current optimal value 1474 after 6159 ms
> Current optimal value 1464 after 7632 ms
> Current optimal value 1438 after 7660 ms
no more models to explore, program will end
end program after: 65420 ms
Total time spend: 65421 ms
Amount of new found models: 16312
Feasible object value: 1678
Result object value: 1438
