alpha: 0.5
beta: 0.5
gamma: 1.5
stagT: 5
Random frameSizes and framesize is choosen randomly between 1 - maxframesize
When an improvement is found the usefullFramesize is set to the size of the removedassumptions
Maximum runtime: 600

Starting solving at: 111323 ms
done
PrepModelIt duration: 150590 ms
amount madeAssumptions: 81423
Objval best sol: 796755
search limit: 239
useful search limit: 239
max frame size: 76560
frame size: 38280
useful frame size: 38280
stag: 0/5
total spend time up to now: 150806 ms
max time: 600
> Current optimal value 796755 after 151218 ms
