alpha: 0.5
beta: 0.5
gamma: 1.5
stagT: 5
Random frameSizes and framesize is choosen randomly between 1 - maxframesize
When an improvement is found the usefullFramesize is set to the size of the removedassumptions
Maximum runtime: 600

Starting solving at: 3062 ms
done
PrepModelIt duration: 7747 ms
amount madeAssumptions: 8356
Objval best sol: 196742
search limit: 495
useful search limit: 495
max frame size: 7280
frame size: 3640
useful frame size: 3640
stag: 0/5
total spend time up to now: 7755 ms
max time: 600
> Current optimal value 196742 after 7795 ms
> Current optimal value 196552 after 23444 ms
> Current optimal value 196381 after 504385 ms
