alpha: 0.5
beta: 0.5
gamma: 1.5
stagT: 5
Random frameSizes and framesize is choosen randomly between 1 - maxframesize
When an improvement is found the usefullFramesize is set to the size of the removedassumptions
Maximum runtime: 600

Starting solving at: 794 ms
done
PrepModelIt duration: 868 ms
amount madeAssumptions: 3070
Objval best sol: 55482
search limit: 10
useful search limit: 10
max frame size: 2520
frame size: 1260
useful frame size: 1260
stag: 0/5
total spend time up to now: 866 ms
max time: 600
> Current optimal value 55482 after 886 ms
> Current optimal value 55466 after 8230 ms
> Current optimal value 55367 after 13266 ms
> Current optimal value 55360 after 26201 ms
> Current optimal value 55344 after 37156 ms
> Current optimal value 55233 after 46666 ms
> Current optimal value 55223 after 51333 ms
> Current optimal value 55148 after 81805 ms
> Current optimal value 55044 after 82484 ms
> Current optimal value 54231 after 93495 ms
> Current optimal value 54049 after 98353 ms
> Current optimal value 53584 after 102184 ms
> Current optimal value 53420 after 110530 ms
> Current optimal value 53413 after 134871 ms
> Current optimal value 53031 after 147473 ms
> Current optimal value 52913 after 174157 ms
> Current optimal value 52281 after 188574 ms
> Current optimal value 51693 after 431738 ms
