alpha: 0.5
beta: 0.5
gamma: 1.5
stagT: 5
Random frameSizes and framesize is choosen randomly between 1 - maxframesize
When an improvement is found the usefullFramesize is set to the size of the removedassumptions
Maximum runtime: 600

Starting solving at: 48 ms
done
PrepModelIt duration: 57 ms
amount madeAssumptions: 621
Objval best sol: 271
search limit: 134
useful search limit: 134
max frame size: 23
frame size: 11
useful frame size: 11
stag: 0/5
total spend time up to now: 42 ms
max time: 600
> Current optimal value 271 after 58 ms
> Current optimal value 260 after 97 ms
> Current optimal value 247 after 111 ms
> Current optimal value 239 after 124 ms
> Current optimal value 228 after 137 ms
> Current optimal value 214 after 141 ms
> Current optimal value 199 after 160 ms
> Current optimal value 191 after 164 ms
> Current optimal value 174 after 176 ms
> Current optimal value 173 after 201 ms
> Current optimal value 163 after 212 ms
> Current optimal value 150 after 222 ms
> Current optimal value 140 after 253 ms
> Current optimal value 110 after 262 ms
> Current optimal value 108 after 274 ms
> Current optimal value 104 after 638 ms
> Current optimal value 102 after 644 ms
> Current optimal value 93 after 943 ms
> Current optimal value 92 after 1279 ms
> Current optimal value 90 after 1316 ms
> Current optimal value 86 after 1433 ms
> Current optimal value 84 after 1438 ms
> Current optimal value 81 after 1557 ms
> Current optimal value 80 after 1917 ms
> Current optimal value 79 after 2057 ms
> Current optimal value 77 after 2975 ms
> Current optimal value 66 after 3108 ms
> Current optimal value 64 after 18217 ms
> Current optimal value 59 after 18776 ms
> Current optimal value 58 after 86195 ms
> Current optimal value 54 after 87802 ms
> Current optimal value 53 after 185324 ms
> Current optimal value 51 after 537133 ms
