alpha: 0.5
beta: 0.5
gamma: 1.5
stagT: 5
Random frameSizes and framesize is choosen randomly between 1 - maxframesize
When an improvement is found the usefullFramesize is set to the size of the removedassumptions
Maximum runtime: 600

Starting solving at: 79 ms
done
PrepModelIt duration: 109 ms
amount madeAssumptions: 1677
Objval best sol: 872
search limit: 302
useful search limit: 302
max frame size: 39
frame size: 19
useful frame size: 19
stag: 0/5
total spend time up to now: 66 ms
max time: 600
> Current optimal value 872 after 110 ms
> Current optimal value 851 after 75 ms
> Current optimal value 848 after 85 ms
> Current optimal value 833 after 94 ms
> Current optimal value 817 after 104 ms
> Current optimal value 796 after 137 ms
> Current optimal value 777 after 167 ms
> Current optimal value 728 after 186 ms
> Current optimal value 688 after 231 ms
> Current optimal value 645 after 240 ms
> Current optimal value 626 after 279 ms
> Current optimal value 610 after 289 ms
> Current optimal value 593 after 318 ms
> Current optimal value 588 after 353 ms
> Current optimal value 566 after 362 ms
> Current optimal value 548 after 380 ms
> Current optimal value 522 after 442 ms
> Current optimal value 521 after 465 ms
> Current optimal value 496 after 504 ms
> Current optimal value 481 after 591 ms
> Current optimal value 464 after 635 ms
> Current optimal value 461 after 707 ms
> Current optimal value 454 after 751 ms
> Current optimal value 453 after 861 ms
> Current optimal value 422 after 914 ms
> Current optimal value 412 after 961 ms
> Current optimal value 390 after 993 ms
> Current optimal value 370 after 1030 ms
> Current optimal value 366 after 1145 ms
> Current optimal value 350 after 1236 ms
> Current optimal value 346 after 1246 ms
> Current optimal value 332 after 1269 ms
> Current optimal value 321 after 1350 ms
> Current optimal value 302 after 1372 ms
> Current optimal value 299 after 1564 ms
> Current optimal value 287 after 1773 ms
> Current optimal value 285 after 1863 ms
> Current optimal value 278 after 3538 ms
> Current optimal value 274 after 3555 ms
> Current optimal value 260 after 3616 ms
> Current optimal value 258 after 3837 ms
> Current optimal value 253 after 3949 ms
> Current optimal value 243 after 4486 ms
> Current optimal value 242 after 4762 ms
> Current optimal value 240 after 4911 ms
> Current optimal value 239 after 5309 ms
> Current optimal value 223 after 5627 ms
> Current optimal value 211 after 5915 ms
> Current optimal value 199 after 6663 ms
> Current optimal value 198 after 31971 ms
> Current optimal value 195 after 32434 ms
> Current optimal value 192 after 33709 ms
> Current optimal value 185 after 40727 ms
> Current optimal value 181 after 42429 ms
> Current optimal value 179 after 44832 ms
> Current optimal value 174 after 48326 ms
> Current optimal value 173 after 50262 ms
> Current optimal value 171 after 65105 ms
> Current optimal value 169 after 65476 ms
> Current optimal value 166 after 67628 ms
> Current optimal value 163 after 85223 ms
> Current optimal value 159 after 88877 ms
> Current optimal value 158 after 128721 ms
> Current optimal value 154 after 129600 ms
> Current optimal value 147 after 254519 ms
