alpha: 0.5
beta: 0.5
gamma: 1.5
stagT: 5
Random frameSizes and framesize is choosen randomly between 1 - maxframesize
When an improvement is found the usefullFramesize is set to the size of the removedassumptions
Maximum runtime: 600

Starting solving at: 46 ms
done
PrepModelIt duration: 57 ms
amount madeAssumptions: 572
Objval best sol: 264
search limit: 203
useful search limit: 203
max frame size: 22
frame size: 11
useful frame size: 11
stag: 0/5
total spend time up to now: 43 ms
max time: 600
> Current optimal value 264 after 58 ms
> Current optimal value 250 after 47 ms
> Current optimal value 248 after 82 ms
> Current optimal value 245 after 91 ms
> Current optimal value 241 after 104 ms
> Current optimal value 233 after 107 ms
> Current optimal value 232 after 122 ms
> Current optimal value 196 after 130 ms
> Current optimal value 192 after 138 ms
> Current optimal value 183 after 145 ms
> Current optimal value 177 after 152 ms
> Current optimal value 171 after 172 ms
> Current optimal value 168 after 196 ms
> Current optimal value 152 after 219 ms
> Current optimal value 150 after 223 ms
> Current optimal value 146 after 230 ms
> Current optimal value 143 after 242 ms
> Current optimal value 138 after 327 ms
> Current optimal value 137 after 334 ms
> Current optimal value 126 after 373 ms
> Current optimal value 123 after 381 ms
> Current optimal value 122 after 406 ms
> Current optimal value 121 after 418 ms
> Current optimal value 117 after 432 ms
> Current optimal value 116 after 480 ms
> Current optimal value 108 after 520 ms
> Current optimal value 96 after 587 ms
> Current optimal value 95 after 1154 ms
> Current optimal value 90 after 1384 ms
> Current optimal value 85 after 1911 ms
> Current optimal value 84 after 2083 ms
> Current optimal value 83 after 2682 ms
> Current optimal value 81 after 2871 ms
> Current optimal value 74 after 3229 ms
> Current optimal value 72 after 9060 ms
> Current optimal value 66 after 17687 ms
> Current optimal value 63 after 20089 ms
> Current optimal value 60 after 27910 ms
