alpha: 0.5
beta: 0.5
gamma: 1.5
stagT: 5
Random frameSizes and framesize is choosen randomly between 1 - maxframesize
When an improvement is found the usefullFramesize is set to the size of the removedassumptions
Maximum runtime: 600

Starting solving at: 48 ms
done
PrepModelIt duration: 60 ms
amount madeAssumptions: 672
Objval best sol: 352
search limit: 203
useful search limit: 203
max frame size: 24
frame size: 12
useful frame size: 12
stag: 0/5
total spend time up to now: 44 ms
max time: 600
> Current optimal value 352 after 61 ms
> Current optimal value 341 after 48 ms
> Current optimal value 320 after 52 ms
> Current optimal value 300 after 56 ms
> Current optimal value 293 after 61 ms
> Current optimal value 289 after 81 ms
> Current optimal value 257 after 90 ms
> Current optimal value 252 after 113 ms
> Current optimal value 246 after 120 ms
> Current optimal value 241 after 151 ms
> Current optimal value 229 after 159 ms
> Current optimal value 220 after 172 ms
> Current optimal value 215 after 176 ms
> Current optimal value 209 after 187 ms
> Current optimal value 201 after 245 ms
> Current optimal value 194 after 258 ms
> Current optimal value 183 after 278 ms
> Current optimal value 179 after 319 ms
> Current optimal value 167 after 410 ms
> Current optimal value 166 after 421 ms
> Current optimal value 159 after 430 ms
> Current optimal value 155 after 438 ms
> Current optimal value 146 after 488 ms
> Current optimal value 135 after 510 ms
> Current optimal value 131 after 515 ms
> Current optimal value 121 after 547 ms
> Current optimal value 120 after 594 ms
> Current optimal value 118 after 613 ms
> Current optimal value 114 after 620 ms
> Current optimal value 113 after 2925 ms
> Current optimal value 108 after 3666 ms
> Current optimal value 106 after 4325 ms
> Current optimal value 99 after 4462 ms
> Current optimal value 98 after 4800 ms
> Current optimal value 90 after 4817 ms
> Current optimal value 86 after 5756 ms
> Current optimal value 85 after 27715 ms
> Current optimal value 82 after 28066 ms
> Current optimal value 80 after 28097 ms
> Current optimal value 66 after 28101 ms
> Current optimal value 63 after 38953 ms
> Current optimal value 62 after 41194 ms
> Current optimal value 60 after 71335 ms
> Current optimal value 59 after 101316 ms
> Current optimal value 58 after 176650 ms
> Current optimal value 57 after 195291 ms
