Starting solving at 295 ms
>>> Search start
> Conflicts |          ORIGINAL         |          LEARNT          | Progress
>           |    Vars  Clauses Literals |    Limit  Clauses Lit/Cl |         
|         0 |   58600   160708   429600 |    87876        0   -nan |
|       101 |   58600   160708   429600 |    96663      139    186 |
|       252 |   58600   160708   429600 |   106330      350    205 |
> restarts              : 4
> decisions             : 20757  (0 % random)
> conflicts             : 311
> propagations          : 352123
> conflict literals     : 102413  (0.0361152 % deleted)
> Current optimal value 52 after 415 ms
|       311 |   58601   160708   429600 |    88240      427    240 |
> restarts              : 5
> decisions             : 26811  (0 % random)
> conflicts             : 311
> propagations          : 410724
> conflict literals     : 102413  (0.0361152 % deleted)
> Current optimal value 51 after 442 ms
|       311 |   58602   160708   429600 |    88461      427    240 |
> restarts              : 6
> decisions             : 32852  (0 % random)
> conflicts             : 312
> propagations          : 469446
> conflict literals     : 102560  (0.0360634 % deleted)
> Current optimal value 50 after 469 ms
|       312 |   58603   160708   429600 |    88683      428    240 |
> restarts              : 7
> decisions             : 36619  (0 % random)
> conflicts             : 312
> propagations          : 528049
> conflict literals     : 102560  (0.0360634 % deleted)
> Current optimal value 49 after 497 ms
|       312 |   58604   160708   429600 |    88904      428    240 |
> restarts              : 8
> decisions             : 40521  (0 % random)
> conflicts             : 312
> propagations          : 586653
> conflict literals     : 102560  (0.0360634 % deleted)
> Current optimal value 48 after 525 ms
|       312 |   58605   160708   429600 |    89125      428    240 |
> restarts              : 9
> decisions             : 44583  (0 % random)
> conflicts             : 312
> propagations          : 645258
> conflict literals     : 102560  (0.0360634 % deleted)
> Current optimal value 47 after 553 ms
|       312 |   58606   160708   429600 |    89347      428    240 |
> restarts              : 10
> decisions             : 48898  (0 % random)
> conflicts             : 312
> propagations          : 703864
> conflict literals     : 102560  (0.0360634 % deleted)
> Current optimal value 46 after 582 ms
|       312 |   58607   160708   429600 |    89568      428    240 |
> restarts              : 11
> decisions             : 53297  (0 % random)
> conflicts             : 312
> propagations          : 762471
> conflict literals     : 102560  (0.0360634 % deleted)
> Current optimal value 45 after 612 ms
|       312 |   58608   160708   429600 |    89789      428    240 |
> restarts              : 12
> decisions             : 57658  (0 % random)
> conflicts             : 312
> propagations          : 821079
> conflict literals     : 102560  (0.0360634 % deleted)
> Current optimal value 44 after 640 ms
|       312 |   58609   160708   429600 |    90011      428    240 |
> restarts              : 13
> decisions             : 62033  (0 % random)
> conflicts             : 312
> propagations          : 879688
> conflict literals     : 102560  (0.0360634 % deleted)
> Current optimal value 43 after 669 ms
|       312 |   58610   160708   429600 |    90232      428    240 |
> restarts              : 14
> decisions             : 66406  (0 % random)
> conflicts             : 312
> propagations          : 938298
> conflict literals     : 102560  (0.0360634 % deleted)
> Current optimal value 42 after 698 ms
|       312 |   58611   160708   429600 |    90453      428    240 |
> restarts              : 15
> decisions             : 70795  (0 % random)
> conflicts             : 312
> propagations          : 996909
> conflict literals     : 102560  (0.0360634 % deleted)
> Current optimal value 41 after 727 ms
|       312 |   58612   160708   429600 |    90675      428    240 |
> restarts              : 16
> decisions             : 75099  (0 % random)
> conflicts             : 312
> propagations          : 1055521
> conflict literals     : 102560  (0.0360634 % deleted)
> Current optimal value 40 after 756 ms
|       312 |   58613   160708   429600 |    90896      428    240 |
> restarts              : 17
> decisions             : 79364  (0 % random)
> conflicts             : 312
> propagations          : 1114134
> conflict literals     : 102560  (0.0360634 % deleted)
> Current optimal value 39 after 786 ms
|       312 |   58614   160708   429600 |    91117      428    240 |
> restarts              : 18
> decisions             : 83730  (0 % random)
> conflicts             : 315
> propagations          : 1174380
> conflict literals     : 104612  (0.0353563 % deleted)
> Current optimal value 38 after 817 ms
|       315 |   58615   160708   429600 |    91340      431    243 |
> restarts              : 19
> decisions             : 87898  (0 % random)
> conflicts             : 315
> propagations          : 1232995
> conflict literals     : 104612  (0.0353563 % deleted)
> Current optimal value 37 after 846 ms
|       315 |   58616   160708   429600 |    91561      431    243 |
> restarts              : 20
> decisions             : 92066  (0 % random)
> conflicts             : 315
> propagations          : 1291611
> conflict literals     : 104612  (0.0353563 % deleted)
> Current optimal value 36 after 875 ms
|       315 |   58617   160708   429600 |    91782      431    243 |
> restarts              : 21
> decisions             : 96255  (0 % random)
> conflicts             : 317
> propagations          : 1350659
> conflict literals     : 105689  (0.0349961 % deleted)
> Current optimal value 35 after 907 ms
|       317 |   58618   160708   429600 |    92004      433    245 |
> restarts              : 22
> decisions             : 100532  (0 % random)
> conflicts             : 317
> propagations          : 1409277
> conflict literals     : 105689  (0.0349961 % deleted)
> Current optimal value 34 after 937 ms
|       317 |   58619   160708   429600 |    92226      433    245 |
> restarts              : 23
> decisions             : 104640  (0 % random)
> conflicts             : 317
> propagations          : 1467896
> conflict literals     : 105689  (0.0349961 % deleted)
> Current optimal value 33 after 967 ms
|       317 |   58620   160708   429600 |    92447      433    245 |
> restarts              : 24
> decisions             : 108954  (0 % random)
> conflicts             : 317
> propagations          : 1526516
> conflict literals     : 105689  (0.0349961 % deleted)
> Current optimal value 32 after 996 ms
|       317 |   58621   160708   429600 |    92668      433    245 |
> restarts              : 25
> decisions             : 113166  (0 % random)
> conflicts             : 317
> propagations          : 1585137
> conflict literals     : 105689  (0.0349961 % deleted)
> Current optimal value 31 after 1027 ms
|       317 |   58622   160708   429600 |    92890      433    245 |
> restarts              : 26
> decisions             : 117382  (0 % random)
> conflicts             : 317
> propagations          : 1643759
> conflict literals     : 105689  (0.0349961 % deleted)
> Current optimal value 30 after 1057 ms
|       317 |   58623   160708   429600 |    93111      433    245 |
> restarts              : 27
> decisions             : 121542  (0 % random)
> conflicts             : 317
> propagations          : 1702382
> conflict literals     : 105689  (0.0349961 % deleted)
> Current optimal value 29 after 1086 ms
|       317 |   58624   160708   429600 |    93332      433    245 |
> restarts              : 28
> decisions             : 125763  (0 % random)
> conflicts             : 321
> propagations          : 1762260
> conflict literals     : 107750  (0.034327 % deleted)
> Current optimal value 28 after 1117 ms
|       321 |   58625   160708   429600 |    93555      437    247 |
> restarts              : 29
> decisions             : 130021  (0 % random)
> conflicts             : 321
> propagations          : 1820885
> conflict literals     : 107750  (0.034327 % deleted)
> Current optimal value 27 after 1148 ms
|       321 |   58626   160708   429600 |    93776      437    247 |
> restarts              : 30
> decisions             : 134249  (0 % random)
> conflicts             : 321
> propagations          : 1879511
> conflict literals     : 107750  (0.034327 % deleted)
> Current optimal value 26 after 1178 ms
|       321 |   58627   160708   429600 |    93998      437    247 |
> restarts              : 31
> decisions             : 138603  (0 % random)
> conflicts             : 321
> propagations          : 1938138
> conflict literals     : 107750  (0.034327 % deleted)
> Current optimal value 25 after 1210 ms
|       321 |   58628   160708   429600 |    94219      437    247 |
> restarts              : 32
> decisions             : 142683  (0 % random)
> conflicts             : 321
> propagations          : 1996766
> conflict literals     : 107750  (0.034327 % deleted)
> Current optimal value 24 after 1238 ms
|       321 |   58629   160708   429600 |    94440      437    247 |
|       421 |   58629   160708   429600 |   103884      542    397 |
> restarts              : 34
> decisions             : 148572  (0 % random)
> conflicts             : 508
> propagations          : 2218655
> conflict literals     : 320889  (0.200911 % deleted)
> Current optimal value 23 after 1356 ms
|       508 |   58630   160708   429600 |    94726      629    511 |
> restarts              : 35
> decisions             : 150058  (0 % random)
> conflicts             : 508
> propagations          : 2277285
> conflict literals     : 320889  (0.200911 % deleted)
> Current optimal value 22 after 1382 ms
|       508 |   58631   160708   429600 |    94947      629    511 |
> restarts              : 36
> decisions             : 151477  (0 % random)
> conflicts             : 508
> propagations          : 2335916
> conflict literals     : 320889  (0.200911 % deleted)
> Current optimal value 21 after 1407 ms
|       508 |   58632   160708   429600 |    95168      629    511 |
> restarts              : 37
> decisions             : 152843  (0 % random)
> conflicts             : 508
> propagations          : 2394548
> conflict literals     : 320889  (0.200911 % deleted)
> Current optimal value 20 after 1433 ms
|       508 |   58633   160708   429600 |    95390      629    511 |
> restarts              : 38
> decisions             : 154219  (0 % random)
> conflicts             : 510
> propagations          : 2453555
> conflict literals     : 321967  (0.20024 % deleted)
> Current optimal value 19 after 1458 ms
|       510 |   58634   160708   429600 |    95612      631    511 |
> restarts              : 39
> decisions             : 155416  (0 % random)
> conflicts             : 510
> propagations          : 2512189
> conflict literals     : 321967  (0.20024 % deleted)
> Current optimal value 18 after 1484 ms
|       510 |   58635   160708   429600 |    95833      631    511 |
> restarts              : 40
> decisions             : 156731  (0 % random)
> conflicts             : 514
> propagations          : 2571880
> conflict literals     : 323532  (0.199273 % deleted)
> Current optimal value 17 after 1511 ms
|       514 |   58636   160708   429600 |    96056      635    510 |
> restarts              : 41
> decisions             : 157950  (0 % random)
> conflicts             : 516
> propagations          : 2630919
> conflict literals     : 324023  (0.198972 % deleted)
> Current optimal value 16 after 1544 ms
|       516 |   58637   160708   429600 |    96278      637    509 |
> restarts              : 42
> decisions             : 159033  (0 % random)
> conflicts             : 516
> propagations          : 2689556
> conflict literals     : 324023  (0.198972 % deleted)
> Current optimal value 15 after 1577 ms
|       516 |   58638   160708   429600 |    96499      637    509 |
> restarts              : 43
> decisions             : 160043  (0 % random)
> conflicts             : 516
> propagations          : 2748194
> conflict literals     : 324023  (0.198972 % deleted)
> Current optimal value 14 after 1612 ms
|       516 |   58639   160708   429600 |    96720      637    509 |
> restarts              : 44
> decisions             : 160994  (0 % random)
> conflicts             : 519
> propagations          : 2807428
> conflict literals     : 326359  (0.19755 % deleted)
> Current optimal value 13 after 1646 ms
|       519 |   58640   160708   429600 |    96943      640    511 |
> restarts              : 45
> decisions             : 161849  (0 % random)
> conflicts             : 519
> propagations          : 2866068
> conflict literals     : 326359  (0.19755 % deleted)
> Current optimal value 12 after 1680 ms
|       519 |   58641   160708   429600 |    97164      640    511 |
> restarts              : 46
> decisions             : 162716  (0 % random)
> conflicts             : 523
> propagations          : 2925280
> conflict literals     : 329772  (0.19551 % deleted)
> Current optimal value 11 after 1715 ms
|       523 |   58642   160708   429600 |    97387      644    513 |
> restarts              : 47
> decisions             : 163521  (0 % random)
> conflicts             : 529
> propagations          : 2984473
> conflict literals     : 332311  (0.194019 % deleted)
> Current optimal value 10 after 1750 ms
|       529 |   58643   160708   429600 |    97610      650    512 |
|       630 |   58643   160708   429600 |   107371      753    551 |
|       781 |   58643   160708   429600 |   118108      903    564 |
|      1008 |   58643   160708   429600 |   129919     1135    610 |
|      1347 |   58643   160708   429600 |   142911     1472    640 |
|      1855 |   58643   160708   429600 |   157202     1981    875 |
|      2619 |   58643   160708   429600 |   172922     2755    766 |
|      3760 |   58643   160708   429600 |   190214     3911    694 |
|      5469 |   58643   160708   429600 |   209236     5647    990 |
|      8031 |   58643   160708   429600 |   230160     8253   1069 |
|     11892 |   58643   160708   429600 |   253176    12142   1045 |
|     17679 |   58643   160708   429600 |   278493    17993   1048 |
|     26353 |   58643   160708   429600 |   306343    26846   1112 |
|     39357 |   58643   160708   429600 |   336977    40069   1510 |
|     58881 |   58643   160708   429600 |   370675    59780   1462 |
|     88109 |   58643   160708   429600 |   407742    89483   1969 |
|    132025 |   58643   160708   429600 |   448516   133868   1789 |
