Starting solving at 1880 ms
>>> Search start
> Conflicts |          ORIGINAL         |          LEARNT          | Progress
>           |    Vars  Clauses Literals |    Limit  Clauses Lit/Cl |         
|         0 |  408200  1204160  3204400 |   455171        0   -nan |
|       101 |  408200  1204160  3204400 |   500688      153    387 |
> restarts              : 3
> decisions             : 23423  (0 % random)
> conflicts             : 204
> propagations          : 1774641
> conflict literals     : 108087  (0.0258983 % deleted)
> Current optimal value 47 after 2485 ms
|       204 |  408201  1204160  3204400 |   455493      302    359 |
> restarts              : 4
> decisions             : 33511  (0 % random)
> conflicts             : 205
> propagations          : 2183006
> conflict literals     : 108231  (0.0258639 % deleted)
> Current optimal value 46 after 2659 ms
|       205 |  408202  1204160  3204400 |   455714      303    358 |
> restarts              : 5
> decisions             : 39055  (0 % random)
> conflicts             : 205
> propagations          : 2591208
> conflict literals     : 108231  (0.0258639 % deleted)
> Current optimal value 45 after 2843 ms
|       205 |  408203  1204160  3204400 |   455936      303    358 |
> restarts              : 6
> decisions             : 43105  (0 % random)
> conflicts             : 206
> propagations          : 3000573
> conflict literals     : 108624  (0.0257703 % deleted)
> Current optimal value 44 after 3039 ms
|       206 |  408204  1204160  3204400 |   456157      304    358 |
> restarts              : 7
> decisions             : 46976  (0 % random)
> conflicts             : 210
> propagations          : 3421262
> conflict literals     : 113605  (0.0246407 % deleted)
> Current optimal value 43 after 3242 ms
|       210 |  408205  1204160  3204400 |   456380      308    369 |
> restarts              : 8
> decisions             : 50389  (0 % random)
> conflicts             : 215
> propagations          : 3840501
> conflict literals     : 119573  (0.0234112 % deleted)
> Current optimal value 42 after 3445 ms
|       215 |  408206  1204160  3204400 |   456603      313    383 |
> restarts              : 9
> decisions             : 55534  (0 % random)
> conflicts             : 215
> propagations          : 4248707
> conflict literals     : 119573  (0.0234112 % deleted)
> Current optimal value 41 after 3636 ms
|       215 |  408207  1204160  3204400 |   456824      313    383 |
> restarts              : 10
> decisions             : 61169  (0 % random)
> conflicts             : 215
> propagations          : 4656914
> conflict literals     : 119573  (0.0234112 % deleted)
> Current optimal value 40 after 3820 ms
|       215 |  408208  1204160  3204400 |   457046      313    383 |
> restarts              : 11
> decisions             : 67247  (0 % random)
> conflicts             : 215
> propagations          : 5065122
> conflict literals     : 119573  (0.0234112 % deleted)
> Current optimal value 39 after 4024 ms
|       215 |  408209  1204160  3204400 |   457267      313    383 |
> restarts              : 12
> decisions             : 73261  (0 % random)
> conflicts             : 215
> propagations          : 5473331
> conflict literals     : 119573  (0.0234112 % deleted)
> Current optimal value 38 after 4223 ms
|       215 |  408210  1204160  3204400 |   457488      313    383 |
> restarts              : 13
> decisions             : 79465  (0 % random)
> conflicts             : 215
> propagations          : 5881541
> conflict literals     : 119573  (0.0234112 % deleted)
> Current optimal value 37 after 4419 ms
|       215 |  408211  1204160  3204400 |   457710      313    383 |
> restarts              : 14
> decisions             : 85510  (0 % random)
> conflicts             : 217
> propagations          : 6292818
> conflict literals     : 122694  (0.0228158 % deleted)
> Current optimal value 36 after 4624 ms
|       217 |  408212  1204160  3204400 |   457932      315    390 |
> restarts              : 15
> decisions             : 91740  (0 % random)
> conflicts             : 217
> propagations          : 6701030
> conflict literals     : 122694  (0.0228158 % deleted)
> Current optimal value 35 after 4824 ms
|       217 |  408213  1204160  3204400 |   458153      315    390 |
> restarts              : 16
> decisions             : 98053  (0 % random)
> conflicts             : 217
> propagations          : 7109243
> conflict literals     : 122694  (0.0228158 % deleted)
> Current optimal value 34 after 5023 ms
|       217 |  408214  1204160  3204400 |   458374      315    390 |
> restarts              : 17
> decisions             : 104650  (0 % random)
> conflicts             : 217
> propagations          : 7517457
> conflict literals     : 122694  (0.0228158 % deleted)
> Current optimal value 33 after 5221 ms
|       217 |  408215  1204160  3204400 |   458596      315    390 |
> restarts              : 18
> decisions             : 111009  (0 % random)
> conflicts             : 217
> propagations          : 7925672
> conflict literals     : 122694  (0.0228158 % deleted)
> Current optimal value 32 after 5420 ms
|       217 |  408216  1204160  3204400 |   458817      315    390 |
> restarts              : 19
> decisions             : 117428  (0 % random)
> conflicts             : 219
> propagations          : 8335594
> conflict literals     : 123185  (0.0227249 % deleted)
> Current optimal value 31 after 5617 ms
|       219 |  408217  1204160  3204400 |   459039      317    389 |
> restarts              : 20
> decisions             : 123652  (0 % random)
> conflicts             : 219
> propagations          : 8743811
> conflict literals     : 123185  (0.0227249 % deleted)
> Current optimal value 30 after 5809 ms
|       219 |  408218  1204160  3204400 |   459260      317    389 |
> restarts              : 21
> decisions             : 127487  (0 % random)
> conflicts             : 219
> propagations          : 9152029
> conflict literals     : 123185  (0.0227249 % deleted)
> Current optimal value 29 after 6015 ms
|       219 |  408219  1204160  3204400 |   459482      317    389 |
> restarts              : 22
> decisions             : 131331  (0 % random)
> conflicts             : 221
> propagations          : 9563505
> conflict literals     : 124942  (0.0224054 % deleted)
> Current optimal value 28 after 6226 ms
|       221 |  408220  1204160  3204400 |   459704      319    392 |
> restarts              : 23
> decisions             : 135165  (0 % random)
> conflicts             : 226
> propagations          : 9979439
> conflict literals     : 131458  (0.021295 % deleted)
> Current optimal value 27 after 6446 ms
|       226 |  408221  1204160  3204400 |   459927      324    406 |
> restarts              : 24
> decisions             : 138972  (0 % random)
> conflicts             : 230
> propagations          : 10389574
> conflict literals     : 135081  (0.020724 % deleted)
> Current optimal value 26 after 6653 ms
|       230 |  408222  1204160  3204400 |   460149      328    412 |
> restarts              : 25
> decisions             : 142859  (0 % random)
> conflicts             : 230
> propagations          : 10797796
> conflict literals     : 135081  (0.020724 % deleted)
> Current optimal value 25 after 6835 ms
|       230 |  408223  1204160  3204400 |   460371      328    412 |
> restarts              : 26
> decisions             : 145650  (0 % random)
> conflicts             : 230
> propagations          : 11206019
> conflict literals     : 135081  (0.020724 % deleted)
> Current optimal value 24 after 7038 ms
|       230 |  408224  1204160  3204400 |   460592      328    412 |
> restarts              : 27
> decisions             : 148422  (0 % random)
> conflicts             : 231
> propagations          : 11619801
> conflict literals     : 135278  (0.0206938 % deleted)
> Current optimal value 23 after 7256 ms
|       231 |  408225  1204160  3204400 |   460814      329    412 |
> restarts              : 28
> decisions             : 151290  (0 % random)
> conflicts             : 255
> propagations          : 12064739
> conflict literals     : 196319  (0.0203709 % deleted)
> Current optimal value 22 after 7513 ms
|       255 |  408226  1204160  3204400 |   461043      354    555 |
> restarts              : 29
> decisions             : 155323  (0 % random)
> conflicts             : 255
> propagations          : 12472965
> conflict literals     : 196319  (0.0203709 % deleted)
> Current optimal value 21 after 7699 ms
|       255 |  408227  1204160  3204400 |   461265      354    555 |
> restarts              : 30
> decisions             : 158534  (0 % random)
> conflicts             : 256
> propagations          : 12882051
> conflict literals     : 197105  (0.0202896 % deleted)
> Current optimal value 20 after 7895 ms
|       256 |  408228  1204160  3204400 |   461486      355    556 |
> restarts              : 31
> decisions             : 161523  (0 % random)
> conflicts             : 256
> propagations          : 13290279
> conflict literals     : 197105  (0.0202896 % deleted)
> Current optimal value 19 after 8108 ms
|       256 |  408229  1204160  3204400 |   461708      355    556 |
> restarts              : 32
> decisions             : 164579  (0 % random)
> conflicts             : 256
> propagations          : 13698508
> conflict literals     : 197105  (0.0202896 % deleted)
> Current optimal value 18 after 8315 ms
|       256 |  408230  1204160  3204400 |   461929      355    556 |
> restarts              : 33
> decisions             : 167735  (0 % random)
> conflicts             : 257
> propagations          : 14107386
> conflict literals     : 197791  (0.0202193 % deleted)
> Current optimal value 17 after 8524 ms
|       257 |  408231  1204160  3204400 |   462151      356    556 |
> restarts              : 34
> decisions             : 170929  (0 % random)
> conflicts             : 260
> propagations          : 14519426
> conflict literals     : 199362  (0.02006 % deleted)
> Current optimal value 16 after 8746 ms
|       260 |  408232  1204160  3204400 |   462373      359    556 |
> restarts              : 35
> decisions             : 173715  (0 % random)
> conflicts             : 260
> propagations          : 14927658
> conflict literals     : 199362  (0.02006 % deleted)
> Current optimal value 15 after 8944 ms
|       260 |  408233  1204160  3204400 |   462594      359    556 |
> restarts              : 37
> decisions             : 182618  (0 % random)
> conflicts             : 303
> propagations          : 15858740
> conflict literals     : 352409  (0.0365918 % deleted)
> Current optimal value 14 after 9333 ms
|       303 |  408234  1204160  3204400 |   462830      403    875 |
|       404 |  408234  1204160  3204400 |   509113      504   1688 |
|       554 |  408234  1204160  3204400 |   560025      655   2473 |
|       779 |  408234  1204160  3204400 |   616027      885   3621 |
|      1119 |  408234  1204160  3204400 |   677630     1231   4195 |
|      1629 |  408234  1204160  3204400 |   745393     1750   4687 |
|      2389 |  408234  1204160  3204400 |   819932     2515   4764 |
|      3534 |  408234  1204160  3204400 |   901926     3676   6440 |
|      5251 |  408234  1204160  3204400 |   992118     5411   6413 |
|      7815 |  408234  1204160  3204400 |  1091330     8000   9551 |
> restarts              : 65
> decisions             : 355479  (0 % random)
> conflicts             : 10809
> propagations          : 85395869
> conflict literals     : 190507746  (0.137824 % deleted)
> Current optimal value 13 after 73034 ms
|     10809 |  408235  1204160  3204400 |   466591    11021  17286 |
|     10910 |  408235  1204160  3204400 |   513250    11123  17261 |
|     11060 |  408235  1204160  3204400 |   564575    11275  17103 |
|     11287 |  408235  1204160  3204400 |   621033    11504  16854 |
|     11626 |  408235  1204160  3204400 |   683136    11845  16521 |
|     12135 |  408235  1204160  3204400 |   751450    12359  16192 |
|     12898 |  408235  1204160  3204400 |   826595    13127  15577 |
|     14040 |  408235  1204160  3204400 |   909254    14283  14910 |
|     15759 |  408235  1204160  3204400 |  1000179    16008  13964 |
|     18324 |  408235  1204160  3204400 |  1100197    18589  13329 |
|     22186 |  408235  1204160  3204400 |  1210217    22466  11946 |
|     27966 |  408235  1204160  3204400 |  1331239    28312  11984 |
|     36619 |  408235  1204160  3204400 |  1464363    37029  15307 |
|     49650 |  408235  1204160  3204400 |  1610799    50179  13885 |
