Starting solving at 6902 ms
>>> Search start
> Conflicts |          ORIGINAL         |          LEARNT          | Progress
>           |    Vars  Clauses Literals |    Limit  Clauses Lit/Cl |         
|         0 | 1496500  4433512 11795300 |  1633877        0   -nan |
|       101 | 1496500  4433512 11795300 |  1797265      127    297 |
|       252 | 1496500  4433512 11795300 |  1976991      304    379 |
|       478 | 1496500  4433512 11795300 |  2174691      556    490 |
|       818 | 1496500  4433512 11795300 |  2392160      983    593 |
> restarts              : 8
> decisions             : 121921  (0 % random)
> conflicts             : 901
> propagations          : 9435974
> conflict literals     : 712886  (0.00995852 % deleted)
> Current optimal value 100 after 10375 ms
|       901 | 1496501  4433512 11795300 |  1634461     1087    656 |
> restarts              : 9
> decisions             : 149286  (0 % random)
> conflicts             : 904
> propagations          : 10940211
> conflict literals     : 714038  (0.00994246 % deleted)
> Current optimal value 99 after 11082 ms
|       904 | 1496502  4433512 11795300 |  1634683     1090    655 |
> restarts              : 10
> decisions             : 176221  (0 % random)
> conflicts             : 904
> propagations          : 12436713
> conflict literals     : 714038  (0.00994246 % deleted)
> Current optimal value 98 after 11777 ms
|       904 | 1496503  4433512 11795300 |  1634905     1090    655 |
> restarts              : 11
> decisions             : 203037  (0 % random)
> conflicts             : 906
> propagations          : 13955210
> conflict literals     : 735394  (0.00965376 % deleted)
> Current optimal value 97 after 12527 ms
|       906 | 1496504  4433512 11795300 |  1635127     1094    673 |
> restarts              : 12
> decisions             : 232715  (0 % random)
> conflicts             : 938
> propagations          : 15747245
> conflict literals     : 752122  (0.00943907 % deleted)
> Current optimal value 96 after 13349 ms
|       938 | 1496505  4433512 11795300 |  1635365     1143    658 |
> restarts              : 13
> decisions             : 257460  (0 % random)
> conflicts             : 947
> propagations          : 17329940
> conflict literals     : 755530  (0.00939649 % deleted)
> Current optimal value 95 after 14105 ms
|       947 | 1496506  4433512 11795300 |  1635591     1157    653 |
> restarts              : 14
> decisions             : 285064  (0 % random)
> conflicts             : 974
> propagations          : 18989442
> conflict literals     : 767587  (0.00924891 % deleted)
> Current optimal value 94 after 14892 ms
|       974 | 1496507  4433512 11795300 |  1635826     1197    642 |
> restarts              : 15
> decisions             : 309916  (0 % random)
> conflicts             : 974
> propagations          : 20485949
> conflict literals     : 767587  (0.00924891 % deleted)
> Current optimal value 93 after 15634 ms
|       974 | 1496508  4433512 11795300 |  1636047     1197    642 |
> restarts              : 16
> decisions             : 335927  (0 % random)
> conflicts             : 988
> propagations          : 21996083
> conflict literals     : 773274  (0.0091809 % deleted)
> Current optimal value 92 after 16378 ms
|       988 | 1496509  4433512 11795300 |  1636274     1214    637 |
> restarts              : 17
> decisions             : 361532  (0 % random)
> conflicts             : 999
> propagations          : 23536772
> conflict literals     : 780755  (0.00909293 % deleted)
> Current optimal value 91 after 17133 ms
|       999 | 1496510  4433512 11795300 |  1636500     1228    636 |
> restarts              : 18
> decisions             : 386571  (0 % random)
> conflicts             : 1001
> propagations          : 25033945
> conflict literals     : 782804  (0.00906914 % deleted)
> Current optimal value 90 after 17878 ms
|      1001 | 1496511  4433512 11795300 |  1636722     1231    636 |
> restarts              : 19
> decisions             : 411501  (0 % random)
> conflicts             : 1010
> propagations          : 26558257
> conflict literals     : 785155  (0.00904198 % deleted)
> Current optimal value 89 after 18642 ms
|      1010 | 1496512  4433512 11795300 |  1636949     1246    631 |
> restarts              : 20
> decisions             : 435564  (0 % random)
> conflicts             : 1017
> propagations          : 28056888
> conflict literals     : 787387  (0.00901635 % deleted)
> Current optimal value 88 after 19403 ms
|      1017 | 1496513  4433512 11795300 |  1637173     1255    628 |
> restarts              : 21
> decisions             : 458822  (0 % random)
> conflicts             : 1017
> propagations          : 29553401
> conflict literals     : 787387  (0.00901635 % deleted)
> Current optimal value 87 after 20194 ms
|      1017 | 1496514  4433512 11795300 |  1637394     1255    628 |
> restarts              : 22
> decisions             : 482440  (0 % random)
> conflicts             : 1027
> propagations          : 31053923
> conflict literals     : 792609  (0.00895696 % deleted)
> Current optimal value 86 after 20948 ms
|      1027 | 1496515  4433512 11795300 |  1637620     1267    626 |
> restarts              : 23
> decisions             : 505450  (0 % random)
> conflicts             : 1028
> propagations          : 32550740
> conflict literals     : 792806  (0.00895473 % deleted)
> Current optimal value 85 after 21698 ms
|      1028 | 1496516  4433512 11795300 |  1637842     1269    625 |
> restarts              : 24
> decisions             : 528434  (0 % random)
> conflicts             : 1028
> propagations          : 34047256
> conflict literals     : 792806  (0.00895473 % deleted)
> Current optimal value 84 after 22443 ms
|      1028 | 1496517  4433512 11795300 |  1638063     1269    625 |
> restarts              : 25
> decisions             : 551003  (0 % random)
> conflicts             : 1028
> propagations          : 35543773
> conflict literals     : 792806  (0.00895473 % deleted)
> Current optimal value 83 after 23212 ms
|      1028 | 1496518  4433512 11795300 |  1638284     1269    625 |
> restarts              : 26
> decisions             : 573203  (0 % random)
> conflicts             : 1028
> propagations          : 37040291
> conflict literals     : 792806  (0.00895473 % deleted)
> Current optimal value 82 after 23980 ms
|      1028 | 1496519  4433512 11795300 |  1638506     1269    625 |
> restarts              : 27
> decisions             : 595192  (0 % random)
> conflicts             : 1029
> propagations          : 38538411
> conflict literals     : 793182  (0.00895049 % deleted)
> Current optimal value 81 after 24755 ms
|      1029 | 1496520  4433512 11795300 |  1638728     1271    625 |
> restarts              : 28
> decisions             : 618783  (0 % random)
> conflicts             : 1041
> propagations          : 40208296
> conflict literals     : 796293  (0.00891552 % deleted)
> Current optimal value 80 after 25583 ms
|      1041 | 1496521  4433512 11795300 |  1638955     1289    618 |
> restarts              : 29
> decisions             : 639266  (0 % random)
> conflicts             : 1050
> propagations          : 41707472
> conflict literals     : 798351  (0.00889254 % deleted)
> Current optimal value 79 after 26363 ms
|      1050 | 1496522  4433512 11795300 |  1639181     1304    613 |
> restarts              : 30
> decisions             : 659260  (0 % random)
> conflicts             : 1058
> propagations          : 43216251
> conflict literals     : 800019  (0.008874 % deleted)
> Current optimal value 78 after 27170 ms
|      1058 | 1496523  4433512 11795300 |  1639407     1317    608 |
> restarts              : 31
> decisions             : 678501  (0 % random)
> conflicts             : 1073
> propagations          : 44716014
> conflict literals     : 804006  (0.00883 % deleted)
> Current optimal value 77 after 28000 ms
|      1073 | 1496524  4433512 11795300 |  1639635     1338    601 |
> restarts              : 32
> decisions             : 698006  (0 % random)
> conflicts             : 1081
> propagations          : 46229681
> conflict literals     : 806515  (0.00905047 % deleted)
> Current optimal value 76 after 28813 ms
|      1081 | 1496525  4433512 11795300 |  1639860     1348    599 |
> restarts              : 33
> decisions             : 716986  (0 % random)
> conflicts             : 1088
> propagations          : 47731068
> conflict literals     : 808357  (0.00902985 % deleted)
> Current optimal value 75 after 29606 ms
|      1088 | 1496526  4433512 11795300 |  1640085     1358    596 |
> restarts              : 34
> decisions             : 736001  (0 % random)
> conflicts             : 1094
> propagations          : 49228909
> conflict literals     : 809917  (0.00901246 % deleted)
> Current optimal value 74 after 30411 ms
|      1094 | 1496527  4433512 11795300 |  1640309     1367    593 |
> restarts              : 35
> decisions             : 756507  (0 % random)
> conflicts             : 1104
> propagations          : 50839132
> conflict literals     : 811449  (0.00899544 % deleted)
> Current optimal value 73 after 31265 ms
|      1104 | 1496528  4433512 11795300 |  1640536     1383    587 |
> restarts              : 36
> decisions             : 774791  (0 % random)
> conflicts             : 1105
> propagations          : 52335714
> conflict literals     : 811842  (0.00899109 % deleted)
> Current optimal value 72 after 32076 ms
|      1105 | 1496529  4433512 11795300 |  1640757     1384    587 |
> restarts              : 37
> decisions             : 793326  (0 % random)
> conflicts             : 1108
> propagations          : 53839997
> conflict literals     : 812336  (0.00898562 % deleted)
> Current optimal value 71 after 32890 ms
|      1108 | 1496530  4433512 11795300 |  1640980     1389    585 |
> restarts              : 38
> decisions             : 811474  (0 % random)
> conflicts             : 1108
> propagations          : 55336527
> conflict literals     : 812336  (0.00898562 % deleted)
> Current optimal value 70 after 33699 ms
|      1108 | 1496531  4433512 11795300 |  1641202     1389    585 |
> restarts              : 39
> decisions             : 829860  (0 % random)
> conflicts             : 1109
> propagations          : 56833344
> conflict literals     : 812533  (0.00898344 % deleted)
> Current optimal value 69 after 34493 ms
|      1109 | 1496532  4433512 11795300 |  1641424     1391    585 |
> restarts              : 40
> decisions             : 848086  (0 % random)
> conflicts             : 1117
> propagations          : 58334330
> conflict literals     : 815831  (0.00894713 % deleted)
> Current optimal value 68 after 35319 ms
|      1117 | 1496533  4433512 11795300 |  1641648     1401    583 |
> restarts              : 41
> decisions             : 865917  (0 % random)
> conflicts             : 1120
> propagations          : 59831371
> conflict literals     : 816422  (0.00894065 % deleted)
> Current optimal value 67 after 36175 ms
|      1120 | 1496534  4433512 11795300 |  1641872     1407    581 |
> restarts              : 42
> decisions             : 883697  (0 % random)
> conflicts             : 1132
> propagations          : 61335878
> conflict literals     : 821429  (0.00888616 % deleted)
> Current optimal value 66 after 37001 ms
|      1132 | 1496535  4433512 11795300 |  1642098     1422    578 |
> restarts              : 43
> decisions             : 901059  (0 % random)
> conflicts             : 1137
> propagations          : 62834508
> conflict literals     : 823367  (0.00898668 % deleted)
> Current optimal value 65 after 37818 ms
|      1137 | 1496536  4433512 11795300 |  1642321     1428    577 |
> restarts              : 44
> decisions             : 920535  (0 % random)
> conflicts             : 1144
> propagations          : 64391289
> conflict literals     : 825094  (0.00896787 % deleted)
> Current optimal value 64 after 38664 ms
|      1144 | 1496537  4433512 11795300 |  1642546     1437    575 |
> restarts              : 45
> decisions             : 937378  (0 % random)
> conflicts             : 1147
> propagations          : 65888209
> conflict literals     : 825968  (0.00895838 % deleted)
> Current optimal value 63 after 39470 ms
|      1147 | 1496538  4433512 11795300 |  1642768     1441    574 |
> restarts              : 46
> decisions             : 954528  (0 % random)
> conflicts             : 1149
> propagations          : 67386700
> conflict literals     : 826362  (0.00895411 % deleted)
> Current optimal value 62 after 40297 ms
|      1149 | 1496539  4433512 11795300 |  1642991     1445    572 |
> restarts              : 47
> decisions             : 970936  (0 % random)
> conflicts             : 1151
> propagations          : 68883566
> conflict literals     : 826756  (0.00894984 % deleted)
> Current optimal value 61 after 41112 ms
|      1151 | 1496540  4433512 11795300 |  1643214     1449    571 |
> restarts              : 48
> decisions             : 987579  (0 % random)
> conflicts             : 1153
> propagations          : 70398330
> conflict literals     : 827110  (0.00894601 % deleted)
> Current optimal value 60 after 41958 ms
|      1153 | 1496541  4433512 11795300 |  1643436     1452    570 |
> restarts              : 49
> decisions             : 1001690  (0 % random)
> conflicts             : 1159
> propagations          : 71906783
> conflict literals     : 828583  (0.00893011 % deleted)
> Current optimal value 59 after 42784 ms
|      1159 | 1496542  4433512 11795300 |  1643661     1462    567 |
> restarts              : 50
> decisions             : 1015238  (0 % random)
> conflicts             : 1177
> propagations          : 73408427
> conflict literals     : 838956  (0.00881971 % deleted)
> Current optimal value 58 after 43602 ms
|      1177 | 1496543  4433512 11795300 |  1643890     1486    565 |
> restarts              : 51
> decisions             : 1031704  (0 % random)
> conflicts             : 1195
> propagations          : 74974438
> conflict literals     : 845355  (0.00875295 % deleted)
> Current optimal value 57 after 44511 ms
|      1195 | 1496544  4433512 11795300 |  1644120     1512    560 |
> restarts              : 52
> decisions             : 1045952  (0 % random)
> conflicts             : 1221
> propagations          : 76542454
> conflict literals     : 857156  (0.00863246 % deleted)
> Current optimal value 56 after 45382 ms
|      1221 | 1496545  4433512 11795300 |  1644352     1545    555 |
> restarts              : 53
> decisions             : 1059761  (0 % random)
> conflicts             : 1224
> propagations          : 78039633
> conflict literals     : 857842  (0.00862555 % deleted)
> Current optimal value 55 after 46219 ms
|      1224 | 1496546  4433512 11795300 |  1644575     1550    554 |
> restarts              : 54
> decisions             : 1074149  (0 % random)
> conflicts             : 1236
> propagations          : 79540920
> conflict literals     : 861201  (0.00859191 % deleted)
> Current optimal value 54 after 47062 ms
|      1236 | 1496547  4433512 11795300 |  1644802     1565    551 |
> restarts              : 55
> decisions             : 1087598  (0 % random)
> conflicts             : 1239
> propagations          : 81037956
> conflict literals     : 862083  (0.00858312 % deleted)
> Current optimal value 53 after 47881 ms
|      1239 | 1496548  4433512 11795300 |  1645024     1569    550 |
> restarts              : 56
> decisions             : 1103113  (0 % random)
> conflicts             : 1259
> propagations          : 82564920
> conflict literals     : 869808  (0.0085069 % deleted)
> Current optimal value 52 after 48726 ms
|      1259 | 1496549  4433512 11795300 |  1645254     1595    546 |
> restarts              : 57
> decisions             : 1117123  (0 % random)
> conflicts             : 1262
> propagations          : 84062855
> conflict literals     : 870395  (0.00850116 % deleted)
> Current optimal value 51 after 49552 ms
|      1262 | 1496550  4433512 11795300 |  1645477     1599    545 |
> restarts              : 58
> decisions             : 1132095  (0 % random)
> conflicts             : 1283
> propagations          : 85576437
> conflict literals     : 878211  (0.00842551 % deleted)
> Current optimal value 50 after 50392 ms
|      1283 | 1496551  4433512 11795300 |  1645707     1625    541 |
> restarts              : 59
> decisions             : 1145903  (0 % random)
> conflicts             : 1287
> propagations          : 87086846
> conflict literals     : 879182  (0.00841621 % deleted)
> Current optimal value 49 after 51254 ms
|      1287 | 1496552  4433512 11795300 |  1645930     1630    540 |
> restarts              : 61
> decisions             : 1173328  (0 % random)
> conflicts             : 1301
> propagations          : 90083111
> conflict literals     : 882585  (0.00838376 % deleted)
> Current optimal value 48 after 52817 ms
|      1301 | 1496553  4433512 11795300 |  1646158     1649    536 |
> restarts              : 62
> decisions             : 1187342  (0 % random)
> conflicts             : 1307
> propagations          : 91581114
> conflict literals     : 884050  (0.00836987 % deleted)
> Current optimal value 47 after 53641 ms
|      1307 | 1496554  4433512 11795300 |  1646382     1659    533 |
> restarts              : 63
> decisions             : 1201843  (0 % random)
> conflicts             : 1338
> propagations          : 93162401
> conflict literals     : 900765  (0.00832556 % deleted)
> Current optimal value 46 after 54509 ms
|      1338 | 1496555  4433512 11795300 |  1646615     1694    532 |
|      1438 | 1496555  4433512 11795300 |  1811277     1808    543 |
> restarts              : 64
> decisions             : 1215145  (0 % random)
> conflicts             : 1442
> propagations          : 94925821
> conflict literals     : 982372  (0.00773578 % deleted)
> Current optimal value 45 after 55491 ms
|      1442 | 1496556  4433512 11795300 |  1646876     1813    542 |
> restarts              : 65
> decisions             : 1226551  (0 % random)
> conflicts             : 1478
> propagations          : 96617728
> conflict literals     : 1001814  (0.00758566 % deleted)
> Current optimal value 44 after 56484 ms
|      1478 | 1496557  4433512 11795300 |  1647113     1858    540 |
> restarts              : 66
> decisions             : 1235228  (0 % random)
> conflicts             : 1500
> propagations          : 98121105
> conflict literals     : 1008261  (0.00753716 % deleted)
> Current optimal value 43 after 57353 ms
|      1500 | 1496558  4433512 11795300 |  1647344     1889    534 |
> restarts              : 67
> decisions             : 1245190  (0 % random)
> conflicts             : 1557
> propagations          : 99769671
> conflict literals     : 1052109  (0.00722306 % deleted)
> Current optimal value 42 after 58277 ms
|      1557 | 1496559  4433512 11795300 |  1647589     1959    538 |
|      1657 | 1496559  4433512 11795300 |  1812348     2074    556 |
> restarts              : 69
> decisions             : 1268186  (0 % random)
> conflicts             : 1778
> propagations          : 103119548
> conflict literals     : 1226315  (0.0258431 % deleted)
> Current optimal value 41 after 60041 ms
|      1778 | 1496560  4433512 11795300 |  1647897     2218    553 |
> restarts              : 71
> decisions             : 1286937  (0 % random)
> conflicts             : 1816
> propagations          : 106144304
> conflict literals     : 1237999  (0.0255993 % deleted)
> Current optimal value 40 after 61599 ms
|      1816 | 1496561  4433512 11795300 |  1648135     2269    546 |
|      1916 | 1496561  4433512 11795300 |  1812948     2392    545 |
> restarts              : 72
> decisions             : 1298203  (0 % random)
> conflicts             : 1942
> propagations          : 107855755
> conflict literals     : 1311871  (0.0247676 % deleted)
> Current optimal value 39 after 62615 ms
|      1942 | 1496562  4433512 11795300 |  1648409     2428    541 |
|      2042 | 1496562  4433512 11795300 |  1813250     2547    538 |
|      2192 | 1496562  4433512 11795300 |  1994575     2716    551 |
> restarts              : 74
> decisions             : 1329581  (0 % random)
> conflicts             : 2211
> propagations          : 111513881
> conflict literals     : 1506380  (0.0232291 % deleted)
> Current optimal value 38 after 64531 ms
|      2211 | 1496563  4433512 11795300 |  1648733     2735    551 |
> restarts              : 75
> decisions             : 1345317  (0 % random)
> conflicts             : 2269
> propagations          : 113184476
> conflict literals     : 1556529  (0.0224809 % deleted)
> Current optimal value 37 after 65442 ms
|      2269 | 1496564  4433512 11795300 |  1648976     2799    557 |
> restarts              : 76
> decisions             : 1354210  (0 % random)
> conflicts             : 2277
> propagations          : 114687819
> conflict literals     : 1558385  (0.0224541 % deleted)
> Current optimal value 36 after 66314 ms
|      2277 | 1496565  4433512 11795300 |  1649201     2811    555 |
> restarts              : 77
> decisions             : 1362817  (0 % random)
> conflicts             : 2320
> propagations          : 116218477
> conflict literals     : 1576725  (0.022193 % deleted)
> Current optimal value 35 after 67252 ms
|      2320 | 1496566  4433512 11795300 |  1649440     2864    551 |
|      2421 | 1496566  4433512 11795300 |  1814384     2985    546 |
|      2571 | 1496566  4433512 11795300 |  1995822     3155    553 |
|      2796 | 1496566  4433512 11795300 |  2195405     3405    586 |
> restarts              : 79
> decisions             : 1395845  (0 % random)
> conflicts             : 3048
> propagations          : 120905341
> conflict literals     : 2155608  (0.0301448 % deleted)
> Current optimal value 34 after 69864 ms
|      3048 | 1496567  4433512 11795300 |  1649941     3704    582 |
|      3148 | 1496567  4433512 11795300 |  1814935     3822    596 |
|      3299 | 1496567  4433512 11795300 |  1996429     4003    587 |
|      3526 | 1496567  4433512 11795300 |  2196072     4278    590 |
|      3865 | 1496567  4433512 11795300 |  2415679     4685    586 |
|      4373 | 1496567  4433512 11795300 |  2657247     5267    605 |
|      5138 | 1496567  4433512 11795300 |  2922972     6180    616 |
> restarts              : 94
> decisions             : 1577626  (0 % random)
> conflicts             : 6231
> propagations          : 149731557
> conflict literals     : 5031651  (0.0494424 % deleted)
> Current optimal value 33 after 83934 ms
|      6231 | 1496568  4433512 11795300 |  1651418     7470    674 |
|      6332 | 1496568  4433512 11795300 |  1816560     7590    675 |
|      6483 | 1496568  4433512 11795300 |  1998216     7755    680 |
|      6710 | 1496568  4433512 11795300 |  2198037     8050    678 |
|      7049 | 1496568  4433512 11795300 |  2417841     8453    690 |
|      7557 | 1496568  4433512 11795300 |  2659625     9035    700 |
|      8322 | 1496568  4433512 11795300 |  2925588     9933    700 |
|      9462 | 1496568  4433512 11795300 |  3218147    11246    730 |
|     11181 | 1496568  4433512 11795300 |  3539961    13270    731 |
|     13748 | 1496568  4433512 11795300 |  3893958    16243    777 |
> restarts              : 126
> decisions             : 1932332  (0 % random)
> conflicts             : 14175
> propagations          : 246199649
> conflict literals     : 13147810  (0.0911336 % deleted)
> Current optimal value 32 after 128782 ms
|     14175 | 1496569  4433512 11795300 |  1654731    16745    786 |
|     14275 | 1496569  4433512 11795300 |  1820204    16859    785 |
|     14426 | 1496569  4433512 11795300 |  2002224    17031    786 |
|     14651 | 1496569  4433512 11795300 |  2202447    17269    806 |
|     14988 | 1496569  4433512 11795300 |  2422692    17689    804 |
|     15494 | 1496569  4433512 11795300 |  2664961    18260    840 |
|     16253 | 1496569  4433512 11795300 |  2931457    19164    867 |
|     17392 | 1496569  4433512 11795300 |  3224603    20491    939 |
|     19100 | 1496569  4433512 11795300 |  3547063    22437   1120 |
|     21669 | 1496569  4433512 11795300 |  3901769    25422   1189 |
|     25532 | 1496569  4433512 11795300 |  4291946    29877   1167 |
|     31318 | 1496569  4433512 11795300 |  4721141    36630   1151 |
> restarts              : 191
> decisions             : 2792665  (0 % random)
> conflicts             : 37006
> propagations          : 411368894
> conflict literals     : 50222990  (0.228384 % deleted)
> Current optimal value 31 after 215634 ms
|     37006 | 1496570  4433512 11795300 |  1663771    43200   1163 |
|     37106 | 1496570  4433512 11795300 |  1830148    43319   1164 |
|     37256 | 1496570  4433512 11795300 |  2013162    43505   1162 |
|     37481 | 1496570  4433512 11795300 |  2214479    43769   1162 |
|     37818 | 1496570  4433512 11795300 |  2435927    44136   1174 |
|     38324 | 1496570  4433512 11795300 |  2679519    44723   1184 |
|     39083 | 1496570  4433512 11795300 |  2947471    45631   1194 |
|     40225 | 1496570  4433512 11795300 |  3242218    46972   1204 |
|     41943 | 1496570  4433512 11795300 |  3566440    48987   1197 |
|     44516 | 1496570  4433512 11795300 |  3923084    51945   1205 |
|     48371 | 1496570  4433512 11795300 |  4315393    56454   1200 |
|     54162 | 1496570  4433512 11795300 |  4746932    63212   1200 |
> restarts              : 255
> decisions             : 3696150  (0 % random)
> conflicts             : 62121
> propagations          : 554292292
> conflict literals     : 93272090  (0.293336 % deleted)
> Current optimal value 30 after 294602 ms
|     62121 | 1496571  4433512 11795300 |  1673691    72297   1290 |
|     62221 | 1496571  4433512 11795300 |  1841060    72423   1290 |
|     62371 | 1496571  4433512 11795300 |  2025166    72585   1293 |
|     62596 | 1496571  4433512 11795300 |  2227683    72839   1294 |
|     62933 | 1496571  4433512 11795300 |  2450451    73248   1292 |
|     63439 | 1496571  4433512 11795300 |  2695496    73849   1292 |
|     64198 | 1496571  4433512 11795300 |  2965046    74733   1299 |
|     65337 | 1496571  4433512 11795300 |  3261550    76048   1317 |
|     67056 | 1496571  4433512 11795300 |  3587706    78072   1307 |
|     69629 | 1496571  4433512 11795300 |  3946476    81126   1302 |
|     73483 | 1496571  4433512 11795300 |  4341124    85609   1321 |
|     79278 | 1496571  4433512 11795300 |  4775236    92394   1318 |
|     87946 | 1496571  4433512 11795300 |  5252760   102406   1328 |
|    100966 | 1496571  4433512 11795300 |  5778036   117495   1334 |
|    120473 | 1496571  4433512 11795300 |  6355840   139929   1444 |
