Starting solving at 1098 ms
>>> Search start
> Conflicts |          ORIGINAL         |          LEARNT          | Progress
>           |    Vars  Clauses Literals |    Limit  Clauses Lit/Cl |         
|         0 |  246901   483627  1209403 |   217872        0   -nan |
|       101 |  247000   483388  1208796 |   239659      240    233 |
|       252 |  247000   483388  1208796 |   263625      678    206 |
> restarts              : 4
> decisions             : 35094  (0 % random)
> conflicts             : 300
> propagations          : 1237403
> conflict literals     : 158544  (0.0371998 % deleted)
> Current optimal value 57 after 1503 ms
|       300 |  247000   483388  1208796 |   218063      813    217 |
|       400 |  247000   483388  1208796 |   239870      962    516 |
> restarts              : 6
> decisions             : 52869  (0 % random)
> conflicts             : 501
> propagations          : 1899772
> conflict literals     : 711805  (0.0494273 % deleted)
> Current optimal value 56 after 1832 ms
|       501 |  247000   483388  1208796 |   218179     1161    634 |
> restarts              : 7
> decisions             : 60106  (0 % random)
> conflicts             : 502
> propagations          : 2164127
> conflict literals     : 712002  (0.0494136 % deleted)
> Current optimal value 55 after 1937 ms
|       502 |  247000   483388  1208796 |   218201     1226    603 |
> restarts              : 8
> decisions             : 68227  (0 % random)
> conflicts             : 507
> propagations          : 2442584
> conflict literals     : 716599  (0.0490968 % deleted)
> Current optimal value 54 after 2055 ms
|       507 |  247000   483388  1208796 |   218222     1288    580 |
> restarts              : 9
> decisions             : 73817  (0 % random)
> conflicts             : 507
> propagations          : 2689584
> conflict literals     : 716599  (0.0490968 % deleted)
> Current optimal value 53 after 2150 ms
|       507 |  247000   483388  1208796 |   218242     1348    556 |
> restarts              : 10
> decisions             : 79468  (0 % random)
> conflicts             : 507
> propagations          : 2936584
> conflict literals     : 716599  (0.0490968 % deleted)
> Current optimal value 52 after 2259 ms
|       507 |  247000   483388  1208796 |   218259     1401    537 |
> restarts              : 11
> decisions             : 85250  (0 % random)
> conflicts             : 517
> propagations          : 3189530
> conflict literals     : 723796  (0.0486088 % deleted)
> Current optimal value 51 after 2360 ms
|       517 |  247000   483388  1208796 |   218283     1471    518 |
> restarts              : 12
> decisions             : 90991  (0 % random)
> conflicts             : 517
> propagations          : 3436530
> conflict literals     : 723796  (0.0486088 % deleted)
> Current optimal value 50 after 2462 ms
|       517 |  247000   483388  1208796 |   218314     1565    490 |
> restarts              : 13
> decisions             : 96989  (0 % random)
> conflicts             : 520
> propagations          : 3685813
> conflict literals     : 726241  (0.0484453 % deleted)
> Current optimal value 49 after 2566 ms
|       520 |  247000   483388  1208796 |   218336     1630    474 |
> restarts              : 14
> decisions             : 102797  (0 % random)
> conflicts             : 522
> propagations          : 3935682
> conflict literals     : 728390  (0.0483024 % deleted)
> Current optimal value 48 after 2662 ms
|       522 |  247000   483388  1208796 |   218366     1721    452 |
> restarts              : 15
> decisions             : 108490  (0 % random)
> conflicts             : 524
> propagations          : 4184154
> conflict literals     : 730537  (0.0481605 % deleted)
> Current optimal value 47 after 2759 ms
|       524 |  247000   483388  1208796 |   218396     1810    433 |
> restarts              : 16
> decisions             : 114295  (0 % random)
> conflicts             : 526
> propagations          : 4434010
> conflict literals     : 732102  (0.0480576 % deleted)
> Current optimal value 46 after 2857 ms
|       526 |  247000   483388  1208796 |   218424     1894    416 |
> restarts              : 17
> decisions             : 120466  (0 % random)
> conflicts             : 526
> propagations          : 4681010
> conflict literals     : 732102  (0.0480576 % deleted)
> Current optimal value 45 after 2955 ms
|       526 |  247000   483388  1208796 |   218452     1980    400 |
> restarts              : 18
> decisions             : 127055  (0 % random)
> conflicts             : 528
> propagations          : 4931149
> conflict literals     : 732692  (0.0480189 % deleted)
> Current optimal value 44 after 3057 ms
|       528 |  247000   483388  1208796 |   218473     2041    390 |
> restarts              : 19
> decisions             : 133431  (0 % random)
> conflicts             : 528
> propagations          : 5178149
> conflict literals     : 732692  (0.0480189 % deleted)
> Current optimal value 43 after 3155 ms
|       528 |  247000   483388  1208796 |   218491     2097    380 |
> restarts              : 20
> decisions             : 139851  (0 % random)
> conflicts             : 528
> propagations          : 5425149
> conflict literals     : 732692  (0.0480189 % deleted)
> Current optimal value 42 after 3259 ms
|       528 |  247000   483388  1208796 |   218511     2155    371 |
> restarts              : 21
> decisions             : 146176  (0 % random)
> conflicts             : 528
> propagations          : 5672149
> conflict literals     : 732692  (0.0480189 % deleted)
> Current optimal value 41 after 3360 ms
|       528 |  247000   483388  1208796 |   218530     2213    363 |
> restarts              : 22
> decisions             : 152403  (0 % random)
> conflicts             : 528
> propagations          : 5919149
> conflict literals     : 732692  (0.0480189 % deleted)
> Current optimal value 40 after 3461 ms
|       528 |  247000   483388  1208796 |   218550     2272    354 |
> restarts              : 23
> decisions             : 158576  (0 % random)
> conflicts             : 530
> propagations          : 6166753
> conflict literals     : 733183  (0.0479868 % deleted)
> Current optimal value 39 after 3559 ms
|       530 |  247000   483388  1208796 |   218570     2334    346 |
> restarts              : 24
> decisions             : 164588  (0 % random)
> conflicts             : 530
> propagations          : 6413753
> conflict literals     : 733183  (0.0479868 % deleted)
> Current optimal value 38 after 3655 ms
|       530 |  247000   483388  1208796 |   218592     2399    338 |
> restarts              : 25
> decisions             : 170619  (0 % random)
> conflicts             : 530
> propagations          : 6660753
> conflict literals     : 733183  (0.0479868 % deleted)
> Current optimal value 37 after 3751 ms
|       530 |  247000   483388  1208796 |   218613     2462    330 |
> restarts              : 26
> decisions             : 176601  (0 % random)
> conflicts             : 530
> propagations          : 6907753
> conflict literals     : 733183  (0.0479868 % deleted)
> Current optimal value 36 after 3852 ms
|       530 |  247000   483388  1208796 |   218634     2525    323 |
> restarts              : 27
> decisions             : 182487  (0 % random)
> conflicts             : 530
> propagations          : 7154753
> conflict literals     : 733183  (0.0479868 % deleted)
> Current optimal value 35 after 3956 ms
|       530 |  247000   483388  1208796 |   218655     2589    316 |
> restarts              : 28
> decisions             : 188307  (0 % random)
> conflicts             : 531
> propagations          : 7402215
> conflict literals     : 733576  (0.0479611 % deleted)
> Current optimal value 34 after 4055 ms
|       531 |  247000   483388  1208796 |   218677     2655    309 |
> restarts              : 29
> decisions             : 194000  (0 % random)
> conflicts             : 531
> propagations          : 7649215
> conflict literals     : 733576  (0.0479611 % deleted)
> Current optimal value 33 after 4156 ms
|       531 |  247000   483388  1208796 |   218699     2721    302 |
> restarts              : 30
> decisions             : 199613  (0 % random)
> conflicts             : 531
> propagations          : 7896215
> conflict literals     : 733576  (0.0479611 % deleted)
> Current optimal value 32 after 4267 ms
|       531 |  247000   483388  1208796 |   218722     2788    296 |
> restarts              : 31
> decisions             : 205142  (0 % random)
> conflicts             : 531
> propagations          : 8143215
> conflict literals     : 733576  (0.0479611 % deleted)
> Current optimal value 31 after 4369 ms
|       531 |  247000   483388  1208796 |   218744     2856    290 |
> restarts              : 32
> decisions             : 210575  (0 % random)
> conflicts             : 531
> propagations          : 8390215
> conflict literals     : 733576  (0.0479611 % deleted)
> Current optimal value 30 after 4465 ms
|       531 |  247000   483388  1208796 |   218767     2925    284 |
> restarts              : 33
> decisions             : 215905  (0 % random)
> conflicts             : 531
> propagations          : 8637215
> conflict literals     : 733576  (0.0479611 % deleted)
> Current optimal value 29 after 4557 ms
|       531 |  247000   483388  1208796 |   218791     2995    278 |
> restarts              : 34
> decisions             : 221148  (0 % random)
> conflicts             : 531
> propagations          : 8884215
> conflict literals     : 733576  (0.0479611 % deleted)
> Current optimal value 28 after 4652 ms
|       531 |  247000   483388  1208796 |   218814     3066    272 |
> restarts              : 35
> decisions             : 226474  (0 % random)
> conflicts             : 534
> propagations          : 9171444
> conflict literals     : 734733  (0.0478856 % deleted)
> Current optimal value 27 after 4785 ms
|       534 |  247000   483388  1208796 |   218854     3184    263 |
> restarts              : 36
> decisions             : 229953  (0 % random)
> conflicts             : 538
> propagations          : 9566297
> conflict literals     : 735958  (0.047806 % deleted)
> Current optimal value 26 after 4926 ms
|       538 |  247000   483388  1208796 |   218909     3351    252 |
> restarts              : 37
> decisions             : 232261  (0 % random)
> conflicts             : 538
> propagations          : 9813297
> conflict literals     : 735958  (0.047806 % deleted)
> Current optimal value 25 after 5022 ms
|       538 |  247000   483388  1208796 |   218942     3448    245 |
> restarts              : 38
> decisions             : 234470  (0 % random)
> conflicts             : 538
> propagations          : 10060297
> conflict literals     : 735958  (0.047806 % deleted)
> Current optimal value 24 after 5114 ms
|       538 |  247000   483388  1208796 |   218969     3529    240 |
> restarts              : 39
> decisions             : 236564  (0 % random)
> conflicts             : 538
> propagations          : 10307297
> conflict literals     : 735958  (0.047806 % deleted)
> Current optimal value 23 after 5209 ms
|       538 |  247000   483388  1208796 |   218997     3614    235 |
> restarts              : 40
> decisions             : 238519  (0 % random)
> conflicts             : 540
> propagations          : 10627684
> conflict literals     : 737071  (0.0477338 % deleted)
> Current optimal value 22 after 5368 ms
|       540 |  247000   483388  1208796 |   219050     3773    227 |
> restarts              : 41
> decisions             : 240349  (0 % random)
> conflicts             : 540
> propagations          : 10874684
> conflict literals     : 737071  (0.0477338 % deleted)
> Current optimal value 21 after 5464 ms
|       540 |  247000   483388  1208796 |   219081     3866    222 |
> restarts              : 42
> decisions             : 242058  (0 % random)
> conflicts             : 541
> propagations          : 11124568
> conflict literals     : 737190  (0.0477261 % deleted)
> Current optimal value 20 after 5560 ms
|       541 |  247000   483388  1208796 |   219111     3956    217 |
|       642 |  247000   483388  1208796 |   241022     4250    238 |
|       793 |  247000   483388  1208796 |   265124     6163    181 |
|      1019 |  247000   483388  1208796 |   291637     7960    151 |
|      1357 |  247000   483388  1208796 |   320800     8367    150 |
|      1863 |  247000   483388  1208796 |   352880     8914    177 |
|      2627 |  247000   483388  1208796 |   388169    12216    223 |
|      3772 |  247000   483388  1208796 |   426986    19706    190 |
|      5485 |  247000   483388  1208796 |   469684    25703    189 |
|      8048 |  247000   483388  1208796 |   516653    28286    232 |
|     11905 |  247000   483388  1208796 |   568318    39216    374 |
|     17689 |  247000   483388  1208796 |   625150    56796    397 |
|     26370 |  247000   483388  1208796 |   687665   116796    299 |
|     39364 |  247000   483388  1208796 |   756431   165067    413 |
