Starting solving at 491 ms
>>> Search start
> Conflicts |          ORIGINAL         |          LEARNT          | Progress
>           |    Vars  Clauses Literals |    Limit  Clauses Lit/Cl |         
> restarts              : 1
> decisions             : 401  (0 % random)
> conflicts             : 0
> propagations          : 403
> conflict literals     : 0  (-nan % deleted)
> 1 model found
>>> Search done
nrmodels&&1
total-solving-time0 ms
First objective value: 400 at 549 ms
DETECTED HARD NEIGHBORHOODS: 
Starting local search at 549 ms
Initial objective value: 400 at 550 ms
Strengthened objective value: 400 at 551 ms
Starting solving at 1604 ms
>>> Search start
> restarts              : 1
> decisions             : 12  (0 % random)
> conflicts             : 0
> propagations          : 160806
> conflict literals     : 0  (-nan % deleted)
> 1 model found
>>> Search done
nrmodels&&1
total-solving-time9 ms
Starting local search at 1960 ms
Initial objective value: 389 at 1961 ms
Strengthened objective value: 389 at 1962 ms
Starting solving at 3004 ms
>>> Search start
> restarts              : 1
> decisions             : 16  (0 % random)
> conflicts             : 0
> propagations          : 160807
> conflict literals     : 0  (-nan % deleted)
> 1 model found
>>> Search done
nrmodels&&1
total-solving-time9 ms
Starting local search at 3337 ms
Initial objective value: 387 at 3338 ms
Strengthened objective value: 387 at 3339 ms
Starting solving at 4363 ms
>>> Search start
> restarts              : 1
> decisions             : 43  (0 % random)
> conflicts             : 32
> propagations          : 161052
> conflict literals     : 12154  (0.74316 % deleted)
> 1 model found
>>> Search done
nrmodels&&1
total-solving-time11 ms
Starting local search at 4722 ms
Initial objective value: 386 at 4723 ms
Strengthened objective value: 386 at 4724 ms
Starting solving at 5733 ms
>>> Search start
|       101 |     400    26467    52934 |    14775      151    380 |
|       252 |     400    26467    52934 |    16252      381    380 |
> restarts              : 4
> decisions             : 526  (0 % random)
> conflicts             : 458
> propagations          : 165376
> conflict literals     : 171046  (1.28241 % deleted)
> 1 model found
>>> Search done
nrmodels&&1
total-solving-time41 ms
Starting local search at 6109 ms
Initial objective value: 385 at 6110 ms
Strengthened objective value: 385 at 6111 ms
Starting solving at 7132 ms
>>> Search start
|       101 |     400    26467    52934 |    16042      158    379 |
|       252 |     400    26467    52934 |    17647      384    379 |
|       478 |     400    26467    52934 |    19411      734    378 |
> restarts              : 4
> decisions             : 552  (0 % random)
> conflicts             : 489
> propagations          : 165796
> conflict literals     : 181962  (1.39218 % deleted)
> 1 model found
>>> Search done
nrmodels&&1
total-solving-time46 ms
Starting local search at 7518 ms
Initial objective value: 384 at 7519 ms
Strengthened objective value: 384 at 7520 ms
Starting solving at 8542 ms
>>> Search start
|       101 |     400    26467    52934 |    17310      159    378 |
|       252 |     400    26467    52934 |    19041      383    378 |
|       478 |     400    26467    52934 |    20945      743    377 |
> restarts              : 7
> decisions             : 815  (0 % random)
> conflicts             : 700
> propagations          : 168773
> conflict literals     : 258864  (1.3904 % deleted)
> 1 model found
>>> Search done
nrmodels&&1
total-solving-time67 ms
Starting local search at 8940 ms
Initial objective value: 372 at 8940 ms
Strengthened objective value: 372 at 8941 ms
Starting solving at 9964 ms
>>> Search start
|       101 |     400    26467    52934 |    18577      180    363 |
|       252 |     400    26467    52934 |    20435      442    363 |
|       478 |     400    26467    52934 |    22479      850    362 |
> restarts              : 7
> decisions             : 816  (0 % random)
> conflicts             : 707
> propagations          : 172268
> conflict literals     : 249045  (1.7543 % deleted)
> 1 model found
>>> Search done
nrmodels&&1
total-solving-time68 ms
Starting local search at 10371 ms
Initial objective value: 371 at 10372 ms
Strengthened objective value: 371 at 10373 ms
Starting solving at 11394 ms
>>> Search start
|       101 |     400    26467    52934 |    19845      177    361 |
|       252 |     400    26467    52934 |    21830      444    362 |
|       478 |     400    26467    52934 |    24013      845    361 |
> restarts              : 7
> decisions             : 804  (0 % random)
> conflicts             : 700
> propagations          : 172523
> conflict literals     : 245547  (1.67895 % deleted)
> 1 model found
>>> Search done
nrmodels&&1
total-solving-time71 ms
Starting local search at 11789 ms
Initial objective value: 368 at 11790 ms
Strengthened objective value: 368 at 11791 ms
Starting solving at 12816 ms
>>> Search start
|       101 |     400    26467    52934 |    21113      185    359 |
|       252 |     400    26467    52934 |    23224      463    359 |
|       478 |     400    26467    52934 |    25546      866    358 |
> restarts              : 7
> decisions             : 882  (0 % random)
> conflicts             : 723
> propagations          : 173346
> conflict literals     : 250855  (1.79225 % deleted)
> 1 model found
>>> Search done
nrmodels&&1
total-solving-time76 ms
Starting local search at 13218 ms
Initial objective value: 364 at 13219 ms
Strengthened objective value: 364 at 13220 ms
Starting solving at 14248 ms
>>> Search start
|       101 |     400    26467    52934 |    22380      186    354 |
|       252 |     400    26467    52934 |    24618      463    354 |
|       478 |     400    26467    52934 |    27080      873    353 |
|       818 |     400    26467    52934 |    29788     1489    353 |
|      1326 |     400    26467    52934 |    32767     2366    353 |
> restarts              : 11
> decisions             : 1917  (0 % random)
> conflicts             : 1587
> propagations          : 188638
> conflict literals     : 542914  (2.01435 % deleted)
> 1 model found
>>> Search done
nrmodels&&1
total-solving-time188 ms
Starting local search at 14761 ms
Initial objective value: 359 at 14762 ms
Strengthened objective value: 359 at 14763 ms
Starting solving at 15774 ms
>>> Search start
|       101 |     400    26467    52934 |    23648      181    347 |
|       252 |     400    26467    52934 |    26012      457    346 |
|       478 |     400    26467    52934 |    28614      872    346 |
|       818 |     400    26467    52934 |    31475     1492    347 |
|      1326 |     400    26467    52934 |    34623     2394    347 |
|      2090 |     400    26467    52934 |    38085     3774    347 |
|      3231 |     400    26467    52934 |    41894     5822    346 |
> restarts              : 20
> decisions             : 4833  (0 % random)
> conflicts             : 3798
> propagations          : 231182
> conflict literals     : 1269667  (2.69826 % deleted)
> 1 model found
>>> Search done
nrmodels&&1
total-solving-time569 ms
Starting local search at 16671 ms
Initial objective value: 358 at 16672 ms
Strengthened objective value: 358 at 16673 ms
Starting solving at 17706 ms
>>> Search start
|       101 |     400    26467    52934 |    24915      184    346 |
|       252 |     400    26467    52934 |    27407      460    345 |
|       478 |     400    26467    52934 |    30148      875    344 |
> restarts              : 7
> decisions             : 900  (0 % random)
> conflicts             : 700
> propagations          : 176185
> conflict literals     : 232084  (2.11556 % deleted)
> 1 model found
>>> Search done
nrmodels&&1
total-solving-time88 ms
Starting local search at 18135 ms
Initial objective value: 357 at 18136 ms
Strengthened objective value: 357 at 18138 ms
Starting solving at 19132 ms
>>> Search start
|       101 |     400    26467    52934 |    26183      183    344 |
|       252 |     400    26467    52934 |    28801      453    344 |
|       478 |     400    26467    52934 |    31681      866    344 |
|       818 |     400    26467    52934 |    34849     1492    345 |
|      1326 |     400    26467    52934 |    38334     2402    344 |
|      2090 |     400    26467    52934 |    42168     3801    345 |
|      3231 |     400    26467    52934 |    46385     5892    344 |
> restarts              : 21
> decisions             : 5002  (0 % random)
> conflicts             : 3802
> propagations          : 236848
> conflict literals     : 1260173  (2.5545 % deleted)
> 1 model found
>>> Search done
nrmodels&&1
total-solving-time632 ms
Starting local search at 20116 ms
Initial objective value: 355 at 20117 ms
Strengthened objective value: 355 at 20118 ms
Starting solving at 21157 ms
>>> Search start
|       101 |     400    26467    52934 |    27450      183    341 |
|       252 |     400    26467    52934 |    30195      459    341 |
|       478 |     400    26467    52934 |    33215      873    341 |
|       818 |     400    26467    52934 |    36537     1489    342 |
|      1326 |     400    26467    52934 |    40190     2393    341 |
|      2090 |     400    26467    52934 |    44209     3801    342 |
|      3231 |     400    26467    52934 |    48630     5875    341 |
> restarts              : 25
> decisions             : 5885  (0 % random)
> conflicts             : 4610
> propagations          : 254010
> conflict literals     : 1514966  (2.74178 % deleted)
> 1 model found
>>> Search done
nrmodels&&1
total-solving-time834 ms
Starting local search at 22318 ms
Initial objective value: 354 at 22320 ms
Strengthened objective value: 354 at 22321 ms
Starting solving at 23362 ms
>>> Search start
|       101 |     400    26467    52934 |    28718      185    340 |
|       252 |     400    26467    52934 |    31590      466    340 |
|       478 |     400    26467    52934 |    34749      883    340 |
|       818 |     400    26467    52934 |    38224     1491    340 |
|      1326 |     400    26467    52934 |    42046     2405    340 |
|      2090 |     400    26467    52934 |    46251     3791    341 |
|      3231 |     400    26467    52934 |    50876     5871    340 |
> restarts              : 17
> decisions             : 4285  (0 % random)
> conflicts             : 3316
> propagations          : 229482
> conflict literals     : 1084797  (2.74324 % deleted)
> 1 model found
>>> Search done
nrmodels&&1
total-solving-time543 ms
Starting local search at 24241 ms
Initial objective value: 353 at 24242 ms
Strengthened objective value: 353 at 24243 ms
Starting solving at 25275 ms
>>> Search start
|       101 |     400    26467    52934 |    29986      189    340 |
|       252 |     400    26467    52934 |    32984      477    340 |
|       478 |     400    26467    52934 |    36283      897    340 |
> restarts              : 7
> decisions             : 970  (0 % random)
> conflicts             : 710
> propagations          : 178197
> conflict literals     : 230860  (2.02062 % deleted)
> 1 model found
>>> Search done
nrmodels&&1
total-solving-time107 ms
Starting local search at 25743 ms
Initial objective value: 352 at 25743 ms
Strengthened objective value: 352 at 25744 ms
Starting solving at 26798 ms
>>> Search start
|       101 |     400    26467    52934 |    31253      189    339 |
|       252 |     400    26467    52934 |    34378      479    339 |
|       478 |     400    26467    52934 |    37816      899    339 |
|       818 |     400    26467    52934 |    41598     1514    339 |
|      1326 |     400    26467    52934 |    45758     2438    338 |
> restarts              : 14
> decisions             : 2480  (0 % random)
> conflicts             : 1902
> propagations          : 203722
> conflict literals     : 617679  (2.388 % deleted)
> 1 model found
>>> Search done
nrmodels&&1
total-solving-time322 ms
Starting local search at 27489 ms
Initial objective value: 351 at 27490 ms
Strengthened objective value: 351 at 27491 ms
Starting solving at 28522 ms
>>> Search start
|       101 |     400    26467    52934 |    32521      192    338 |
|       252 |     400    26467    52934 |    35773      479    338 |
|       478 |     400    26467    52934 |    39350      894    338 |
|       818 |     400    26467    52934 |    43285     1509    338 |
|      1326 |     400    26467    52934 |    47614     2402    338 |
|      2090 |     400    26467    52934 |    52375     3801    338 |
|      3231 |     400    26467    52934 |    57613     5923    337 |
> restarts              : 18
> decisions             : 4691  (0 % random)
> conflicts             : 3441
> propagations          : 235540
> conflict literals     : 1111606  (2.824 % deleted)
> 1 model found
>>> Search done
nrmodels&&1
total-solving-time634 ms
Starting local search at 29525 ms
Initial objective value: 350 at 29526 ms
Strengthened objective value: 350 at 29527 ms
Starting solving at 30598 ms
>>> Search start
|       101 |     400    26467    52934 |    33788      190    337 |
|       252 |     400    26467    52934 |    37167      480    337 |
|       478 |     400    26467    52934 |    40884      906    337 |
|       818 |     400    26467    52934 |    44972     1523    337 |
|      1326 |     400    26467    52934 |    49470     2462    337 |
> restarts              : 14
> decisions             : 2663  (0 % random)
> conflicts             : 1971
> propagations          : 206156
> conflict literals     : 638321  (1.97307 % deleted)
> 1 model found
>>> Search done
nrmodels&&1
total-solving-time344 ms
Starting local search at 31304 ms
Initial objective value: 349 at 31305 ms
Strengthened objective value: 349 at 31306 ms
Starting solving at 32378 ms
>>> Search start
|       101 |     400    26467    52934 |    35056      192    336 |
|       252 |     400    26467    52934 |    38561      474    336 |
|       478 |     400    26467    52934 |    42418      897    335 |
> restarts              : 7
> decisions             : 995  (0 % random)
> conflicts             : 727
> propagations          : 179539
> conflict literals     : 233072  (1.75232 % deleted)
> 1 model found
>>> Search done
nrmodels&&1
total-solving-time127 ms
Starting local search at 32875 ms
Initial objective value: 348 at 32876 ms
Strengthened objective value: 348 at 32877 ms
Starting solving at 33908 ms
>>> Search start
|       101 |     400    26467    52934 |    36323      192    335 |
|       252 |     400    26467    52934 |    39956      476    335 |
|       478 |     400    26467    52934 |    43951      898    334 |
|       818 |     400    26467    52934 |    48347     1516    335 |
|      1326 |     400    26467    52934 |    53181     2450    333 |
> restarts              : 10
> decisions             : 1984  (0 % random)
> conflicts             : 1400
> propagations          : 194561
> conflict literals     : 445865  (2.65126 % deleted)
> 1 model found
>>> Search done
nrmodels&&1
total-solving-time242 ms
Starting local search at 34538 ms
Initial objective value: 334 at 34539 ms
Strengthened objective value: 334 at 34540 ms
Starting solving at 35620 ms
>>> Search start
|       101 |     400    26467    52934 |    37591      188    316 |
|       252 |     400    26467    52934 |    41350      471    317 |
|       478 |     400    26467    52934 |    45485      895    316 |
> restarts              : 7
> decisions             : 1207  (0 % random)
> conflicts             : 728
> propagations          : 183569
> conflict literals     : 217453  (2.59795 % deleted)
> 1 model found
>>> Search done
nrmodels&&1
total-solving-time144 ms
Starting local search at 36124 ms
Initial objective value: 333 at 36125 ms
Strengthened objective value: 333 at 36126 ms
Starting solving at 37166 ms
>>> Search start
|       101 |     400    26467    52934 |    38858      187    314 |
|       252 |     400    26467    52934 |    42744      470    315 |
|       478 |     400    26467    52934 |    47019      904    314 |
|       818 |     400    26467    52934 |    51721     1549    316 |
|      1326 |     400    26467    52934 |    56893     2502    315 |
|      2090 |     400    26467    52934 |    62582     3940    316 |
|      3231 |     400    26467    52934 |    68841     6075    315 |
|      4950 |     400    26467    52934 |    75725     9303    315 |
|      7517 |     400    26467    52934 |    83297    14114    314 |
|     11377 |     400    26467    52934 |    91627    21340    314 |
> restarts              : 63
> decisions             : 23362  (0 % random)
> conflicts             : 14545
> propagations          : 588552
> conflict literals     : 4283259  (4.215 % deleted)
> 1 model found
>>> Search done
nrmodels&&1
total-solving-time7506 ms
Starting local search at 45044 ms
Initial objective value: 332 at 45045 ms
Strengthened objective value: 332 at 45046 ms
Starting solving at 46144 ms
>>> Search start
|       101 |     400    26467    52934 |    40126      188    312 |
|       252 |     400    26467    52934 |    44139      470    314 |
|       478 |     400    26467    52934 |    48553      896    313 |
> restarts              : 7
> decisions             : 1221  (0 % random)
> conflicts             : 726
> propagations          : 183978
> conflict literals     : 214429  (2.8731 % deleted)
> 1 model found
>>> Search done
nrmodels&&1
total-solving-time176 ms
Starting local search at 46694 ms
Initial objective value: 331 at 46695 ms
Strengthened objective value: 331 at 46697 ms
Starting solving at 47775 ms
>>> Search start
|       101 |     400    26467    52934 |    41394      186    310 |
|       252 |     400    26467    52934 |    45533      467    313 |
|       478 |     400    26467    52934 |    50086      906    313 |
|       818 |     400    26467    52934 |    55095     1545    314 |
|      1326 |     400    26467    52934 |    60605     2501    314 |
|      2090 |     400    26467    52934 |    66665     3938    314 |
|      3231 |     400    26467    52934 |    73332     6096    313 |
|      4950 |     400    26467    52934 |    80665     9315    313 |
> restarts              : 29
> decisions             : 8086  (0 % random)
> conflicts             : 5126
> propagations          : 318637
> conflict literals     : 1511720  (3.01417 % deleted)
> 1 model found
>>> Search done
nrmodels&&1
total-solving-time1475 ms
Starting local search at 49631 ms
Initial objective value: 330 at 49633 ms
Strengthened objective value: 330 at 49634 ms
Starting solving at 50696 ms
>>> Search start
|       101 |     400    26467    52934 |    42661      185    309 |
|       252 |     400    26467    52934 |    46927      472    313 |
|       478 |     400    26467    52934 |    51620      895    312 |
|       818 |     400    26467    52934 |    56782     1539    313 |
|      1326 |     400    26467    52934 |    62460     2490    312 |
|      2090 |     400    26467    52934 |    68707     3925    313 |
|      3231 |     400    26467    52934 |    75577     6082    312 |
|      4950 |     400    26467    52934 |    83135     9287    312 |
|      7517 |     400    26467    52934 |    91449    14062    310 |
|     11377 |     400    26467    52934 |   100593    21305    311 |
|     17159 |     400    26467    52934 |   110653    32132    310 |
> restarts              : 64
> decisions             : 28857  (0 % random)
> conflicts             : 18523
> propagations          : 693051
> conflict literals     : 5371441  (4.88149 % deleted)
> 1 model found
>>> Search done
nrmodels&&1
total-solving-time10121 ms
Starting local search at 61184 ms
Initial objective value: 329 at 61185 ms
Strengthened objective value: 329 at 61187 ms
Starting solving at 62246 ms
>>> Search start
|       101 |     400    26467    52934 |    43929      185    309 |
|       252 |     400    26467    52934 |    48322      469    310 |
|       478 |     400    26467    52934 |    53154      906    311 |
|       818 |     400    26467    52934 |    58469     1547    312 |
|      1326 |     400    26467    52934 |    64316     2503    311 |
|      2090 |     400    26467    52934 |    70748     3945    311 |
|      3231 |     400    26467    52934 |    77823     6123    310 |
|      4950 |     400    26467    52934 |    85605     9374    310 |
|      7517 |     400    26467    52934 |    94166    14240    310 |
|     11377 |     400    26467    52934 |   103582    21517    309 |
|     17159 |     400    26467    52934 |   113941    32394    309 |
> restarts              : 70
> decisions             : 31367  (0 % random)
> conflicts             : 20094
> propagations          : 753673
> conflict literals     : 5816129  (4.50595 % deleted)
> 1 model found
>>> Search done
nrmodels&&1
total-solving-time12721 ms
Starting local search at 75344 ms
Initial objective value: 328 at 75345 ms
Strengthened objective value: 328 at 75346 ms
Starting solving at 76411 ms
>>> Search start
|       101 |     400    26467    52934 |    45196      190    308 |
|       252 |     400    26467    52934 |    49716      475    309 |
|       478 |     400    26467    52934 |    54688      901    309 |
|       818 |     400    26467    52934 |    60156     1539    310 |
|      1326 |     400    26467    52934 |    66172     2501    310 |
|      2090 |     400    26467    52934 |    72789     3939    311 |
|      3231 |     400    26467    52934 |    80068     6105    308 |
|      4950 |     400    26467    52934 |    88075     9374    309 |
|      7517 |     400    26467    52934 |    96883    14222    308 |
|     11377 |     400    26467    52934 |   106571    21492    308 |
|     17159 |     400    26467    52934 |   117228    32384    307 |
> restarts              : 88
> decisions             : 39176  (0 % random)
> conflicts             : 23831
> propagations          : 899365
> conflict literals     : 6795805  (5.24701 % deleted)
> 1 model found
>>> Search done
nrmodels&&1
total-solving-time19410 ms
Starting local search at 96178 ms
Initial objective value: 327 at 96180 ms
Strengthened objective value: 327 at 96182 ms
Starting solving at 97248 ms
>>> Search start
|       101 |     400    26467    52934 |    46464      190    305 |
|       252 |     400    26467    52934 |    51110      470    307 |
|       478 |     400    26467    52934 |    56221      900    308 |
|       818 |     400    26467    52934 |    61844     1550    309 |
|      1326 |     400    26467    52934 |    68028     2505    308 |
|      2090 |     400    26467    52934 |    74831     3959    309 |
|      3231 |     400    26467    52934 |    82314     6114    308 |
|      4950 |     400    26467    52934 |    90545     9366    308 |
|      7517 |     400    26467    52934 |    99600    14211    307 |
|     11377 |     400    26467    52934 |   109560    21511    307 |
|     17159 |     400    26467    52934 |   120516    32436    306 |
|     25839 |     400    26467    52934 |   132568    48818    306 |
|     38846 |     400    26467    52934 |   145825    73249    305 |
|     58367 |     400    26467    52934 |   160407   109991    304 |
> restarts              : 229
> decisions             : 118021  (0 % random)
> conflicts             : 73210
> propagations          : 2428492
> conflict literals     : 20718122  (5.51065 % deleted)
> 1 model found
>>> Search done
nrmodels&&1
total-solving-time184607 ms
Starting local search at 282229 ms
Initial objective value: 326 at 282231 ms
Strengthened objective value: 326 at 282233 ms
Starting solving at 283282 ms
>>> Search start
|       101 |     400    26467    52934 |    47731      189    305 |
|       252 |     400    26467    52934 |    52505      475    306 |
|       478 |     400    26467    52934 |    57755      904    307 |
|       818 |     400    26467    52934 |    63531     1547    308 |
|      1326 |     400    26467    52934 |    69884     2495    306 |
|      2090 |     400    26467    52934 |    76872     3946    307 |
> restarts              : 15
> decisions             : 3553  (0 % random)
> conflicts             : 2101
> propagations          : 230971
> conflict literals     : 604452  (3.04553 % deleted)
> 1 model found
>>> Search done
nrmodels&&1
total-solving-time552 ms
Starting local search at 284214 ms
Initial objective value: 325 at 284215 ms
Strengthened objective value: 325 at 284216 ms
Starting solving at 285273 ms
>>> Search start
|       101 |     400    26467    52934 |    48999      190    303 |
|       252 |     400    26467    52934 |    53899      472    305 |
|       478 |     400    26467    52934 |    59289      895    305 |
|       818 |     400    26467    52934 |    65218     1545    306 |
|      1326 |     400    26467    52934 |    71740     2505    306 |
|      2090 |     400    26467    52934 |    78914     3929    306 |
|      3231 |     400    26467    52934 |    86805     6085    305 |
|      4950 |     400    26467    52934 |    95486     9322    305 |
|      7517 |     400    26467    52934 |   105034    14193    304 |
|     11377 |     400    26467    52934 |   115538    21489    305 |
|     17159 |     400    26467    52934 |   127092    32384    304 |
|     25839 |     400    26467    52934 |   139801    48764    304 |
|     38846 |     400    26467    52934 |   153781    73273    303 |
|     58367 |     400    26467    52934 |   169159   110008    302 |
|     87626 |     400    26467    52934 |   186075   165031    302 |
