Starting solving at 679 ms
>>> Search start
> Conflicts |          ORIGINAL         |          LEARNT          | Progress
>           |    Vars  Clauses Literals |    Limit  Clauses Lit/Cl |         
> restarts              : 1
> decisions             : 476  (0 % random)
> conflicts             : 0
> propagations          : 478
> conflict literals     : 0  (-nan % deleted)
> 1 model found
>>> Search done
nrmodels&&1
total-solving-time0 ms
First objective value: 475 at 772 ms
DETECTED HARD NEIGHBORHOODS: 
Starting local search at 773 ms
Initial objective value: 475 at 773 ms
Strengthened objective value: 475 at 774 ms
Starting solving at 2233 ms
>>> Search start
> restarts              : 1
> decisions             : 14  (0 % random)
> conflicts             : 0
> propagations          : 226581
> conflict literals     : 0  (-nan % deleted)
> 1 model found
>>> Search done
nrmodels&&1
total-solving-time13 ms
Starting local search at 2750 ms
Initial objective value: 462 at 2750 ms
Strengthened objective value: 462 at 2751 ms
Starting solving at 4210 ms
>>> Search start
> restarts              : 1
> decisions             : 20  (0 % random)
> conflicts             : 5
> propagations          : 226614
> conflict literals     : 2291  (0.087222 % deleted)
> 1 model found
>>> Search done
nrmodels&&1
total-solving-time13 ms
Starting local search at 4722 ms
Initial objective value: 461 at 4722 ms
Strengthened objective value: 461 at 4723 ms
Starting solving at 6156 ms
>>> Search start
> restarts              : 1
> decisions             : 11  (0 % random)
> conflicts             : 1
> propagations          : 226589
> conflict literals     : 458  (0 % deleted)
> 1 model found
>>> Search done
nrmodels&&1
total-solving-time12 ms
Starting local search at 6654 ms
Initial objective value: 460 at 6655 ms
Strengthened objective value: 460 at 6656 ms
Starting solving at 8073 ms
>>> Search start
> restarts              : 1
> decisions             : 75  (0 % random)
> conflicts             : 54
> propagations          : 226984
> conflict literals     : 24409  (0.848972 % deleted)
> 1 model found
>>> Search done
nrmodels&&1
total-solving-time16 ms
Starting local search at 8576 ms
Initial objective value: 459 at 8577 ms
Strengthened objective value: 459 at 8577 ms
Starting solving at 10004 ms
>>> Search start
> restarts              : 1
> decisions             : 52  (0 % random)
> conflicts             : 36
> propagations          : 226887
> conflict literals     : 16189  (0.741876 % deleted)
> 1 model found
>>> Search done
nrmodels&&1
total-solving-time15 ms
Starting local search at 10512 ms
Initial objective value: 458 at 10513 ms
Strengthened objective value: 458 at 10514 ms
Starting solving at 11937 ms
>>> Search start
|       101 |     475    37367    74734 |    22992      156    451 |
|       252 |     475    37367    74734 |    25291      402    451 |
|       478 |     475    37367    74734 |    27820      758    450 |
> restarts              : 6
> decisions             : 739  (0 % random)
> conflicts             : 646
> propagations          : 234505
> conflict literals     : 285906  (1.2336 % deleted)
> 1 model found
>>> Search done
nrmodels&&1
total-solving-time73 ms
Starting local search at 12488 ms
Initial objective value: 456 at 12489 ms
Strengthened objective value: 456 at 12489 ms
Starting solving at 13879 ms
>>> Search start
|       101 |     475    37367    74734 |    24540      169    449 |
|       252 |     475    37367    74734 |    26994      417    449 |
|       478 |     475    37367    74734 |    29694      783    448 |
> restarts              : 7
> decisions             : 801  (0 % random)
> conflicts             : 700
> propagations          : 236087
> conflict literals     : 307049  (1.38932 % deleted)
> 1 model found
>>> Search done
nrmodels&&1
total-solving-time82 ms
Starting local search at 14460 ms
Initial objective value: 452 at 14461 ms
Strengthened objective value: 452 at 14462 ms
Starting solving at 15874 ms
>>> Search start
|       101 |     475    37367    74734 |    26089      176    444 |
|       252 |     475    37367    74734 |    28697      430    444 |
|       478 |     475    37367    74734 |    31567      815    443 |
> restarts              : 7
> decisions             : 800  (0 % random)
> conflicts             : 700
> propagations          : 237167
> conflict literals     : 303449  (1.35301 % deleted)
> 1 model found
>>> Search done
nrmodels&&1
total-solving-time88 ms
Starting local search at 16441 ms
Initial objective value: 448 at 16442 ms
Strengthened objective value: 448 at 16443 ms
Starting solving at 17855 ms
>>> Search start
|       101 |     475    37367    74734 |    27637      173    439 |
|       252 |     475    37367    74734 |    30401      429    439 |
|       478 |     475    37367    74734 |    33441      822    438 |
> restarts              : 7
> decisions             : 802  (0 % random)
> conflicts             : 700
> propagations          : 237948
> conflict literals     : 299191  (1.53689 % deleted)
> 1 model found
>>> Search done
nrmodels&&1
total-solving-time97 ms
Starting local search at 18448 ms
Initial objective value: 445 at 18449 ms
Strengthened objective value: 445 at 18450 ms
Starting solving at 19850 ms
>>> Search start
|       101 |     475    37367    74734 |    29185      183    435 |
|       252 |     475    37367    74734 |    32104      452    435 |
|       478 |     475    37367    74734 |    35314      855    434 |
|       818 |     475    37367    74734 |    38846     1408    435 |
> restarts              : 8
> decisions             : 1092  (0 % random)
> conflicts             : 900
> propagations          : 240899
> conflict literals     : 383059  (1.39062 % deleted)
> 1 model found
>>> Search done
nrmodels&&1
total-solving-time117 ms
Starting local search at 20456 ms
Initial objective value: 426 at 20457 ms
Strengthened objective value: 426 at 20458 ms
Starting solving at 21886 ms
>>> Search start
|       101 |     475    37367    74734 |    30734      190    414 |
|       252 |     475    37367    74734 |    33807      467    414 |
|       478 |     475    37367    74734 |    37188      883    413 |
|       818 |     475    37367    74734 |    40907     1500    413 |
|      1326 |     475    37367    74734 |    44998     2375    413 |
|      2090 |     475    37367    74734 |    49498     3762    413 |
|      3231 |     475    37367    74734 |    54447     5841    412 |
> restarts              : 17
> decisions             : 4322  (0 % random)
> conflicts             : 3325
> propagations          : 296503
> conflict literals     : 1328134  (2.15402 % deleted)
> 1 model found
>>> Search done
nrmodels&&1
total-solving-time586 ms
Starting local search at 22953 ms
Initial objective value: 425 at 22954 ms
Strengthened objective value: 425 at 22955 ms
Starting solving at 24383 ms
>>> Search start
|       101 |     475    37367    74734 |    32282      188    413 |
|       252 |     475    37367    74734 |    35511      470    412 |
|       478 |     475    37367    74734 |    39062      889    412 |
|       818 |     475    37367    74734 |    42968     1506    412 |
|      1326 |     475    37367    74734 |    47265     2404    411 |
> restarts              : 10
> decisions             : 1818  (0 % random)
> conflicts             : 1426
> propagations          : 258778
> conflict literals     : 567377  (1.86251 % deleted)
> 1 model found
>>> Search done
nrmodels&&1
total-solving-time209 ms
Starting local search at 25078 ms
Initial objective value: 424 at 25079 ms
Strengthened objective value: 424 at 25080 ms
Starting solving at 26508 ms
>>> Search start
|       101 |     475    37367    74734 |    33831      193    412 |
|       252 |     475    37367    74734 |    37214      477    412 |
|       478 |     475    37367    74734 |    40935      896    411 |
|       818 |     475    37367    74734 |    45029     1517    411 |
|      1326 |     475    37367    74734 |    49532     2406    411 |
|      2090 |     475    37367    74734 |    54485     3786    411 |
|      3231 |     475    37367    74734 |    59934     5849    410 |
|      4950 |     475    37367    74734 |    65927     8949    410 |
> restarts              : 32
> decisions             : 8444  (0 % random)
> conflicts             : 6501
> propagations          : 361510
> conflict literals     : 2583157  (2.25918 % deleted)
> 1 model found
>>> Search done
nrmodels&&1
total-solving-time1426 ms
Starting local search at 28418 ms
Initial objective value: 423 at 28419 ms
Strengthened objective value: 423 at 28420 ms
Starting solving at 29895 ms
>>> Search start
|       101 |     475    37367    74734 |    35379      191    410 |
|       252 |     475    37367    74734 |    38917      475    410 |
|       478 |     475    37367    74734 |    42809      898    410 |
|       818 |     475    37367    74734 |    47090     1528    410 |
|      1326 |     475    37367    74734 |    51799     2438    409 |
|      2090 |     475    37367    74734 |    56979     3819    410 |
|      3231 |     475    37367    74734 |    62677     5885    409 |
> restarts              : 23
> decisions             : 5439  (0 % random)
> conflicts             : 4134
> propagations          : 316708
> conflict literals     : 1635528  (2.18567 % deleted)
> 1 model found
>>> Search done
nrmodels&&1
total-solving-time835 ms
Starting local search at 31218 ms
Initial objective value: 422 at 31219 ms
Strengthened objective value: 422 at 31220 ms
Starting solving at 32701 ms
>>> Search start
|       101 |     475    37367    74734 |    36928      192    409 |
|       252 |     475    37367    74734 |    40620      478    409 |
|       478 |     475    37367    74734 |    44683      901    408 |
|       818 |     475    37367    74734 |    49151     1530    409 |
|      1326 |     475    37367    74734 |    54066     2430    408 |
|      2090 |     475    37367    74734 |    59473     3817    408 |
|      3231 |     475    37367    74734 |    65420     5909    407 |
> restarts              : 17
> decisions             : 4517  (0 % random)
> conflicts             : 3315
> propagations          : 301607
> conflict literals     : 1302245  (2.4464 % deleted)
> 1 model found
>>> Search done
nrmodels&&1
total-solving-time618 ms
Starting local search at 33812 ms
Initial objective value: 421 at 33814 ms
Strengthened objective value: 421 at 33815 ms
Starting solving at 35290 ms
>>> Search start
|       101 |     475    37367    74734 |    38476      190    407 |
|       252 |     475    37367    74734 |    42324      471    408 |
|       478 |     475    37367    74734 |    46556      894    407 |
|       818 |     475    37367    74734 |    51212     1524    407 |
|      1326 |     475    37367    74734 |    56333     2446    407 |
|      2090 |     475    37367    74734 |    61966     3832    408 |
|      3231 |     475    37367    74734 |    68163     5911    407 |
> restarts              : 18
> decisions             : 4686  (0 % random)
> conflicts             : 3457
> propagations          : 305215
> conflict literals     : 1357548  (2.20536 % deleted)
> 1 model found
>>> Search done
nrmodels&&1
total-solving-time680 ms
Starting local search at 36486 ms
Initial objective value: 420 at 36487 ms
Strengthened objective value: 420 at 36488 ms
Starting solving at 37893 ms
>>> Search start
|       101 |     475    37367    74734 |    40024      189    407 |
|       252 |     475    37367    74734 |    44027      472    407 |
|       478 |     475    37367    74734 |    48430      897    405 |
|       818 |     475    37367    74734 |    53273     1529    406 |
|      1326 |     475    37367    74734 |    58600     2463    405 |
> restarts              : 12
> decisions             : 2628  (0 % random)
> conflicts             : 1739
> propagations          : 268765
> conflict literals     : 681108  (2.04001 % deleted)
> 1 model found
>>> Search done
nrmodels&&1
total-solving-time312 ms
Starting local search at 38724 ms
Initial objective value: 419 at 38724 ms
Strengthened objective value: 419 at 38726 ms
Starting solving at 40204 ms
>>> Search start
|       101 |     475    37367    74734 |    41573      190    406 |
|       252 |     475    37367    74734 |    45730      476    405 |
|       478 |     475    37367    74734 |    50303      898    404 |
|       818 |     475    37367    74734 |    55334     1539    404 |
|      1326 |     475    37367    74734 |    60867     2449    404 |
|      2090 |     475    37367    74734 |    66954     3828    405 |
|      3231 |     475    37367    74734 |    73649     5916    404 |
|      4950 |     475    37367    74734 |    81014     9068    404 |
|      7517 |     475    37367    74734 |    89116    13712    404 |
|     11377 |     475    37367    74734 |    98027    20743    404 |
|     17159 |     475    37367    74734 |   107830    31238    403 |
> restarts              : 80
> decisions             : 30739  (0 % random)
> conflicts             : 22500
> propagations          : 710251
> conflict literals     : 8726376  (3.23312 % deleted)
> 1 model found
>>> Search done
nrmodels&&1
total-solving-time12115 ms
Starting local search at 52842 ms
Initial objective value: 417 at 52843 ms
Strengthened objective value: 417 at 52845 ms
Starting solving at 54327 ms
>>> Search start
|       101 |     475    37367    74734 |    43121      193    402 |
|       252 |     475    37367    74734 |    47434      473    402 |
|       478 |     475    37367    74734 |    52177      898    402 |
|       818 |     475    37367    74734 |    57395     1533    402 |
|      1326 |     475    37367    74734 |    63134     2463    402 |
|      2090 |     475    37367    74734 |    69448     3857    403 |
|      3231 |     475    37367    74734 |    76392     5943    402 |
> restarts              : 19
> decisions             : 5099  (0 % random)
> conflicts             : 3674
> propagations          : 315516
> conflict literals     : 1421485  (2.43091 % deleted)
> 1 model found
>>> Search done
nrmodels&&1
total-solving-time853 ms
Starting local search at 55711 ms
Initial objective value: 416 at 55712 ms
Strengthened objective value: 416 at 55713 ms
Starting solving at 57213 ms
>>> Search start
|       101 |     475    37367    74734 |    44670      190    401 |
|       252 |     475    37367    74734 |    49137      476    401 |
|       478 |     475    37367    74734 |    54051      906    401 |
|       818 |     475    37367    74734 |    59456     1536    401 |
|      1326 |     475    37367    74734 |    65401     2462    401 |
|      2090 |     475    37367    74734 |    71941     3869    401 |
|      3231 |     475    37367    74734 |    79136     5982    400 |
> restarts              : 27
> decisions             : 6965  (0 % random)
> conflicts             : 4913
> propagations          : 349856
> conflict literals     : 1889795  (2.46295 % deleted)
> 1 model found
>>> Search done
nrmodels&&1
total-solving-time1238 ms
Starting local search at 58986 ms
Initial objective value: 415 at 58987 ms
Strengthened objective value: 415 at 58988 ms
Starting solving at 60481 ms
>>> Search start
|       101 |     475    37367    74734 |    46218      188    399 |
|       252 |     475    37367    74734 |    50840      470    400 |
|       478 |     475    37367    74734 |    55924      899    399 |
|       818 |     475    37367    74734 |    61517     1542    400 |
> restarts              : 8
> decisions             : 1399  (0 % random)
> conflicts             : 910
> propagations          : 252760
> conflict literals     : 348681  (1.74042 % deleted)
> 1 model found
>>> Search done
nrmodels&&1
total-solving-time196 ms
Starting local search at 61185 ms
Initial objective value: 414 at 61186 ms
Strengthened objective value: 414 at 61187 ms
Starting solving at 62658 ms
>>> Search start
|       101 |     475    37367    74734 |    47767      188    398 |
|       252 |     475    37367    74734 |    52543      475    398 |
|       478 |     475    37367    74734 |    57798      903    398 |
|       818 |     475    37367    74734 |    63578     1530    399 |
|      1326 |     475    37367    74734 |    69935     2466    398 |
|      2090 |     475    37367    74734 |    76929     3882    399 |
|      3231 |     475    37367    74734 |    84622     5999    397 |
> restarts              : 17
> decisions             : 4697  (0 % random)
> conflicts             : 3300
> propagations          : 312425
> conflict literals     : 1256800  (2.81097 % deleted)
> 1 model found
>>> Search done
nrmodels&&1
total-solving-time785 ms
Starting local search at 63970 ms
Initial objective value: 413 at 63971 ms
Strengthened objective value: 413 at 63972 ms
Starting solving at 65443 ms
>>> Search start
|       101 |     475    37367    74734 |    49315      192    398 |
|       252 |     475    37367    74734 |    54247      476    397 |
|       478 |     475    37367    74734 |    59671      897    397 |
|       818 |     475    37367    74734 |    65639     1527    398 |
|      1326 |     475    37367    74734 |    72202     2472    397 |
|      2090 |     475    37367    74734 |    79423     3895    397 |
|      3231 |     475    37367    74734 |    87365     5982    397 |
|      4950 |     475    37367    74734 |    96102     9186    397 |
|      7517 |     475    37367    74734 |   105712    13929    396 |
> restarts              : 46
> decisions             : 14698  (0 % random)
> conflicts             : 10131
> propagations          : 483385
> conflict literals     : 3847419  (2.9421 % deleted)
> 1 model found
>>> Search done
nrmodels&&1
total-solving-time3579 ms
Starting local search at 69555 ms
Initial objective value: 412 at 69557 ms
Strengthened objective value: 412 at 69558 ms
Starting solving at 71050 ms
>>> Search start
|       101 |     475    37367    74734 |    50864      193    397 |
|       252 |     475    37367    74734 |    55950      472    396 |
|       478 |     475    37367    74734 |    61545      903    396 |
|       818 |     475    37367    74734 |    67699     1534    396 |
|      1326 |     475    37367    74734 |    74469     2485    396 |
|      2090 |     475    37367    74734 |    81916     3912    396 |
|      3231 |     475    37367    74734 |    90108     6032    395 |
> restarts              : 19
> decisions             : 5573  (0 % random)
> conflicts             : 3664
> propagations          : 326254
> conflict literals     : 1389093  (2.48386 % deleted)
> 1 model found
>>> Search done
nrmodels&&1
total-solving-time1006 ms
Starting local search at 72590 ms
Initial objective value: 409 at 72591 ms
Strengthened objective value: 409 at 72593 ms
Starting solving at 74100 ms
>>> Search start
|       101 |     475    37367    74734 |    52412      191    392 |
|       252 |     475    37367    74734 |    57653      476    391 |
|       478 |     475    37367    74734 |    63419      909    391 |
|       818 |     475    37367    74734 |    69760     1548    392 |
|      1326 |     475    37367    74734 |    76737     2477    392 |
|      2090 |     475    37367    74734 |    84410     3890    393 |
|      3231 |     475    37367    74734 |    92851     5976    393 |
> restarts              : 26
> decisions             : 7279  (0 % random)
> conflicts             : 4770
> propagations          : 353883
> conflict literals     : 1798294  (2.44202 % deleted)
> 1 model found
>>> Search done
nrmodels&&1
total-solving-time1262 ms
Starting local search at 75894 ms
Initial objective value: 399 at 75895 ms
Strengthened objective value: 399 at 75897 ms
Starting solving at 77406 ms
>>> Search start
|       101 |     475    37367    74734 |    53960      191    379 |
|       252 |     475    37367    74734 |    59356      479    378 |
|       478 |     475    37367    74734 |    65292      910    379 |
|       818 |     475    37367    74734 |    71821     1545    379 |
|      1326 |     475    37367    74734 |    79004     2490    379 |
|      2090 |     475    37367    74734 |    86904     3939    380 |
|      3231 |     475    37367    74734 |    95594     6060    380 |
|      4950 |     475    37367    74734 |   105154     9288    381 |
|      7517 |     475    37367    74734 |   115669    13963    381 |
|     11377 |     475    37367    74734 |   127236    21180    381 |
|     17159 |     475    37367    74734 |   139960    31923    380 |
|     25839 |     475    37367    74734 |   153956    48013    378 |
> restarts              : 95
> decisions             : 43049  (0 % random)
> conflicts             : 26603
> propagations          : 1026981
> conflict literals     : 9540907  (3.87199 % deleted)
> 1 model found
>>> Search done
nrmodels&&1
total-solving-time23548 ms
Starting local search at 101481 ms
Initial objective value: 398 at 101482 ms
Strengthened objective value: 398 at 101484 ms
Starting solving at 102935 ms
>>> Search start
|       101 |     475    37367    74734 |    55509      193    377 |
|       252 |     475    37367    74734 |    61060      481    378 |
|       478 |     475    37367    74734 |    67166      905    377 |
|       818 |     475    37367    74734 |    73882     1550    378 |
|      1326 |     475    37367    74734 |    81271     2524    378 |
|      2090 |     475    37367    74734 |    89398     3956    379 |
|      3231 |     475    37367    74734 |    98338     6076    378 |
|      4950 |     475    37367    74734 |   108171     9285    379 |
|      7517 |     475    37367    74734 |   118989    14088    379 |
|     11377 |     475    37367    74734 |   130888    21330    378 |
> restarts              : 63
> decisions             : 22772  (0 % random)
> conflicts             : 14514
> propagations          : 684120
> conflict literals     : 5213639  (3.11874 % deleted)
> 1 model found
>>> Search done
nrmodels&&1
total-solving-time8366 ms
Starting local search at 111842 ms
Initial objective value: 394 at 111843 ms
Strengthened objective value: 394 at 111844 ms
Starting solving at 113334 ms
>>> Search start
|       101 |     475    37367    74734 |    57057      193    373 |
|       252 |     475    37367    74734 |    62763      484    373 |
|       478 |     475    37367    74734 |    69039      906    372 |
|       818 |     475    37367    74734 |    75943     1550    373 |
|      1326 |     475    37367    74734 |    83538     2491    374 |
|      2090 |     475    37367    74734 |    91892     3941    374 |
|      3231 |     475    37367    74734 |   101081     6099    373 |
|      4950 |     475    37367    74734 |   111189     9337    374 |
|      7517 |     475    37367    74734 |   122308    14171    373 |
> restarts              : 42
> decisions             : 16111  (0 % random)
> conflicts             : 9540
> propagations          : 547565
> conflict literals     : 3363266  (3.45208 % deleted)
> 1 model found
>>> Search done
nrmodels&&1
total-solving-time3891 ms
Starting local search at 117739 ms
Initial objective value: 393 at 117740 ms
Strengthened objective value: 393 at 117742 ms
Starting solving at 119243 ms
>>> Search start
|       101 |     475    37367    74734 |    58606      195    373 |
|       252 |     475    37367    74734 |    64466      480    372 |
|       478 |     475    37367    74734 |    70913      896    370 |
|       818 |     475    37367    74734 |    78004     1543    372 |
|      1326 |     475    37367    74734 |    85805     2513    372 |
|      2090 |     475    37367    74734 |    94385     3966    373 |
|      3231 |     475    37367    74734 |   103824     6112    372 |
|      4950 |     475    37367    74734 |   114206     9357    373 |
|      7517 |     475    37367    74734 |   125627    14193    372 |
> restarts              : 41
> decisions             : 15422  (0 % random)
> conflicts             : 9440
> propagations          : 548380
> conflict literals     : 3307712  (3.53203 % deleted)
> 1 model found
>>> Search done
nrmodels&&1
total-solving-time3844 ms
Starting local search at 123610 ms
Initial objective value: 392 at 123612 ms
Strengthened objective value: 392 at 123613 ms
Starting solving at 125105 ms
>>> Search start
|       101 |     475    37367    74734 |    60154      196    371 |
|       252 |     475    37367    74734 |    66170      479    370 |
|       478 |     475    37367    74734 |    72787      906    370 |
|       818 |     475    37367    74734 |    80065     1545    371 |
|      1326 |     475    37367    74734 |    88072     2509    370 |
|      2090 |     475    37367    74734 |    96879     3947    371 |
|      3231 |     475    37367    74734 |   106567     6105    370 |
|      4950 |     475    37367    74734 |   117224     9327    371 |
|      7517 |     475    37367    74734 |   128946    14130    370 |
|     11377 |     475    37367    74734 |   141841    21341    371 |
|     17159 |     475    37367    74734 |   156025    32054    370 |
> restarts              : 73
> decisions             : 35554  (0 % random)
> conflicts             : 20632
> propagations          : 892099
> conflict literals     : 7217255  (4.00743 % deleted)
> 1 model found
>>> Search done
nrmodels&&1
total-solving-time13957 ms
Starting local search at 139608 ms
Initial objective value: 391 at 139610 ms
Strengthened objective value: 391 at 139611 ms
Starting solving at 141108 ms
>>> Search start
|       101 |     475    37367    74734 |    61703      195    369 |
|       252 |     475    37367    74734 |    67873      476    369 |
|       478 |     475    37367    74734 |    74660      904    368 |
|       818 |     475    37367    74734 |    82126     1551    370 |
|      1326 |     475    37367    74734 |    90339     2508    369 |
|      2090 |     475    37367    74734 |    99373     3955    371 |
|      3231 |     475    37367    74734 |   109310     6108    369 |
|      4950 |     475    37367    74734 |   120241     9332    369 |
|      7517 |     475    37367    74734 |   132265    14141    369 |
|     11377 |     475    37367    74734 |   145492    21364    369 |
|     17159 |     475    37367    74734 |   160041    32237    369 |
|     25839 |     475    37367    74734 |   176045    48520    368 |
> restarts              : 117
> decisions             : 53359  (0 % random)
> conflicts             : 31598
> propagations          : 1312140
> conflict literals     : 10938440  (4.0478 % deleted)
> 1 model found
>>> Search done
nrmodels&&1
total-solving-time35554 ms
Starting local search at 177203 ms
Initial objective value: 390 at 177204 ms
Strengthened objective value: 390 at 177206 ms
Starting solving at 178707 ms
>>> Search start
|       101 |     475    37367    74734 |    63251      197    369 |
|       252 |     475    37367    74734 |    69576      482    367 |
|       478 |     475    37367    74734 |    76534      915    367 |
|       818 |     475    37367    74734 |    84187     1558    368 |
|      1326 |     475    37367    74734 |    92606     2518    368 |
> restarts              : 9
> decisions             : 2323  (0 % random)
> conflicts             : 1333
> propagations          : 279297
> conflict literals     : 461097  (2.70019 % deleted)
> 1 model found
>>> Search done
nrmodels&&1
total-solving-time476 ms
Starting local search at 179721 ms
Initial objective value: 389 at 179722 ms
Strengthened objective value: 389 at 179724 ms
Starting solving at 181234 ms
>>> Search start
|       101 |     475    37367    74734 |    64799      196    368 |
|       252 |     475    37367    74734 |    71279      485    367 |
|       478 |     475    37367    74734 |    78407      916    367 |
|       818 |     475    37367    74734 |    86248     1565    368 |
|      1326 |     475    37367    74734 |    94873     2533    368 |
|      2090 |     475    37367    74734 |   104360     3975    368 |
|      3231 |     475    37367    74734 |   114796     6156    368 |
|      4950 |     475    37367    74734 |   126276     9373    367 |
|      7517 |     475    37367    74734 |   138904    14209    366 |
|     11377 |     475    37367    74734 |   152794    21488    366 |
|     17159 |     475    37367    74734 |   168074    32378    366 |
|     25839 |     475    37367    74734 |   184881    48633    365 |
|     38846 |     475    37367    74734 |   203369    72960    364 |
|     58367 |     475    37367    74734 |   223706   109639    363 |
|     87626 |     475    37367    74734 |   246077   164472    363 |
> restarts              : 263
> decisions             : 172966  (0 % random)
> conflicts             : 103369
> propagations          : 3686633
> conflict literals     : 34862816  (6.10085 % deleted)
> 1 model found
>>> Search done
nrmodels&&1
total-solving-time354925 ms
Starting local search at 536716 ms
Initial objective value: 388 at 536717 ms
Strengthened objective value: 388 at 536719 ms
Starting solving at 538180 ms
>>> Search start
|       101 |     475    37367    74734 |    66348      196    367 |
|       252 |     475    37367    74734 |    72983      484    366 |
|       478 |     475    37367    74734 |    80281      911    365 |
|       818 |     475    37367    74734 |    88309     1559    366 |
|      1326 |     475    37367    74734 |    97140     2522    366 |
|      2090 |     475    37367    74734 |   106854     3965    367 |
|      3231 |     475    37367    74734 |   117540     6131    365 |
|      4950 |     475    37367    74734 |   129294     9381    366 |
|      7517 |     475    37367    74734 |   142223    14239    365 |
|     11377 |     475    37367    74734 |   156445    21522    365 |
|     17159 |     475    37367    74734 |   172090    32435    365 |
|     25839 |     475    37367    74734 |   189299    48724    364 |
|     38846 |     475    37367    74734 |   208229    72986    362 |
