Starting solving at 1148 ms
>>> Search start
> Conflicts |          ORIGINAL         |          LEARNT          | Progress
>           |    Vars  Clauses Literals |    Limit  Clauses Lit/Cl |         
> restarts              : 1
> decisions             : 601  (0 % random)
> conflicts             : 0
> propagations          : 603
> conflict literals     : 0  (-nan % deleted)
> 1 model found
>>> Search done
nrmodels&&1
total-solving-time0 ms
First objective value: 600 at 1307 ms
DETECTED HARD NEIGHBORHOODS: 
Starting local search at 1308 ms
Initial objective value: 600 at 1308 ms
Strengthened objective value: 600 at 1309 ms
Starting solving at 3820 ms
>>> Search start
> restarts              : 1
> decisions             : 13  (0 % random)
> conflicts             : 0
> propagations          : 361206
> conflict literals     : 0  (-nan % deleted)
> 1 model found
>>> Search done
nrmodels&&1
total-solving-time21 ms
Starting local search at 4688 ms
Initial objective value: 588 at 4689 ms
Strengthened objective value: 588 at 4690 ms
Starting solving at 7115 ms
>>> Search start
> restarts              : 1
> decisions             : 28  (0 % random)
> conflicts             : 10
> propagations          : 361285
> conflict literals     : 5823  (0.222755 % deleted)
> 1 model found
>>> Search done
nrmodels&&1
total-solving-time23 ms
Starting local search at 7951 ms
Initial objective value: 586 at 7952 ms
Strengthened objective value: 586 at 7953 ms
Starting solving at 10411 ms
>>> Search start
|       101 |     600    59700   119400 |    27981      147    579 |
|       252 |     600    59700   119400 |    30779      374    580 |
> restarts              : 4
> decisions             : 366  (0 % random)
> conflicts             : 307
> propagations          : 365230
> conflict literals     : 175185  (0.825394 % deleted)
> 1 model found
>>> Search done
nrmodels&&1
total-solving-time52 ms
Starting local search at 11276 ms
Initial objective value: 585 at 11277 ms
Strengthened objective value: 585 at 11278 ms
Starting solving at 13714 ms
>>> Search start
|       101 |     600    59700   119400 |    30011      156    579 |
|       252 |     600    59700   119400 |    33012      382    579 |
> restarts              : 4
> decisions             : 509  (0 % random)
> conflicts             : 458
> propagations          : 366471
> conflict literals     : 261323  (0.917936 % deleted)
> 1 model found
>>> Search done
nrmodels&&1
total-solving-time66 ms
Starting local search at 14582 ms
Initial objective value: 584 at 14583 ms
Strengthened objective value: 584 at 14584 ms
Starting solving at 17042 ms
>>> Search start
|       101 |     600    59700   119400 |    32041      169    578 |
|       252 |     600    59700   119400 |    35245      401    578 |
|       478 |     600    59700   119400 |    38770      747    577 |
> restarts              : 5
> decisions             : 659  (0 % random)
> conflicts             : 582
> propagations          : 368123
> conflict literals     : 331602  (0.883554 % deleted)
> 1 model found
>>> Search done
nrmodels&&1
total-solving-time84 ms
Starting local search at 17924 ms
Initial objective value: 583 at 17925 ms
Strengthened objective value: 583 at 17926 ms
Starting solving at 20366 ms
>>> Search start
|       101 |     600    59700   119400 |    34071      157    575 |
|       252 |     600    59700   119400 |    37478      392    576 |
|       478 |     600    59700   119400 |    41226      757    576 |
> restarts              : 6
> decisions             : 685  (0 % random)
> conflicts             : 600
> propagations          : 368958
> conflict literals     : 339930  (1.01365 % deleted)
> 1 model found
>>> Search done
nrmodels&&1
total-solving-time91 ms
Starting local search at 21266 ms
Initial objective value: 576 at 21267 ms
Strengthened objective value: 576 at 21268 ms
Starting solving at 23726 ms
>>> Search start
|       101 |     600    59700   119400 |    36102      168    567 |
|       252 |     600    59700   119400 |    39712      420    567 |
|       478 |     600    59700   119400 |    43683      794    567 |
> restarts              : 7
> decisions             : 808  (0 % random)
> conflicts             : 707
> propagations          : 372483
> conflict literals     : 393515  (1.06673 % deleted)
> 1 model found
>>> Search done
nrmodels&&1
total-solving-time105 ms
Starting local search at 24616 ms
Initial objective value: 575 at 24617 ms
Strengthened objective value: 575 at 24618 ms
Starting solving at 27029 ms
>>> Search start
|       101 |     600    59700   119400 |    38132      175    566 |
|       252 |     600    59700   119400 |    41945      434    566 |
|       478 |     600    59700   119400 |    46140      815    566 |
|       818 |     600    59700   119400 |    50754     1366    566 |
> restarts              : 7
> decisions             : 986  (0 % random)
> conflicts             : 867
> propagations          : 374060
> conflict literals     : 482850  (1.02592 % deleted)
> 1 model found
>>> Search done
nrmodels&&1
total-solving-time126 ms
Starting local search at 27978 ms
Initial objective value: 574 at 27979 ms
Strengthened objective value: 574 at 27980 ms
Starting solving at 30397 ms
>>> Search start
|       101 |     600    59700   119400 |    40162      174    565 |
|       252 |     600    59700   119400 |    44178      433    565 |
|       478 |     600    59700   119400 |    48596      824    565 |
> restarts              : 7
> decisions             : 815  (0 % random)
> conflicts             : 729
> propagations          : 373033
> conflict literals     : 403990  (1.10985 % deleted)
> 1 model found
>>> Search done
nrmodels&&1
total-solving-time108 ms
Starting local search at 31315 ms
Initial objective value: 573 at 31316 ms
Strengthened objective value: 573 at 31318 ms
Starting solving at 33720 ms
>>> Search start
|       101 |     600    59700   119400 |    42192      175    564 |
|       252 |     600    59700   119400 |    46411      436    564 |
|       478 |     600    59700   119400 |    51053      818    564 |
|       818 |     600    59700   119400 |    56158     1378    564 |
> restarts              : 7
> decisions             : 999  (0 % random)
> conflicts             : 859
> propagations          : 374427
> conflict literals     : 476113  (1.05941 % deleted)
> 1 model found
>>> Search done
nrmodels&&1
total-solving-time135 ms
Starting local search at 34655 ms
Initial objective value: 572 at 34656 ms
Strengthened objective value: 572 at 34657 ms
Starting solving at 37095 ms
>>> Search start
|       101 |     600    59700   119400 |    44222      177    563 |
|       252 |     600    59700   119400 |    48645      441    563 |
|       478 |     600    59700   119400 |    53509      832    563 |
> restarts              : 7
> decisions             : 895  (0 % random)
> conflicts             : 765
> propagations          : 373772
> conflict literals     : 422337  (1.06586 % deleted)
> 1 model found
>>> Search done
nrmodels&&1
total-solving-time121 ms
Starting local search at 38012 ms
Initial objective value: 570 at 38013 ms
Strengthened objective value: 570 at 38014 ms
Starting solving at 40420 ms
>>> Search start
|       101 |     600    59700   119400 |    46253      176    560 |
|       252 |     600    59700   119400 |    50878      446    560 |
|       478 |     600    59700   119400 |    55966      840    560 |
|       818 |     600    59700   119400 |    61562     1421    561 |
> restarts              : 9
> decisions             : 1501  (0 % random)
> conflicts             : 1306
> propagations          : 380235
> conflict literals     : 720585  (1.16096 % deleted)
> 1 model found
>>> Search done
nrmodels&&1
total-solving-time204 ms
Starting local search at 41446 ms
Initial objective value: 569 at 41447 ms
Strengthened objective value: 569 at 41449 ms
Starting solving at 43885 ms
>>> Search start
|       101 |     600    59700   119400 |    48283      181    559 |
|       252 |     600    59700   119400 |    53111      451    559 |
|       478 |     600    59700   119400 |    58422      854    559 |
> restarts              : 7
> decisions             : 874  (0 % random)
> conflicts             : 740
> propagations          : 374454
> conflict literals     : 405379  (1.03897 % deleted)
> 1 model found
>>> Search done
nrmodels&&1
total-solving-time127 ms
Starting local search at 44823 ms
Initial objective value: 568 at 44824 ms
Strengthened objective value: 568 at 44825 ms
Starting solving at 47345 ms
>>> Search start
|       101 |     600    59700   119400 |    50313      182    558 |
|       252 |     600    59700   119400 |    55344      456    558 |
|       478 |     600    59700   119400 |    60879      852    558 |
|       818 |     600    59700   119400 |    66967     1426    558 |
|      1326 |     600    59700   119400 |    73664     2236    559 |
> restarts              : 9
> decisions             : 1522  (0 % random)
> conflicts             : 1338
> propagations          : 381481
> conflict literals     : 734546  (1.18171 % deleted)
> 1 model found
>>> Search done
nrmodels&&1
total-solving-time215 ms
Starting local search at 48376 ms
Initial objective value: 567 at 48377 ms
Strengthened objective value: 567 at 48379 ms
Starting solving at 50922 ms
>>> Search start
|       101 |     600    59700   119400 |    52343      179    557 |
|       252 |     600    59700   119400 |    57578      453    557 |
|       478 |     600    59700   119400 |    63336      859    556 |
|       818 |     600    59700   119400 |    69669     1435    557 |
|      1326 |     600    59700   119400 |    76636     2231    557 |
> restarts              : 9
> decisions             : 1592  (0 % random)
> conflicts             : 1343
> propagations          : 381910
> conflict literals     : 735440  (1.22276 % deleted)
> 1 model found
>>> Search done
nrmodels&&1
total-solving-time226 ms
Starting local search at 51986 ms
Initial objective value: 566 at 51988 ms
Strengthened objective value: 566 at 51989 ms
Starting solving at 54507 ms
>>> Search start
|       101 |     600    59700   119400 |    54374      186    556 |
|       252 |     600    59700   119400 |    59811      457    556 |
|       478 |     600    59700   119400 |    65792      860    555 |
|       818 |     600    59700   119400 |    72371     1445    555 |
> restarts              : 8
> decisions             : 1455  (0 % random)
> conflicts             : 1255
> propagations          : 380787
> conflict literals     : 685074  (1.28759 % deleted)
> 1 model found
>>> Search done
nrmodels&&1
total-solving-time209 ms
Starting local search at 55587 ms
Initial objective value: 565 at 55588 ms
Strengthened objective value: 565 at 55589 ms
Starting solving at 58109 ms
>>> Search start
|       101 |     600    59700   119400 |    56404      182    555 |
|       252 |     600    59700   119400 |    62044      459    555 |
|       478 |     600    59700   119400 |    68249      866    554 |
|       818 |     600    59700   119400 |    75074     1456    554 |
> restarts              : 9
> decisions             : 1590  (0 % random)
> conflicts             : 1301
> propagations          : 383220
> conflict literals     : 706497  (1.3888 % deleted)
> 1 model found
>>> Search done
nrmodels&&1
total-solving-time253 ms
Starting local search at 59230 ms
Initial objective value: 563 at 59231 ms
Strengthened objective value: 563 at 59232 ms
Starting solving at 61680 ms
>>> Search start
|       101 |     600    59700   119400 |    58434      184    552 |
|       252 |     600    59700   119400 |    64278      459    552 |
|       478 |     600    59700   119400 |    70705      874    552 |
|       818 |     600    59700   119400 |    77776     1472    553 |
> restarts              : 8
> decisions             : 1112  (0 % random)
> conflicts             : 907
> propagations          : 378756
> conflict literals     : 489800  (1.18146 % deleted)
> 1 model found
>>> Search done
nrmodels&&1
total-solving-time180 ms
Starting local search at 62747 ms
Initial objective value: 562 at 62748 ms
Strengthened objective value: 562 at 62749 ms
Starting solving at 65254 ms
>>> Search start
|       101 |     600    59700   119400 |    60464      185    551 |
|       252 |     600    59700   119400 |    66511      463    551 |
|       478 |     600    59700   119400 |    73162      874    550 |
|       818 |     600    59700   119400 |    80478     1474    551 |
|      1326 |     600    59700   119400 |    88526     2354    551 |
> restarts              : 9
> decisions             : 1594  (0 % random)
> conflicts             : 1358
> propagations          : 386010
> conflict literals     : 731562  (1.3969 % deleted)
> 1 model found
>>> Search done
nrmodels&&1
total-solving-time267 ms
Starting local search at 66390 ms
Initial objective value: 561 at 66391 ms
Strengthened objective value: 561 at 66393 ms
Starting solving at 68893 ms
>>> Search start
|       101 |     600    59700   119400 |    62495      189    550 |
|       252 |     600    59700   119400 |    68744      466    550 |
|       478 |     600    59700   119400 |    75618      880    549 |
|       818 |     600    59700   119400 |    83180     1481    550 |
> restarts              : 8
> decisions             : 1150  (0 % random)
> conflicts             : 925
> propagations          : 379674
> conflict literals     : 496554  (1.27935 % deleted)
> 1 model found
>>> Search done
nrmodels&&1
total-solving-time195 ms
Starting local search at 69958 ms
Initial objective value: 559 at 69959 ms
Strengthened objective value: 559 at 69960 ms
Starting solving at 72472 ms
>>> Search start
|       101 |     600    59700   119400 |    64525      185    548 |
|       252 |     600    59700   119400 |    70977      462    546 |
|       478 |     600    59700   119400 |    78075      875    546 |
|       818 |     600    59700   119400 |    85883     1489    547 |
> restarts              : 9
> decisions             : 1602  (0 % random)
> conflicts             : 1301
> propagations          : 386315
> conflict literals     : 695564  (1.45585 % deleted)
> 1 model found
>>> Search done
nrmodels&&1
total-solving-time268 ms
Starting local search at 73647 ms
Initial objective value: 558 at 73649 ms
Strengthened objective value: 558 at 73650 ms
Starting solving at 76156 ms
>>> Search start
|       101 |     600    59700   119400 |    66555      186    546 |
|       252 |     600    59700   119400 |    73211      470    545 |
|       478 |     600    59700   119400 |    80532      888    545 |
|       818 |     600    59700   119400 |    88585     1499    546 |
|      1326 |     600    59700   119400 |    97443     2383    547 |
> restarts              : 13
> decisions             : 2265  (0 % random)
> conflicts             : 1813
> propagations          : 396026
> conflict literals     : 969791  (1.28299 % deleted)
> 1 model found
>>> Search done
nrmodels&&1
total-solving-time418 ms
Starting local search at 77446 ms
Initial objective value: 555 at 77447 ms
Strengthened objective value: 555 at 77449 ms
Starting solving at 79965 ms
>>> Search start
|       101 |     600    59700   119400 |    68585      185    542 |
|       252 |     600    59700   119400 |    75444      463    542 |
|       478 |     600    59700   119400 |    82988      885    541 |
|       818 |     600    59700   119400 |    91287     1493    542 |
|      1326 |     600    59700   119400 |   100416     2381    542 |
> restarts              : 9
> decisions             : 1628  (0 % random)
> conflicts             : 1351
> propagations          : 388915
> conflict literals     : 714399  (1.57177 % deleted)
> 1 model found
>>> Search done
nrmodels&&1
total-solving-time288 ms
Starting local search at 81134 ms
Initial objective value: 554 at 81136 ms
Strengthened objective value: 554 at 81137 ms
Starting solving at 83601 ms
>>> Search start
|       101 |     600    59700   119400 |    70615      186    542 |
|       252 |     600    59700   119400 |    77677      464    541 |
|       478 |     600    59700   119400 |    85445      878    540 |
|       818 |     600    59700   119400 |    93989     1493    541 |
> restarts              : 9
> decisions             : 1663  (0 % random)
> conflicts             : 1302
> propagations          : 388617
> conflict literals     : 686544  (1.63365 % deleted)
> 1 model found
>>> Search done
nrmodels&&1
total-solving-time290 ms
Starting local search at 84771 ms
Initial objective value: 553 at 84772 ms
Strengthened objective value: 553 at 84773 ms
Starting solving at 87263 ms
>>> Search start
|       101 |     600    59700   119400 |    72646      185    540 |
|       252 |     600    59700   119400 |    79910      471    540 |
|       478 |     600    59700   119400 |    87901      885    539 |
|       818 |     600    59700   119400 |    96692     1508    540 |
|      1326 |     600    59700   119400 |   106361     2417    540 |
> restarts              : 10
> decisions             : 1755  (0 % random)
> conflicts             : 1411
> propagations          : 391610
> conflict literals     : 742658  (1.50947 % deleted)
> 1 model found
>>> Search done
nrmodels&&1
total-solving-time335 ms
Starting local search at 88476 ms
Initial objective value: 552 at 88478 ms
Strengthened objective value: 552 at 88479 ms
Starting solving at 91006 ms
>>> Search start
|       101 |     600    59700   119400 |    74676      183    539 |
|       252 |     600    59700   119400 |    82144      463    538 |
|       478 |     600    59700   119400 |    90358      881    538 |
|       818 |     600    59700   119400 |    99394     1505    539 |
|      1326 |     600    59700   119400 |   109333     2415    539 |
> restarts              : 9
> decisions             : 1733  (0 % random)
> conflicts             : 1364
> propagations          : 390732
> conflict literals     : 715873  (1.65013 % deleted)
> 1 model found
>>> Search done
nrmodels&&1
total-solving-time343 ms
Starting local search at 92229 ms
Initial objective value: 525 at 92231 ms
Strengthened objective value: 525 at 92232 ms
Starting solving at 94757 ms
>>> Search start
|       101 |     600    59700   119400 |    76706      194    507 |
|       252 |     600    59700   119400 |    84377      480    507 |
|       478 |     600    59700   119400 |    92815      912    507 |
|       818 |     600    59700   119400 |   102096     1557    508 |
|      1326 |     600    59700   119400 |   112306     2462    508 |
|      2090 |     600    59700   119400 |   123536     3893    508 |
|      3231 |     600    59700   119400 |   135890     5993    507 |
|      4950 |     600    59700   119400 |   149479     9220    507 |
|      7517 |     600    59700   119400 |   164427    14015    506 |
|     11377 |     600    59700   119400 |   180870    21274    506 |
|     17159 |     600    59700   119400 |   198957    31968    505 |
> restarts              : 67
> decisions             : 28292  (0 % random)
> conflicts             : 19505
> propagations          : 928183
> conflict literals     : 9462027  (2.89953 % deleted)
> 1 model found
>>> Search done
nrmodels&&1
total-solving-time11517 ms
Starting local search at 107145 ms
Initial objective value: 524 at 107146 ms
Strengthened objective value: 524 at 107148 ms
Starting solving at 109637 ms
>>> Search start
|       101 |     600    59700   119400 |    78736      191    506 |
|       252 |     600    59700   119400 |    86610      476    505 |
|       478 |     600    59700   119400 |    95271      902    505 |
|       818 |     600    59700   119400 |   104798     1547    506 |
|      1326 |     600    59700   119400 |   115278     2495    506 |
|      2090 |     600    59700   119400 |   126806     3913    506 |
|      3231 |     600    59700   119400 |   139487     6002    505 |
> restarts              : 19
> decisions             : 5235  (0 % random)
> conflicts             : 3501
> propagations          : 469923
> conflict literals     : 1703547  (2.06033 % deleted)
> 1 model found
>>> Search done
nrmodels&&1
total-solving-time1096 ms
Starting local search at 111578 ms
Initial objective value: 523 at 111581 ms
Strengthened objective value: 523 at 111584 ms
Starting solving at 114075 ms
>>> Search start
|       101 |     600    59700   119400 |    80767      187    504 |
|       252 |     600    59700   119400 |    88843      470    504 |
|       478 |     600    59700   119400 |    97728      903    504 |
|       818 |     600    59700   119400 |   107501     1553    505 |
|      1326 |     600    59700   119400 |   118251     2506    506 |
> restarts              : 13
> decisions             : 2666  (0 % random)
> conflicts             : 1896
> propagations          : 424175
> conflict literals     : 920636  (1.62401 % deleted)
> 1 model found
>>> Search done
nrmodels&&1
total-solving-time587 ms
Starting local search at 115531 ms
Initial objective value: 522 at 115533 ms
Strengthened objective value: 522 at 115535 ms
Starting solving at 118054 ms
>>> Search start
|       101 |     600    59700   119400 |    82797      191    505 |
|       252 |     600    59700   119400 |    91077      479    504 |
|       478 |     600    59700   119400 |   100184      915    504 |
|       818 |     600    59700   119400 |   110203     1554    504 |
> restarts              : 8
> decisions             : 1407  (0 % random)
> conflicts             : 934
> propagations          : 394881
> conflict literals     : 452044  (1.13271 % deleted)
> 1 model found
>>> Search done
nrmodels&&1
total-solving-time328 ms
Starting local search at 119268 ms
Initial objective value: 521 at 119270 ms
Strengthened objective value: 521 at 119272 ms
Starting solving at 121782 ms
>>> Search start
|       101 |     600    59700   119400 |    84827      188    502 |
|       252 |     600    59700   119400 |    93310      474    501 |
|       478 |     600    59700   119400 |   102641      905    501 |
|       818 |     600    59700   119400 |   112905     1558    503 |
|      1326 |     600    59700   119400 |   124196     2516    502 |
|      2090 |     600    59700   119400 |   136615     3947    502 |
|      3231 |     600    59700   119400 |   150277     6071    501 |
|      4950 |     600    59700   119400 |   165304     9289    502 |
|      7517 |     600    59700   119400 |   181835    14125    501 |
|     11377 |     600    59700   119400 |   200019    21374    501 |
|     17159 |     600    59700   119400 |   220020    32071    501 |
> restarts              : 70
> decisions             : 30313  (0 % random)
> conflicts             : 19992
> propagations          : 971765
> conflict literals     : 9595209  (2.92107 % deleted)
> 1 model found
>>> Search done
nrmodels&&1
total-solving-time13733 ms
Starting local search at 136398 ms
Initial objective value: 520 at 136399 ms
Strengthened objective value: 520 at 136401 ms
Starting solving at 138921 ms
>>> Search start
|       101 |     600    59700   119400 |    86857      192    501 |
|       252 |     600    59700   119400 |    95543      478    501 |
|       478 |     600    59700   119400 |   105097      907    500 |
|       818 |     600    59700   119400 |   115607     1544    501 |
> restarts              : 8
> decisions             : 1403  (0 % random)
> conflicts             : 936
> propagations          : 396203
> conflict literals     : 449496  (1.30468 % deleted)
> 1 model found
>>> Search done
nrmodels&&1
total-solving-time349 ms
Starting local search at 140171 ms
Initial objective value: 519 at 140172 ms
Strengthened objective value: 519 at 140174 ms
Starting solving at 142738 ms
>>> Search start
|       101 |     600    59700   119400 |    88888      194    500 |
|       252 |     600    59700   119400 |    97776      481    499 |
|       478 |     600    59700   119400 |   107554      919    499 |
|       818 |     600    59700   119400 |   118310     1571    500 |
|      1326 |     600    59700   119400 |   130141     2532    499 |
|      2090 |     600    59700   119400 |   143155     3971    500 |
|      3231 |     600    59700   119400 |   157470     6103    499 |
|      4950 |     600    59700   119400 |   173217     9320    500 |
> restarts              : 29
> decisions             : 7534  (0 % random)
> conflicts             : 5100
> propagations          : 535288
> conflict literals     : 2446299  (1.90036 % deleted)
> 1 model found
>>> Search done
nrmodels&&1
total-solving-time2036 ms
Starting local search at 145682 ms
Initial objective value: 517 at 145683 ms
Strengthened objective value: 517 at 145685 ms
Starting solving at 148219 ms
>>> Search start
|       101 |     600    59700   119400 |    90918      194    498 |
|       252 |     600    59700   119400 |   100010      479    495 |
|       478 |     600    59700   119400 |   110011      913    496 |
|       818 |     600    59700   119400 |   121012     1555    497 |
|      1326 |     600    59700   119400 |   133113     2516    498 |
|      2090 |     600    59700   119400 |   146424     3947    497 |
|      3231 |     600    59700   119400 |   161067     6065    498 |
|      4950 |     600    59700   119400 |   177174     9308    498 |
|      7517 |     600    59700   119400 |   194891    14128    497 |
|     11377 |     600    59700   119400 |   214380    21320    497 |
|     17159 |     600    59700   119400 |   235818    32196    497 |
|     25839 |     600    59700   119400 |   259400    48469    496 |
|     38846 |     600    59700   119400 |   285340    72784    494 |
> restarts              : 139
> decisions             : 73401  (0 % random)
> conflicts             : 46500
> propagations          : 1803970
> conflict literals     : 21982740  (3.53141 % deleted)
> 1 model found
>>> Search done
nrmodels&&1
total-solving-time77860 ms
Starting local search at 226990 ms
Initial objective value: 482 at 226992 ms
Strengthened objective value: 482 at 226994 ms
Starting solving at 229512 ms
>>> Search start
|       101 |     600    59700   119400 |    92948      196    455 |
|       252 |     600    59700   119400 |   102243      492    455 |
|       478 |     600    59700   119400 |   112467      921    453 |
|       818 |     600    59700   119400 |   123714     1566    454 |
|      1326 |     600    59700   119400 |   136085     2538    454 |
|      2090 |     600    59700   119400 |   149694     4011    455 |
|      3231 |     600    59700   119400 |   164663     6173    454 |
|      4950 |     600    59700   119400 |   181130     9429    455 |
|      7517 |     600    59700   119400 |   199243    14347    455 |
|     11377 |     600    59700   119400 |   219167    21720    454 |
|     17159 |     600    59700   119400 |   241084    32714    453 |
|     25839 |     600    59700   119400 |   265193    49250    452 |
|     38846 |     600    59700   119400 |   291712    73983    451 |
|     58367 |     600    59700   119400 |   320883   111156    450 |
|     87626 |     600    59700   119400 |   352971   166817    449 |
