alpha: 0.5
beta: 0.5
gamma: 1.5
stagT: 5
Random frameSizes and framesize is choosen randomly between 1 - maxframesize
When an improvement is found the usefullFramesize is set to the size of the removedassumptions
Maximum runtime: 600

Starting solving at: 40 ms
done
PrepModelIt duration: 45 ms
amount madeAssumptions: 370
Objval best sol: 0
search limit: 1
useful search limit: 1
max frame size: 0
frame size: 0
useful frame size: 0
stag: 0/5
total spend time up to now: 35 ms
max time: 600
> Current optimal value 0 after 46 ms
> Current optimal value -8 after 37 ms
> Current optimal value -20 after 39 ms
> Current optimal value -27 after 42 ms
> Current optimal value -34 after 44 ms
> Current optimal value -41 after 46 ms
> Current optimal value -43 after 49 ms
> Current optimal value -48 after 55 ms
> Current optimal value -50 after 60 ms
> Current optimal value -66 after 63 ms
> Current optimal value -78 after 67 ms
> Current optimal value -84 after 71 ms
> Current optimal value -96 after 75 ms
> Current optimal value -115 after 79 ms
> Current optimal value -117 after 92 ms
> Current optimal value -123 after 98 ms
> Current optimal value -134 after 101 ms
> Current optimal value -135 after 109 ms
> Current optimal value -142 after 114 ms
> Current optimal value -154 after 118 ms
> Current optimal value -161 after 122 ms
> Current optimal value -162 after 129 ms
> Current optimal value -167 after 134 ms
> Current optimal value -171 after 140 ms
> Current optimal value -180 after 144 ms
> Current optimal value -190 after 146 ms
> Current optimal value -193 after 153 ms
> Current optimal value -201 after 160 ms
> Current optimal value -205 after 170 ms
> Current optimal value -215 after 176 ms
> Current optimal value -217 after 181 ms
> Current optimal value -220 after 186 ms
> Current optimal value -225 after 196 ms
> Current optimal value -233 after 221 ms
> Current optimal value -234 after 261 ms
> Current optimal value -236 after 272 ms
> Current optimal value -242 after 288 ms
> Current optimal value -246 after 301 ms
> Current optimal value -250 after 366 ms
