alpha: 0.5
beta: 0.5
gamma: 1.5
stagT: 5
Random frameSizes and framesize is choosen randomly between 1 - maxframesize
When an improvement is found the usefullFramesize is set to the size of the removedassumptions
Maximum runtime: 600

Starting solving at: 40 ms
done
PrepModelIt duration: 45 ms
amount madeAssumptions: 370
Objval best sol: 0
search limit: 1
useful search limit: 1
max frame size: 0
frame size: 0
useful frame size: 0
stag: 0/5
total spend time up to now: 35 ms
max time: 600
> Current optimal value 0 after 46 ms
> Current optimal value -17 after 37 ms
> Current optimal value -34 after 39 ms
> Current optimal value -38 after 42 ms
> Current optimal value -46 after 44 ms
> Current optimal value -47 after 46 ms
> Current optimal value -59 after 49 ms
> Current optimal value -60 after 63 ms
> Current optimal value -61 after 65 ms
> Current optimal value -75 after 69 ms
> Current optimal value -76 after 73 ms
> Current optimal value -88 after 77 ms
> Current optimal value -100 after 81 ms
> Current optimal value -107 after 84 ms
> Current optimal value -114 after 101 ms
> Current optimal value -120 after 103 ms
> Current optimal value -125 after 110 ms
> Current optimal value -131 after 114 ms
> Current optimal value -135 after 121 ms
> Current optimal value -149 after 134 ms
> Current optimal value -156 after 137 ms
> Current optimal value -160 after 141 ms
> Current optimal value -164 after 145 ms
> Current optimal value -165 after 152 ms
> Current optimal value -167 after 157 ms
> Current optimal value -183 after 161 ms
> Current optimal value -184 after 164 ms
> Current optimal value -200 after 166 ms
> Current optimal value -204 after 171 ms
> Current optimal value -217 after 174 ms
> Current optimal value -218 after 180 ms
> Current optimal value -223 after 184 ms
> Current optimal value -234 after 192 ms
> Current optimal value -236 after 202 ms
> Current optimal value -238 after 232 ms
> Current optimal value -245 after 346 ms
> Current optimal value -246 after 352 ms
> Current optimal value -254 after 372 ms
> Current optimal value -256 after 418 ms
> Current optimal value -257 after 10019 ms
