alpha: 0.5
beta: 0.5
gamma: 1.5
stagT: 5
Random frameSizes and framesize is choosen randomly between 1 - maxframesize
When an improvement is found the usefullFramesize is set to the size of the removedassumptions
Maximum runtime: 600

Starting solving at: 43 ms
done
PrepModelIt duration: 48 ms
amount madeAssumptions: 405
Objval best sol: 0
search limit: 1
useful search limit: 1
max frame size: 0
frame size: 0
useful frame size: 0
stag: 0/5
total spend time up to now: 38 ms
max time: 600
> Current optimal value 0 after 49 ms
> Current optimal value -9 after 40 ms
> Current optimal value -28 after 42 ms
> Current optimal value -34 after 45 ms
> Current optimal value -48 after 47 ms
> Current optimal value -50 after 50 ms
> Current optimal value -58 after 52 ms
> Current optimal value -72 after 55 ms
> Current optimal value -83 after 57 ms
> Current optimal value -85 after 66 ms
> Current optimal value -99 after 69 ms
> Current optimal value -102 after 72 ms
> Current optimal value -104 after 78 ms
> Current optimal value -108 after 81 ms
> Current optimal value -118 after 87 ms
> Current optimal value -120 after 89 ms
> Current optimal value -123 after 93 ms
> Current optimal value -139 after 99 ms
> Current optimal value -143 after 103 ms
> Current optimal value -161 after 107 ms
> Current optimal value -180 after 111 ms
> Current optimal value -187 after 121 ms
> Current optimal value -197 after 125 ms
> Current optimal value -214 after 128 ms
> Current optimal value -221 after 133 ms
> Current optimal value -240 after 137 ms
> Current optimal value -247 after 150 ms
> Current optimal value -249 after 200 ms
> Current optimal value -252 after 210 ms
> Current optimal value -255 after 215 ms
> Current optimal value -259 after 228 ms
> Current optimal value -265 after 230 ms
> Current optimal value -267 after 234 ms
> Current optimal value -281 after 242 ms
> Current optimal value -289 after 356 ms
> Current optimal value -293 after 452 ms
> Current optimal value -296 after 797 ms
> Current optimal value -297 after 4475 ms
> Current optimal value -298 after 10297 ms
> Current optimal value -304 after 10384 ms
> Current optimal value -305 after 17116 ms
> Current optimal value -306 after 29909 ms
