alpha: 0.5
beta: 0.5
gamma: 1.5
stagT: 5
Random frameSizes and framesize is choosen randomly between 1 - maxframesize
When an improvement is found the usefullFramesize is set to the size of the removedassumptions
Maximum runtime: 600

Starting solving at: 38 ms
done
PrepModelIt duration: 42 ms
amount madeAssumptions: 305
Objval best sol: 0
search limit: 1
useful search limit: 1
max frame size: 0
frame size: 0
useful frame size: 0
stag: 0/5
total spend time up to now: 33 ms
max time: 600
> Current optimal value 0 after 43 ms
> Current optimal value -9 after 35 ms
> Current optimal value -25 after 37 ms
> Current optimal value -27 after 40 ms
> Current optimal value -31 after 42 ms
> Current optimal value -32 after 44 ms
> Current optimal value -34 after 46 ms
> Current optimal value -44 after 48 ms
> Current optimal value -50 after 52 ms
> Current optimal value -61 after 57 ms
> Current optimal value -69 after 60 ms
> Current optimal value -81 after 62 ms
> Current optimal value -85 after 71 ms
> Current optimal value -88 after 76 ms
> Current optimal value -98 after 78 ms
> Current optimal value -114 after 83 ms
> Current optimal value -125 after 90 ms
> Current optimal value -126 after 92 ms
> Current optimal value -133 after 97 ms
> Current optimal value -143 after 103 ms
> Current optimal value -150 after 120 ms
> Current optimal value -155 after 128 ms
> Current optimal value -168 after 130 ms
> Current optimal value -178 after 138 ms
> Current optimal value -179 after 169 ms
> Current optimal value -180 after 174 ms
> Current optimal value -186 after 177 ms
> Current optimal value -191 after 232 ms
> Current optimal value -196 after 235 ms
> Current optimal value -210 after 245 ms
> Current optimal value -212 after 250 ms
> Current optimal value -213 after 19363 ms
> Current optimal value -218 after 19802 ms
> Current optimal value -221 after 19935 ms
