alpha: 0.5
beta: 0.5
gamma: 1.5
stagT: 5
Random frameSizes and framesize is choosen randomly between 1 - maxframesize
When an improvement is found the usefullFramesize is set to the size of the removedassumptions
Maximum runtime: 600

Starting solving at: 139258 ms
done
PrepModelIt duration: 158460 ms
amount madeAssumptions: 176858
Objval best sol: 414855
search limit: 2915
useful search limit: 2915
max frame size: 345
frame size: 172
useful frame size: 172
stag: 0/5
total spend time up to now: 25945 ms
max time: 600
> Current optimal value 414855 after 158480 ms
> Current optimal value 414812 after 32621 ms
