alpha: 0.5
beta: 0.5
gamma: 1.5
stagT: 5
Random frameSizes and framesize is choosen randomly between 1 - maxframesize
When an improvement is found the usefullFramesize is set to the size of the removedassumptions
Maximum runtime: 600

Starting solving at: 7530 ms
done
PrepModelIt duration: 8125 ms
amount madeAssumptions: 12796
Objval best sol: 140024
search limit: 209
useful search limit: 209
max frame size: 92
frame size: 46
useful frame size: 46
stag: 0/5
total spend time up to now: 925 ms
max time: 600
> Current optimal value 140024 after 8126 ms
> Current optimal value 138630 after 1086 ms
> Current optimal value 137919 after 1373 ms
> Current optimal value 137537 after 148896 ms
> Current optimal value 137260 after 149381 ms
> Current optimal value 136586 after 150426 ms
> Current optimal value 135814 after 151812 ms
> Current optimal value 135779 after 152367 ms
> Current optimal value 135068 after 152900 ms
> Current optimal value 134353 after 153745 ms
> Current optimal value 134142 after 154771 ms
> Current optimal value 133897 after 156644 ms
> Current optimal value 130911 after 158761 ms
> Current optimal value 130300 after 162516 ms
> Current optimal value 119501 after 174499 ms
> Current optimal value 119119 after 174899 ms
> Current optimal value 117061 after 191694 ms
> Current optimal value 116194 after 206863 ms
> Current optimal value 114637 after 207323 ms
> Current optimal value 114635 after 208351 ms
> Current optimal value 114248 after 227210 ms
> Current optimal value 114081 after 232957 ms
> Current optimal value 112817 after 313906 ms
> Current optimal value 111825 after 342952 ms
> Current optimal value 108047 after 372704 ms
> Current optimal value 107503 after 375786 ms
> Current optimal value 107229 after 395752 ms
> Current optimal value 105999 after 395957 ms
> Current optimal value 105704 after 396810 ms
> Current optimal value 105108 after 569498 ms
