alpha: 0.5
beta: 0.5
gamma: 1.5
stagT: 5
Random frameSizes and framesize is choosen randomly between 1 - maxframesize
When an improvement is found the usefullFramesize is set to the size of the removedassumptions
Maximum runtime: 600

Starting solving at: 34467 ms
done
PrepModelIt duration: 131451 ms
amount madeAssumptions: 315908
Objval best sol: 28330
search limit: 4928
useful search limit: 4928
max frame size: 444
frame size: 222
useful frame size: 222
stag: 0/5
total spend time up to now: 110415 ms
max time: 600
> Current optimal value 28330 after 131492 ms
> Current optimal value 28307 after 122965 ms
> Current optimal value 28302 after 135409 ms
