alpha: 0.5
beta: 0.5
gamma: 1.5
stagT: 5
Random frameSizes and framesize is choosen randomly between 1 - maxframesize
When an improvement is found the usefullFramesize is set to the size of the removedassumptions
Maximum runtime: 600

Starting solving at: 1095 ms
done
PrepModelIt duration: 121300 ms
amount madeAssumptions: 1263
Objval best sol: 30
search limit: 207139
useful search limit: 207139
max frame size: 1124
frame size: 562
useful frame size: 562
stag: 0/5
total spend time up to now: 121293 ms
max time: 600
> Current optimal value 30 after 121302 ms
