alpha: 0.5
beta: 0.5
gamma: 1.5
stagT: 5
Random frameSizes and framesize is choosen randomly between 1 - maxframesize
When an improvement is found the usefullFramesize is set to the size of the removedassumptions
Maximum runtime: 600

Starting solving at: 912 ms
done
PrepModelIt duration: 951 ms
amount madeAssumptions: 3847
Objval best sol: 53428
search limit: 5
useful search limit: 5
max frame size: 96
frame size: 48
useful frame size: 48
stag: 0/5
total spend time up to now: 114 ms
max time: 600
> Current optimal value 53428 after 952 ms
> Current optimal value 52711 after 191 ms
> Current optimal value 52658 after 208 ms
> Current optimal value 52406 after 239 ms
> Current optimal value 51759 after 273 ms
> Current optimal value 51329 after 361 ms
> Current optimal value 51137 after 387 ms
> Current optimal value 50254 after 515 ms
> Current optimal value 49267 after 630 ms
> Current optimal value 49117 after 697 ms
> Current optimal value 48570 after 792 ms
> Current optimal value 48547 after 809 ms
> Current optimal value 46071 after 907 ms
> Current optimal value 43973 after 972 ms
> Current optimal value 43118 after 1156 ms
> Current optimal value 42547 after 1215 ms
> Current optimal value 42522 after 1233 ms
> Current optimal value 41794 after 1448 ms
> Current optimal value 41278 after 1467 ms
> Current optimal value 40765 after 1718 ms
> Current optimal value 40303 after 1775 ms
> Current optimal value 40097 after 1993 ms
> Current optimal value 38435 after 2042 ms
> Current optimal value 37972 after 2140 ms
> Current optimal value 37914 after 2165 ms
> Current optimal value 36974 after 2255 ms
> Current optimal value 36245 after 2396 ms
> Current optimal value 35245 after 2517 ms
> Current optimal value 35204 after 2592 ms
> Current optimal value 35009 after 2639 ms
> Current optimal value 34550 after 2815 ms
> Current optimal value 34060 after 3005 ms
> Current optimal value 33895 after 3070 ms
> Current optimal value 32814 after 3188 ms
> Current optimal value 32514 after 3444 ms
> Current optimal value 32510 after 3762 ms
> Current optimal value 31781 after 3882 ms
> Current optimal value 31492 after 4355 ms
> Current optimal value 31306 after 4454 ms
> Current optimal value 31041 after 4883 ms
> Current optimal value 30800 after 4989 ms
> Current optimal value 30593 after 5167 ms
> Current optimal value 30483 after 5220 ms
> Current optimal value 30193 after 5366 ms
> Current optimal value 29960 after 5947 ms
> Current optimal value 29168 after 6497 ms
> Current optimal value 28473 after 6759 ms
> Current optimal value 27857 after 7404 ms
> Current optimal value 27459 after 10368 ms
> Current optimal value 27289 after 10991 ms
> Current optimal value 26806 after 11714 ms
> Current optimal value 26666 after 11836 ms
> Current optimal value 26385 after 12312 ms
> Current optimal value 26233 after 12678 ms
> Current optimal value 25948 after 13284 ms
> Current optimal value 25690 after 13983 ms
> Current optimal value 25583 after 14364 ms
> Current optimal value 25538 after 14650 ms
> Current optimal value 25236 after 15463 ms
> Current optimal value 25095 after 16286 ms
> Current optimal value 25028 after 16406 ms
> Current optimal value 24673 after 16624 ms
> Current optimal value 24200 after 19172 ms
> Current optimal value 23787 after 19322 ms
> Current optimal value 23582 after 21281 ms
> Current optimal value 23286 after 22456 ms
> Current optimal value 23206 after 22957 ms
> Current optimal value 22636 after 31409 ms
> Current optimal value 22120 after 46213 ms
> Current optimal value 22101 after 83471 ms
> Current optimal value 21907 after 101098 ms
> Current optimal value 21650 after 145369 ms
> Current optimal value 21476 after 162736 ms
> Current optimal value 21429 after 162796 ms
> Current optimal value 21170 after 168702 ms
> Current optimal value 21108 after 173725 ms
> Current optimal value 21071 after 173867 ms
> Current optimal value 21058 after 190823 ms
> Current optimal value 20937 after 191279 ms
> Current optimal value 20597 after 227016 ms
> Current optimal value 20428 after 239040 ms
> Current optimal value 20300 after 245775 ms
> Current optimal value 20089 after 247684 ms
> Current optimal value 20081 after 249310 ms
> Current optimal value 19371 after 264285 ms
> Current optimal value 19188 after 273938 ms
> Current optimal value 19137 after 305556 ms
> Current optimal value 18852 after 324644 ms
> Current optimal value 18805 after 403478 ms
> Current optimal value 18801 after 442476 ms
> Current optimal value 17994 after 495490 ms
> Current optimal value 17952 after 525360 ms
> Current optimal value 17855 after 533297 ms
> Current optimal value 17658 after 547436 ms
