alpha: 0.5
beta: 0.5
gamma: 1.5
stagT: 5
Random frameSizes and framesize is choosen randomly between 1 - maxframesize
When an improvement is found the usefullFramesize is set to the size of the removedassumptions
Maximum runtime: 600

Starting solving at: 40 ms
done
PrepModelIt duration: 44 ms
amount madeAssumptions: 192
Objval best sol: 72
search limit: 102
useful search limit: 102
max frame size: 12
frame size: 6
useful frame size: 6
stag: 0/5
total spend time up to now: 36 ms
max time: 600
> Current optimal value 72 after 45 ms
> Current optimal value 70 after 38 ms
> Current optimal value 69 after 43 ms
> Current optimal value 63 after 45 ms
> Current optimal value 57 after 48 ms
> Current optimal value 56 after 52 ms
> Current optimal value 48 after 64 ms
> Current optimal value 45 after 77 ms
> Current optimal value 41 after 80 ms
> Current optimal value 34 after 88 ms
> Current optimal value 33 after 109 ms
> Current optimal value 32 after 114 ms
> Current optimal value 30 after 147 ms
> Current optimal value 28 after 159 ms
> Current optimal value 27 after 183 ms
> Current optimal value 26 after 186 ms
> Current optimal value 25 after 203 ms
> Current optimal value 22 after 237 ms
> Current optimal value 19 after 14801 ms
