alpha: 0.5
beta: 0.5
gamma: 1.5
stagT: 5
Random frameSizes and framesize is choosen randomly between 1 - maxframesize
When an improvement is found the usefullFramesize is set to the size of the removedassumptions
Maximum runtime: 600

Starting solving at: 76 ms
done
PrepModelIt duration: 105 ms
amount madeAssumptions: 1596
Objval best sol: 905
search limit: 301
useful search limit: 301
max frame size: 38
frame size: 19
useful frame size: 19
stag: 0/5
total spend time up to now: 64 ms
max time: 600
> Current optimal value 905 after 105 ms
> Current optimal value 882 after 73 ms
> Current optimal value 863 after 82 ms
> Current optimal value 831 after 101 ms
> Current optimal value 794 after 121 ms
> Current optimal value 772 after 152 ms
> Current optimal value 764 after 181 ms
> Current optimal value 751 after 216 ms
> Current optimal value 739 after 225 ms
> Current optimal value 738 after 260 ms
> Current optimal value 735 after 305 ms
> Current optimal value 712 after 317 ms
> Current optimal value 687 after 336 ms
> Current optimal value 669 after 388 ms
> Current optimal value 663 after 397 ms
> Current optimal value 650 after 419 ms
> Current optimal value 634 after 445 ms
> Current optimal value 613 after 495 ms
> Current optimal value 590 after 521 ms
> Current optimal value 588 after 540 ms
> Current optimal value 580 after 559 ms
> Current optimal value 571 after 584 ms
> Current optimal value 561 after 678 ms
> Current optimal value 547 after 688 ms
> Current optimal value 527 after 697 ms
> Current optimal value 516 after 726 ms
> Current optimal value 504 after 745 ms
> Current optimal value 501 after 805 ms
> Current optimal value 494 after 929 ms
> Current optimal value 490 after 938 ms
> Current optimal value 481 after 969 ms
> Current optimal value 476 after 1010 ms
> Current optimal value 467 after 1048 ms
> Current optimal value 462 after 1108 ms
> Current optimal value 434 after 1117 ms
> Current optimal value 390 after 1146 ms
> Current optimal value 376 after 1235 ms
> Current optimal value 374 after 1305 ms
> Current optimal value 355 after 1332 ms
> Current optimal value 327 after 1349 ms
> Current optimal value 317 after 1403 ms
> Current optimal value 312 after 1647 ms
> Current optimal value 289 after 1720 ms
> Current optimal value 271 after 1759 ms
> Current optimal value 269 after 1812 ms
> Current optimal value 268 after 1940 ms
> Current optimal value 256 after 2228 ms
> Current optimal value 248 after 2575 ms
> Current optimal value 236 after 2669 ms
> Current optimal value 230 after 2680 ms
> Current optimal value 228 after 2825 ms
> Current optimal value 226 after 2965 ms
> Current optimal value 221 after 4240 ms
> Current optimal value 218 after 7881 ms
> Current optimal value 217 after 16826 ms
> Current optimal value 214 after 17087 ms
> Current optimal value 213 after 18024 ms
> Current optimal value 207 after 20270 ms
> Current optimal value 202 after 20582 ms
> Current optimal value 199 after 20684 ms
> Current optimal value 194 after 27591 ms
> Current optimal value 191 after 34290 ms
> Current optimal value 190 after 44299 ms
> Current optimal value 187 after 50369 ms
> Current optimal value 175 after 51199 ms
> Current optimal value 174 after 119261 ms
> Current optimal value 168 after 130387 ms
> Current optimal value 164 after 177772 ms
> Current optimal value 157 after 177921 ms
> Current optimal value 152 after 267312 ms
> Current optimal value 151 after 351827 ms
> Current optimal value 149 after 486529 ms
> Current optimal value 148 after 514354 ms
> Current optimal value 142 after 537801 ms
> Current optimal value 141 after 580392 ms
> Current optimal value 139 after 591028 ms
> Current optimal value 137 after 599412 ms
