alpha: 0.5
beta: 0.5
gamma: 1.5
stagT: 5
Random frameSizes and framesize is choosen randomly between 1 - maxframesize
When an improvement is found the usefullFramesize is set to the size of the removedassumptions
Maximum runtime: 600

Starting solving at: 50 ms
done
PrepModelIt duration: 63 ms
amount madeAssumptions: 725
Objval best sol: 342
search limit: 203
useful search limit: 203
max frame size: 25
frame size: 12
useful frame size: 12
stag: 0/5
total spend time up to now: 45 ms
max time: 600
> Current optimal value 342 after 64 ms
> Current optimal value 337 after 49 ms
> Current optimal value 334 after 54 ms
> Current optimal value 310 after 59 ms
> Current optimal value 295 after 80 ms
> Current optimal value 277 after 86 ms
> Current optimal value 271 after 94 ms
> Current optimal value 239 after 101 ms
> Current optimal value 228 after 114 ms
> Current optimal value 218 after 133 ms
> Current optimal value 210 after 181 ms
> Current optimal value 207 after 214 ms
> Current optimal value 201 after 219 ms
> Current optimal value 181 after 223 ms
> Current optimal value 161 after 240 ms
> Current optimal value 159 after 263 ms
> Current optimal value 157 after 372 ms
> Current optimal value 153 after 383 ms
> Current optimal value 141 after 549 ms
> Current optimal value 140 after 630 ms
> Current optimal value 134 after 635 ms
> Current optimal value 126 after 856 ms
> Current optimal value 116 after 892 ms
> Current optimal value 112 after 975 ms
> Current optimal value 111 after 989 ms
> Current optimal value 104 after 993 ms
> Current optimal value 103 after 5192 ms
> Current optimal value 102 after 8366 ms
> Current optimal value 101 after 8742 ms
> Current optimal value 100 after 10000 ms
> Current optimal value 94 after 10823 ms
> Current optimal value 86 after 11587 ms
> Current optimal value 78 after 11603 ms
> Current optimal value 70 after 25611 ms
> Current optimal value 69 after 119896 ms
> Current optimal value 68 after 120148 ms
> Current optimal value 66 after 130762 ms
> Current optimal value 65 after 244742 ms
> Current optimal value 63 after 261859 ms
> Current optimal value 62 after 269155 ms
> Current optimal value 61 after 282021 ms
> Current optimal value 60 after 335531 ms
> Current optimal value 54 after 388533 ms
> Current optimal value 51 after 568698 ms
Total time spend: 600003 ms
Amount of new found models: 175427
Feasible object value: 342
Result object value: 51
