alpha: 0.5
beta: 0.5
gamma: 1.5
stagT: 5
Random frameSizes and framesize is choosen randomly between 1 - maxframesize
When an improvement is found the usefullFramesize is set to the size of the removedassumptions
Maximum runtime: 600

Starting solving at: 41 ms
done
PrepModelIt duration: 46 ms
amount madeAssumptions: 357
Objval best sol: 157
search limit: 102
useful search limit: 102
max frame size: 17
frame size: 8
useful frame size: 8
stag: 0/5
total spend time up to now: 37 ms
max time: 600
> Current optimal value 157 after 47 ms
> Current optimal value 150 after 39 ms
> Current optimal value 147 after 42 ms
> Current optimal value 133 after 45 ms
> Current optimal value 128 after 74 ms
> Current optimal value 122 after 77 ms
> Current optimal value 113 after 92 ms
> Current optimal value 108 after 100 ms
> Current optimal value 105 after 106 ms
> Current optimal value 102 after 110 ms
> Current optimal value 94 after 116 ms
> Current optimal value 85 after 141 ms
> Current optimal value 82 after 168 ms
> Current optimal value 80 after 178 ms
> Current optimal value 79 after 200 ms
> Current optimal value 77 after 233 ms
> Current optimal value 74 after 254 ms
> Current optimal value 73 after 259 ms
> Current optimal value 72 after 268 ms
> Current optimal value 71 after 282 ms
> Current optimal value 69 after 289 ms
> Current optimal value 65 after 304 ms
> Current optimal value 64 after 324 ms
> Current optimal value 61 after 413 ms
> Current optimal value 60 after 418 ms
> Current optimal value 58 after 1048 ms
> Current optimal value 55 after 1058 ms
> Current optimal value 51 after 1563 ms
> Current optimal value 45 after 1568 ms
> Current optimal value 42 after 3250 ms
