Starting solving at 311 ms
>>> Search start
> Conflicts |          ORIGINAL         |          LEARNT          | Progress
>           |    Vars  Clauses Literals |    Limit  Clauses Lit/Cl |         
>>> Initializing inductive definition 1753
> Number of rules : 900.
> restarts              : 1
> decisions             : 13  (0 % random)
> conflicts             : 0
> propagations          : 4235
> conflict literals     : 0  (-nan % deleted)
> 1 model found
>>> Search done
nrmodels&&1
total-solving-time2 ms
First objective value: 18218 at 325 ms
DETECTED HARD NEIGHBORHOODS: 
Starting local search at 394 ms
Initial objective value: 18218 at 397 ms
Strengthened objective value: 18218 at 403 ms
Starting solving at 684 ms
>>> Search start
>>> Initializing inductive definition 5117
> Number of rules : 900.
> restarts              : 1
> decisions             : 10  (0 % random)
> conflicts             : 1
> propagations          : 9857
> conflict literals     : 19  (32.1429 % deleted)
> 1 model found
>>> Search done
nrmodels&&1
total-solving-time2 ms
Starting local search at 705 ms
Initial objective value: 16969 at 709 ms
Strengthened objective value: 16969 at 714 ms
Starting solving at 1004 ms
>>> Search start
>>> Initializing inductive definition 8518
> Number of rules : 900.
> restarts              : 1
> decisions             : 18  (0 % random)
> conflicts             : 6
> propagations          : 14961
> conflict literals     : 93  (34.0426 % deleted)
> 1 model found
>>> Search done
nrmodels&&1
total-solving-time3 ms
Starting local search at 1028 ms
Initial objective value: 15917 at 1032 ms
Strengthened objective value: 15917 at 1038 ms
Starting solving at 1332 ms
>>> Search start
>>> Initializing inductive definition 12008
> Number of rules : 900.
> restarts              : 1
> decisions             : 15  (0 % random)
> conflicts             : 6
> propagations          : 15199
> conflict literals     : 107  (23.0216 % deleted)
> 1 model found
>>> Search done
nrmodels&&1
total-solving-time4 ms
Starting local search at 1358 ms
Initial objective value: 15814 at 1362 ms
Strengthened objective value: 15814 at 1369 ms
Starting solving at 1704 ms
>>> Search start
>>> Initializing inductive definition 15319
> Number of rules : 900.
> restarts              : 1
> decisions             : 21  (0 % random)
> conflicts             : 12
> propagations          : 20670
> conflict literals     : 242  (28.1899 % deleted)
> 1 model found
>>> Search done
nrmodels&&1
total-solving-time5 ms
Starting local search at 1737 ms
Initial objective value: 15786 at 1741 ms
Strengthened objective value: 15786 at 1748 ms
Starting solving at 2077 ms
>>> Search start
>>> Initializing inductive definition 20107
> Number of rules : 900.
> restarts              : 1
> decisions             : 39  (0 % random)
> conflicts             : 27
> propagations          : 41214
> conflict literals     : 468  (31.9767 % deleted)
> 1 model found
>>> Search done
nrmodels&&1
total-solving-time9 ms
Starting local search at 2113 ms
Initial objective value: 15723 at 2118 ms
Strengthened objective value: 15723 at 2125 ms
Starting solving at 2445 ms
>>> Search start
>>> Initializing inductive definition 24212
> Number of rules : 900.
> restarts              : 1
> decisions             : 39  (0 % random)
> conflicts             : 20
> propagations          : 36961
> conflict literals     : 427  (25.7391 % deleted)
> 1 model found
>>> Search done
nrmodels&&1
total-solving-time9 ms
Starting local search at 2482 ms
Initial objective value: 15463 at 2486 ms
Strengthened objective value: 15463 at 2494 ms
Starting solving at 2817 ms
>>> Search start
>>> Initializing inductive definition 27706
> Number of rules : 900.
> restarts              : 1
> decisions             : 59  (0 % random)
> conflicts             : 45
> propagations          : 72677
> conflict literals     : 1056  (28.5521 % deleted)
> 1 model found
>>> Search done
nrmodels&&1
total-solving-time16 ms
Starting local search at 2860 ms
Initial objective value: 14502 at 2865 ms
Strengthened objective value: 14502 at 2872 ms
Starting solving at 3208 ms
>>> Search start
>>> Initializing inductive definition 31045
> Number of rules : 900.
|       101 |    6370    20782    49552 |    12880      162     25 |
|       252 |    6370    20782    49552 |    14168      379     23 |
> restarts              : 3
> decisions             : 331  (0 % random)
> conflicts             : 272
> propagations          : 453062
> conflict literals     : 6112  (26.4678 % deleted)
> 1 model found
>>> Search done
nrmodels&&1
total-solving-time104 ms
Starting local search at 3341 ms
Initial objective value: 14396 at 3346 ms
Strengthened objective value: 14396 at 3354 ms
Starting solving at 3729 ms
>>> Search start
>>> Initializing inductive definition 34727
> Number of rules : 900.
|       101 |    6694    21835    52063 |    13410      165     25 |
|       252 |    6694    21835    52063 |    14751      380     26 |
|       478 |    6694    21835    52063 |    16226      641     23 |
|       818 |    6694    21835    52063 |    17848     1040     22 |
> restarts              : 9
> decisions             : 1445  (0 % random)
> conflicts             : 1306
> propagations          : 2350286
> conflict literals     : 26816  (29.1482 % deleted)
>>> Search done
