Starting solving at 623 ms
>>> Search start
> Conflicts |          ORIGINAL         |          LEARNT          | Progress
>           |    Vars  Clauses Literals |    Limit  Clauses Lit/Cl |         
>>> Initializing inductive definition 1753
> Number of rules : 8100.
> restarts              : 1
> decisions             : 70  (0 % random)
> conflicts             : 22
> propagations          : 161762
> conflict literals     : 534  (9.64467 % deleted)
> 1 model found
>>> Search done
nrmodels&&1
total-solving-time69 ms
First objective value: 57374 at 767 ms
DETECTED HARD NEIGHBORHOODS: 
Starting local search at 916 ms
Initial objective value: 57374 at 924 ms
Strengthened objective value: 57374 at 938 ms
Starting solving at 1818 ms
>>> Search start
>>> Initializing inductive definition 6046
> Number of rules : 8100.
> restarts              : 1
> decisions             : 103  (0 % random)
> conflicts             : 70
> propagations          : 475621
> conflict literals     : 1496  (11.9482 % deleted)
> 1 model found
>>> Search done
nrmodels&&1
total-solving-time177 ms
Starting local search at 2126 ms
Initial objective value: 55229 at 2138 ms
Strengthened objective value: 55229 at 2154 ms
Starting solving at 3074 ms
>>> Search start
>>> Initializing inductive definition 10347
> Number of rules : 8100.
> restarts              : 1
> decisions             : 54  (0 % random)
> conflicts             : 32
> propagations          : 240046
> conflict literals     : 1277  (10.5742 % deleted)
> 1 model found
>>> Search done
nrmodels&&1
total-solving-time96 ms
Starting local search at 3309 ms
Initial objective value: 55204 at 3323 ms
Strengthened objective value: 55204 at 3339 ms
Starting solving at 4288 ms
>>> Search start
>>> Initializing inductive definition 14586
> Number of rules : 8100.
> restarts              : 1
> decisions             : 24  (0 % random)
> conflicts             : 3
> propagations          : 95906
> conflict literals     : 37  (0 % deleted)
> 1 model found
>>> Search done
nrmodels&&1
total-solving-time43 ms
Starting local search at 4474 ms
Initial objective value: 54655 at 4491 ms
Strengthened objective value: 54655 at 4508 ms
Starting solving at 5500 ms
>>> Search start
>>> Initializing inductive definition 18870
> Number of rules : 8100.
> restarts              : 1
> decisions             : 111  (0 % random)
> conflicts             : 62
> propagations          : 478774
> conflict literals     : 1367  (9.22975 % deleted)
> 1 model found
>>> Search done
nrmodels&&1
total-solving-time188 ms
Starting local search at 5837 ms
Initial objective value: 54358 at 5854 ms
Strengthened objective value: 54358 at 5871 ms
Starting solving at 6894 ms
>>> Search start
>>> Initializing inductive definition 23403
> Number of rules : 8100.
> restarts              : 1
> decisions             : 70  (0 % random)
> conflicts             : 43
> propagations          : 357014
> conflict literals     : 1695  (13.7843 % deleted)
> 1 model found
>>> Search done
nrmodels&&1
total-solving-time152 ms
Starting local search at 7199 ms
Initial objective value: 53911 at 7218 ms
Strengthened objective value: 53911 at 7235 ms
Starting solving at 8309 ms
>>> Search start
>>> Initializing inductive definition 27715
> Number of rules : 8100.
> restarts              : 1
> decisions             : 181  (0 % random)
> conflicts             : 97
> propagations          : 623795
> conflict literals     : 3194  (11.5725 % deleted)
> 1 model found
>>> Search done
nrmodels&&1
total-solving-time259 ms
Starting local search at 8727 ms
Initial objective value: 53563 at 8747 ms
Strengthened objective value: 53563 at 8764 ms
Starting solving at 9871 ms
>>> Search start
>>> Initializing inductive definition 32663
> Number of rules : 8100.
> restarts              : 1
> decisions             : 98  (0 % random)
> conflicts             : 54
> propagations          : 486788
> conflict literals     : 1208  (10.6509 % deleted)
> 1 model found
>>> Search done
nrmodels&&1
total-solving-time211 ms
Starting local search at 10248 ms
Initial objective value: 52774 at 10268 ms
Strengthened objective value: 52774 at 10286 ms
Starting solving at 11417 ms
>>> Search start
>>> Initializing inductive definition 37472
> Number of rules : 8100.
|       101 |   69588   241168   585978 |   144138      104     31 |
> restarts              : 2
> decisions             : 377  (0 % random)
> conflicts             : 194
> propagations          : 1297862
> conflict literals     : 9000  (11.9977 % deleted)
> 1 model found
>>> Search done
nrmodels&&1
total-solving-time544 ms
Starting local search at 12131 ms
Initial objective value: 52607 at 12152 ms
Strengthened objective value: 52607 at 12169 ms
Starting solving at 13335 ms
>>> Search start
>>> Initializing inductive definition 41806
> Number of rules : 8100.
|       101 |   72138   250093   607653 |   148571      100     23 |
|       252 |   72138   250093   607653 |   163429      262     48 |
|       478 |   72138   250093   607653 |   179771      526     80 |
|       818 |   72138   250093   607653 |   197749      883     69 |
> restarts              : 8
> decisions             : 1626  (0 % random)
> conflicts             : 987
> propagations          : 7808565
> conflict literals     : 62811  (8.67972 % deleted)
> 1 model found
>>> Search done
nrmodels&&1
total-solving-time3166 ms
Starting local search at 16678 ms
Initial objective value: 52273 at 16700 ms
Strengthened objective value: 52273 at 16717 ms
Starting solving at 17923 ms
>>> Search start
>>> Initializing inductive definition 46430
> Number of rules : 8100.
|       101 |   74688   259018   629328 |   153005      123     92 |
|       252 |   74688   259018   629328 |   168305      284     76 |
|       478 |   74688   259018   629328 |   185136      520     68 |
|       818 |   74688   259018   629328 |   203649      914     76 |
|      1326 |   74688   259018   629328 |   224014     1472     70 |
|      2090 |   74688   259018   629328 |   246416     2316     68 |
|      3231 |   74688   259018   629328 |   271058     3541     70 |
> restarts              : 27
> decisions             : 8400  (0 % random)
> conflicts             : 4931
> propagations          : 38096667
> conflict literals     : 404152  (9.62066 % deleted)
> 1 model found
>>> Search done
nrmodels&&1
total-solving-time15766 ms
Starting local search at 33870 ms
Initial objective value: 52166 at 33894 ms
Strengthened objective value: 52166 at 33912 ms
Starting solving at 35188 ms
>>> Search start
>>> Initializing inductive definition 51237
> Number of rules : 8100.
|       101 |   77238   267943   651003 |   157438      114     49 |
|       252 |   77238   267943   651003 |   173182      272     53 |
|       478 |   77238   267943   651003 |   190500      517     67 |
|       818 |   77238   267943   651003 |   209550      895     77 |
|      1326 |   77238   267943   651003 |   230505     1434     74 |
> restarts              : 9
> decisions             : 2164  (0 % random)
> conflicts             : 1379
> propagations          : 10476653
> conflict literals     : 98463  (13.4132 % deleted)
> 1 model found
>>> Search done
nrmodels&&1
total-solving-time4612 ms
Starting local search at 39991 ms
Initial objective value: 50968 at 40015 ms
Strengthened objective value: 50968 at 40034 ms
Starting solving at 41329 ms
>>> Search start
>>> Initializing inductive definition 56053
> Number of rules : 8100.
|       101 |   79788   276868   672678 |   161871      113     80 |
|       252 |   79788   276868   672678 |   178059      266     56 |
|       478 |   79788   276868   672678 |   195865      514     61 |
|       818 |   79788   276868   672678 |   215451      869     57 |
|      1326 |   79788   276868   672678 |   236996     1471     82 |
|      2090 |   79788   276868   672678 |   260696     2326     81 |
|      3231 |   79788   276868   672678 |   286766     3623     89 |
|      4950 |   79788   276868   672678 |   315442     5560     91 |
> restarts              : 29
> decisions             : 8090  (0 % random)
> conflicts             : 5229
> propagations          : 39614279
> conflict literals     : 480612  (11.3051 % deleted)
> 1 model found
>>> Search done
nrmodels&&1
total-solving-time17791 ms
Starting local search at 59315 ms
Initial objective value: 50929 at 59341 ms
Strengthened objective value: 50929 at 59361 ms
Starting solving at 60697 ms
>>> Search start
>>> Initializing inductive definition 60601
> Number of rules : 8100.
|       101 |   82338   285793   694353 |   166305      110     64 |
|       252 |   82338   285793   694353 |   182935      269     57 |
|       478 |   82338   285793   694353 |   201229      517     64 |
|       818 |   82338   285793   694353 |   221352      888     80 |
|      1326 |   82338   285793   694353 |   243487     1423     73 |
|      2090 |   82338   285793   694353 |   267836     2261     73 |
|      3231 |   82338   285793   694353 |   294620     3656     87 |
|      4950 |   82338   285793   694353 |   324082     5547     85 |
|      7517 |   82338   285793   694353 |   356490     8272     78 |
|     11377 |   82338   285793   694353 |   392139    12608     85 |
|     17159 |   82338   285793   694353 |   431353    18809     91 |
|     25839 |   82338   285793   694353 |   474488    28306     93 |
|     38846 |   82338   285793   694353 |   521937    43389    101 |
|     58367 |   82338   285793   694353 |   574131    64845    101 |
|     87626 |   82338   285793   694353 |   631544    97025     98 |
