Starting solving at 410 ms
>>> Search start
> Conflicts |          ORIGINAL         |          LEARNT          | Progress
>           |    Vars  Clauses Literals |    Limit  Clauses Lit/Cl |         
>>> Initializing inductive definition 1753
> Number of rules : 3136.
> restarts              : 1
> decisions             : 102  (0 % random)
> conflicts             : 57
> propagations          : 184658
> conflict literals     : 648  (11.2329 % deleted)
> 1 model found
>>> Search done
nrmodels&&1
total-solving-time45 ms
First objective value: 30691 at 486 ms
DETECTED HARD NEIGHBORHOODS: 
Starting local search at 569 ms
Initial objective value: 30691 at 573 ms
Strengthened objective value: 30691 at 581 ms
Starting solving at 1049 ms
>>> Search start
>>> Initializing inductive definition 6254
> Number of rules : 3136.
> restarts              : 1
> decisions             : 39  (0 % random)
> conflicts             : 17
> propagations          : 69559
> conflict literals     : 126  (3.81679 % deleted)
> 1 model found
>>> Search done
nrmodels&&1
total-solving-time21 ms
Starting local search at 1122 ms
Initial objective value: 29879 at 1128 ms
Strengthened objective value: 29879 at 1138 ms
Starting solving at 1620 ms
>>> Search start
>>> Initializing inductive definition 10395
> Number of rules : 3136.
|       101 |   18021    60333   145533 |    39805      108     30 |
|       252 |   18021    60333   145533 |    43785      264     24 |
|       478 |   18021    60333   145533 |    48164      496     26 |
|       818 |   18021    60333   145533 |    52980      838     25 |
|      1326 |   18019    60325   145517 |    58278     1345     24 |
> restarts              : 13
> decisions             : 2982  (0 % random)
> conflicts             : 1879
> propagations          : 6116037
> conflict literals     : 46055  (22.2294 % deleted)
>>> Search done
