Starting solving at 2080 ms
>>> Search start
> Conflicts |          ORIGINAL         |          LEARNT          | Progress
>           |    Vars  Clauses Literals |    Limit  Clauses Lit/Cl |         
>>> Initializing inductive definition 1753
> Number of rules : 33124.
|       101 |  265702   954684  2339998 |   543294      100     94 |
|       252 |  265702   954684  2339998 |   597624      250     79 |
> restarts              : 4
> decisions             : 1414  (0 % random)
> conflicts             : 410
> propagations          : 6627053
> conflict literals     : 31340  (10.3367 % deleted)
> 1 model found
>>> Search done
nrmodels&&1
total-solving-time2789 ms
First objective value: 191824 at 5266 ms
DETECTED HARD NEIGHBORHOODS: 
Starting local search at 6005 ms
Initial objective value: 191824 at 6026 ms
Strengthened objective value: 191824 at 6067 ms
Starting solving at 9280 ms
>>> Search start
>>> Initializing inductive definition 6082
> Number of rules : 33124.
|       101 |  275502   990209  2426973 |   578202      100     57 |
|       252 |  275502   990209  2426973 |   636022      251     54 |
|       478 |  275502   990209  2426973 |   699624      479     54 |
|       818 |  275502   990209  2426973 |   769587      826     54 |
|      1326 |  275502   990209  2426973 |   846545     1455     91 |
> restarts              : 12
> decisions             : 3272  (0 % random)
> conflicts             : 1732
> propagations          : 29795861
> conflict literals     : 138182  (10.8054 % deleted)
> 1 model found
>>> Search done
nrmodels&&1
total-solving-time13078 ms
Starting local search at 22988 ms
Initial objective value: 190650 at 23023 ms
Strengthened objective value: 190650 at 23078 ms
Starting solving at 26443 ms
>>> Search start
>>> Initializing inductive definition 10378
> Number of rules : 33124.
|       101 |  285302  1025734  2513948 |   595425      101     58 |
|       252 |  285302  1025734  2513948 |   654968      255     56 |
|       478 |  285302  1025734  2513948 |   720464      483     55 |
|       818 |  285302  1025734  2513948 |   792511      829     60 |
> restarts              : 8
> decisions             : 2300  (0 % random)
> conflicts             : 1276
> propagations          : 24526472
> conflict literals     : 95257  (13.1722 % deleted)
> 1 model found
>>> Search done
nrmodels&&1
total-solving-time10787 ms
Starting local search at 37893 ms
Initial objective value: 189525 at 37935 ms
Strengthened objective value: 189525 at 37986 ms
Starting solving at 44044 ms
>>> Search start
>>> Initializing inductive definition 13775
> Number of rules : 33124.
|       101 |  295102  1061259  2600923 |   612649      102     48 |
|       252 |  295102  1061259  2600923 |   673913      254     52 |
|       478 |  295102  1061259  2600923 |   741305      480     60 |
|       818 |  295102  1061259  2600923 |   815435      840     70 |
|      1326 |  295102  1061259  2600923 |   896979     1412    146 |
|      2090 |  295102  1061259  2600923 |   986677     2195    116 |
|      3231 |  295102  1061259  2600923 |  1085345     3487    165 |
|      4950 |  295102  1061259  2600923 |  1193879     5236    137 |
|      7517 |  295102  1061259  2600923 |  1313267     7870    118 |
> restarts              : 47
> decisions             : 20739  (0 % random)
> conflicts             : 10721
> propagations          : 207088002
> conflict literals     : 1147452  (10.5406 % deleted)
> 1 model found
>>> Search done
nrmodels&&1
total-solving-time94824 ms
Starting local search at 139558 ms
Initial objective value: 189131 at 139603 ms
Strengthened objective value: 189131 at 139651 ms
Starting solving at 143279 ms
>>> Search start
>>> Initializing inductive definition 18463
> Number of rules : 33124.
|       101 |  304902  1096784  2687898 |   629872      100     60 |
|       252 |  304902  1096784  2687898 |   692859      250     67 |
|       478 |  304902  1096784  2687898 |   762145      480     63 |
|       818 |  304902  1096784  2687898 |   838360      820     62 |
|      1326 |  304902  1096784  2687898 |   922196     1330     65 |
|      2090 |  304902  1096784  2687898 |  1014415     2100     62 |
|      3231 |  304902  1096784  2687898 |  1115857     3265     70 |
|      4950 |  304902  1096784  2687898 |  1227443     5010     72 |
|      7517 |  304902  1096784  2687898 |  1350187     7691     81 |
> restarts              : 32
> decisions             : 12929  (0 % random)
> conflicts             : 7753
> propagations          : 146546893
> conflict literals     : 637253  (12.9911 % deleted)
> 1 model found
>>> Search done
nrmodels&&1
total-solving-time66577 ms
Starting local search at 210593 ms
Initial objective value: 188687 at 210636 ms
Strengthened objective value: 188687 at 210692 ms
Starting solving at 217077 ms
>>> Search start
>>> Initializing inductive definition 23042
> Number of rules : 33124.
|       101 |  314702  1132309  2774873 |   647095      102     29 |
|       252 |  314702  1132309  2774873 |   711805      267     68 |
|       478 |  314702  1132309  2774873 |   782986      496     61 |
|       818 |  314702  1132309  2774873 |   861284      840     58 |
|      1326 |  314702  1132309  2774873 |   947413     1353     61 |
> restarts              : 14
> decisions             : 4462  (0 % random)
> conflicts             : 2001
> propagations          : 41208251
> conflict literals     : 126022  (10.2382 % deleted)
> 1 model found
>>> Search done
nrmodels&&1
total-solving-time19013 ms
Starting local search at 236830 ms
Initial objective value: 187834 at 236883 ms
Strengthened objective value: 187834 at 236941 ms
Starting solving at 245289 ms
>>> Search start
>>> Initializing inductive definition 27980
> Number of rules : 33124.
|       101 |  324502  1167834  2861848 |   664319      100     56 |
|       252 |  324502  1167834  2861848 |   730751      252     54 |
|       478 |  324502  1167834  2861848 |   803826      479     62 |
|       818 |  324502  1167834  2861848 |   884209      820     59 |
|      1326 |  324502  1167834  2861848 |   972629     1332     63 |
|      2090 |  324502  1167834  2861848 |  1069892     2110     62 |
> restarts              : 16
> decisions             : 5249  (0 % random)
> conflicts             : 2877
> propagations          : 62740557
> conflict literals     : 186298  (11.2224 % deleted)
> 1 model found
>>> Search done
nrmodels&&1
total-solving-time27635 ms
Starting local search at 273681 ms
Initial objective value: 185769 at 273739 ms
Strengthened objective value: 185769 at 273800 ms
Starting solving at 277926 ms
>>> Search start
>>> Initializing inductive definition 32798
> Number of rules : 33124.
|       101 |  334302  1203359  2948823 |   681542      100     51 |
|       252 |  334302  1203359  2948823 |   749697      250     55 |
|       478 |  334302  1203359  2948823 |   824666      509    103 |
|       818 |  334302  1203359  2948823 |   907133      864     87 |
|      1326 |  334302  1203359  2948823 |   997846     1373     82 |
|      2090 |  334302  1203359  2948823 |  1097631     2138     74 |
> restarts              : 16
> decisions             : 5264  (0 % random)
> conflicts             : 3043
> propagations          : 71481938
> conflict literals     : 214585  (10.3853 % deleted)
> 1 model found
>>> Search done
nrmodels&&1
total-solving-time31887 ms
Starting local search at 310535 ms
Initial objective value: 181576 at 310586 ms
Strengthened objective value: 181576 at 310644 ms
Starting solving at 314775 ms
>>> Search start
>>> Initializing inductive definition 37405
> Number of rules : 33124.
|       101 |  344102  1238884  3035798 |   698766      100     59 |
|       252 |  344102  1238884  3035798 |   768642      258     74 |
|       478 |  344102  1238884  3035798 |   845507      485     72 |
|       818 |  344102  1238884  3035798 |   930057      825     67 |
|      1326 |  344102  1238884  3035798 |  1023063     1344     67 |
|      2090 |  344102  1238884  3035798 |  1125369     2121     68 |
|      3231 |  344102  1238884  3035798 |  1237906     3272     73 |
|      4950 |  344102  1238884  3035798 |  1361697     5009     72 |
|      7517 |  344102  1238884  3035798 |  1497867     7655     79 |
|     11377 |  344102  1238884  3035798 |  1647654    11575     80 |
|     17159 |  344102  1238884  3035798 |  1812419    17608    100 |
> restarts              : 89
> decisions             : 40677  (0 % random)
> conflicts             : 24053
> propagations          : 553036595
> conflict literals     : 2669858  (12.0849 % deleted)
> 1 model found
>>> Search done
nrmodels&&1
total-solving-time260801 ms
Starting local search at 576342 ms
Initial objective value: 181369 at 576398 ms
Strengthened objective value: 181369 at 576455 ms
Starting solving at 583347 ms
>>> Search start
>>> Initializing inductive definition 41954
> Number of rules : 33124.
|       101 |  353902  1274409  3122773 |   715989      103     40 |
|       252 |  353902  1274409  3122773 |   787588      257     47 |
|       478 |  353902  1274409  3122773 |   866347      483     55 |
|       818 |  353902  1274409  3122773 |   952982      823     62 |
|      1326 |  353902  1274409  3122773 |  1048280     1334     61 |
