Starting solving at: 7638 ms
done
PrepModelIt duration: 8263 ms
> Current optimal value 140024 after 8266 ms
> Current optimal value 138630 after 1136 ms
> Current optimal value 138307 after 2667 ms
> Current optimal value 138069 after 4462 ms
> Current optimal value 135315 after 4661 ms
> Current optimal value 133907 after 5848 ms
> Current optimal value 131493 after 115748 ms
> Current optimal value 129489 after 292983 ms
> Current optimal value 128277 after 328664 ms
> Current optimal value 127619 after 329003 ms
> Current optimal value 125628 after 329292 ms
> Current optimal value 124612 after 331175 ms
> Current optimal value 123043 after 331457 ms
> Current optimal value 122687 after 553493 ms
> Current optimal value 121801 after 554571 ms
> Current optimal value 121725 after 561258 ms
> Current optimal value 120915 after 575429 ms
