Starting solving at: 146 ms
done
PrepModelIt duration: 197 ms
> Current optimal value 17255 after 198 ms
> Current optimal value 17229 after 166 ms
> Current optimal value 11880 after 190 ms
> Current optimal value 11845 after 8969 ms
> Current optimal value 11793 after 9011 ms
> Current optimal value 11777 after 9880 ms
> Current optimal value 11735 after 9916 ms
> Current optimal value 11719 after 9959 ms
> Current optimal value 6754 after 24013 ms
> Current optimal value 6752 after 24067 ms
> Current optimal value 6732 after 24972 ms
> Current optimal value 6724 after 25005 ms
> Current optimal value 6718 after 25106 ms
> Current optimal value 6684 after 27313 ms
> Current optimal value 6605 after 27853 ms
> Current optimal value 6524 after 28725 ms
> Current optimal value 6450 after 28764 ms
> Current optimal value 6448 after 30360 ms
> Current optimal value 6332 after 30397 ms
> Current optimal value 6314 after 30492 ms
> Current optimal value 6287 after 34567 ms
> Current optimal value 6259 after 34630 ms
> Current optimal value 6227 after 34718 ms
> Current optimal value 6192 after 73853 ms
> Current optimal value 6186 after 74817 ms
> Current optimal value 6171 after 89622 ms
> Current optimal value 6161 after 90215 ms
> Current optimal value 6143 after 165239 ms
> Current optimal value 6139 after 166313 ms
> Current optimal value 6136 after 170758 ms
> Current optimal value 6112 after 171160 ms
> Current optimal value 6109 after 171234 ms
> Current optimal value 6103 after 172195 ms
> Current optimal value 956 after 192219 ms
> Current optimal value 942 after 192573 ms
> Current optimal value 877 after 192850 ms
> Current optimal value 853 after 193961 ms
> Current optimal value 811 after 199102 ms
> Current optimal value 809 after 199148 ms
> Current optimal value 791 after 199270 ms
> Current optimal value 785 after 264209 ms
