alpha: 0.5
beta: 0.5
gamma: 1.5
stagT: 5
Random frameSizes and framesize is choosen randomly between 1 - maxframesize
When an improvement is found the usefullFramesize is set to the size of the removedassumptions
Maximum runtime: 600

Starting solving at: 1322 ms
done
PrepModelIt duration: 196424 ms
amount madeAssumptions: 1391
Objval best sol: 32
search limit: 266627
useful search limit: 266627
max frame size: 1244
frame size: 622
useful frame size: 622
stag: 0/5
total spend time up to now: 196417 ms
max time: 600
> Current optimal value 32 after 196426 ms
