Starting solving at 3909 ms
>>> Search start
> Conflicts |          ORIGINAL         |          LEARNT          | Progress
>           |    Vars  Clauses Literals |    Limit  Clauses Lit/Cl |         
|       101 |   17508     1231     2462 |    86893     3322     73 |
|       252 |   23443    13068    26136 |    95583    17254     43 |
|       478 |   32687    31452    62904 |   105141    90979     42 |
> restarts              : 5
> decisions             : 76598  (0 % random)
> conflicts             : 556
> propagations          : 290843
> conflict literals     : 36425  (2.45046 % deleted)
> 1 model found
>>> Search done
nrmodels&&1
total-solving-time4470 ms
First objective value: 9887 at 8447 ms
DETECTED HARD NEIGHBORHOODS: 
InPath/0 1 <- 95 48 89 88 87 1 84 62 83 61 82 60 81 59 76 94 75 93 21 74 72 69 92 73 68 91 27 67 66 104 64 86 23 34 13 26 38 9 31 110 119 103 32 36 42 120 43 19 99 28 52 54 100 3 35 117 116 40 37 90 101 25 33 44 121 22 122 125 41 127 111 106 115 128 123 126 105 5 11 112 113 98 109 108 118 107 102 10 80 30 58 46 8 6 20 7 71 97 51 53 29 124 96 24 12 65 114 16 15 2 14 17 39 70 4 18 47 49 50 55 77 78 56 79 45 57 85 63 
Starting local search at 21607 ms
Initial objective value: 9887 at 21608 ms
Strengthened objective value: 1409 at 33335 ms
