Starting solving at 274 ms
>>> Search start
> Conflicts |          ORIGINAL         |          LEARNT          | Progress
>           |    Vars  Clauses Literals |    Limit  Clauses Lit/Cl |         
> restarts              : 1
> decisions             : 691  (0 % random)
> conflicts             : 29
> propagations          : 8793
> conflict literals     : 435  (0 % deleted)
> 1 model found
>>> Search done
nrmodels&&1
total-solving-time24 ms
First objective value: 6678 at 305 ms
DETECTED HARD NEIGHBORHOODS: 
InPath/0 1 <- 21 20 14 17 16 46 15 13 1 27 36 22 18 38 11 12 5 29 2 44 4 19 6 10 30 32 31 35 23 37 39 40 43 34 45 9 28 24 42 26 3 41 8 25 33 7 
Starting local search at 535 ms
Initial objective value: 6678 at 535 ms
Strengthened objective value: 2459 at 3127 ms
Starting solving at 31003 ms
>>> Search start
|       101 |    4278     4138     8276 |   507287     2170     21 |
|       252 |    4278     4138     8276 |   558016     3059     23 |
|       478 |    4278     4138     8276 |   613817     4204     25 |
|       818 |    4278     4138     8276 |   675199     6867     24 |
|      1326 |    4278     4138     8276 |   742719     9114     26 |
|      2090 |    4278     4138     8276 |   816991    13898     26 |
|      3231 |    4278     4138     8276 |   898690    16561     29 |
|      4950 |    4278     4138     8276 |   988559    25783     29 |
|      7517 |    4278     4138     8276 |  1087415    33303     31 |
|     11377 |    4278     4138     8276 |  1196157    49460     30 |
|     17159 |    4278     4138     8276 |  1315772    68392     32 |
|     25839 |    4278     4138     8276 |  1447350    98197     32 |
|     38846 |    4278     4138     8276 |  1592085   138534     34 |
|     58367 |    4278     4138     8276 |  1751293   205298     34 |
|     87626 |    4278     4138     8276 |  1926422   291226     36 |
|    131523 |    4278     4138     8276 |  2119065   415801     37 |
