Starting solving at 46599 ms
>>> Search start
> Conflicts |          ORIGINAL         |          LEARNT          | Progress
>           |    Vars  Clauses Literals |    Limit  Clauses Lit/Cl |         
|       101 |   66873    53697   107394 |   223831    64191     66 |
|       252 |   69585    59103   118206 |   246214   108085     60 |
|       478 |   78104    76052   152104 |   270835   221350     59 |
> restarts              : 6
> decisions             : 210300  (0 % random)
> conflicts             : 601
> propagations          : 882083
> conflict literals     : 67314  (0.927234 % deleted)
> 1 model found
>>> Search done
nrmodels&&1
total-solving-time19555 ms
First objective value: 73986 at 66368 ms
DETECTED HARD NEIGHBORHOODS: 
InPath/0 1 <- 86 140 85 1 139 84 152 83 151 82 81 80 95 77 25 33 93 5 147 75 41 89 143 71 123 88 142 70 96 122 63 61 19 59 56 44 55 54 100 52 169 53 99 51 50 8 48 22 47 29 57 45 18 4 94 148 90 116 144 72 124 17 198 91 145 73 14 2 15 64 16 11 190 12 157 24 117 149 49 62 87 141 69 121 7 20 164 6 115 76 39 28 79 3 66 35 92 38 146 74 42 27 118 126 177 107 128 179 109 129 180 130 153 182 111 131 154 135 112 138 150 119 120 132 110 192 136 113 155 185 156 137 114 166 125 167 191 171 101 196 163 172 193 173 195 67 133 162 181 194 165 161 170 158 197 189 178 108 187 176 106 174 104 168 105 103 184 102 183 98 97 21 78 43 127 40 36 65 32 60 9 159 31 188 175 10 30 68 186 134 26 13 160 37 46 58 34 23 
Starting local search at 146309 ms
Initial objective value: 73986 at 146309 ms
Strengthened objective value: 12010 at 225947 ms
