Starting solving at 7631 ms
>>> Search start
> Conflicts |          ORIGINAL         |          LEARNT          | Progress
>           |    Vars  Clauses Literals |    Limit  Clauses Lit/Cl |         
|       101 |   17210    14370    28740 |    48626    26112     30 |
> restarts              : 3
> decisions             : 47719  (0 % random)
> conflicts             : 200
> propagations          : 163232
> conflict literals     : 13042  (0.81375 % deleted)
> 1 model found
>>> Search done
nrmodels&&1
total-solving-time2060 ms
First objective value: 121404 at 9735 ms
DETECTED HARD NEIGHBORHOODS: 
InPath/0 1 <- 86 16 11 12 24 49 62 87 69 7 20 6 76 39 35 79 9 68 78 21 97 74 38 92 31 60 32 65 36 26 13 3 66 40 43 67 98 37 34 23 28 10 30 27 42 46 58 64 15 2 14 73 91 17 72 90 4 94 18 45 57 29 47 22 48 8 50 51 53 52 54 55 44 56 59 19 61 63 96 70 88 71 89 41 75 93 5 25 33 77 95 80 81 82 83 84 85 1 
Starting local search at 14605 ms
Initial objective value: 121404 at 14605 ms
Strengthened objective value: 28160 at 31220 ms
