Starting solving at 3983 ms
>>> Search start
> Conflicts |          ORIGINAL         |          LEARNT          | Progress
>           |    Vars  Clauses Literals |    Limit  Clauses Lit/Cl |         
|       101 |   64349    52557   105114 |   211794    42392     60 |
|       252 |   73501    70763   141526 |   232974   150847     57 |
|       478 |   74509    72779   145558 |   256271   131766     54 |
> restarts              : 5
> decisions             : 236128  (0 % random)
> conflicts             : 500
> propagations          : 850006
> conflict literals     : 70054  (0.497131 % deleted)
> 1 model found
>>> Search done
nrmodels&&1
total-solving-time19866 ms
First objective value: 7129 at 24075 ms
DETECTED HARD NEIGHBORHOODS: 
InPath/0 1 <- 94 1 104 89 21 139 87 86 82 57 81 162 79 124 145 90 78 76 120 134 75 74 73 182 72 71 101 67 64 55 63 178 62 61 173 60 147 58 51 43 56 157 59 68 45 84 34 77 53 52 28 115 49 172 47 15 2 35 127 16 95 93 17 38 160 20 167 22 25 166 18 175 11 189 5 54 80 70 14 27 4 44 19 96 36 6 69 10 137 65 23 13 8 141 143 116 118 121 146 171 29 130 133 174 105 136 142 144 156 131 97 150 191 151 170 122 154 153 148 40 176 183 184 132 185 126 32 83 163 140 179 33 164 186 188 190 46 192 193 155 119 149 165 181 102 161 117 107 152 159 88 158 109 168 114 113 110 129 111 42 108 99 3 187 106 103 138 100 123 98 112 66 37 92 26 31 125 85 128 30 180 12 9 177 7 91 135 48 41 50 24 39 169 
Starting local search at 105019 ms
Initial objective value: 7129 at 105020 ms
Strengthened objective value: 1162 at 144046 ms
Error: std::bad_alloc
