Starting solving at: 44 ms
done
PrepModelIt duration: 51 ms
> Current optimal value 237 after 52 ms
> Current optimal value 228 after 44 ms
> Current optimal value 222 after 48 ms
> Current optimal value 213 after 51 ms
> Current optimal value 212 after 56 ms
> Current optimal value 209 after 74 ms
> Current optimal value 194 after 77 ms
> Current optimal value 192 after 87 ms
> Current optimal value 191 after 93 ms
> Current optimal value 175 after 97 ms
> Current optimal value 153 after 100 ms
> Current optimal value 143 after 107 ms
> Current optimal value 140 after 156 ms
> Current optimal value 136 after 245 ms
> Current optimal value 134 after 255 ms
> Current optimal value 119 after 535 ms
> Current optimal value 115 after 614 ms
> Current optimal value 114 after 620 ms
> Current optimal value 104 after 626 ms
> Current optimal value 100 after 1564 ms
> Current optimal value 97 after 1570 ms
> Current optimal value 95 after 1772 ms
> Current optimal value 92 after 2488 ms
> Current optimal value 87 after 3868 ms
> Current optimal value 82 after 4260 ms
> Current optimal value 81 after 4266 ms
> Current optimal value 79 after 4291 ms
> Current optimal value 70 after 5169 ms
> Current optimal value 69 after 6394 ms
> Current optimal value 64 after 6564 ms
> Current optimal value 58 after 6588 ms
> Current optimal value 55 after 7557 ms
> Current optimal value 53 after 7619 ms
> Current optimal value 49 after 8013 ms
> Current optimal value 46 after 9913 ms
> Current optimal value 44 after 18378 ms
> Current optimal value 36 after 24259 ms
> Current optimal value 35 after 62736 ms
