Starting solving at: 40 ms
done
PrepModelIt duration: 46 ms
> Current optimal value 102 after 46 ms
> Current optimal value 100 after 40 ms
> Current optimal value 89 after 145 ms
> Current optimal value 88 after 157 ms
> Current optimal value 85 after 190 ms
> Current optimal value 82 after 198 ms
> Current optimal value 76 after 206 ms
> Current optimal value 75 after 236 ms
> Current optimal value 71 after 238 ms
> Current optimal value 70 after 250 ms
> Current optimal value 68 after 255 ms
> Current optimal value 66 after 274 ms
> Current optimal value 64 after 323 ms
> Current optimal value 61 after 438 ms
> Current optimal value 58 after 507 ms
> Current optimal value 57 after 562 ms
> Current optimal value 54 after 1034 ms
> Current optimal value 53 after 1197 ms
> Current optimal value 51 after 2777 ms
> Current optimal value 47 after 3775 ms
> Current optimal value 46 after 3833 ms
> Current optimal value 45 after 3938 ms
> Current optimal value 44 after 4474 ms
> Current optimal value 43 after 5590 ms
> Current optimal value 42 after 5955 ms
> Current optimal value 36 after 6661 ms
> Current optimal value 35 after 7217 ms
> Current optimal value 34 after 15999 ms
> Current optimal value 32 after 19534 ms
> Current optimal value 31 after 309975 ms
