Starting solving at 1991 ms
>>> Search start
> Conflicts |          ORIGINAL         |          LEARNT          | Progress
>           |    Vars  Clauses Literals |    Limit  Clauses Lit/Cl |         
|         0 |    9592    10015    24794 |    62817        1      2 |
>>> Initializing inductive definition 787
> Number of rules : 4830.
> Number of recursive atoms in positive loops : 4761.
> restarts              : 1
> decisions             : 173  (0 % random)
> conflicts             : 3
> propagations          : 13614
> conflict literals     : 1900  (0 % deleted)
> Current optimal value 68124 after 2145 ms
|         3 |    9910    10224    25071 |    62656      253   2089 |
> restarts              : 2
> decisions             : 3290  (0 % random)
> conflicts             : 66
> propagations          : 30444
> conflict literals     : 115511  (2.56183 % deleted)
> Current optimal value 67887 after 3173 ms
|        66 |   13233    16869    38361 |    64982      586   1182 |
> restarts              : 3
> decisions             : 3390  (0 % random)
> conflicts             : 90
> propagations          : 44988
> conflict literals     : 146751  (2.36712 % deleted)
> Current optimal value 67468 after 3252 ms
|        90 |   13451    17305    39233 |    65186      763    983 |
> restarts              : 5
> decisions             : 3640  (0 % random)
> conflicts             : 180
> propagations          : 76817
> conflict literals     : 344210  (1.70063 % deleted)
> Current optimal value 67080 after 3425 ms
|       180 |   13894    18191    41005 |    65624     1191    856 |
|       281 |   14333    19069    42761 |    72187     1789    663 |
|       432 |   14793    19989    44601 |    79405     2364    649 |
> restarts              : 8
> decisions             : 4161  (0 % random)
> conflicts             : 445
> propagations          : 137422
> conflict literals     : 789293  (2.08401 % deleted)
> Current optimal value 67065 after 3805 ms
|       445 |   14833    20069    44761 |    66659     2416    650 |
|       545 |   15181    20765    46153 |    73324     3095    579 |
|       695 |   15564    21531    47685 |    80657     4081    496 |
|       922 |   16299    23001    50625 |    88723     5919    416 |
|      1261 |   17322    25047    54717 |    97595     8002    380 |
> restarts              : 14
> decisions             : 5667  (0 % random)
> conflicts             : 1301
> propagations          : 357201
> conflict literals     : 1898961  (2.05038 % deleted)
> Current optimal value 67017 after 5004 ms
|      1301 |   17531    25465    55553 |    70391     8217    379 |
> restarts              : 15
> decisions             : 5740  (0 % random)
> conflicts             : 1302
> propagations          : 375128
> conflict literals     : 1902881  (2.05764 % deleted)
> Current optimal value 67001 after 5065 ms
|      1302 |   17659    25721    56065 |    70498     8282    377 |
> restarts              : 16
> decisions             : 5871  (0 % random)
> conflicts             : 1351
> propagations          : 400912
> conflict literals     : 2026859  (2.1337 % deleted)
> Current optimal value 66929 after 5176 ms
|      1351 |   17898    26199    57021 |    70730     8500    385 |
|      1451 |   18237    26877    58377 |    77803     9053    395 |
|      1603 |   18815    28033    60689 |    85583    10167    376 |
|      1829 |   19298    28999    62621 |    94142    11535    378 |
> restarts              : 21
> decisions             : 6930  (0 % random)
> conflicts             : 1938
> propagations          : 624411
> conflict literals     : 3112408  (2.2774 % deleted)
> Current optimal value 66918 after 6115 ms
|      1938 |   19672    29747    64117 |    73182    12309    379 |
|      2039 |   20129    30661    65945 |    80500    12991    375 |
|      2189 |   20447    31297    67217 |    88551    13806    378 |
> restarts              : 23
> decisions             : 7564  (0 % random)
> conflicts             : 2333
> propagations          : 762007
> conflict literals     : 3742727  (2.33653 % deleted)
> Current optimal value 66851 after 6695 ms
|      2333 |   20740    31883    68389 |    74735    14830    372 |
|      2434 |   21180    32763    70149 |    82208    15499    371 |
> restarts              : 26
> decisions             : 8034  (0 % random)
> conflicts             : 2562
> propagations          : 889433
> conflict literals     : 4186702  (2.43562 % deleted)
> Current optimal value 66764 after 7120 ms
|      2562 |   21410    33223    71069 |    75583    16036    379 |
> restarts              : 27
> decisions             : 8150  (0 % random)
> conflicts             : 2609
> propagations          : 924464
> conflict literals     : 4290444  (2.47371 % deleted)
> Current optimal value 66692 after 7237 ms
|      2609 |   21608    33619    71861 |    75800    16291    381 |
|      2710 |   22061    34525    73673 |    83380    17026    376 |
|      2860 |   22369    35141    74905 |    91718    18283    365 |
|      3086 |   22795    35993    76609 |   100890    19545    370 |
|      3424 |   23531    37465    79553 |   110979    21700    363 |
|      3930 |   24389    39181    82985 |   122077    24145    366 |
> restarts              : 32
> decisions             : 10465  (0 % random)
> conflicts             : 4294
> propagations          : 1598939
> conflict literals     : 6791128  (2.54133 % deleted)
> Current optimal value 66670 after 9566 ms
|      4294 |   25059    40521    85665 |    81247    25729    366 |
|      4394 |   25319    41041    86705 |    89372    26158    368 |
|      4544 |   25534    41471    87565 |    98309    26802    369 |
> restarts              : 33
> decisions             : 10955  (0 % random)
> conflicts             : 4669
> propagations          : 1786368
> conflict literals     : 7332539  (2.55344 % deleted)
> Current optimal value 66489 after 10045 ms
|      4669 |   25696    41795    88213 |    82182    27261    371 |
> restarts              : 34
> decisions             : 11029  (0 % random)
> conflicts             : 4672
> propagations          : 1813772
> conflict literals     : 7335977  (2.55324 % deleted)
> Current optimal value 66251 after 10115 ms
|      4672 |   25823    42049    88721 |    82290    27331    370 |
> restarts              : 35
> decisions             : 11107  (0 % random)
> conflicts             : 4678
> propagations          : 1841494
> conflict literals     : 7344005  (2.55267 % deleted)
> Current optimal value 66193 after 10187 ms
|      4678 |   25951    42305    89233 |    82402    27409    370 |
|      4778 |   26213    42829    90281 |    90642    27804    370 |
|      4928 |   26392    43187    90997 |    99706    28311    376 |
|      5153 |   26682    43767    92157 |   109677    29157    379 |
> restarts              : 36
> decisions             : 11970  (0 % random)
> conflicts             : 5407
> propagations          : 2105980
> conflict literals     : 8624742  (2.65725 % deleted)
> Current optimal value 66104 after 11175 ms
|      5407 |   27022    44447    93517 |    84020    30123    386 |
|      5507 |   27254    44911    94445 |    92422    30540    388 |
|      5657 |   27433    45269    95161 |   101665    31054    391 |
|      5883 |   27821    46045    96713 |   111831    31896    394 |
> restarts              : 39
> decisions             : 12833  (0 % random)
> conflicts             : 5994
> propagations          : 2409287
> conflict literals     : 9655910  (2.67168 % deleted)
> Current optimal value 66016 after 12042 ms
|      5994 |   27971    46345    97313 |    85372    32280    397 |
> restarts              : 40
> decisions             : 12908  (0 % random)
> conflicts             : 5999
> propagations          : 2438531
> conflict literals     : 9662532  (2.67103 % deleted)
> Current optimal value 65980 after 12112 ms
|      5999 |   28091    46585    97793 |    85475    32350    396 |
|      6099 |   28327    47057    98737 |    94023    32727    399 |
|      6249 |   28502    47407    99437 |   103425    33262    401 |
|      6475 |   28865    48133   100889 |   113768    34176    405 |
> restarts              : 42
> decisions             : 13570  (0 % random)
> conflicts             : 6479
> propagations          : 2673099
> conflict literals     : 10551508  (2.71022 % deleted)
> Current optimal value 65827 after 12810 ms
|      6479 |   28881    48165   100953 |    86616    34193    405 |
> restarts              : 44
> decisions             : 13757  (0 % random)
> conflicts             : 6521
> propagations          : 2743826
> conflict literals     : 10596904  (2.70736 % deleted)
> Current optimal value 65625 after 12984 ms
|      6521 |   29182    48767   102157 |    86908    34467    404 |
> restarts              : 45
> decisions             : 13838  (0 % random)
> conflicts             : 6528
> propagations          : 2775073
> conflict literals     : 10605245  (2.70743 % deleted)
> Current optimal value 65217 after 13065 ms
|      6528 |   29311    49025   102673 |    87022    34551    404 |
|      6629 |   29664    49731   104085 |    95724    34991    404 |
|      6779 |   29871    50145   104913 |   105297    35720    404 |
|      7004 |   30147    50697   106017 |   115827    36676    406 |
|      7341 |   30527    51457   107537 |   127409    38222    408 |
|      7851 |   31220    52843   110309 |   140150    40925    409 |
|      8614 |   32291    54985   114593 |   154165    44619    412 |
|      9759 |   34060    58523   121669 |   169582    50600    412 |
> restarts              : 62
> decisions             : 19133  (0 % random)
> conflicts             : 10138
> propagations          : 4649186
> conflict literals     : 16830733  (2.7757 % deleted)
> Current optimal value 65077 after 18745 ms
|     10138 |   34465    59333   123289 |    96491    52649    410 |
|     10238 |   34661    59725   124073 |   106140    53057    411 |
|     10388 |   34778    59959   124541 |   116754    53700    411 |
|     10614 |   35098    60599   125821 |   128429    54699    412 |
|     10951 |   35347    61097   126817 |   141272    56353    412 |
|     11457 |   35706    61815   128253 |   155400    58949    408 |
|     12216 |   36252    62907   130437 |   170940    62314    411 |
|     13355 |   36918    64239   133101 |   188034    67592    412 |
|     15071 |   38377    67157   138937 |   206837    76986    407 |
> restarts              : 79
> decisions             : 27219  (0 % random)
> conflicts             : 16426
> propagations          : 8679131
> conflict literals     : 27022209  (2.9517 % deleted)
> Current optimal value 64953 after 28721 ms
|     16426 |   39125    68653   141929 |   109874    83477    411 |
|     16526 |   39290    68983   142589 |   120861    83916    413 |
|     16676 |   39358    69119   142861 |   132947    84478    413 |
|     16901 |   39466    69335   143293 |   146242    85452    414 |
|     17240 |   39758    69919   144461 |   160866    87267    413 |
|     17750 |   40000    70403   145429 |   176953    89586    416 |
|     18513 |   40358    71119   146861 |   194648    92738    421 |
> restarts              : 94
> decisions             : 31576  (0 % random)
> conflicts             : 19434
> propagations          : 11054154
> conflict literals     : 32285216  (3.03248 % deleted)
> Current optimal value 64900 after 33970 ms
|     19434 |   41100    72603   149829 |   116056    98073    415 |
|     19534 |   41251    72905   150433 |   127661    98611    414 |
|     19684 |   41316    73035   150693 |   140427    99231    415 |
> restarts              : 95
> decisions             : 32141  (0 % random)
> conflicts             : 19853
> propagations          : 11347636
> conflict literals     : 32812425  (3.03666 % deleted)
> Current optimal value 64842 after 34670 ms
|     19853 |   41392    73187   150997 |   116923   100092    413 |
|     19953 |   41549    73501   151625 |   128616   100505    414 |
|     20104 |   41704    73811   152245 |   141477   101135    413 |
|     20330 |   41854    74111   152845 |   155625   102011    414 |
|     20670 |   42189    74781   154185 |   171187   103516    414 |
> restarts              : 102
> decisions             : 33925  (0 % random)
> conflicts             : 21061
> propagations          : 12446494
> conflict literals     : 34679634  (3.06597 % deleted)
> Current optimal value 64792 after 36893 ms
|     21061 |   42425    75253   155129 |   119267   105057    415 |
> restarts              : 103
> decisions             : 34057  (0 % random)
> conflicts             : 21108
> propagations          : 12520117
> conflict literals     : 34767057  (3.06666 % deleted)
> Current optimal value 64510 after 37048 ms
|     21108 |   42563    75529   155681 |   119422   105247    415 |
|     21209 |   42827    76057   156737 |   131364   105655    416 |
|     21359 |   42871    76145   156913 |   144501   106216    417 |
|     21586 |   43155    76713   158049 |   158951   107182    418 |
|     21925 |   43390    77183   158989 |   174846   108714    419 |
> restarts              : 109
> decisions             : 35580  (0 % random)
> conflicts             : 22133
> propagations          : 13413886
> conflict literals     : 36590421  (3.08543 % deleted)
> Current optimal value 64036 after 38941 ms
|     22133 |   43453    77309   159241 |   121487   109660    418 |
|     22234 |   43734    77871   160365 |   133635   110128    418 |
|     22385 |   43896    78195   161013 |   146999   110854    419 |
|     22612 |   44198    78799   162221 |   161699   111934    419 |
|     22951 |   44553    79509   163641 |   177869   113575    418 |
|     23459 |   44961    80325   165273 |   195656   116169    416 |
|     24224 |   45851    82105   168833 |   215221   120228    413 |
|     25364 |   46340    83083   170789 |   236743   125901    410 |
|     27074 |   47083    84569   173761 |   260418   134869    402 |
|     29636 |   47778    85959   176541 |   286459   149150    391 |
|     33481 |   48732    87867   180357 |   315105   169151    380 |
> restarts              : 136
> decisions             : 54790  (0 % random)
> conflicts             : 37853
> propagations          : 24279041
> conflict literals     : 56867487  (3.27873 % deleted)
> Current optimal value 63966 after 62144 ms
|     37853 |   50085    90573   185769 |   152915   190681    374 |
> restarts              : 137
> decisions             : 54883  (0 % random)
> conflicts             : 37876
> propagations          : 24346371
> conflict literals     : 56899673  (3.279 % deleted)
> Current optimal value 63849 after 62356 ms
|     37876 |   50197    90797   186217 |   111443    66041    309 |
|     37977 |   50430    91263   187149 |   122587    66578    309 |
|     38129 |   50584    91571   187765 |   134846    67263    310 |
|     38355 |   50756    91915   188453 |   148331    68668    310 |
|     38692 |   50786    91975   188573 |   163164    70600    310 |
|     39199 |   50969    92341   189305 |   179480    73135    312 |
> restarts              : 146
> decisions             : 57712  (0 % random)
> conflicts             : 39803
> propagations          : 26034306
> conflict literals     : 59452773  (3.28786 % deleted)
> Current optimal value 63776 after 65714 ms
|     39803 |   51361    93125   190873 |   115755    76650    309 |
|     39904 |   51592    93587   191797 |   127331    77182    310 |
|     40055 |   51722    93847   192317 |   140064    78038    310 |
|     40281 |   51764    93931   192485 |   154070    79327    311 |
|     40619 |   51942    94287   193197 |   169477    81251    312 |
|     41129 |   52440    95283   195189 |   186425    84704    308 |
|     41891 |   52640    95683   195989 |   205068    89118    307 |
|     43031 |   52891    96185   196993 |   225575    96122    303 |
|     44744 |   53191    96785   198193 |   248132   106571    302 |
|     47316 |   54160    98723   202069 |   272945   123060    300 |
|     51176 |   56101   102605   209833 |   300240   148472    291 |
|     56953 |   57409   105221   215065 |   330264   184458    282 |
|     65637 |   59977   110357   225337 |   363290   236059    285 |
|     78630 |   62044   114491   233605 |   399619   312457    291 |
|     98114 |   65081   120565   245753 |   439581   101571    249 |
> restarts              : 347
> decisions             : 161606  (0 % random)
> conflicts             : 118065
> propagations          : 84653728
> conflict literals     : 156380469  (3.69204 % deleted)
> Current optimal value 63708 after 193828 ms
|    118065 |   73322   137047   278717 |   180412   226699    245 |
|    118165 |   73437   137277   279177 |   198453    74238    273 |
|    118316 |   73539   137481   279585 |   218299    74868    274 |
> restarts              : 349
> decisions             : 162058  (0 % random)
> conflicts             : 118357
> propagations          : 85032009
> conflict literals     : 156813612  (3.69484 % deleted)
> Current optimal value 63579 after 194597 ms
|    118357 |   73546   137495   279613 |   129998    75009    275 |
|    118457 |   73650   137703   280029 |   142998    75444    275 |
|    118607 |   73655   137713   280049 |   157298    76124    276 |
|    118832 |   73662   137727   280077 |   173028    77131    278 |
|    119171 |   73777   137956   280535 |   190331    78901    279 |
|    119681 |   73871   138144   280911 |   209364    81710    279 |
|    120444 |   73942   138286   281195 |   230300    85909    278 |
> restarts              : 364
> decisions             : 166350  (0 % random)
> conflicts             : 121266
> propagations          : 88180143
> conflict literals     : 160670009  (3.70754 % deleted)
> Current optimal value 63431 after 200179 ms
|    121266 |   74057   138516   281655 |   135304    89904    282 |
|    121366 |   74172   138746   282115 |   148834    90410    282 |
|    121518 |   74286   138974   282571 |   163717    91334    283 |
> restarts              : 368
> decisions             : 167118  (0 % random)
> conflicts             : 121692
> propagations          : 88763178
> conflict literals     : 161440718  (3.70923 % deleted)
> Current optimal value 63253 after 201211 ms
|    121692 |   74412   139226   283075 |   136321    92246    285 |
|    121792 |   74533   139468   283559 |   149953    93075    284 |
|    121944 |   74696   139794   284211 |   164948    94038    284 |
|    122170 |   74807   140016   284655 |   181443    95394    284 |
|    122508 |   74929   140260   285143 |   199588    97569    284 |
|    123018 |   74979   140360   285343 |   219546   100494    285 |
|    123780 |   75031   140464   285551 |   241501   105091    286 |
|    124920 |   75209   140820   286263 |   265651   111708    288 |
|    126629 |   75388   141178   286979 |   292216   121159    289 |
|    129191 |   75491   141384   287391 |   321438   136836    285 |
|    133036 |   75818   142038   288699 |   353582   160326    276 |
|    138817 |   77086   144574   293771 |   388940   197300    268 |
|    147503 |   79834   150069   304761 |   427834   278488    244 |
|    160518 |   83677   157755   320133 |   470618   404296    224 |
|    180013 |   86242   162885   330393 |   517680   176707    245 |
|    209207 |   86818   164037   332697 |   569448   365342    248 |
> restarts              : 540
> decisions             : 298962  (0 % random)
> conflicts             : 224057
> propagations          : 165127376
> conflict literals     : 284682920  (4.1681 % deleted)
> Current optimal value 63225 after 382085 ms
|    224057 |   89747   169895   344413 |   267979   456550    253 |
|    224158 |   89959   170319   345261 |   294776    85970    274 |
|    224308 |   89959   170319   345261 |   324254    86638    275 |
|    224533 |   89964   170329   345281 |   356680    87572    277 |
|    224870 |   89971   170343   345309 |   392348    88952    280 |
|    225377 |   90091   170583   345789 |   431582    90974    285 |
|    226136 |   90116   170633   345889 |   474741    94116    289 |
|    227281 |   90719   171839   348301 |   522215    99187    297 |
> restarts              : 557
> decisions             : 305279  (0 % random)
> conflicts             : 228666
> propagations          : 170274753
> conflict literals     : 292017732  (4.18286 % deleted)
> Current optimal value 63168 after 391120 ms
|    228666 |   91550   173501   351625 |   152323   105977    302 |
|    228766 |   91647   173695   352013 |   167555   106434    302 |
> restarts              : 558
> decisions             : 305522  (0 % random)
> conflicts             : 228822
> propagations          : 170497490
> conflict literals     : 292263601  (4.18389 % deleted)
> Current optimal value 63140 after 391479 ms
|    228822 |   91647   173695   352013 |   152609   106642    303 |
|    228923 |   91842   174085   352793 |   167870   107121    304 |
|    229074 |   91844   174089   352801 |   184657   107677    305 |
|    229301 |   91943   174287   353197 |   203123   108709    306 |
|    229640 |   92044   174489   353601 |   223435   110270    307 |
|    230148 |   92255   174911   354445 |   245779   112611    310 |
|    230912 |   92775   175951   356525 |   270357   116205    312 |
> restarts              : 573
> decisions             : 309712  (0 % random)
> conflicts             : 231711
> propagations          : 174077720
> conflict literals     : 296877673  (4.20076 % deleted)
> Current optimal value 63108 after 397442 ms
|    231711 |   92902   176205   357033 |   157763   119593    315 |
|    231811 |   92999   176399   357421 |   173539   120041    316 |
|    231961 |   93000   176401   357425 |   190893   120698    316 |
> restarts              : 575
> decisions             : 310205  (0 % random)
> conflicts             : 232033
> propagations          : 174512948
> conflict literals     : 297426820  (4.20235 % deleted)
> Current optimal value 62994 after 398158 ms
|    232033 |   93103   176607   357837 |   158388   121065    317 |
|    232133 |   93206   176813   358249 |   174226   121497    318 |
|    232283 |   93214   176829   358281 |   191649   122131    319 |
|    232508 |   93219   176839   358301 |   210814   123068    320 |
|    232845 |   93220   176841   358305 |   231895   124548    321 |
|    233351 |   93227   176855   358333 |   255085   126611    324 |
|    234110 |   93241   176883   358389 |   280594   129775    327 |
> restarts              : 576
> decisions             : 313339  (0 % random)
> conflicts             : 234899
> propagations          : 176745127
> conflict literals     : 302339974  (4.22335 % deleted)
> Current optimal value 62988 after 402578 ms
|    234899 |   93251   176903   358429 |   162368   132710    332 |
|    234999 |   93353   177107   358837 |   178605   133144    333 |
|    235149 |   93359   177119   358861 |   196465   133832    333 |
|    235375 |   93470   177341   359305 |   216112   134828    334 |
|    235715 |   93582   177565   359753 |   237723   136400    336 |
|    236223 |   93592   177585   359793 |   261495   138398    339 |
> restarts              : 583
> decisions             : 315263  (0 % random)
> conflicts             : 236253
> propagations          : 178345093
> conflict literals     : 304774609  (4.23478 % deleted)
> Current optimal value 62920 after 405323 ms
|    236253 |   93593   177587   359797 |   164535   138526    339 |
|    236354 |   93777   177955   360533 |   180988   139048    339 |
|    236505 |   93783   177967   360557 |   199087   139665    339 |
|    236732 |   93791   177983   360589 |   218996   140528    341 |
|    237070 |   93801   178003   360629 |   240895   141925    343 |
> restarts              : 589
> decisions             : 316595  (0 % random)
> conflicts             : 237128
> propagations          : 179572488
> conflict literals     : 306382213  (4.24235 % deleted)
> Current optimal value 62918 after 407223 ms
|    237128 |   93802   178005   360633 |   165871   142118    343 |
> restarts              : 590
> decisions             : 316678  (0 % random)
> conflicts             : 237140
> propagations          : 179675116
> conflict literals     : 306409659  (4.24252 % deleted)
> Current optimal value 62679 after 407355 ms
|    237140 |   93891   178183   360989 |   165962   142212    343 |
|    237240 |   93994   178389   361401 |   182558   142661    343 |
|    237391 |   94097   178595   361813 |   200814   143369    344 |
|    237618 |   94294   178989   362601 |   220895   144482    344 |
|    237957 |   94487   179375   363373 |   242985   145971    344 |
|    238465 |   94590   179581   363785 |   267283   148494    344 |
|    239230 |   95091   180583   365789 |   294012   152625    345 |
> restarts              : 605
> decisions             : 320434  (0 % random)
> conflicts             : 239639
> propagations          : 182854530
> conflict literals     : 310182357  (4.258 % deleted)
> Current optimal value 62668 after 412930 ms
|    239639 |   95194   180789   366201 |   170977   154651    345 |
> restarts              : 606
> decisions             : 320542  (0 % random)
> conflicts             : 239679
> propagations          : 182972793
> conflict literals     : 310231426  (4.25815 % deleted)
> Current optimal value 62545 after 413095 ms
|    239679 |   95296   180993   366609 |   171101   154818    345 |
|    239779 |   95394   181189   367001 |   188211   155224    345 |
|    239929 |   95403   181207   367037 |   207032   155820    346 |
|    240154 |   95413   181227   367077 |   227735   156871    345 |
|    240492 |   95513   181427   367477 |   250508   158702    345 |
|    241002 |   95912   182225   369073 |   275559   161230    346 |
> restarts              : 613
> decisions             : 322894  (0 % random)
> conflicts             : 241360
> propagations          : 184808662
> conflict literals     : 312730054  (4.26431 % deleted)
> Current optimal value 62516 after 416487 ms
|    241360 |   96021   182443   369509 |   174163   162554    347 |
|    241460 |   96115   182631   369885 |   191579   162922    348 |
|    241612 |   96303   183007   370637 |   210737   163652    348 |
|    241838 |   96408   183217   371057 |   231810   164571    348 |
|    242177 |   96619   183639   371901 |   254992   166033    349 |
|    242685 |   96804   184009   372641 |   280491   168262    350 |
> restarts              : 621
> decisions             : 325304  (0 % random)
> conflicts             : 243051
> propagations          : 186843914
> conflict literals     : 315333296  (4.27069 % deleted)
> Current optimal value 62506 after 419949 ms
|    243051 |   96825   184051   372725 |   177084   169709    351 |
> restarts              : 622
> decisions             : 325382  (0 % random)
> conflicts             : 243057
> propagations          : 186946055
> conflict literals     : 315343712  (4.27079 % deleted)
> Current optimal value 62380 after 420076 ms
|    243057 |   96925   184251   373125 |   177177   169789    351 |
|    243157 |   97030   184461   373545 |   194895   170225    351 |
|    243307 |   97036   184473   373569 |   214384   170746    352 |
|    243533 |   97148   184697   374017 |   235823   171600    352 |
|    243873 |   97442   185285   375193 |   259405   173154    354 |
|    244380 |   97565   185531   375685 |   285345   174913    357 |
|    245145 |   98221   186843   378309 |   313880   177839    362 |
> restarts              : 636
> decisions             : 329523  (0 % random)
> conflicts             : 245997
> propagations          : 190466556
> conflict literals     : 320880783  (4.28448 % deleted)
> Current optimal value 62211 after 426190 ms
|    245997 |   98429   187259   379141 |   181948   181095    365 |
> restarts              : 637
> decisions             : 329624  (0 % random)
> conflicts             : 246026
> propagations          : 190583324
> conflict literals     : 320920985  (4.28445 % deleted)
> Current optimal value 62031 after 426352 ms
|    246026 |   98528   187457   379537 |   182069   181259    365 |
|    246126 |   98629   187659   379941 |   200276   181649    365 |
|    246276 |   98640   187681   379985 |   220303   182275    365 |
|    246502 |   98743   187887   380397 |   242334   183250    366 |
|    246839 |   98757   187915   380453 |   266567   184995    366 |
|    247345 |   98768   187937   380497 |   293224   187993    365 |
|    248104 |   98795   187991   380605 |   322546   191285    366 |
|    249243 |   98831   188063   380749 |   354801   196751    368 |
|    250951 |   98895   188191   381005 |   390281   205725    367 |
|    253519 |   99355   189111   382845 |   429309   219688    365 |
|    257381 |  100610   191621   387865 |   472240   239150    368 |
> restarts              : 667
> decisions             : 344700  (0 % random)
> conflicts             : 257905
> propagations          : 201666551
> conflict literals     : 338856613  (4.33437 % deleted)
> Current optimal value 61908 after 449016 ms
|    257905 |  100997   192395   389413 |   203922   241881    367 |
|    258006 |  101184   192769   390161 |   224314    68740    376 |
> restarts              : 669
> decisions             : 344950  (0 % random)
> conflicts             : 258009
> propagations          : 201935388
> conflict literals     : 339034125  (4.33502 % deleted)
> Current optimal value 61755 after 449485 ms
|    258009 |  101184   192769   390161 |   146336    68749    376 |
|    258109 |  101282   192965   390553 |   160970    69220    377 |
|    258259 |  101285   192971   390565 |   177067    69912    377 |
|    258484 |  101292   192985   390593 |   194774    71350    375 |
|    258822 |  101400   193201   391025 |   214251    73436    370 |
|    259332 |  101418   193237   391097 |   235676    76175    371 |
|    260094 |  101725   193851   392325 |   259244    80310    370 |
> restarts              : 685
> decisions             : 349624  (0 % random)
> conflicts             : 261236
> propagations          : 205638346
> conflict literals     : 344095205  (4.3442 % deleted)
> Current optimal value 61607 after 456524 ms
|    261236 |  102415   195231   395085 |   153197    86868    371 |
|    261336 |  102505   195411   395445 |   168516    87364    371 |
|    261486 |  102511   195423   395469 |   185368    88010    372 |
|    261711 |  102515   195431   395485 |   203905    89179    372 |
|    262049 |  102614   195629   395881 |   224295    91103    371 |
|    262559 |  102624   195649   395921 |   246725    94172    367 |
|    263322 |  102974   196349   397321 |   271397    98379    367 |
|    264466 |  103186   196773   398169 |   298537   105230    361 |
|    266175 |  103308   197017   398657 |   328391   115505    355 |
|    268738 |  103481   197363   399349 |   361230   130617    341 |
|    272597 |  104867   200135   404893 |   397353   153771    329 |
|    278383 |  105737   201875   408373 |   437088   186338    327 |
|    287060 |  107466   205333   415289 |   480797   244668    311 |
|    300036 |  107946   206293   417209 |   528877   340483    281 |
|    319544 |  111458   213317   431257 |   581765   486658    257 |
