Starting solving at 273 ms
>>> Search start
> Conflicts |          ORIGINAL         |          LEARNT          | Progress
>           |    Vars  Clauses Literals |    Limit  Clauses Lit/Cl |         
|         0 |    4466     4757    11726 |    26764        1      2 |
>>> Initializing inductive definition 787
> Number of rules : 2256.
> Number of recursive atoms in positive loops : 2209.
> restarts              : 1
> decisions             : 159  (0 % random)
> conflicts             : 8
> propagations          : 6060
> conflict literals     : 2261  (0.1766 % deleted)
> Current optimal value 6265 after 323 ms
|         8 |    4735     5000    12115 |    26727      238   1106 |
> restarts              : 2
> decisions             : 1235  (0 % random)
> conflicts             : 12
> propagations          : 12003
> conflict literals     : 3018  (0.363156 % deleted)
> Current optimal value 6224 after 472 ms
|        12 |    5858     7245    16605 |    27494      294    910 |
> restarts              : 3
> decisions             : 1288  (0 % random)
> conflicts             : 16
> propagations          : 18066
> conflict literals     : 4705  (1.2799 % deleted)
> Current optimal value 6059 after 490 ms
|        16 |    5962     7453    17021 |    27583      353    783 |
> restarts              : 4
> decisions             : 1367  (0 % random)
> conflicts             : 43
> propagations          : 24902
> conflict literals     : 24107  (2.1115 % deleted)
> Current optimal value 6029 after 512 ms
|        43 |    6087     7703    17521 |    27706      472    640 |
|       144 |    6443     8415    18945 |    30476     1036    381 |
> restarts              : 7
> decisions             : 1808  (0 % random)
> conflicts             : 272
> propagations          : 56651
> conflict literals     : 174368  (2.76263 % deleted)
> Current optimal value 5991 after 629 ms
|       272 |    6823     9175    20465 |    28687     1942    271 |
|       372 |    7041     9611    21337 |    31555     2442    267 |
|       524 |    7399    10327    22769 |    34711     3361    254 |
|       750 |    7868    11265    24645 |    38182     5244    203 |
|      1090 |    8450    12429    26973 |    42000     7722    180 |
> restarts              : 15
> decisions             : 3661  (0 % random)
> conflicts             : 1450
> propagations          : 221224
> conflict literals     : 990698  (2.97766 % deleted)
> Current optimal value 5949 after 1160 ms
|      1450 |    8897    13323    28761 |    32967    10635    162 |
|      1550 |    9095    13719    29553 |    36264    11564    159 |
|      1702 |    9376    14281    30677 |    39890    12628    156 |
|      1928 |    9586    14701    31517 |    43879    14656    151 |
|      2268 |   10131    15791    33697 |    48267    17622    145 |
|      2775 |   10479    16487    35089 |    53094    22379    133 |
> restarts              : 26
> decisions             : 6468  (0 % random)
> conflicts             : 3133
> propagations          : 497380
> conflict literals     : 2003950  (3.17047 % deleted)
> Current optimal value 5946 after 2005 ms
|      3133 |   10784    17097    36309 |    39143    25389    133 |
> restarts              : 27
> decisions             : 6547  (0 % random)
> conflicts             : 3157
> propagations          : 510994
> conflict literals     : 2021478  (3.1727 % deleted)
> Current optimal value 5928 after 2032 ms
|      3157 |   10868    17265    36645 |    39248    25537    133 |
|      3258 |   11043    17615    37345 |    43173    26350    133 |
|      3409 |   11134    17797    37709 |    47490    27764    132 |
|      3634 |   11250    18029    38173 |    52239    29579    131 |
> restarts              : 31
> decisions             : 7789  (0 % random)
> conflicts             : 3959
> propagations          : 637082
> conflict literals     : 2576112  (3.23084 % deleted)
> Current optimal value 5921 after 2426 ms
|      3959 |   11467    18463    39041 |    41718    31747    133 |
|      4059 |   11583    18695    39505 |    45889    32449    133 |
|      4209 |   11641    18811    39737 |    50478    33650    134 |
|      4434 |   11706    18941    39997 |    55526    35288    133 |
> restarts              : 34
> decisions             : 8938  (0 % random)
> conflicts             : 4733
> propagations          : 750967
> conflict literals     : 3023052  (3.29421 % deleted)
> Current optimal value 5843 after 2773 ms
|      4733 |   11903    19335    40785 |    43997    37712    131 |
|      4834 |   12076    19681    41477 |    48396    38562    131 |
|      4985 |   12148    19825    41765 |    53236    39807    130 |
> restarts              : 38
> decisions             : 9584  (0 % random)
> conflicts             : 5062
> propagations          : 828650
> conflict literals     : 3197092  (3.2992 % deleted)
> Current optimal value 5732 after 2964 ms
|      5062 |   12179    19887    41889 |    45000    40170    130 |
|      5162 |   12286    20101    42317 |    49500    40929    130 |
|      5314 |   12409    20347    42809 |    54450    42152    129 |
|      5540 |   12501    20531    43177 |    59895    44380    127 |
|      5880 |   12689    20907    43929 |    65884    47086    126 |
|      6387 |   12834    21197    44509 |    72473    51210    124 |
|      7147 |   13102    21733    45581 |    79720    58016    122 |
> restarts              : 50
> decisions             : 13350  (0 % random)
> conflicts             : 7474
> propagations          : 1211972
> conflict literals     : 4508390  (3.46519 % deleted)
> Current optimal value 5729 after 4108 ms
|      7474 |   13333    22195    46505 |    52676    60890    122 |
> restarts              : 51
> decisions             : 13511  (0 % random)
> conflicts             : 7559
> propagations          : 1232929
> conflict literals     : 4550200  (3.46941 % deleted)
> Current optimal value 5724 after 4177 ms
|      7559 |   13406    22341    46797 |    42776    31044    121 |
|      7660 |   13558    22645    47405 |    47053    31811    120 |
|      7811 |   13594    22717    47549 |    51759    33230    118 |
|      8036 |   13667    22863    47841 |    56935    35395    116 |
|      8375 |   13760    23049    48213 |    62628    38640    116 |
|      8885 |   13886    23301    48717 |    68891    44201    112 |
|      9646 |   14131    23791    49697 |    75780    50521    111 |
|     10786 |   14378    24285    50685 |    83358    61376    108 |
|     12495 |   14760    25049    52213 |    91694    80264    102 |
> restarts              : 64
> decisions             : 24048  (0 % random)
> conflicts             : 14504
> propagations          : 2148993
> conflict literals     : 7748195  (3.66469 % deleted)
> Current optimal value 5711 after 7427 ms
|     14504 |   15048    25625    53365 |    67168   100937     98 |
|     14604 |   15119    25767    53649 |    73885    51023     91 |
|     14754 |   15132    25793    53701 |    81274    51872     92 |
|     14979 |   15166    25861    53837 |    89401    54147     92 |
|     15319 |   15271    26071    54257 |    98341    56795     94 |
|     15828 |   15378    26285    54685 |   108175    60202     95 |
|     16591 |   15673    26875    55865 |   118993    66726     96 |
> restarts              : 78
> decisions             : 28425  (0 % random)
> conflicts             : 17236
> propagations          : 2667687
> conflict literals     : 9265418  (3.76752 % deleted)
> Current optimal value 5703 after 8829 ms
|     17236 |   15915    27359    56833 |    58251    72451     96 |
> restarts              : 79
> decisions             : 28483  (0 % random)
> conflicts             : 17244
> propagations          : 2684826
> conflict literals     : 9271633  (3.76885 % deleted)
> Current optimal value 5687 after 8875 ms
|     17244 |   15982    27493    57101 |    46243    36292    106 |
|     17345 |   16106    27741    57597 |    50867    36804    107 |
|     17496 |   16108    27745    57605 |    55954    37626    108 |
|     17723 |   16115    27759    57633 |    61549    39077    110 |
|     18062 |   16196    27921    57957 |    67704    41713    111 |
|     18570 |   16203    27935    57985 |    74474    46419    109 |
|     19334 |   16286    28101    58317 |    81922    55574    104 |
|     20475 |   16369    28267    58649 |    90114    67366    104 |
|     22185 |   16595    28719    59553 |    99125    85197    102 |
|     24760 |   17437    30403    62921 |   109038    58117    102 |
|     28620 |   18655    32839    67793 |   119942   111476     89 |
> restarts              : 127
> decisions             : 52058  (0 % random)
> conflicts             : 32870
> propagations          : 5263503
> conflict literals     : 16824570  (4.149 % deleted)
> Current optimal value 5602 after 17209 ms
|     32870 |   18974    33477    69069 |    68233    96279     75 |
> restarts              : 128
> decisions             : 52209  (0 % random)
> conflicts             : 32948
> propagations          : 5291350
> conflict literals     : 16863966  (4.1505 % deleted)
> Current optimal value 5586 after 17287 ms
|     32948 |   19036    33601    69317 |    52432    48751     79 |
|     33048 |   19094    33717    69549 |    57675    49619     79 |
|     33198 |   19097    33723    69561 |    63442    50962     79 |
|     33425 |   19206    33941    69997 |    69786    53059     79 |
|     33765 |   19272    34073    70261 |    76765    56901     79 |
|     34272 |   19355    34239    70593 |    84442    62554     80 |
|     35037 |   19367    34263    70641 |    92886    70442     82 |
|     36178 |   19405    34339    70793 |   102175    84273     81 |
|     37896 |   19706    34941    71997 |   112392    56574     85 |
|     40464 |   19850    35229    72573 |   123631    91731     82 |
|     44324 |   20614    36757    75629 |   135995    79612     81 |
|     50106 |   20991    37511    77137 |   149594   145861     81 |
|     58786 |   21735    38999    80113 |   164554    85239     86 |
> restarts              : 241
> decisions             : 99412  (0 % random)
> conflicts             : 63924
> propagations          : 11271644
> conflict literals     : 31677006  (4.55375 % deleted)
> Current optimal value 5572 after 34801 ms
|     63924 |   21900    39329    80773 |    84144   138161     90 |
|     64025 |   22010    39549    81213 |    92559    69654     94 |
|     64175 |   22010    39549    81213 |   101815    70826     94 |
|     64401 |   22012    39553    81221 |   111996    72705     95 |
|     64740 |   22017    39563    81241 |   123196    75741     95 |
|     65250 |   22206    39941    81997 |   135515    80427     95 |
|     66011 |   22316    40161    82437 |   149067    89261     94 |
|     67151 |   22321    40171    82457 |   163974   100816     94 |
> restarts              : 253
> decisions             : 104394  (0 % random)
> conflicts             : 67433
> propagations          : 11986843
> conflict literals     : 33517077  (4.64228 % deleted)
> Current optimal value 5565 after 36799 ms
|     67433 |   22321    40171    82457 |    72906   103603     94 |
|     67533 |   22363    40255    82625 |    80196    52635    104 |
|     67683 |   22364    40257    82629 |    88216    53943    104 |
|     67908 |   22365    40259    82633 |    97037    56052    105 |
|     68246 |   22415    40359    82833 |   106741    58847    107 |
|     68752 |   22427    40383    82881 |   117415    64440    107 |
|     69511 |   22431    40391    82897 |   129157    71763    106 |
|     70650 |   22462    40453    83021 |   142073    85126    105 |
|     72358 |   22476    40481    83077 |   156280   102506    105 |
|     74921 |   22552    40633    83381 |   171908   129733    107 |
|     78765 |   22642    40813    83741 |   189099   178519    101 |
|     84531 |   22716    40961    84037 |   208009   145815     87 |
> restarts              : 263
> decisions             : 133369  (0 % random)
> conflicts             : 88495
> propagations          : 14931972
> conflict literals     : 44775798  (4.99387 % deleted)
> Current optimal value 5544 after 48201 ms
|     88495 |   22902    41333    84781 |   103465   194118     85 |
|     88595 |   22950    41429    84973 |   113811    97784     77 |
|     88747 |   22998    41525    85165 |   125192    98994     78 |
|     88973 |   23049    41627    85369 |   137711   100767     78 |
|     89313 |   23168    41865    85845 |   151483   102992     80 |
|     89820 |   23209    41947    86009 |   166631   106681     81 |
|     90580 |   23256    42041    86197 |   183294   113633     82 |
|     91726 |   23269    42067    86249 |   201624   125768     82 |
> restarts              : 285
> decisions             : 139749  (0 % random)
> conflicts             : 92526
> propagations          : 15938674
> conflict literals     : 46800191  (5.02385 % deleted)
> Current optimal value 5487 after 50692 ms
|     92526 |   23370    42269    86653 |    83049   131935     83 |
> restarts              : 286
> decisions             : 139806  (0 % random)
> conflicts             : 92533
> propagations          : 15963182
> conflict literals     : 46811557  (5.02353 % deleted)
> Current optimal value 5438 after 50755 ms
|     92533 |   23420    42369    86853 |    61113    66026     94 |
|     92633 |   23464    42457    87029 |    67224    33826    105 |
|     92783 |   23464    42457    87029 |    73946    35175    105 |
|     93010 |   23562    42653    87421 |    81341    37139    105 |
|     93349 |   23659    42847    87809 |    89475    40254    104 |
|     93858 |   23758    43045    88205 |    98423    44469    104 |
|     94622 |   23956    43441    88997 |   108265    51718    103 |
> restarts              : 302
> decisions             : 144591  (0 % random)
> conflicts             : 95649
> propagations          : 16742716
> conflict literals     : 48522893  (5.05802 % deleted)
> Current optimal value 5381 after 52629 ms
|     95649 |   24066    43661    89437 |    60139    61814    103 |
|     95749 |   24118    43765    89645 |    66153    31691    107 |
|     95899 |   24121    43771    89657 |    72768    33445    107 |
|     96125 |   24163    43855    89825 |    80045    35814    107 |
|     96464 |   24169    43867    89849 |    88050    39846    105 |
|     96973 |   24174    43877    89869 |    96855    44557    104 |
|     97737 |   24244    44017    90149 |   106541    53964    101 |
|     98879 |   24386    44301    90717 |   117195    70186     97 |
|    100588 |   24497    44523    91161 |   128914    93318     93 |
> restarts              : 319
> decisions             : 155941  (0 % random)
> conflicts             : 102992
> propagations          : 18025875
> conflict literals     : 52327798  (5.0862 % deleted)
> Current optimal value 5360 after 56937 ms
|    102992 |   24598    44725    91565 |    80688   122397     91 |
|    103092 |   24642    44813    91741 |    88757    62196     85 |
|    103242 |   24642    44813    91741 |    97633    63677     86 |
|    103467 |   24642    44813    91741 |   107396    65446     87 |
|    103804 |   24647    44823    91761 |   118136    70717     85 |
|    104313 |   24786    45101    92317 |   129949    78101     85 |
|    105075 |   24924    45377    92869 |   142944    86569     85 |
|    106221 |   25250    46029    94173 |   157239   102046     83 |
|    107937 |   25391    46311    94737 |   172963   121953     84 |
|    110508 |   25553    46635    95385 |   190259   155027     84 |
> restarts              : 363
> decisions             : 173742  (0 % random)
> conflicts             : 113875
> propagations          : 20309209
> conflict literals     : 57834628  (5.14702 % deleted)
> Current optimal value 5333 after 63740 ms
|    113875 |   25672    46873    95861 |    73521    98747     85 |
|    113976 |   25759    47047    96209 |    80873    50172     86 |
|    114126 |   25759    47047    96209 |    88960    51273     86 |
|    114351 |   25759    47047    96209 |    97856    53601     86 |
|    114688 |   25760    47049    96213 |   107642    57462     86 |
|    115198 |   25817    47163    96441 |   118406    62680     87 |
|    115961 |   26005    47539    97193 |   130247    71204     86 |
|    117107 |   26065    47659    97433 |   143272    86112     85 |
|    118816 |   26120    47769    97653 |   157599   104810     86 |
|    121379 |   26193    47915    97945 |   173359   137889     82 |
> restarts              : 383
> decisions             : 190584  (0 % random)
> conflicts             : 124800
> propagations          : 21967554
> conflict literals     : 62645722  (5.19325 % deleted)
> Current optimal value 5324 after 69737 ms
|    124800 |   26219    47967    98049 |   101801   182494     80 |
|    124900 |   26266    48061    98237 |   111981    92390     76 |
|    125050 |   26266    48061    98237 |   123180    94004     76 |
> restarts              : 384
> decisions             : 190995  (0 % random)
> conflicts             : 125069
> propagations          : 22025108
> conflict literals     : 62745158  (5.19529 % deleted)
> Current optimal value 5284 after 69942 ms
|    125069 |   26266    48061    98237 |    72381    94138     76 |
|    125169 |   26309    48147    98409 |    79619    48497     76 |
|    125319 |   26310    48149    98413 |    87581    50534     76 |
|    125544 |   26311    48151    98417 |    96339    54049     76 |
|    125881 |   26312    48153    98421 |   105973    57740     76 |
|    126387 |   26313    48155    98425 |   116570    63359     77 |
|    127146 |   26315    48159    98433 |   128227    71795     78 |
|    128285 |   26318    48165    98445 |   141050    86899     77 |
|    129998 |   26543    48615    99345 |   155155   104870     78 |
> restarts              : 397
> decisions             : 200350  (0 % random)
> conflicts             : 131072
> propagations          : 22984101
> conflict literals     : 65287832  (5.22719 % deleted)
> Current optimal value 5269 after 73096 ms
|    131072 |   26754    49037   100189 |    79450   114370     79 |
|    131172 |   26791    49111   100337 |    87395    57732     82 |
|    131323 |   26828    49185   100485 |    96134    58937     82 |
|    131550 |   26829    49187   100489 |   105748    60620     83 |
|    131889 |   26919    49367   100849 |   116323    63080     84 |
> restarts              : 405
> decisions             : 202243  (0 % random)
> conflicts             : 132268
> propagations          : 23325285
> conflict literals     : 65770748  (5.23495 % deleted)
> Current optimal value 5263 after 73820 ms
|    132268 |   27007    49543   101201 |    63688    66578     83 |
|    132368 |   27047    49623   101361 |    70057    33869     91 |
|    132519 |   27086    49701   101517 |    77062    34716     92 |
|    132745 |   27129    49787   101689 |    84769    35792     96 |
|    133085 |   27172    49873   101861 |    93246    37588     99 |
|    133592 |   27175    49879   101873 |   102570    41408     99 |
> restarts              : 413
> decisions             : 204580  (0 % random)
> conflicts             : 133882
> propagations          : 23726521
> conflict literals     : 66706297  (5.24545 % deleted)
> Current optimal value 5247 after 74653 ms
|    133882 |   27177    49883   101881 |    55897    42865    101 |
> restarts              : 414
> decisions             : 204639  (0 % random)
> conflicts             : 133896
> propagations          : 23755369
> conflict literals     : 66717999  (5.24552 % deleted)
> Current optimal value 5237 after 74686 ms
|    133896 |   27220    49969   102053 |    55951    42941    102 |
|    133996 |   27256    50041   102197 |    61546    43391    102 |
|    134146 |   27256    50041   102197 |    67701    44843    102 |
|    134371 |   27258    50045   102205 |    74471    46480    102 |
|    134711 |   27390    50309   102733 |    81918    48920    103 |
|    135220 |   27509    50547   103209 |    90110    52342    105 |
|    135983 |   27660    50849   103813 |    99121    58755    105 |
|    137126 |   27834    51197   104509 |   109033    66981    112 |
|    138843 |   28022    51573   105261 |   119936    82037    114 |
> restarts              : 442
> decisions             : 213133  (0 % random)
> conflicts             : 139426
> propagations          : 25158404
> conflict literals     : 70320200  (5.30105 % deleted)
> Current optimal value 5228 after 77929 ms
|    139426 |   28025    51579   105273 |    71224    87150    114 |
|    139527 |   28102    51733   105581 |    78346    44060    128 |
|    139677 |   28102    51733   105581 |    86181    44964    128 |
|    139902 |   28102    51733   105581 |    94799    46232    129 |
|    140239 |   28104    51737   105589 |   104279    50031    126 |
|    140746 |   28109    51747   105609 |   114707    56668    121 |
|    141505 |   28116    51761   105637 |   126178    65569    116 |
|    142645 |   28162    51853   105821 |   138796    74871    120 |
|    144353 |   28165    51859   105833 |   152675    94729    113 |
> restarts              : 446
> decisions             : 220446  (0 % random)
> conflicts             : 144882
> propagations          : 25949233
> conflict literals     : 73619233  (5.33801 % deleted)
> Current optimal value 5218 after 80821 ms
|    144882 |   28169    51867   105849 |    75697   100280    113 |
> restarts              : 447
> decisions             : 220500  (0 % random)
> conflicts             : 144887
> propagations          : 25977982
> conflict literals     : 73622278  (5.33818 % deleted)
> Current optimal value 5204 after 80880 ms
|    144887 |   28215    51959   106033 |    59032    50193    102 |
|    144987 |   28252    52033   106181 |    64935    50915    102 |
|    145138 |   28288    52105   106325 |    71428    52338    101 |
|    145364 |   28326    52181   106477 |    78571    54385    100 |
|    145704 |   28442    52413   106941 |    86428    57657    100 |
> restarts              : 453
> decisions             : 222240  (0 % random)
> conflicts             : 146010
> propagations          : 26269351
> conflict literals     : 74111431  (5.34395 % deleted)
> Current optimal value 5194 after 81575 ms
|    146010 |   28442    52413   106941 |    62742    60869     99 |
> restarts              : 454
> decisions             : 222292  (0 % random)
> conflicts             : 146013
> propagations          : 26297980
> conflict literals     : 74112903  (5.34387 % deleted)
> Current optimal value 5176 after 81605 ms
|    146013 |   28483    52495   107105 |    62784    60913     99 |
> restarts              : 455
> decisions             : 222352  (0 % random)
> conflicts             : 146023
> propagations          : 26327383
> conflict literals     : 74118753  (5.3441 % deleted)
> Current optimal value 5110 after 81638 ms
|    146023 |   28524    52577   107269 |    62838    60994     99 |
|    146124 |   28605    52739   107593 |    69122    61985    100 |
|    146275 |   28607    52743   107601 |    76034    63827     99 |
|    146502 |   28608    52745   107605 |    83637    66452     99 |
|    146839 |   28616    52761   107637 |    92001    71415     97 |
|    147346 |   28665    52859   107833 |   101201    78727     95 |
|    148109 |   28798    53125   108365 |   111321    88709     93 |
|    149254 |   28956    53441   108997 |   122454   102332     92 |
|    150968 |   29001    53531   109177 |   134699    62653     82 |
|    153537 |   29053    53635   109385 |   148169    94235     82 |
> restarts              : 491
> decisions             : 236585  (0 % random)
> conflicts             : 154826
> propagations          : 28311055
> conflict literals     : 78506119  (5.40351 % deleted)
> Current optimal value 5060 after 87238 ms
|    154826 |   29100    53729   109573 |    80582   113074     81 |
|    154927 |   29180    53889   109893 |    88640    57160     81 |
|    155078 |   29213    53955   110025 |    97504    58223     81 |
|    155305 |   29252    54033   110181 |   107255    60128     82 |
> restarts              : 498
> decisions             : 237858  (0 % random)
> conflicts             : 155525
> propagations          : 28582329
> conflict literals     : 78829284  (5.40976 % deleted)
> Current optimal value 5038 after 87724 ms
|    155525 |   29297    54123   110361 |    63882    62580     82 |
|    155625 |   29334    54197   110509 |    70270    63334     82 |
|    155776 |   29372    54273   110661 |    77297    65088     82 |
> restarts              : 501
> decisions             : 238509  (0 % random)
> conflicts             : 155878
> propagations          : 28699985
> conflict literals     : 78982930  (5.41332 % deleted)
> Current optimal value 5010 after 87964 ms
|    155878 |   29373    54275   110665 |    65048    65927     82 |
|    155979 |   29452    54433   110981 |    71553    33816     83 |
|    156131 |   29453    54435   110985 |    78708    35737     82 |
|    156357 |   29453    54435   110985 |    86579    37945     83 |
|    156694 |   29454    54437   110989 |    95237    43544     80 |
|    157201 |   29491    54511   111137 |   104761    50523     79 |
> restarts              : 507
> decisions             : 240941  (0 % random)
> conflicts             : 157333
> propagations          : 29012473
> conflict literals     : 79555377  (5.41988 % deleted)
> Current optimal value 4968 after 88852 ms
|    157333 |   29491    54511   111137 |    60338    51559     79 |
> restarts              : 508
> decisions             : 241061  (0 % random)
> conflicts             : 157383
> propagations          : 29045781
> conflict literals     : 79589908  (5.41983 % deleted)
> Current optimal value 4946 after 88901 ms
|    157383 |   29528    54585   111285 |    60487    51932     80 |
|    157483 |   29571    54671   111457 |    66535    53010     80 |
|    157634 |   29613    54755   111625 |    73189    54872     80 |
|    157859 |   29615    54759   111633 |    80508    57843     80 |
|    158196 |   29615    54759   111633 |    88559    63354     78 |
|    158702 |   29618    54765   111645 |    97414    68932     78 |
|    159461 |   29623    54775   111665 |   107156    77709     79 |
|    160600 |   29640    54809   111733 |   117872    99231     76 |
|    162308 |   29652    54833   111781 |   129659   131662     74 |
|    164871 |   29769    55067   112249 |   142625   104712     63 |
|    168715 |   29826    55181   112477 |   156887    93014     60 |
> restarts              : 511
> decisions             : 268511  (0 % random)
> conflicts             : 174394
> propagations          : 30987564
> conflict literals     : 86948127  (5.48296 % deleted)
> Current optimal value 4933 after 99490 ms
|    174394 |   29977    55483   113081 |    78302   104479     72 |
|    174494 |   30019    55567   113249 |    86132    53076     76 |
|    174644 |   30019    55567   113249 |    94745    54410     77 |
> restarts              : 512
> decisions             : 269094  (0 % random)
> conflicts             : 174788
> propagations          : 31052888
> conflict literals     : 87162334  (5.48542 % deleted)
> Current optimal value 4909 after 99704 ms
|    174788 |   30019    55567   113249 |    61942    55317     77 |
|    174888 |   30063    55655   113425 |    68136    56127     78 |
|    175038 |   30063    55655   113425 |    74950    57942     78 |
|    175263 |   30063    55655   113425 |    82445    60490     79 |
|    175600 |   30063    55655   113425 |    90690    64264     80 |
|    176106 |   30063    55655   113425 |    99759    69771     80 |
> restarts              : 513
> decisions             : 271197  (0 % random)
> conflicts             : 176209
> propagations          : 31217781
> conflict literals     : 87900110  (5.48276 % deleted)
> Current optimal value 4895 after 100384 ms
|    176209 |   30063    55655   113425 |    67050    70551     80 |
|    176309 |   30100    55729   113573 |    73755    36070     89 |
|    176459 |   30100    55729   113573 |    81130    37702     89 |
|    176684 |   30100    55729   113573 |    89243    40028     90 |
|    177024 |   30220    55969   114053 |    98167    43953     89 |
|    177532 |   30254    56037   114189 |   107984    48265     90 |
> restarts              : 519
> decisions             : 273431  (0 % random)
> conflicts             : 177579
> propagations          : 31519981
> conflict literals     : 88570209  (5.48809 % deleted)
> Current optimal value 4858 after 101158 ms
|    177579 |   30254    56037   114189 |    59845    48556     90 |
|    177679 |   30287    56103   114321 |    65830    49446     90 |
|    177831 |   30323    56175   114465 |    72413    50778     90 |
|    178057 |   30323    56175   114465 |    79654    53822     89 |
|    178396 |   30407    56343   114801 |    87620    58397     88 |
|    178904 |   30481    56491   115097 |    96382    65625     88 |
|    179664 |   30523    56575   115265 |   106020    79133     85 |
> restarts              : 534
> decisions             : 279156  (0 % random)
> conflicts             : 180770
> propagations          : 32276853
> conflict literals     : 90145376  (5.49867 % deleted)
> Current optimal value 4845 after 103234 ms
|    180770 |   30733    56995   116105 |    75315    94007     84 |
|    180871 |   30805    57139   116393 |    82846    47528     79 |
|    181022 |   30805    57139   116393 |    91131    49108     79 |
|    181249 |   30845    57219   116553 |   100244    51823     79 |
|    181588 |   30845    57219   116553 |   110269    56547     80 |
|    182095 |   30882    57293   116701 |   121296    66363     77 |
|    182855 |   30891    57311   116737 |   133425    80005     75 |
|    183994 |   30914    57357   116829 |   146768   101944     72 |
|    185712 |   31149    57827   117769 |   161445   126474     73 |
|    188285 |   31535    58599   119313 |   177589   107615     60 |
|    192139 |   31956    59441   120997 |   195348   207721     57 |
|    197921 |   32182    59893   121901 |   214883   193518     62 |
|    206601 |   32735    60999   124113 |   236371   153807     60 |
|    219593 |   33505    62539   127193 |   260008   171715     64 |
> restarts              : 656
> decisions             : 356722  (0 % random)
> conflicts             : 224418
> propagations          : 40989178
> conflict literals     : 109862905  (5.6802 % deleted)
> Current optimal value 4812 after 134389 ms
|    224418 |   34158    63845   129805 |   132399   258408     67 |
|    224519 |   34224    63977   130069 |   145638   130406     70 |
|    224670 |   34257    64043   130201 |   160202   132363     70 |
|    224896 |   34293    64115   130345 |   176223   135039     70 |
|    225234 |   34331    64191   130497 |   193845   140153     71 |
|    225744 |   34471    64471   131057 |   213229   146854     72 |
|    226507 |   34577    64683   131481 |   234552   156556     73 |
|    227647 |   34613    64755   131625 |   258008   175244     73 |
|    229359 |   34746    65021   132157 |   283809   207526     72 |
|    231932 |   34861    65251   132617 |   312189   249348     73 |
|    235792 |   35016    65561   133237 |   343408   318992     72 |
|    241569 |   35460    66449   135013 |   377749   250277     68 |
|    250253 |   36026    67581   137277 |   415524   216394     65 |
|    263246 |   36360    68249   138613 |   457077   432898     67 |
|    282730 |   36492    68513   139141 |   502784   227561     84 |
> restarts              : 861
> decisions             : 490279  (0 % random)
> conflicts             : 304757
> propagations          : 56429675
> conflict literals     : 152915757  (6.02377 % deleted)
> Current optimal value 4802 after 186948 ms
|    304757 |   37929    71387   144889 |   139921   273432     80 |
|    304857 |   37959    71447   145009 |   153913   137820     85 |
|    305007 |   37959    71447   145009 |   169304   139574     86 |
|    305232 |   37959    71447   145009 |   186234   141837     87 |
|    305569 |   37959    71447   145009 |   204858   147004     88 |
|    306078 |   38023    71575   145265 |   225344   152697     90 |
|    306841 |   38139    71807   145729 |   247878   163573     91 |
> restarts              : 875
> decisions             : 495128  (0 % random)
> conflicts             : 307792
> propagations          : 57248491
> conflict literals     : 155672633  (6.01933 % deleted)
> Current optimal value 4762 after 188906 ms
|    307792 |   38238    72005   146125 |   106835   173556     92 |
|    307892 |   38272    72073   146261 |   117518    87482    113 |
|    308043 |   38306    72141   146397 |   129270    88659    113 |
|    308270 |   38306    72141   146397 |   142197    90820    112 |
|    308610 |   38306    72141   146397 |   156417    94539    111 |
|    309117 |   38306    72141   146397 |   172058    99377    110 |
|    309882 |   38380    72289   146693 |   189264   106676    108 |
|    311023 |   38416    72361   146837 |   208191   120297    105 |
|    312732 |   38419    72367   146849 |   229010   145614     99 |
|    315295 |   38420    72369   146853 |   251911   184931     93 |
|    319140 |   38429    72387   146889 |   277102   245275     87 |
|    324921 |   38582    72693   147501 |   304812   178974     68 |
|    333602 |   39116    73761   149637 |   335293   271819     74 |
> restarts              : 950
> decisions             : 536977  (0 % random)
> conflicts             : 335126
> propagations          : 63015465
> conflict literals     : 167644497  (6.22993 % deleted)
> Current optimal value 4747 after 205656 ms
|    335126 |   39250    74029   150173 |   144549   284675     75 |
|    335227 |   39318    74165   150445 |   159004   143318     83 |
|    335378 |   39350    74229   150573 |   174904   144762     83 |
|    335604 |   39382    74293   150701 |   192395   146914     84 |
> restarts              : 954
> decisions             : 537868  (0 % random)
> conflicts             : 335657
> propagations          : 63220532
> conflict literals     : 168012521  (6.23648 % deleted)
> Current optimal value 4739 after 206124 ms
|    335657 |   39382    74293   150701 |    98864   147356     84 |
> restarts              : 955
> decisions             : 537953  (0 % random)
> conflicts             : 335680
> propagations          : 63263712
> conflict literals     : 168042443  (6.23748 % deleted)
> Current optimal value 4698 after 206208 ms
|    335680 |   39416    74361   150837 |    74376    73824     88 |
|    335780 |   39451    74431   150977 |    81813    74707     88 |
|    335931 |   39488    74505   151125 |    89995    76082     89 |
|    336156 |   39488    74505   151125 |    98994    78439     89 |
|    336493 |   39488    74505   151125 |   108894    82670     89 |
|    336999 |   39489    74507   151129 |   119783    91477     89 |
|    337758 |   39490    74509   151133 |   131762   103420     88 |
|    338897 |   39490    74509   151133 |   144938   123593     85 |
|    340615 |   39591    74711   151537 |   159432    78986     79 |
|    343189 |   39780    75089   152293 |   175375   119758     80 |
|    347042 |   39899    75327   152769 |   192913   185333     77 |
|    352838 |   40113    75755   153625 |   212204   158557     81 |
> restarts              : 1018
> decisions             : 567451  (0 % random)
> conflicts             : 353363
> propagations          : 67569480
> conflict literals     : 178514209  (6.35371 % deleted)
> Current optimal value 4627 after 217814 ms
|    353363 |   40114    75757   153629 |   104853   163858     81 |
|    353463 |   40147    75823   153761 |   115338    82588     88 |
|    353614 |   40178    75885   153885 |   126872    83671     89 |
|    353839 |   40178    75885   153885 |   139559    86260     89 |
|    354176 |   40178    75885   153885 |   153515    90000     89 |
|    354682 |   40179    75887   153889 |   168866    95645     89 |
|    355441 |   40179    75887   153889 |   185753   102446     91 |
> restarts              : 1020
> decisions             : 570422  (0 % random)
> conflicts             : 355473
> propagations          : 67859195
> conflict literals     : 179827756  (6.3666 % deleted)
> Current optimal value 4619 after 218895 ms
|    355473 |   40179    75887   153889 |    84501   102673     91 |
|    355573 |   40216    75961   154037 |    92951    52141     94 |
|    355723 |   40216    75961   154037 |   102246    54993     93 |
|    355948 |   40217    75963   154041 |   112471    57722     92 |
|    356285 |   40217    75963   154041 |   123718    61602     91 |
|    356792 |   40250    76029   154173 |   136090    67592     91 |
|    357551 |   40250    76029   154173 |   149699    79168     88 |
> restarts              : 1022
> decisions             : 574603  (0 % random)
> conflicts             : 358103
> propagations          : 68200066
> conflict literals     : 181079463  (6.38183 % deleted)
> Current optimal value 4600 after 220339 ms
|    358103 |   40251    76031   154177 |    79401    87230     86 |
> restarts              : 1023
> decisions             : 574691  (0 % random)
> conflicts             : 358137
> propagations          : 68243369
> conflict literals     : 181097804  (6.38244 % deleted)
> Current optimal value 4574 after 220411 ms
|    358137 |   40282    76093   154301 |    64970    43874     77 |
|    358237 |   40318    76165   154445 |    71467    44685     78 |
|    358387 |   40318    76165   154445 |    78614    46935     77 |
|    358612 |   40318    76165   154445 |    86475    49405     78 |
|    358949 |   40319    76167   154449 |    95123    54563     77 |
|    359455 |   40319    76167   154449 |   104635    59152     78 |
> restarts              : 1024
> decisions             : 577244  (0 % random)
> conflicts             : 359882
> propagations          : 68446831
> conflict literals     : 181908294  (6.39604 % deleted)
> Current optimal value 4568 after 221242 ms
|    359882 |   40319    76167   154449 |    71408    63115     79 |
|    359982 |   40353    76235   154585 |    78549    63878     79 |
> restarts              : 1025
> decisions             : 577543  (0 % random)
> conflicts             : 360068
> propagations          : 68507187
> conflict literals     : 181972724  (6.39739 % deleted)
> Current optimal value 4552 after 221359 ms
|    360068 |   40353    76235   154585 |    72001    64824     79 |
|    360168 |   40393    76315   154745 |    79201    65685     79 |
|    360318 |   40393    76315   154745 |    87121    67545     79 |
|    360543 |   40393    76315   154745 |    95833    70043     80 |
|    360880 |   40393    76315   154745 |   105416    74473     80 |
|    361386 |   40396    76321   154757 |   115958    79592     80 |
|    362145 |   40399    76327   154769 |   127554    91620     79 |
|    363284 |   40400    76329   154773 |   140309   103880     78 |
> restarts              : 1026
> decisions             : 584627  (0 % random)
> conflicts             : 364801
> propagations          : 69057878
> conflict literals     : 183950300  (6.42193 % deleted)
> Current optimal value 4539 after 223883 ms
|    364801 |   40400    76329   154773 |    92361   125810     77 |
|    364901 |   40430    76389   154893 |   101597    63690     71 |
|    365051 |   40430    76389   154893 |   111756    65779     71 |
|    365276 |   40430    76389   154893 |   122932    69500     71 |
|    365613 |   40430    76389   154893 |   135225    76002     70 |
|    366119 |   40441    76411   154937 |   148748    85374     68 |
|    366878 |   40445    76419   154953 |   163623    98360     68 |
|    368017 |   40445    76419   154953 |   179985   113130     68 |
|    369728 |   40479    76487   155089 |   197984   134341     69 |
|    372299 |   40586    76701   155517 |   217782   167210     70 |
|    376159 |   40924    77377   156869 |   239560   122384     65 |
> restarts              : 1062
> decisions             : 607571  (0 % random)
> conflicts             : 377967
> propagations          : 71743715
> conflict literals     : 188848132  (6.47483 % deleted)
> Current optimal value 4497 after 231826 ms
|    377967 |   41096    77721   157557 |    98857   143907     66 |
|    378067 |   41127    77783   157681 |   108743    72595     64 |
> restarts              : 1063
> decisions             : 607778  (0 % random)
> conflicts             : 378084
> propagations          : 71795923
> conflict literals     : 188927526  (6.47538 % deleted)
> Current optimal value 4486 after 231937 ms
|    378084 |   41127    77783   157681 |    75137    72684     64 |
|    378184 |   41163    77855   157825 |    82650    73435     65 |
|    378335 |   41195    77919   157953 |    90915    75062     65 |
|    378561 |   41195    77919   157953 |   100007    76597     67 |
|    378901 |   41295    78119   158353 |   110008    80271     67 |
|    379408 |   41326    78181   158477 |   121008    87374     68 |
|    380168 |   41359    78247   158609 |   133109    97724     69 |
|    381314 |   41394    78317   158749 |   146420   112561     70 |
|    383029 |   41464    78457   159029 |   161062   137839     72 |
|    385593 |   41468    78465   159045 |   177169    93036     78 |
> restarts              : 1087
> decisions             : 623301  (0 % random)
> conflicts             : 387732
> propagations          : 73695529
> conflict literals     : 194234573  (6.53974 % deleted)
> Current optimal value 4485 after 237842 ms
|    387732 |   41470    78469   159053 |    91721   121751     80 |
|    387832 |   41508    78545   159205 |   100893    61690     80 |
|    387982 |   41508    78545   159205 |   110982    63280     81 |
|    388209 |   41572    78673   159461 |   122081    65886     82 |
|    388548 |   41635    78799   159713 |   134289    70976     81 |
|    389056 |   41705    78939   159993 |   147718    80006     80 |
|    389821 |   41775    79079   160273 |   162489    92736     80 |
|    390962 |   41812    79153   160421 |   178738   106725     79 |
|    392680 |   41843    79215   160545 |   196612   135019     77 |
> restarts              : 1118
> decisions             : 636691  (0 % random)
> conflicts             : 395246
> propagations          : 75686569
> conflict literals     : 197769625  (6.57544 % deleted)
> Current optimal value 4484 after 242635 ms
|    395246 |   41945    79419   160953 |   107427   167918     76 |
> restarts              : 1119
> decisions             : 636738  (0 % random)
> conflicts             : 395247
> propagations          : 75728762
> conflict literals     : 197770083  (6.57545 % deleted)
> Current optimal value 4434 after 242715 ms
|    395247 |   41978    79485   161085 |    79477    84003     70 |
|    395347 |   42013    79555   161225 |    87425    42900     70 |
|    395497 |   42013    79555   161225 |    96167    44209     70 |
|    395722 |   42013    79555   161225 |   105784    47426     70 |
|    396060 |   42044    79617   161349 |   116362    51939     70 |
|    396569 |   42072    79673   161461 |   127999    59890     70 |
|    397332 |   42072    79673   161461 |   140798    70413     71 |
|    398476 |   42114    79757   161629 |   154878    91589     70 |
|    400191 |   42228    79985   162085 |   170366   122380     69 |
|    402762 |   42397    80323   162761 |   187403   165438     68 |
|    406607 |   42434    80397   162909 |   206143   230360     67 |
|    412374 |   42480    80489   163093 |   226758   225145     62 |
|    421054 |   42695    80919   163953 |   249433   222667     68 |
|    434070 |   43540    82609   167333 |   274377   149745     67 |
> restarts              : 1239
> decisions             : 707110  (0 % random)
> conflicts             : 437268
> propagations          : 85153190
> conflict literals     : 215340284  (6.73605 % deleted)
> Current optimal value 4430 after 269588 ms
|    437268 |   43987    83503   169121 |   120326   202531     67 |
|    437368 |   44020    83569   169253 |   132358   102539     67 |
|    437520 |   44053    83635   169385 |   145594   103863     68 |
|    437746 |   44053    83635   169385 |   160153   106146     69 |
> restarts              : 1243
> decisions             : 708097  (0 % random)
> conflicts             : 437895
> propagations          : 85401645
> conflict literals     : 215625542  (6.74011 % deleted)
> Current optimal value 4403 after 270083 ms
|    437895 |   44053    83635   169385 |    88592   107197     69 |
|    437995 |   44086    83701   169517 |    97451    54601     68 |
|    438146 |   44118    83765   169645 |   107196    56219     68 |
|    438371 |   44118    83765   169645 |   117915    58893     68 |
|    438708 |   44118    83765   169645 |   129707    63904     67 |
|    439214 |   44119    83767   169649 |   142678    72430     68 |
|    439976 |   44120    83769   169653 |   156946    84271     68 |
|    441122 |   44201    83931   169977 |   172640   105496     66 |
|    442835 |   44336    84201   170517 |   189904   134893     65 |
|    445412 |   44477    84483   171081 |   208895   181996     64 |
> restarts              : 1277
> decisions             : 726303  (0 % random)
> conflicts             : 448688
> propagations          : 88083122
> conflict literals     : 219289267  (6.76747 % deleted)
> Current optimal value 4401 after 277396 ms
|    448688 |   44484    84497   171109 |    94570   124270     60 |
|    448788 |   44516    84561   171237 |   104027    62991     60 |
|    448938 |   44516    84561   171237 |   114430    64180     60 |
|    449163 |   44517    84563   171241 |   125873    66489     61 |
|    449500 |   44517    84563   171241 |   138460    70944     61 |
|    450006 |   44517    84563   171241 |   152306    76527     63 |
|    450765 |   44517    84563   171241 |   167537    84616     66 |
|    451905 |   44550    84629   171373 |   184290    97961     68 |
|    453613 |   44551    84631   171377 |   202719   120395     68 |
|    456175 |   44551    84631   171377 |   222991   146760     70 |
|    460019 |   44551    84631   171377 |   245291   188108     69 |
> restarts              : 1286
> decisions             : 749460  (0 % random)
> conflicts             : 464842
> propagations          : 90216231
> conflict literals     : 225174484  (6.82973 % deleted)
> Current optimal value 4395 after 285716 ms
|    464842 |   44650    84829   171773 |   134649   244176     70 |
> restarts              : 1287
> decisions             : 749558  (0 % random)
> conflicts             : 464880
> propagations          : 90265404
> conflict literals     : 225193332  (6.82998 % deleted)
> Current optimal value 4391 after 285835 ms
|    464880 |   44678    84885   171885 |    94048   122317     70 |
> restarts              : 1288
> decisions             : 749608  (0 % random)
> conflicts             : 464885
> propagations          : 90310439
> conflict literals     : 225195276  (6.83005 % deleted)
> Current optimal value 4357 after 285901 ms
|    464885 |   44713    84955   172025 |    73703    61212     69 |
> restarts              : 1289
> decisions             : 749662  (0 % random)
> conflicts             : 464891
> propagations          : 90356117
> conflict literals     : 225197872  (6.83011 % deleted)
> Current optimal value 4251 after 285937 ms
|    464891 |   44749    85027   172169 |    73749    61277     69 |
|    464992 |   44817    85163   172441 |    81124    62160     70 |
|    465143 |   44817    85163   172441 |    89236    63232     71 |
|    465369 |   44847    85223   172561 |    98160    66279     71 |
|    465707 |   44881    85291   172697 |   107976    69507     72 |
|    466213 |   44881    85291   172697 |   118774    75115     75 |
|    466977 |   44881    85291   172697 |   130651    83045     78 |
|    468123 |   44883    85295   172705 |   143716    94688     81 |
> restarts              : 1309
> decisions             : 756132  (0 % random)
> conflicts             : 468921
> propagations          : 91717846
> conflict literals     : 227600442  (6.84428 % deleted)
> Current optimal value 4249 after 288418 ms
|    468921 |   44919    85367   172849 |    87399   101888     82 |
|    469021 |   44945    85419   172953 |    96139    51701     92 |
|    469171 |   44945    85419   172953 |   105753    53424     92 |
|    469396 |   44946    85421   172957 |   116328    56425     91 |
|    469735 |   44978    85485   173085 |   127961    59232     91 |
|    470245 |   45019    85567   173249 |   140758    65054     90 |
|    471008 |   45054    85636   173387 |   154833    74229     89 |
|    472152 |   45111    85750   173615 |   170317    86368     89 |
|    473867 |   45246    86020   174155 |   187348   101553     93 |
|    476438 |   45373    86274   174663 |   206083   130047     93 |
|    480283 |   45374    86276   174667 |   226692   176423     87 |
|    486078 |   45682    86892   175899 |   249361   141358     74 |
> restarts              : 1373
> decisions             : 785040  (0 % random)
> conflicts             : 487946
> propagations          : 96923139
> conflict literals     : 236999493  (6.95239 % deleted)
> Current optimal value 4238 after 299739 ms
|    487946 |   45749    87026   176167 |   107697   161123     75 |
|    488046 |   45785    87098   176311 |   118467    81498     81 |
|    488196 |   45785    87098   176311 |   130314    82850     81 |
|    488421 |   45785    87098   176311 |   143345    84850     82 |
|    488758 |   45785    87098   176311 |   157680    88470     82 |
|    489268 |   45912    87352   176819 |   173448    92971     83 |
|    490031 |   46040    87608   177331 |   190792   101064     85 |
|    491176 |   46195    87918   177951 |   209872   113330     88 |
|    492891 |   46253    88034   178183 |   230859   134015     93 |
|    495462 |   46358    88244   178603 |   253945   170312     90 |
|    499307 |   46391    88310   178735 |   279340   221401     84 |
|    505074 |   46430    88388   178891 |   307274   299128     81 |
|    513754 |   46957    89442   180999 |   338001   256604     70 |
> restarts              : 1466
> decisions             : 832848  (0 % random)
> conflicts             : 519681
> propagations          : 104971431
> conflict literals     : 252310522  (7.0554 % deleted)
> Current optimal value 4234 after 319082 ms
|    519681 |   47397    90322   182759 |   159230   312424     74 |
|    519781 |   47428    90384   182883 |   175153   156477     79 |
|    519932 |   47460    90448   183011 |   192668   157772     79 |
|    520157 |   47460    90448   183011 |   211935   160426     79 |
|    520494 |   47460    90448   183011 |   233128   163952     79 |
|    521000 |   47460    90448   183011 |   256441   167741     80 |
> restarts              : 1468
> decisions             : 835041  (0 % random)
> conflicts             : 521342
> propagations          : 105266921
> conflict literals     : 253154184  (7.06665 % deleted)
> Current optimal value 4209 after 320028 ms
|    521342 |   47460    90448   183011 |   112026   170687     81 |
|    521442 |   47491    90510   183135 |   123228    86171     87 |
|    521593 |   47524    90576   183267 |   135551    87859     87 |
|    521820 |   47557    90642   183399 |   149107    90131     87 |
> restarts              : 1474
> decisions             : 836299  (0 % random)
> conflicts             : 522055
> propagations          : 105624047
> conflict literals     : 253481467  (7.07227 % deleted)
> Current optimal value 4163 after 320630 ms
|    522055 |   47622    90772   183659 |    86012    92320     87 |
|    522156 |   47685    90898   183911 |    94613    47011     88 |
|    522306 |   47685    90898   183911 |   104074    48766     89 |
|    522532 |   47719    90966   184047 |   114481    50697     90 |
|    522871 |   47783    91094   184303 |   125930    54182     92 |
> restarts              : 1481
> decisions             : 837925  (0 % random)
> conflicts             : 523049
> propagations          : 106074078
> conflict literals     : 254165628  (7.0788 % deleted)
> Current optimal value 4115 after 321396 ms
|    523049 |   47844    91216   184547 |    74163    56329     92 |
|    523150 |   47909    91346   184807 |    81579    57544     92 |
|    523300 |   47909    91346   184807 |    89737    59259     92 |
> restarts              : 1483
> decisions             : 838542  (0 % random)
> conflicts             : 523447
> propagations          : 106209429
> conflict literals     : 254407318  (7.0801 % deleted)
> Current optimal value 4109 after 321659 ms
|    523447 |   47909    91346   184807 |    75737    60922     92 |
|    523548 |   47976    91480   185075 |    83311    61818     93 |
|    523699 |   47976    91480   185075 |    91642    63899     92 |
|    523926 |   48035    91598   185311 |   100806    67209     91 |
|    524265 |   48090    91708   185531 |   110887    70784     91 |
> restarts              : 1490
> decisions             : 840053  (0 % random)
> conflicts             : 524293
> propagations          : 106630809
> conflict literals     : 254887777  (7.08411 % deleted)
> Current optimal value 4085 after 322316 ms
|    524293 |   48090    91708   185531 |    79213    70988     92 |
|    524394 |   48148    91824   185763 |    87134    72030     92 |
|    524546 |   48176    91880   185875 |    95848    74023     92 |
> restarts              : 1494
> decisions             : 840643  (0 % random)
> conflicts             : 524589
> propagations          : 106853805
> conflict literals     : 255060398  (7.08595 % deleted)
> Current optimal value 4079 after 322613 ms
|    524589 |   48176    91880   185875 |    80382    74324     92 |
|    524689 |   48210    91948   186011 |    88420    75504     92 |
|    524841 |   48268    92064   186243 |    97263    76888     92 |
> restarts              : 1498
> decisions             : 841433  (0 % random)
> conflicts             : 525010
> propagations          : 107089769
> conflict literals     : 255254180  (7.08739 % deleted)
> Current optimal value 4065 after 322947 ms
|    525010 |   48300    92128   186371 |    81817    78381     92 |
|    525110 |   48329    92186   186487 |    89999    79053     92 |
|    525260 |   48329    92186   186487 |    98999    80376     92 |
> restarts              : 1499
> decisions             : 841860  (0 % random)
> conflicts             : 525274
> propagations          : 107165157
> conflict literals     : 255362002  (7.08857 % deleted)
> Current optimal value 4038 after 323104 ms
|    525274 |   48329    92186   186487 |    82537    80482     92 |
|    525374 |   48362    92252   186619 |    90791    81493     92 |
> restarts              : 1500
> decisions             : 842084  (0 % random)
> conflicts             : 525394
> propagations          : 107224982
> conflict literals     : 255409338  (7.08894 % deleted)
> Current optimal value 4026 after 323201 ms
|    525394 |   48362    92252   186619 |    83009    81833     92 |
|    525495 |   48425    92378   186871 |    91310    82969     91 |
> restarts              : 1503
> decisions             : 842524  (0 % random)
> conflicts             : 525592
> propagations          : 107389567
> conflict literals     : 255494482  (7.08986 % deleted)
> Current optimal value 3991 after 323412 ms
|    525592 |   48457    92442   186999 |    83694    83698     91 |
|    525692 |   48491    92510   187135 |    92064    84571     92 |
|    525844 |   48549    92626   187367 |   101270    86681     91 |
|    526070 |   48584    92696   187507 |   111397    88966     91 |
|    526408 |   48584    92696   187507 |   122537    93316     90 |
|    526918 |   48619    92766   187647 |   134791   100511     90 |
|    527680 |   48619    92766   187647 |   148270   110413     89 |
|    528823 |   48678    92884   187883 |   163097   126727     87 |
|    530541 |   48930    93388   188891 |   179406   148905     87 |
|    533105 |   48930    93388   188891 |   197347   180016     89 |
|    536951 |   48966    93460   189035 |   217082   120265     84 |
> restarts              : 1533
> decisions             : 868426  (0 % random)
> conflicts             : 542348
> propagations          : 110641747
> conflict literals     : 264169278  (7.14326 % deleted)
> Current optimal value 3989 after 333606 ms
|    542348 |   48969    93466   189047 |   127635   214497     75 |
|    542448 |   49002    93532   189179 |   140399   108478     62 |
|    542598 |   49004    93536   189187 |   154439   110267     62 |
|    542824 |   49036    93600   189315 |   169883   112428     63 |
|    543161 |   49036    93600   189315 |   186871   117056     63 |
|    543667 |   49036    93600   189315 |   205558   125788     63 |
> restarts              : 1535
> decisions             : 870896  (0 % random)
> conflicts             : 543892
> propagations          : 110904653
> conflict literals     : 264757528  (7.1468 % deleted)
> Current optimal value 3963 after 334491 ms
|    543892 |   49036    93600   189315 |    98986   128415     63 |
|    543992 |   49063    93654   189423 |   108884    64960     60 |
|    544142 |   49063    93654   189423 |   119773    66803     61 |
|    544367 |   49063    93654   189423 |   131750    70688     62 |
> restarts              : 1536
> decisions             : 872127  (0 % random)
> conflicts             : 544685
> propagations          : 111030615
> conflict literals     : 265228313  (7.14889 % deleted)
> Current optimal value 3923 after 334934 ms
|    544685 |   49063    93654   189423 |    80862    73989     63 |
|    544785 |   49094    93716   189547 |    88948    75130     63 |
|    544935 |   49095    93718   189551 |    97843    77879     64 |
|    545160 |   49095    93718   189551 |   107627    80468     65 |
|    545497 |   49096    93720   189555 |   118390    85211     66 |
|    546003 |   49096    93720   189555 |   130229    93885     66 |
|    546762 |   49097    93722   189559 |   143252   103534     68 |
> restarts              : 1537
> decisions             : 876137  (0 % random)
> conflicts             : 547217
> propagations          : 111332879
> conflict literals     : 266545572  (7.16386 % deleted)
> Current optimal value 3890 after 336242 ms
|    547217 |   49097    93722   189559 |    93053   110495     68 |
|    547317 |   49127    93782   189679 |   102359    56116     72 |
|    547467 |   49127    93782   189679 |   112594    57940     72 |
|    547692 |   49127    93782   189679 |   123854    61013     72 |
|    548029 |   49127    93782   189679 |   136239    65469     72 |
|    548535 |   49127    93782   189679 |   149863    72738     73 |
|    549294 |   49127    93782   189679 |   164850    83942     73 |
|    550433 |   49127    93782   189679 |   181335   102096     72 |
|    552141 |   49128    93784   189683 |   199468   119938     75 |
> restarts              : 1538
> decisions             : 884030  (0 % random)
> conflicts             : 552531
> propagations          : 111941504
> conflict literals     : 269137930  (7.18609 % deleted)
> Current optimal value 3888 after 338844 ms
|    552531 |   49129    93786   189687 |    97447   123613     76 |
> restarts              : 1539
> decisions             : 884088  (0 % random)
> conflicts             : 552535
> propagations          : 111990887
> conflict literals     : 269140874  (7.18611 % deleted)
> Current optimal value 3848 after 338916 ms
|    552535 |   49160    93848   189811 |    76884    61862     74 |
|    552635 |   49191    93910   189935 |    84573    62899     74 |
|    552785 |   49191    93910   189935 |    93030    64752     75 |
|    553010 |   49191    93910   189935 |   102333    68160     75 |
|    553347 |   49191    93910   189935 |   112566    72826     76 |
|    553853 |   49192    93912   189939 |   123823    81375     75 |
|    554612 |   49192    93912   189939 |   136205    92934     75 |
|    555751 |   49192    93912   189939 |   149826   112085     75 |
|    557459 |   49193    93914   189943 |   164809   141985     73 |
|    560021 |   49193    93914   189943 |   181290   184445     72 |
|    563865 |   49193    93914   189943 |   199419   122521     72 |
|    569639 |   49229    93986   190087 |   219360   109741     68 |
> restarts              : 1564
> decisions             : 916437  (0 % random)
> conflicts             : 573253
> propagations          : 115461156
> conflict literals     : 279088231  (7.29738 % deleted)
> Current optimal value 3847 after 350858 ms
|    573253 |   49511    94550   191215 |   109601   159311     72 |
|    573353 |   49539    94606   191327 |   120561    80431     72 |
|    573504 |   49569    94666   191447 |   132618    82088     73 |
|    573729 |   49569    94666   191447 |   145879    85620     73 |
|    574066 |   49569    94666   191447 |   160467    91055     73 |
|    574572 |   49569    94666   191447 |   176514    97348     73 |
|    575334 |   49661    94850   191815 |   194166   106310     75 |
|    576480 |   49751    95030   192175 |   213582   122149     75 |
|    578193 |   49784    95096   192307 |   234940   145534     75 |
|    580770 |   50046    95620   193355 |   258434   185966     74 |
|    584616 |   50113    95754   193623 |   284278   240710     73 |
|    590404 |   50593    96714   195543 |   312706   211130     62 |
|    599088 |   51044    97616   197347 |   343976   191866     60 |
|    612072 |   51183    97894   197903 |   378374   231551     64 |
|    631598 |   51605    98738   199591 |   416212   339962     70 |
> restarts              : 1788
> decisions             : 1048067  (0 % random)
> conflicts             : 649496
> propagations          : 134926527
> conflict literals     : 314079532  (7.52624 % deleted)
> Current optimal value 3844 after 402179 ms
|    649496 |   52194    99916   201947 |   192497   402632     74 |
|    649596 |   52226    99980   202075 |   211747   202023     75 |
|    649746 |   52226    99980   202075 |   232921   203117     75 |
|    649971 |   52226    99980   202075 |   256213   205076     76 |
> restarts              : 1789
> decisions             : 1048791  (0 % random)
> conflicts             : 650050
> propagations          : 135039955
> conflict literals     : 314465390  (7.53119 % deleted)
> Current optimal value 3803 after 402561 ms
|    650050 |   52226    99980   202075 |   126857   205648     76 |
|    650150 |   52258   100044   202203 |   139543   103487     74 |
|    650302 |   52324   100176   202467 |   153497   105180     74 |
|    650528 |   52357   100242   202599 |   168847   108191     75 |
|    650868 |   52386   100300   202715 |   185731   112997     74 |
|    651375 |   52386   100300   202715 |   204305   117992     74 |
|    652140 |   52418   100364   202843 |   224735   127069     75 |
|    653281 |   52452   100432   202979 |   247209   144115     74 |
|    654999 |   52704   100936   203987 |   271929   166901     76 |
|    657567 |   52828   101184   204483 |   299122   210992     73 |
|    661427 |   52956   101440   204995 |   329035   268354     73 |
|    667209 |   53140   101808   205731 |   361938   187597     69 |
|    675889 |   53750   103028   208171 |   398132   340881     67 |
|    688896 |   54176   103880   209875 |   437945   379508     68 |
|    708417 |   55083   105694   213503 |   481740   266094     68 |
|    737676 |   55726   106980   216075 |   529914   379458     68 |
> restarts              : 2045
> decisions             : 1213105  (0 % random)
> conflicts             : 748437
> propagations          : 158998732
> conflict literals     : 358599926  (7.8888 % deleted)
> Current optimal value 3785 after 469327 ms
|    748437 |   55728   106984   216083 |   238464   533464     69 |
|    748537 |   55755   107038   216191 |   262310   203920     70 |
|    748687 |   55755   107038   216191 |   288541   205105     70 |
|    748912 |   55755   107038   216191 |   317395   207168     71 |
|    749249 |   55755   107038   216191 |   349135   210886     71 |
|    749755 |   55755   107038   216191 |   384048   216713     71 |
|    750514 |   55755   107038   216191 |   422453   226629     72 |
|    751653 |   55755   107038   216191 |   464698   248007     71 |
|    753362 |   55779   107086   216287 |   511168   278155     71 |
|    755924 |   55780   107088   216291 |   562285   314954     71 |
|    759768 |   55782   107092   216299 |   618514   392390     68 |
|    765534 |   55786   107100   216315 |   680365   488357     67 |
|    774183 |   55789   107106   216327 |   748402   621473     66 |
|    787157 |   55791   107110   216335 |   823242   323198     57 |
|    806619 |   55836   107200   216515 |   905566   715152     56 |
|    835811 |   55897   107322   216759 |   996123   752009     53 |
|    879600 |   55946   107420   216955 |  1095735   823906     60 |
