Starting solving at 463 ms
>>> Search start
> Conflicts |          ORIGINAL         |          LEARNT          | Progress
>           |    Vars  Clauses Literals |    Limit  Clauses Lit/Cl |         
|         0 |    8257     8650    21399 |    52936        1      2 |
>>> Initializing inductive definition 787
> Number of rules : 4160.
> Number of recursive atoms in positive loops : 4096.
> restarts              : 1
> decisions             : 167  (0 % random)
> conflicts             : 3
> propagations          : 9955
> conflict literals     : 3009  (0 % deleted)
> Current optimal value 9208 after 573 ms
|         3 |    8559     8857    21682 |    52798      242   1684 |
> restarts              : 2
> decisions             : 2982  (0 % random)
> conflicts             : 20
> propagations          : 21959
> conflict literals     : 10130  (0.987196 % deleted)
> Current optimal value 9186 after 1345 ms
|        20 |   11461    14660    33288 |    54771      357   1198 |
> restarts              : 3
> decisions             : 3066  (0 % random)
> conflicts             : 30
> propagations          : 33856
> conflict literals     : 32349  (3.51646 % deleted)
> Current optimal value 9028 after 1390 ms
|        30 |   11621    14979    33926 |    54910      455   1030 |
> restarts              : 4
> decisions             : 3137  (0 % random)
> conflicts             : 36
> propagations          : 45748
> conflict literals     : 41454  (2.93395 % deleted)
> Current optimal value 8989 after 1426 ms
|        36 |   11752    15241    34450 |    55022      529    931 |
|       137 |   12207    16151    36270 |    60524     1132    637 |
> restarts              : 6
> decisions             : 3421  (0 % random)
> conflicts             : 177
> propagations          : 76673
> conflict literals     : 302941  (2.51797 % deleted)
> Current optimal value 8983 after 1571 ms
|       177 |   12285    16307    36582 |    55630     1289    639 |
> restarts              : 7
> decisions             : 3488  (0 % random)
> conflicts             : 181
> propagations          : 89324
> conflict literals     : 305316  (2.51226 % deleted)
> Current optimal value 8947 after 1607 ms
|       181 |   12396    16529    37026 |    55726     1355    618 |
|       282 |   12811    17359    38686 |    61299     2028    484 |
> restarts              : 10
> decisions             : 3885  (0 % random)
> conflicts             : 338
> propagations          : 137081
> conflict literals     : 437445  (2.41114 % deleted)
> Current optimal value 8902 after 1795 ms
|       338 |   13035    17807    39582 |    56507     2418    434 |
|       439 |   13400    18537    41042 |    62157     3144    393 |
|       590 |   13771    19279    42526 |    68373     4568    342 |
|       817 |   14277    20291    44550 |    75210     6492    291 |
|      1154 |   14683    21103    46174 |    82731     8762    288 |
|      1661 |   15139    22015    47998 |    91005    12159    285 |
> restarts              : 19
> decisions             : 6888  (0 % random)
> conflicts             : 2349
> propagations          : 454557
> conflict literals     : 3125323  (2.52328 % deleted)
> Current optimal value 8898 after 3435 ms
|      2349 |   15582    22901    49770 |    62891    16476    286 |
|      2450 |   15837    23411    50790 |    69180    17077    285 |
|      2601 |   15919    23575    51118 |    76098    17906    283 |
|      2827 |   16027    23791    51550 |    83707    19367    283 |
|      3165 |   16316    24369    52706 |    92078    21766    276 |
|      3675 |   16779    25295    54558 |   101286    25852    262 |
|      4437 |   17376    26489    56946 |   111415    31270    252 |
|      5577 |   17906    27549    59066 |   122556    40807    240 |
|      7290 |   18559    28855    61678 |   134812    55313    220 |
> restarts              : 42
> decisions             : 15566  (0 % random)
> conflicts             : 8139
> propagations          : 1478607
> conflict literals     : 8777733  (2.49276 % deleted)
> Current optimal value 8848 after 7958 ms
|      8139 |   18811    29359    62686 |    80213    61985    213 |
|      8239 |   18922    29581    63130 |    88234    62688    212 |
> restarts              : 44
> decisions             : 15929  (0 % random)
> conflicts             : 8332
> propagations          : 1536926
> conflict literals     : 8992228  (2.49216 % deleted)
> Current optimal value 8810 after 8146 ms
|      8332 |   19031    29799    63566 |    80789    63272    213 |
|      8433 |   19246    30229    64426 |    88867    64127    212 |
|      8583 |   19282    30301    64570 |    97754    64941    214 |
|      8809 |   19404    30545    65058 |   107530    66968    212 |
> restarts              : 47
> decisions             : 17106  (0 % random)
> conflicts             : 9129
> propagations          : 1678232
> conflict literals     : 9824844  (2.49803 % deleted)
> Current optimal value 8795 after 8753 ms
|      9129 |   19449    30635    65238 |    83205    69684    211 |
|      9229 |   19560    30857    65682 |    91525    70419    211 |
|      9379 |   19613    30963    65894 |   100678    72007    209 |
|      9605 |   19784    31305    66578 |   110745    74546    207 |
|      9944 |   19889    31515    66998 |   121820    78301    205 |
|     10453 |   19936    31609    67186 |   134002    81907    206 |
> restarts              : 58
> decisions             : 20400  (0 % random)
> conflicts             : 11106
> propagations          : 2105298
> conflict literals     : 11909566  (2.5335 % deleted)
> Current optimal value 8790 after 10455 ms
|     11106 |   20211    32159    68286 |    89587    87306    205 |
> restarts              : 59
> decisions             : 20493  (0 % random)
> conflicts             : 11127
> propagations          : 2127700
> conflict literals     : 11932688  (2.53242 % deleted)
> Current optimal value 8787 after 10509 ms
|     11127 |   20303    32343    68654 |    89701    87464    205 |
> restarts              : 60
> decisions             : 20567  (0 % random)
> conflicts             : 11134
> propagations          : 2148780
> conflict literals     : 11948738  (2.53298 % deleted)
> Current optimal value 8769 after 10555 ms
|     11134 |   20401    32539    69046 |    89794    87547    205 |
|     11235 |   20599    32935    69838 |    98773    88250    206 |
|     11385 |   20614    32965    69898 |   108650    89375    207 |
|     11610 |   20637    33011    69990 |   119515    90755    207 |
|     11947 |   20662    33061    70090 |   131467    93038    208 |
> restarts              : 63
> decisions             : 21833  (0 % random)
> conflicts             : 12048
> propagations          : 2310141
> conflict literals     : 13135217  (2.58102 % deleted)
> Current optimal value 8713 after 11260 ms
|     12048 |   20766    33269    70506 |    92147    93877    209 |
|     12148 |   20878    33493    70954 |   101362    47820    197 |
|     12298 |   20888    33513    70994 |   111498    48879    197 |
|     12523 |   20923    33583    71134 |   122648    50790    197 |
|     12860 |   21044    33825    71618 |   134912    54807    192 |
|     13366 |   21129    33995    71958 |   148404    59377    191 |
> restarts              : 65
> decisions             : 23976  (0 % random)
> conflicts             : 13602
> propagations          : 2506211
> conflict literals     : 14736039  (2.57036 % deleted)
> Current optimal value 8698 after 12437 ms
|     13602 |   21289    34315    72598 |    81761    61672    189 |
|     13703 |   21489    34715    73398 |    89937    62419    191 |
|     13853 |   21497    34731    73430 |    98930    63475    191 |
|     14080 |   21523    34783    73534 |   108823    64926    194 |
|     14419 |   21553    34843    73654 |   119706    67538    193 |
|     14928 |   21620    34977    73922 |   131676    71962    192 |
|     15691 |   22100    35937    75842 |   144844    78862    190 |
|     16833 |   22514    36764    77496 |   159329    88348    189 |
> restarts              : 90
> decisions             : 31559  (0 % random)
> conflicts             : 18353
> propagations          : 3587813
> conflict literals     : 19996145  (2.57957 % deleted)
> Current optimal value 8638 after 16581 ms
|     18353 |   23296    38328    80624 |    95892   100052    192 |
|     18454 |   23496    38728    81424 |   105481    50896    198 |
|     18605 |   23516    38768    81504 |   116029    52469    197 |
> restarts              : 93
> decisions             : 32101  (0 % random)
> conflicts             : 18643
> propagations          : 3689156
> conflict literals     : 20311452  (2.56789 % deleted)
> Current optimal value 8623 after 16924 ms
|     18643 |   23520    38776    81520 |    80258    52703    197 |
|     18743 |   23620    38976    81920 |    88284    53307    198 |
|     18893 |   23631    38998    81964 |    97112    54348    198 |
|     19119 |   23731    39198    82364 |   106823    55710    200 |
|     19456 |   23747    39230    82428 |   117506    58255    199 |
|     19962 |   23791    39318    82604 |   129256    62763    197 |
|     20723 |   23845    39426    82820 |   142182    69689    190 |
|     21868 |   23998    39732    83432 |   156400    78872    190 |
> restarts              : 105
> decisions             : 37025  (0 % random)
> conflicts             : 22038
> propagations          : 4384633
> conflict literals     : 23762942  (2.59164 % deleted)
> Current optimal value 8613 after 19544 ms
|     22038 |   24003    39742    83452 |    89628    79848    193 |
|     22138 |   24099    39934    83836 |    98591    80704    192 |
|     22289 |   24188    40112    84192 |   108450    81958    193 |
> restarts              : 108
> decisions             : 37604  (0 % random)
> conflicts             : 22377
> propagations          : 4495268
> conflict literals     : 24224401  (2.58946 % deleted)
> Current optimal value 8607 after 19891 ms
|     22377 |   24191    40118    84204 |    90612    82422    194 |
|     22477 |   24276    40288    84544 |    99673    83297    194 |
|     22628 |   24368    40472    84912 |   109640    84677    194 |
|     22853 |   24383    40502    84972 |   120604    86670    193 |
> restarts              : 110
> decisions             : 38407  (0 % random)
> conflicts             : 22945
> propagations          : 4617484
> conflict literals     : 24840274  (2.59103 % deleted)
> Current optimal value 8599 after 20391 ms
|     22945 |   24388    40512    84992 |    92443    87523    193 |
|     23045 |   24482    40700    85368 |   101688    88140    194 |
|     23195 |   24490    40716    85400 |   111856    89132    195 |
> restarts              : 112
> decisions             : 39073  (0 % random)
> conflicts             : 23391
> propagations          : 4721951
> conflict literals     : 25406403  (2.6095 % deleted)
> Current optimal value 8598 after 20769 ms
|     23391 |   24588    40912    85792 |    93466    90192    196 |
> restarts              : 114
> decisions             : 39215  (0 % random)
> conflicts             : 23407
> propagations          : 4773020
> conflict literals     : 25428823  (2.6103 % deleted)
> Current optimal value 8597 after 20864 ms
|     23407 |   24753    41242    86452 |    93628    90346    196 |
> restarts              : 115
> decisions             : 39347  (0 % random)
> conflicts             : 23467
> propagations          : 4805113
> conflict literals     : 25502289  (2.61244 % deleted)
> Current optimal value 8566 after 20948 ms
|     23467 |   24842    41420    86808 |    93804    90696    196 |
|     23568 |   25015    41766    87500 |   103184    91379    196 |
|     23718 |   25024    41784    87536 |   113502    93077    195 |
|     23944 |   25120    41976    87920 |   124853    94617    196 |
|     24283 |   25148    42032    88032 |   137338    97964    195 |
|     24793 |   25189    42114    88196 |   151072   103101    194 |
|     25553 |   25368    42472    88912 |   166179   113784    188 |
|     26693 |   25581    42898    89764 |   182797   127444    184 |
|     28402 |   25822    43380    90728 |   201077   148476    174 |
|     30965 |   26089    43914    91796 |   221184   178973    168 |
|     34809 |   26215    44166    92300 |   243303   220567    164 |
|     40593 |   26703    45142    94252 |   267633   158276    147 |
|     49277 |   27556    46848    97664 |   294397   246863    147 |
|     62291 |   29818    51372   106712 |   323836   190754    158 |
|     81786 |   31340    54416   112800 |   356220   275802    133 |
> restarts              : 256
> decisions             : 138262  (0 % random)
> conflicts             : 88857
> propagations          : 16013520
> conflict literals     : 86827164  (3.15673 % deleted)
> Current optimal value 8544 after 82150 ms
|     88857 |   31675    55086   114140 |   128882   182264    126 |
|     88957 |   31748    55232   114432 |   141770    92259    112 |
|     89107 |   31754    55244   114456 |   155947    94041    112 |
|     89332 |   31761    55258   114484 |   171541    97568    113 |
|     89669 |   31789    55314   114596 |   188696   102731    114 |
|     90175 |   31834    55404   114776 |   207565   111481    114 |
|     90934 |   31853    55442   114852 |   228322   124434    114 |
|     92073 |   31881    55498   114964 |   251154   141835    114 |
|     93781 |   31908    55552   115072 |   276270   169425    113 |
|     96354 |   32230    56196   116360 |   303897   208661    114 |
> restarts              : 275
> decisions             : 153720  (0 % random)
> conflicts             : 98297
> propagations          : 17594766
> conflict literals     : 95224419  (3.22024 % deleted)
> Current optimal value 8541 after 91628 ms
|     98297 |   32455    56646   117260 |   146995   235045    114 |
> restarts              : 277
> decisions             : 153869  (0 % random)
> conflicts             : 98310
> propagations          : 17660873
> conflict literals     : 95253318  (3.22027 % deleted)
> Current optimal value 8497 after 91799 ms
|     98310 |   32600    56936   117840 |   107966   117667    119 |
|     98410 |   32673    57082   118132 |   118762    59977    128 |
|     98561 |   32748    57232   118432 |   130639    61839    129 |
|     98788 |   32886    57508   118984 |   143703    64226    129 |
|     99128 |   33107    57950   119868 |   158073    67423    131 |
> restarts              : 284
> decisions             : 155510  (0 % random)
> conflicts             : 99159
> propagations          : 17981987
> conflict literals     : 96128740  (3.22547 % deleted)
> Current optimal value 8466 after 92870 ms
|     99159 |   33107    57950   119868 |    91664    67747    131 |
|     99259 |   33187    58110   120188 |   100830    68869    132 |
> restarts              : 286
> decisions             : 155853  (0 % random)
> conflicts             : 99316
> propagations          : 18066192
> conflict literals     : 96312982  (3.22605 % deleted)
> Current optimal value 8412 after 93106 ms
|     99316 |   33254    58244   120456 |    92398    69654    132 |
|     99416 |   33325    58386   120740 |   101637    70696    132 |
> restarts              : 287
> decisions             : 156143  (0 % random)
> conflicts             : 99469
> propagations          : 18113507
> conflict literals     : 96443636  (3.22735 % deleted)
> Current optimal value 8386 after 93285 ms
|     99469 |   33325    58386   120740 |    93058    71493    132 |
|     99569 |   33396    58528   121024 |   102364    73039    131 |
|     99719 |   33405    58546   121060 |   112600    75495    130 |
|     99944 |   33416    58568   121104 |   123860    79032    130 |
> restarts              : 290
> decisions             : 157573  (0 % random)
> conflicts             : 100260
> propagations          : 18299417
> conflict literals     : 97118191  (3.23318 % deleted)
> Current optimal value 8368 after 94146 ms
|    100260 |   33599    58934   121836 |    97269    83577    129 |
|    100360 |   33672    59080   122128 |   106995    84683    129 |
|    100512 |   33744    59224   122416 |   117695    86347    129 |
|    100738 |   33824    59384   122736 |   129465    88574    131 |
|    101075 |   33832    59400   122768 |   142411    92383    131 |
|    101585 |   34138    60012   123992 |   156652    99961    130 |
|    102348 |   34413    60562   125092 |   172317   108355    132 |
|    103490 |   34640    61016   126000 |   189549   121097    133 |
> restarts              : 309
> decisions             : 164390  (0 % random)
> conflicts             : 104111
> propagations          : 19349104
> conflict literals     : 100850715  (3.26002 % deleted)
> Current optimal value 8330 after 98308 ms
|    104111 |   34925    61586   127140 |   113023   128187    133 |
> restarts              : 310
> decisions             : 164529  (0 % random)
> conflicts             : 104168
> propagations          : 19391067
> conflict literals     : 100948929  (3.26099 % deleted)
> Current optimal value 8324 after 98443 ms
|    104168 |   34985    61706   127380 |    91841    64522    143 |
|    104268 |   35049    61834   127636 |   101025    65314    145 |
|    104419 |   35117    61970   127908 |   111128    66792    146 |
> restarts              : 314
> decisions             : 165407  (0 % random)
> conflicts             : 104625
> propagations          : 19580150
> conflict literals     : 101497777  (3.26246 % deleted)
> Current optimal value 8303 after 98987 ms
|    104625 |   35258    62252   128472 |    93336    68461    146 |
> restarts              : 316
> decisions             : 165679  (0 % random)
> conflicts             : 104725
> propagations          : 19661358
> conflict literals     : 101586103  (3.26223 % deleted)
> Current optimal value 8279 after 99164 ms
|    104725 |   35389    62514   128996 |    93741    69414    147 |
|    104825 |   35460    62656   129280 |   103115    70257    147 |
> restarts              : 317
> decisions             : 166034  (0 % random)
> conflicts             : 104953
> propagations          : 19717844
> conflict literals     : 101793833  (3.26163 % deleted)
> Current optimal value 8278 after 99372 ms
|    104953 |   35462    62660   129288 |    94448    71390    147 |
|    105053 |   35532    62800   129568 |   103893    72339    147 |
|    105204 |   35602    62940   129848 |   114282    74360    146 |
> restarts              : 319
> decisions             : 166599  (0 % random)
> conflicts             : 105258
> propagations          : 19819533
> conflict literals     : 102041517  (3.26245 % deleted)
> Current optimal value 8263 after 99716 ms
|    105258 |   35602    62940   129848 |    95684    74818    146 |
> restarts              : 320
> decisions             : 166692  (0 % random)
> conflicts             : 105285
> propagations          : 19857508
> conflict literals     : 102079410  (3.26265 % deleted)
> Current optimal value 8201 after 99786 ms
|    105285 |   35665    63066   130100 |    95800    75040    147 |
|    105385 |   35742    63220   130408 |   105380    76309    147 |
> restarts              : 321
> decisions             : 167054  (0 % random)
> conflicts             : 105487
> propagations          : 19912460
> conflict literals     : 102333235  (3.26136 % deleted)
> Current optimal value 8179 after 100015 ms
|    105487 |   35749    63234   130436 |    96737    77683    147 |
> restarts              : 322
> decisions             : 167170  (0 % random)
> conflicts             : 105525
> propagations          : 19951491
> conflict literals     : 102408212  (3.26201 % deleted)
> Current optimal value 8151 after 100097 ms
|    105525 |   35817    63370   130708 |    96885    77989    148 |
|    105625 |   35894    63524   131016 |   106573    79443    148 |
|    105775 |   35899    63534   131036 |   117230    81676    147 |
|    106000 |   35908    63552   131072 |   128953    85140    145 |
|    106337 |   35923    63582   131132 |   141849    88778    144 |
> restarts              : 323
> decisions             : 168535  (0 % random)
> conflicts             : 106366
> propagations          : 20069614
> conflict literals     : 103125467  (3.26684 % deleted)
> Current optimal value 8142 after 100881 ms
|    106366 |   35924    63584   131136 |   100632    89018    145 |
> restarts              : 324
> decisions             : 168641  (0 % random)
> conflicts             : 106397
> propagations          : 20108504
> conflict literals     : 103163420  (3.26718 % deleted)
> Current optimal value 8064 after 100955 ms
|    106397 |   35994    63724   131416 |   100755    89246    145 |
> restarts              : 325
> decisions             : 168744  (0 % random)
> conflicts             : 106430
> propagations          : 20147334
> conflict literals     : 103217528  (3.26737 % deleted)
> Current optimal value 8042 after 101034 ms
|    106430 |   36063    63862   131692 |   100919    89600    145 |
|    106530 |   36128    63992   131952 |   111011    90488    146 |
|    106680 |   36145    64026   132020 |   122112    92174    146 |
|    106905 |   36160    64056   132080 |   134323    94867    145 |
|    107242 |   36175    64086   132140 |   147755    99099    144 |
|    107748 |   36240    64216   132400 |   162531   108066    140 |
|    108510 |   36484    64704   133376 |   178784   119804    137 |
|    109654 |   36942    65620   135208 |   196663   138761    133 |
|    111369 |   37068    65872   135712 |   216329   170919    127 |
|    113940 |   37456    66648   137264 |   237962   219993    119 |
|    117799 |   38400    68536   141040 |   261758   186333     98 |
|    123582 |   39129    69994   143956 |   287934   156397    111 |
|    132232 |   39393    70522   145012 |   316728   177940     99 |
|    145261 |   40208    72152   148272 |   348400   235618    129 |
|    164787 |   42191    76118   156204 |   383241   223783    152 |
> restarts              : 508
> decisions             : 276621  (0 % random)
> conflicts             : 167835
> propagations          : 33588127
> conflict literals     : 169407551  (3.30695 % deleted)
> Current optimal value 8028 after 176657 ms
|    167835 |   42317    76370   156708 |   162555   262001    148 |
|    167936 |   42437    76610   157188 |   178811   131937    156 |
> restarts              : 510
> decisions             : 276947  (0 % random)
> conflicts             : 167985
> propagations          : 33685787
> conflict literals     : 169645877  (3.30678 % deleted)
> Current optimal value 8021 after 176984 ms
|    167985 |   42437    76610   157188 |   119430   132385    156 |
|    168085 |   42495    76726   157420 |   131373    67293    142 |
> restarts              : 511
> decisions             : 277344  (0 % random)
> conflicts             : 168229
> propagations          : 33751081
> conflict literals     : 169870787  (3.30661 % deleted)
> Current optimal value 8017 after 177299 ms
|    168229 |   42495    76726   157420 |    98345    69014    141 |
|    168329 |   42557    76850   157668 |   108179    69711    142 |
|    168479 |   42557    76850   157668 |   118997    71657    141 |
|    168704 |   42557    76850   157668 |   130897    74556    140 |
|    169041 |   42557    76850   157668 |   143987    78424    139 |
|    169547 |   42557    76850   157668 |   158386    86140    137 |
|    170306 |   42557    76850   157668 |   174224    94972    135 |
> restarts              : 512
> decisions             : 280464  (0 % random)
> conflicts             : 170441
> propagations          : 34004677
> conflict literals     : 171526247  (3.31261 % deleted)
> Current optimal value 7982 after 179327 ms
|    170441 |   42557    76850   157668 |   107452    96211    136 |
|    170541 |   42621    76978   157924 |   118197    97651    135 |
|    170691 |   42621    76978   157924 |   130017   100036    134 |
|    170916 |   42621    76978   157924 |   143019   103361    133 |
|    171253 |   42621    76978   157924 |   157320   107076    132 |
|    171759 |   42621    76978   157924 |   173053   112471    131 |
|    172518 |   42621    76978   157924 |   190358   120433    132 |
|    173657 |   42622    76980   157928 |   209394   133228    130 |
> restarts              : 519
> decisions             : 287216  (0 % random)
> conflicts             : 175122
> propagations          : 34744073
> conflict literals     : 174872294  (3.32818 % deleted)
> Current optimal value 7960 after 183517 ms
|    175122 |   42810    77356   158680 |   125489   149816    130 |
|    175222 |   42867    77470   158908 |   138038    75758    122 |
|    175372 |   42867    77470   158908 |   151842    77088    123 |
|    175599 |   42928    77592   159152 |   167026    80168    124 |
|    175939 |   42930    77596   159160 |   183728    84630    126 |
|    176446 |   42936    77608   159184 |   202101    91506    128 |
|    177206 |   43001    77738   159444 |   222312   101589    132 |
|    178352 |   43066    77868   159704 |   244543   117086    132 |
> restarts              : 542
> decisions             : 295043  (0 % random)
> conflicts             : 179756
> propagations          : 36204014
> conflict literals     : 179944008  (3.33911 % deleted)
> Current optimal value 7931 after 188759 ms
|    179756 |   43464    78664   161296 |   119893   131720    133 |
|    179856 |   43522    78780   161528 |   131882    66791    148 |
|    180006 |   43522    78780   161528 |   145070    68327    149 |
|    180231 |   43523    78782   161532 |   159578    70391    149 |
> restarts              : 543
> decisions             : 295939  (0 % random)
> conflicts             : 180394
> propagations          : 36319073
> conflict literals     : 180664088  (3.34171 % deleted)
> Current optimal value 7895 after 189365 ms
|    180394 |   43523    78782   161532 |    99868    71527    150 |
|    180494 |   43579    78894   161756 |   109855    72243    151 |
|    180646 |   43691    79118   162204 |   120840    74402    150 |
> restarts              : 546
> decisions             : 296573  (0 % random)
> conflicts             : 180734
> propagations          : 36483266
> conflict literals     : 180997628  (3.34248 % deleted)
> Current optimal value 7882 after 189793 ms
|    180734 |   43691    79118   162204 |   101211    75220    150 |
|    180835 |   43802    79340   162648 |   111332    76146    151 |
|    180986 |   43803    79342   162652 |   122465    78055    150 |
|    181212 |   43804    79344   162656 |   134712    80413    150 |
|    181550 |   43809    79354   162676 |   148183    83923    150 |
|    182060 |   43810    79356   162680 |   163001    89731    149 |
> restarts              : 557
> decisions             : 299937  (0 % random)
> conflicts             : 182682
> propagations          : 37151902
> conflict literals     : 182609804  (3.34961 % deleted)
> Current optimal value 7881 after 191918 ms
|    182682 |   43922    79580   163128 |   109143    98553    145 |
> restarts              : 558
> decisions             : 300024  (0 % random)
> conflicts             : 182697
> propagations          : 37197420
> conflict literals     : 182632775  (3.3497 % deleted)
> Current optimal value 7834 after 191985 ms
|    182697 |   43981    79698   163364 |   109222    98672    145 |
> restarts              : 560
> decisions             : 300152  (0 % random)
> conflicts             : 182702
> propagations          : 37285736
> conflict literals     : 182636808  (3.34971 % deleted)
> Current optimal value 7762 after 192096 ms
|    182702 |   44099    79934   163836 |   109342    98797    145 |
> restarts              : 561
> decisions             : 300295  (0 % random)
> conflicts             : 182763
> propagations          : 37335695
> conflict literals     : 182716110  (3.3495 % deleted)
> Current optimal value 7748 after 192218 ms
|    182763 |   44161    80058   164084 |   109642    99573    145 |
|    182864 |   44269    80274   164516 |   120606   101009    144 |
|    183015 |   44326    80388   164744 |   132667   103600    144 |
|    183241 |   44378    80492   164952 |   145933   106379    144 |
|    183579 |   44442    80620   165208 |   160527   110662    144 |
|    184089 |   44507    80750   165468 |   176580   118138    142 |
> restarts              : 571
> decisions             : 302879  (0 % random)
> conflicts             : 184119
> propagations          : 37904310
> conflict literals     : 184026976  (3.35083 % deleted)
> Current optimal value 7735 after 193908 ms
|    184119 |   44507    80750   165468 |   116136   118364    142 |
|    184219 |   44564    80864   165696 |   127750    60462    138 |
|    184370 |   44619    80974   165916 |   140525    62689    136 |
|    184595 |   44622    80980   165928 |   154577    66189    134 |
|    184932 |   44626    80988   165944 |   170035    71845    130 |
|    185439 |   44678    81092   166152 |   187039    80050    128 |
|    186198 |   44678    81092   166152 |   205743    95421    124 |
|    187338 |   44737    81210   166388 |   226317   112121    121 |
|    189046 |   44737    81210   166388 |   248949   141279    114 |
> restarts              : 575
> decisions             : 311233  (0 % random)
> conflicts             : 189300
> propagations          : 38544308
> conflict literals     : 187460267  (3.3585 % deleted)
> Current optimal value 7728 after 199058 ms
|    189300 |   44739    81214   166396 |   125018   144546    114 |
> restarts              : 576
> decisions             : 311307  (0 % random)
> conflicts             : 189302
> propagations          : 38589258
> conflict literals     : 187462314  (3.35854 % deleted)
> Current optimal value 7706 after 199162 ms
|    189302 |   44794    81324   166616 |   100985    72337    100 |
|    189402 |   44851    81438   166844 |   111084    73376    101 |
|    189552 |   44851    81438   166844 |   122192    75689    101 |
|    189777 |   44851    81438   166844 |   134411    79278    101 |
> restarts              : 578
> decisions             : 312400  (0 % random)
> conflicts             : 189936
> propagations          : 38728094
> conflict literals     : 187953488  (3.36095 % deleted)
> Current optimal value 7692 after 199825 ms
|    189936 |   44905    81546   167060 |   104259    81935    101 |
|    190036 |   44962    81660   167288 |   114684    83432    101 |
|    190187 |   45016    81768   167504 |   126153    86353    101 |
|    190414 |   45134    82004   167976 |   138768    91123    100 |
|    190751 |   45134    82004   167976 |   152645    98789     99 |
|    191261 |   45136    82008   167984 |   167910   109185     99 |
|    192024 |   45247    82230   168428 |   184701   123585     99 |
|    193166 |   45371    82478   168924 |   203171   146188     98 |
|    194885 |   45709    83154   170276 |   223488   173695     98 |
|    197449 |   45712    83160   170288 |   245837   208206    100 |
|    201313 |   45876    83488   170944 |   270420   149486    103 |
|    207091 |   46279    84294   172556 |   297463   263353    106 |
|    215746 |   46499    84734   173436 |   327209   285541     97 |
|    228775 |   48368    88472   180912 |   359930   219637     95 |
|    248300 |   49403    90542   185052 |   395923   363515    103 |
> restarts              : 789
> decisions             : 463756  (0 % random)
> conflicts             : 277101
> propagations          : 57111585
> conflict literals     : 253501798  (3.50013 % deleted)
> Current optimal value 7635 after 302310 ms
|    277101 |   50543    92822   189612 |   208371   382997    104 |
> restarts              : 790
> decisions             : 463892  (0 % random)
> conflicts             : 277162
> propagations          : 57169650
> conflict literals     : 253574665  (3.5004 % deleted)
> Current optimal value 7634 after 302543 ms
|    277162 |   50600    92936   189840 |   144695   191854    101 |
|    277263 |   50706    93148   190264 |   159164    96725    111 |
|    277414 |   50707    93150   190268 |   175081    98644    111 |
|    277641 |   50707    93150   190268 |   192589   101779    110 |
|    277979 |   50707    93150   190268 |   211848   105936    110 |
|    278486 |   50708    93152   190272 |   233033   112016    110 |
> restarts              : 797
> decisions             : 466644  (0 % random)
> conflicts             : 278753
> propagations          : 57703351
> conflict literals     : 254528593  (3.50077 % deleted)
> Current optimal value 7630 after 304291 ms
|    278753 |   50709    93154   190276 |   119073   114771    110 |
> restarts              : 798
> decisions             : 466831  (0 % random)
> conflicts             : 278844
> propagations          : 57763965
> conflict literals     : 254603441  (3.50114 % deleted)
> Current optimal value 7618 after 304417 ms
|    278844 |   50761    93258   190484 |   119261   115229    110 |
> restarts              : 799
> decisions             : 466970  (0 % random)
> conflicts             : 278902
> propagations          : 57820670
> conflict literals     : 254643981  (3.50129 % deleted)
> Current optimal value 7608 after 304518 ms
|    278902 |   50816    93368   190704 |   119412   115572    110 |
|    279003 |   50921    93578   191124 |   131353   116414    111 |
|    279153 |   50921    93578   191124 |   144488   117614    111 |
|    279380 |   50977    93690   191348 |   158937   119823    111 |
|    279719 |   51080    93896   191760 |   174831   122881    111 |
> restarts              : 805
> decisions             : 468540  (0 % random)
> conflicts             : 279763
> propagations          : 58208392
> conflict literals     : 255128531  (3.50269 % deleted)
> Current optimal value 7596 after 305552 ms
|    279763 |   51080    93896   191760 |   122111   123142    111 |
|    279863 |   51138    94012   191992 |   134322   123772    112 |
|    280014 |   51187    94110   192188 |   147754   124887    112 |
|    280240 |   51187    94110   192188 |   162530   126633    113 |
|    280580 |   51239    94214   192396 |   178783   130032    114 |
|    281087 |   51293    94322   192612 |   196661   134501    114 |
> restarts              : 813
> decisions             : 471079  (0 % random)
> conflicts             : 281271
> propagations          : 58768051
> conflict literals     : 256277772  (3.50728 % deleted)
> Current optimal value 7574 after 307142 ms
|    281271 |   51293    94322   192612 |   126450   135734    115 |
|    281371 |   51342    94420   192808 |   139095    68558    140 |
> restarts              : 814
> decisions             : 471343  (0 % random)
> conflicts             : 281431
> propagations          : 58836987
> conflict literals     : 256441535  (3.50843 % deleted)
> Current optimal value 7570 after 307379 ms
|    281431 |   51343    94422   192812 |   104258    69056    140 |
> restarts              : 815
> decisions             : 471436  (0 % random)
> conflicts             : 281457
> propagations          : 58890326
> conflict literals     : 256450480  (3.50851 % deleted)
> Current optimal value 7563 after 307454 ms
|    281457 |   51396    94528   193024 |   104349    69223    140 |
> restarts              : 816
> decisions             : 471502  (0 % random)
> conflicts             : 281460
> propagations          : 58941987
> conflict literals     : 256451798  (3.50852 % deleted)
> Current optimal value 7535 after 307518 ms
|    281460 |   51452    94640   193248 |   104408    69289    140 |
> restarts              : 817
> decisions             : 471573  (0 % random)
> conflicts             : 281463
> propagations          : 58993876
> conflict literals     : 256452842  (3.50853 % deleted)
> Current optimal value 7484 after 307582 ms
|    281463 |   51504    94744   193456 |   104464    69353    140 |
> restarts              : 818
> decisions             : 471656  (0 % random)
> conflicts             : 281479
> propagations          : 59046397
> conflict literals     : 256461521  (3.50869 % deleted)
> Current optimal value 7466 after 307654 ms
|    281479 |   51556    94848   193664 |   104535    69461    140 |
> restarts              : 819
> decisions             : 471732  (0 % random)
> conflicts             : 281491
> propagations          : 59098701
> conflict literals     : 256466341  (3.50873 % deleted)
> Current optimal value 7465 after 307723 ms
|    281491 |   51610    94956   193880 |   104603    69557    140 |
|    281591 |   51663    95062   194092 |   115063    70258    140 |
|    281741 |   51663    95062   194092 |   126569    72348    139 |
|    281967 |   51716    95168   194304 |   139226    76409    137 |
|    282307 |   51770    95276   194520 |   153149    82218    134 |
> restarts              : 825
> decisions             : 473635  (0 % random)
> conflicts             : 282484
> propagations          : 59511512
> conflict literals     : 257039849  (3.51027 % deleted)
> Current optimal value 7443 after 309013 ms
|    282484 |   51771    95278   194524 |   109895    85112    132 |
|    282585 |   51868    95472   194912 |   120884    85883    132 |
|    282735 |   51869    95474   194916 |   132973    87298    132 |
|    282961 |   51870    95476   194920 |   146270    90517    130 |
|    283298 |   51870    95476   194920 |   160897    95972    128 |
> restarts              : 828
> decisions             : 475107  (0 % random)
> conflicts             : 283313
> propagations          : 59747568
> conflict literals     : 257509074  (3.51062 % deleted)
> Current optimal value 7439 after 309914 ms
|    283313 |   51870    95476   194920 |   113627    96111    128 |
|    283413 |   51923    95582   195132 |   124990    97344    128 |
|    283563 |   51923    95582   195132 |   137489    99552    127 |
|    283789 |   51974    95684   195336 |   151238   103695    126 |
|    284126 |   51974    95684   195336 |   166362   109014    124 |
> restarts              : 830
> decisions             : 476967  (0 % random)
> conflicts             : 284533
> propagations          : 59979680
> conflict literals     : 258148927  (3.51362 % deleted)
> Current optimal value 7436 after 311159 ms
|    284533 |   51974    95684   195336 |   119357   113093    123 |
|    284633 |   52026    95788   195544 |   131293   113939    123 |
|    284783 |   52026    95788   195544 |   144422   116192    123 |
|    285008 |   52026    95788   195544 |   158865   119480    122 |
|    285345 |   52027    95790   195548 |   174751   122574    122 |
|    285851 |   52027    95790   195548 |   192226   129948    120 |
|    286610 |   52029    95794   195556 |   211449   142971    117 |
> restarts              : 833
> decisions             : 480731  (0 % random)
> conflicts             : 287096
> propagations          : 60413384
> conflict literals     : 259597031  (3.52118 % deleted)
> Current optimal value 7421 after 313695 ms
|    287096 |   52075    95886   195740 |   130858   147392    118 |
|    287196 |   52135    96006   195980 |   143943    74614     98 |
|    287348 |   52241    96218   196404 |   158338    76193     99 |
|    287574 |   52241    96218   196404 |   174171    78496     99 |
|    287912 |   52292    96320   196608 |   191589    83533     98 |
|    288422 |   52503    96742   197452 |   210748    91785     97 |
|    289184 |   52503    96742   197452 |   231822   104139     95 |
|    290327 |   52505    96746   197460 |   255005   123661     93 |
|    292045 |   52700    97136   198240 |   280505   150593     92 |
> restarts              : 860
> decisions             : 490597  (0 % random)
> conflicts             : 292323
> propagations          : 62354828
> conflict literals     : 262100861  (3.52415 % deleted)
> Current optimal value 7411 after 319899 ms
|    292323 |   52750    97236   198440 |   133529   154055     92 |
|    292423 |   52802    97340   198648 |   146881    78195     86 |
|    292573 |   52802    97340   198648 |   161570    80005     86 |
|    292798 |   52802    97340   198648 |   177727    82068     88 |
> restarts              : 861
> decisions             : 491450  (0 % random)
> conflicts             : 292915
> propagations          : 62470263
> conflict literals     : 262512920  (3.52645 % deleted)
> Current optimal value 7393 after 320517 ms
|    292915 |   52802    97340   198648 |   109888    83030     89 |
|    293015 |   52853    97442   198852 |   120877    83599     90 |
|    293166 |   52909    97554   199076 |   132965    84869     91 |
|    293392 |   52910    97556   199080 |   146261    86689     94 |
|    293732 |   52910    97556   199080 |   160887    90212     97 |
|    294240 |   53009    97754   199476 |   176976    96360    100 |
|    295005 |   53313    98362   200692 |   194674   104414    105 |
|    296145 |   53361    98458   200884 |   214141   121188    106 |
|    297864 |   53808    99351   202670 |   235556   147675    108 |
> restarts              : 890
> decisions             : 501016  (0 % random)
> conflicts             : 298284
> propagations          : 64574654
> conflict literals     : 267615632  (3.53548 % deleted)
> Current optimal value 7382 after 327320 ms
|    298284 |   53859    99453   202874 |   133134   150655    110 |
|    298384 |   53909    99553   203074 |   146448    75874    133 |
|    298534 |   53910    99555   203078 |   161092    77185    134 |
|    298760 |   53963    99661   203290 |   177202    78814    135 |
|    299097 |   53964    99663   203294 |   194922    81728    135 |
|    299603 |   53964    99663   203294 |   214414    87864    133 |
|    300363 |   53964    99663   203294 |   235856    97329    134 |
|    301502 |   53964    99663   203294 |   259441   112241    133 |
|    303210 |   53965    99665   203298 |   285385   134788    131 |
|    305773 |   53967    99669   203306 |   313924   170603    129 |
> restarts              : 894
> decisions             : 517543  (0 % random)
> conflicts             : 309357
> propagations          : 65926529
> conflict literals     : 275933192  (3.55437 % deleted)
> Current optimal value 7376 after 339019 ms
|    309357 |   53967    99669   203306 |   157773   224354    122 |
> restarts              : 895
> decisions             : 517624  (0 % random)
> conflicts             : 309365
> propagations          : 65980811
> conflict literals     : 275938940  (3.55438 % deleted)
> Current optimal value 7373 after 339163 ms
|    309365 |   54020    99775   203518 |   120442   112255    110 |
|    309465 |   54071    99877   203722 |   132486   112770    111 |
|    309615 |   54071    99877   203722 |   145734   114002    112 |
|    309841 |   54122    99979   203926 |   160308   116772    112 |
|    310180 |   54176   100087   204142 |   176339   122122    112 |
|    310688 |   54176   100087   204142 |   193973   127995    113 |
|    311453 |   54176   100087   204142 |   213370   138542    113 |
|    312594 |   54176   100087   204142 |   234707   153364    113 |
> restarts              : 909
> decisions             : 523278  (0 % random)
> conflicts             : 312629
> propagations          : 67030614
> conflict literals     : 278398498  (3.56151 % deleted)
> Current optimal value 7369 after 343094 ms
|    312629 |   54176   100087   204142 |   134329   153605    113 |
|    312729 |   54225   100185   204338 |   147762    77521    110 |
|    312880 |   54274   100283   204534 |   162538    78645    114 |
|    313107 |   54274   100283   204534 |   178792    81061    115 |
|    313446 |   54274   100283   204534 |   196671    85498    116 |
|    313954 |   54274   100283   204534 |   216338    91980    117 |
|    314719 |   54275   100285   204538 |   237972   101041    119 |
> restarts              : 923
> decisions             : 527587  (0 % random)
> conflicts             : 314996
> propagations          : 68005556
> conflict literals     : 280665846  (3.56967 % deleted)
> Current optimal value 7358 after 346144 ms
|    314996 |   54275   100285   204538 |   117658   103394    119 |
|    315096 |   54323   100381   204730 |   129424   103893    119 |
|    315247 |   54372   100479   204926 |   142366   104881    120 |
|    315472 |   54372   100479   204926 |   156603   106590    120 |
|    315809 |   54372   100479   204926 |   172263   111092    121 |
|    316315 |   54372   100479   204926 |   189489   118898    121 |
|    317077 |   54420   100575   205118 |   208438   127436    123 |
|    318223 |   54630   100995   205958 |   229282   147510    119 |
|    319937 |   54778   101291   206550 |   252211   177357    115 |
|    322513 |   55128   101991   207950 |   277432   224404    114 |
|    326359 |   55233   102201   208370 |   305175   290985    115 |
> restarts              : 957
> decisions             : 547253  (0 % random)
> conflicts             : 326418
> propagations          : 70960457
> conflict literals     : 290848942  (3.57676 % deleted)
> Current optimal value 7354 after 360650 ms
|    326418 |   55233   102201   208370 |   181012   291539    115 |
|    326518 |   55279   102293   208554 |   199113   146485    112 |
|    326668 |   55279   102293   208554 |   219024   148106    112 |
|    326893 |   55279   102293   208554 |   240926   150572    113 |
|    327230 |   55279   102293   208554 |   265019   156044    113 |
|    327736 |   55279   102293   208554 |   291521   162500    115 |
|    328500 |   55384   102503   208974 |   320673   175397    116 |
|    329646 |   55387   102509   208986 |   352741   199905    115 |
|    331359 |   55443   102621   209210 |   388015   238642    114 |
> restarts              : 987
> decisions             : 560386  (0 % random)
> conflicts             : 333744
> propagations          : 73342967
> conflict literals     : 298765620  (3.57831 % deleted)
> Current optimal value 7337 after 370678 ms
|    333744 |   55596   102927   209822 |   176373   276897    114 |
> restarts              : 988
> decisions             : 560494  (0 % random)
> conflicts             : 333781
> propagations          : 73402646
> conflict literals     : 298824477  (3.57828 % deleted)
> Current optimal value 7324 after 370874 ms
|    333781 |   55644   103023   210014 |   130362   138767    120 |
|    333881 |   55694   103123   210214 |   143398    70523    120 |
|    334031 |   55694   103123   210214 |   157738    72997    120 |
|    334257 |   55747   103229   210426 |   173511    76279    119 |
|    334596 |   55747   103229   210426 |   190863    80585    118 |
|    335105 |   55795   103325   210618 |   209949    88094    118 |
|    335869 |   55849   103433   210834 |   230944    98358    116 |
|    337011 |   55899   103533   211034 |   254038   118902    112 |
|    338729 |   56186   104107   212182 |   279442   142675    114 |
|    341297 |   56253   104241   212450 |   307386   183358    113 |
|    345142 |   56310   104355   212678 |   338125   249432    107 |
|    350909 |   56391   104517   213002 |   371938   360658    104 |
|    359559 |   56444   104623   213214 |   409131   269973    100 |
> restarts              : 1023
> decisions             : 613189  (0 % random)
> conflicts             : 365621
> propagations          : 78305485
> conflict literals     : 320963803  (3.63846 % deleted)
> Current optimal value 7304 after 406250 ms
|    365621 |   56491   104717   213402 |   205514   362530    100 |
|    365721 |   56547   104829   213626 |   226065   181972    102 |
|    365871 |   56547   104829   213626 |   248672   183689    102 |
|    366096 |   56547   104829   213626 |   273539   185763    103 |
|    366433 |   56548   104831   213630 |   300893   189368    104 |
> restarts              : 1024
> decisions             : 614561  (0 % random)
> conflicts             : 366598
> propagations          : 78453881
> conflict literals     : 321796832  (3.64269 % deleted)
> Current optimal value 7303 after 407359 ms
|    366598 |   56548   104831   213630 |   148593   191654    104 |
|    366698 |   56597   104929   213826 |   163453    96801    102 |
|    366848 |   56597   104929   213826 |   179798    98300    103 |
|    367073 |   56597   104929   213826 |   197778   100460    104 |
|    367410 |   56597   104929   213826 |   217555   104078    105 |
|    367916 |   56597   104929   213826 |   239311   109809    105 |
|    368675 |   56597   104929   213826 |   263242   117301    108 |
|    369814 |   56597   104929   213826 |   289567   129491    110 |
|    371522 |   56597   104929   213826 |   318523   149983    112 |
|    374084 |   56597   104929   213826 |   350376   179144    117 |
|    377928 |   56597   104929   213826 |   385413   223882    122 |
|    383694 |   56599   104933   213834 |   423955   287706    122 |
|    392356 |   57054   105843   215654 |   466350   398739    120 |
> restarts              : 1083
> decisions             : 668258  (0 % random)
> conflicts             : 403109
> propagations          : 85340570
> conflict literals     : 350225587  (3.78322 % deleted)
> Current optimal value 7301 after 447048 ms
|    403109 |   57510   106755   217478 |   158317   218900    121 |
> restarts              : 1084
> decisions             : 668328  (0 % random)
> conflicts             : 403111
> propagations          : 85398143
> conflict literals     : 350225928  (3.78322 % deleted)
> Current optimal value 7299 after 447183 ms
|    403111 |   57558   106851   217670 |   121886   109511    124 |
> restarts              : 1085
> decisions             : 668437  (0 % random)
> conflicts             : 403136
> propagations          : 85459277
> conflict literals     : 350253540  (3.78322 % deleted)
> Current optimal value 7272 after 447269 ms
|    403136 |   57607   106949   217866 |   121965   109652    124 |
> restarts              : 1086
> decisions             : 668512  (0 % random)
> conflicts             : 403138
> propagations          : 85517051
> conflict literals     : 350255148  (3.78321 % deleted)
> Current optimal value 7235 after 447339 ms
|    403138 |   57655   107045   218058 |   122018   109714    124 |
> restarts              : 1087
> decisions             : 668585  (0 % random)
> conflicts             : 403140
> propagations          : 85574772
> conflict literals     : 350256767  (3.78323 % deleted)
> Current optimal value 7234 after 447409 ms
|    403140 |   57704   107143   218254 |   122071   109774    124 |
> restarts              : 1088
> decisions             : 668658  (0 % random)
> conflicts             : 403145
> propagations          : 85632823
> conflict literals     : 350261845  (3.78324 % deleted)
> Current optimal value 7223 after 447483 ms
|    403145 |   57754   107243   218454 |   122127   109843    124 |
> restarts              : 1089
> decisions             : 668761  (0 % random)
> conflicts             : 403178
> propagations          : 85694077
> conflict literals     : 350299006  (3.78331 % deleted)
> Current optimal value 7218 after 447579 ms
|    403178 |   57806   107347   218662 |   122228   110041    125 |
> restarts              : 1091
> decisions             : 668939  (0 % random)
> conflicts             : 403225
> propagations          : 85813341
> conflict literals     : 350345047  (3.78346 % deleted)
> Current optimal value 7194 after 447758 ms
|    403225 |   57907   107549   219066 |   122385   110311    125 |
> restarts              : 1092
> decisions             : 669030  (0 % random)
> conflicts             : 403250
> propagations          : 85872849
> conflict literals     : 350381845  (3.78351 % deleted)
> Current optimal value 7192 after 447843 ms
|    403250 |   57954   107643   219254 |   122464   110455    125 |
> restarts              : 1093
> decisions             : 669122  (0 % random)
> conflicts             : 403276
> propagations          : 85932657
> conflict literals     : 350422422  (3.78363 % deleted)
> Current optimal value 7168 after 447933 ms
|    403276 |   58006   107747   219462 |   122562   110643    126 |
|    403377 |   58102   107939   219846 |   134818   112080    125 |
> restarts              : 1096
> decisions             : 669618  (0 % random)
> conflicts             : 403496
> propagations          : 86124732
> conflict literals     : 350579872  (3.78438 % deleted)
> Current optimal value 7150 after 448329 ms
|    403496 |   58153   108041   220050 |   123400   112865    126 |
|    403597 |   58255   108245   220458 |   135740   113714    126 |
|    403749 |   58347   108429   220826 |   149314   115555    126 |
> restarts              : 1100
> decisions             : 670381  (0 % random)
> conflicts             : 403840
> propagations          : 86384940
> conflict literals     : 350858421  (3.78466 % deleted)
> Current optimal value 7136 after 448878 ms
|    403840 |   58347   108429   220826 |   124635   116182    126 |
> restarts              : 1102
> decisions             : 670577  (0 % random)
> conflicts             : 403907
> propagations          : 86506586
> conflict literals     : 350922169  (3.78476 % deleted)
> Current optimal value 7134 after 449083 ms
|    403907 |   58449   108633   221234 |   124857   116643    127 |
|    404007 |   58498   108731   221430 |   137343   117247    127 |
|    404157 |   58498   108731   221430 |   151077   118095    128 |
> restarts              : 1103
> decisions             : 670948  (0 % random)
> conflicts             : 404177
> propagations          : 86586849
> conflict literals     : 351180710  (3.78547 % deleted)
> Current optimal value 7110 after 449366 ms
|    404177 |   58498   108731   221430 |   125412   118211    128 |
|    404277 |   58548   108831   221630 |   137953   118790    129 |
|    404427 |   58548   108831   221630 |   151749   119716    129 |
|    404652 |   58548   108831   221630 |   166924   121483    129 |
> restarts              : 1106
> decisions             : 672137  (0 % random)
> conflicts             : 404980
> propagations          : 86832592
> conflict literals     : 351779250  (3.78732 % deleted)
> Current optimal value 7092 after 450201 ms
|    404980 |   58597   108929   221826 |   127377   123906    129 |
|    405081 |   58691   109117   222202 |   140114   124846    129 |
|    405232 |   58740   109215   222398 |   154126   125925    129 |
|    405457 |   58740   109215   222398 |   169538   128188    129 |
|    405796 |   58834   109403   222774 |   186492   130777    130 |
> restarts              : 1114
> decisions             : 674170  (0 % random)
> conflicts             : 406101
> propagations          : 87397801
> conflict literals     : 352558926  (3.79061 % deleted)
> Current optimal value 7090 after 451669 ms
|    406101 |   58981   109697   223362 |   130905   133724    130 |
> restarts              : 1115
> decisions             : 674241  (0 % random)
> conflicts             : 406108
> propagations          : 87457117
> conflict literals     : 352568184  (3.79065 % deleted)
> Current optimal value 7088 after 451784 ms
|    406108 |   59029   109793   223554 |   108682    66958    124 |
> restarts              : 1116
> decisions             : 674333  (0 % random)
> conflicts             : 406130
> propagations          : 87517604
> conflict literals     : 352589502  (3.79071 % deleted)
> Current optimal value 7064 after 451868 ms
|    406130 |   59082   109899   223766 |   108777    67137    124 |
|    406231 |   59179   110093   224154 |   119655    67901    124 |
> restarts              : 1118
> decisions             : 674776  (0 % random)
> conflicts             : 406362
> propagations          : 87652092
> conflict literals     : 352787130  (3.79156 % deleted)
> Current optimal value 7058 after 452173 ms
|    406362 |   59179   110093   224154 |   109421    68874    125 |
> restarts              : 1119
> decisions             : 674846  (0 % random)
> conflicts             : 406368
> propagations          : 87711702
> conflict literals     : 352794458  (3.79159 % deleted)
> Current optimal value 7046 after 452245 ms
|    406368 |   59226   110187   224342 |   109478    68951    125 |
> restarts              : 1120
> decisions             : 674907  (0 % random)
> conflicts             : 406369
> propagations          : 87770980
> conflict literals     : 352794678  (3.79159 % deleted)
> Current optimal value 7042 after 452311 ms
|    406369 |   59270   110275   224518 |   109526    69007    125 |
|    406469 |   59319   110373   224714 |   120478    69694    126 |
|    406619 |   59319   110373   224714 |   132526    71362    127 |
|    406844 |   59319   110373   224714 |   145779    74011    127 |
|    407181 |   59320   110375   224718 |   160357    79892    124 |
|    407687 |   59320   110375   224718 |   176392    87548    122 |
> restarts              : 1122
> decisions             : 677214  (0 % random)
> conflicts             : 407845
> propagations          : 88025668
> conflict literals     : 353897679  (3.79503 % deleted)
> Current optimal value 7026 after 453833 ms
|    407845 |   59368   110471   224910 |   116245    88969    123 |
> restarts              : 1123
> decisions             : 677328  (0 % random)
> conflicts             : 407885
> propagations          : 88088349
> conflict literals     : 353954138  (3.79539 % deleted)
> Current optimal value 7001 after 453936 ms
|    407885 |   59418   110571   225110 |   116377    89266    123 |
|    407986 |   59522   110779   225526 |   128015    89870    125 |
|    408136 |   59522   110779   225526 |   140816    92121    124 |
|    408362 |   59572   110879   225726 |   154898    95352    124 |
|    408702 |   59623   110981   225930 |   170388    98943    125 |
|    409211 |   59624   110983   225934 |   187427   106416    125 |
> restarts              : 1133
> decisions             : 680593  (0 % random)
> conflicts             : 409685
> propagations          : 88849638
> conflict literals     : 355676193  (3.8014 % deleted)
> Current optimal value 6999 after 456266 ms
|    409685 |   59624   110983   225934 |   124304   112633    125 |
|    409785 |   59668   111071   226110 |   136734   113190    126 |
|    409935 |   59668   111071   226110 |   150407   114143    127 |
|    410160 |   59668   111071   226110 |   165448   116369    128 |
|    410499 |   59719   111173   226314 |   181993   120309    130 |
|    411009 |   59764   111263   226494 |   200192   125886    133 |
|    411771 |   59764   111263   226494 |   220212   136640    131 |
|    412915 |   59891   111517   227002 |   242233   152571    130 |
|    414624 |   59891   111517   227002 |   266456   175613    127 |
> restarts              : 1150
> decisions             : 692838  (0 % random)
> conflicts             : 417126
> propagations          : 90567049
> conflict literals     : 362771696  (3.81461 % deleted)
> Current optimal value 6996 after 464415 ms
|    417126 |   59892   111519   227006 |   156966   210084    127 |
|    417226 |   59943   111621   227210 |   172662   105837    128 |
> restarts              : 1151
> decisions             : 693037  (0 % random)
> conflicts             : 417237
> propagations          : 90637670
> conflict literals     : 362856120  (3.81508 % deleted)
> Current optimal value 6994 after 464672 ms
|    417237 |   59943   111621   227210 |   122271   105898    128 |
|    417337 |   59990   111715   227398 |   134498   106824    128 |
|    417487 |   59990   111715   227398 |   147948   108648    128 |
|    417712 |   59990   111715   227398 |   162743   111718    128 |
|    418049 |   59990   111715   227398 |   179017   115802    129 |
|    418558 |   60042   111819   227606 |   196919   122617    130 |
|    419321 |   60088   111911   227790 |   216611   129484    134 |
|    420466 |   60375   112485   228938 |   238272   142435    134 |
|    422182 |   60755   113245   230458 |   262100   158448    135 |
> restarts              : 1182
> decisions             : 705241  (0 % random)
> conflicts             : 424745
> propagations          : 93186790
> conflict literals     : 370202959  (3.84478 % deleted)
> Current optimal value 6989 after 473331 ms
|    424745 |   61102   113939   231846 |   148836   183275    138 |
|    424845 |   61151   114037   232042 |   163720    92275    148 |
|    424995 |   61151   114037   232042 |   180092    93338    148 |
|    425220 |   61151   114037   232042 |   198101    95870    148 |
|    425557 |   61151   114037   232042 |   217911    99330    147 |
|    426063 |   61151   114037   232042 |   239702   105052    146 |
> restarts              : 1184
> decisions             : 707293  (0 % random)
> conflicts             : 426137
> propagations          : 93439367
> conflict literals     : 371404329  (3.85264 % deleted)
> Current optimal value 6950 after 474743 ms
|    426137 |   61199   114133   232234 |   123041   105694    146 |
|    426238 |   61295   114325   232618 |   135345   106624    147 |
|    426389 |   61338   114411   232790 |   148879   107869    148 |
|    426616 |   61427   114589   233146 |   163767   110022    148 |
> restarts              : 1189
> decisions             : 708527  (0 % random)
> conflicts             : 426823
> propagations          : 93810805
> conflict literals     : 372237522  (3.8576 % deleted)
> Current optimal value 6927 after 475681 ms
|    426823 |   61427   114589   233146 |   125064   111307    150 |
> restarts              : 1190
> decisions             : 708633  (0 % random)
> conflicts             : 426858
> propagations          : 93875597
> conflict literals     : 372283617  (3.85786 % deleted)
> Current optimal value 6922 after 475777 ms
|    426858 |   61474   114683   233334 |   125170   111533    150 |
> restarts              : 1191
> decisions             : 708704  (0 % random)
> conflicts             : 426865
> propagations          : 93937476
> conflict literals     : 372292332  (3.85791 % deleted)
> Current optimal value 6914 after 475867 ms
|    426865 |   61521   114777   233522 |   125227   111608    150 |
|    426965 |   61566   114867   233702 |   137749   112213    151 |
|    427117 |   61660   115055   234078 |   151524   113405    152 |
> restarts              : 1194
> decisions             : 709233  (0 % random)
> conflicts             : 427140
> propagations          : 94146586
> conflict literals     : 372658640  (3.86001 % deleted)
> Current optimal value 6886 after 476301 ms
|    427140 |   61660   115055   234078 |   125979   113587    152 |
|    427241 |   61753   115241   234450 |   138577   114310    152 |
> restarts              : 1196
> decisions             : 709623  (0 % random)
> conflicts             : 427356
> propagations          : 94288845
> conflict literals     : 372915262  (3.86164 % deleted)
> Current optimal value 6885 after 476626 ms
|    427356 |   61753   115241   234450 |   126555   115129    153 |
> restarts              : 1197
> decisions             : 709706  (0 % random)
> conflicts             : 427376
> propagations          : 94351818
> conflict literals     : 372948334  (3.86184 % deleted)
> Current optimal value 6875 after 476712 ms
|    427376 |   61802   115339   234646 |   126648   115310    153 |
|    427476 |   61849   115433   234834 |   139313   116142    154 |
|    427627 |   61893   115521   235010 |   153244   117413    154 |
|    427853 |   61893   115521   235010 |   168568   120267    153 |
|    428193 |   61939   115613   235194 |   185425   124231    152 |
|    428701 |   61988   115711   235390 |   203968   131104    151 |
|    429465 |   62223   116181   236330 |   224365   139236    152 |
|    430606 |   62312   116359   236686 |   246801   147825    156 |
> restarts              : 1212
> decisions             : 715384  (0 % random)
> conflicts             : 430647
> propagations          : 95574629
> conflict literals     : 376466222  (3.87549 % deleted)
> Current optimal value 6870 after 480794 ms
|    430647 |   62312   116359   236686 |   137913   148085    156 |
|    430748 |   62405   116545   237058 |   151704    74873    163 |
|    430898 |   62405   116545   237058 |   166875    76088    164 |
|    431123 |   62405   116545   237058 |   183562    77989    164 |
|    431460 |   62405   116545   237058 |   201918    80862    165 |
|    431966 |   62405   116545   237058 |   222110    85471    166 |
> restarts              : 1214
> decisions             : 717329  (0 % random)
> conflicts             : 432049
> propagations          : 95830833
> conflict literals     : 378054957  (3.88441 % deleted)
> Current optimal value 6866 after 482197 ms
|    432049 |   62405   116545   237058 |   117313    86100    167 |
|    432149 |   62451   116637   237242 |   129045    86677    167 |
|    432299 |   62451   116637   237242 |   141949    87751    168 |
|    432524 |   62451   116637   237242 |   156144    89429    170 |
|    432861 |   62451   116637   237242 |   171758    92308    171 |
|    433367 |   62452   116639   237246 |   188934    98316    170 |
> restarts              : 1217
> decisions             : 720250  (0 % random)
> conflicts             : 434102
> propagations          : 96223327
> conflict literals     : 380434268  (3.89708 % deleted)
> Current optimal value 6857 after 484353 ms
|    434102 |   62546   116827   237622 |   123778   105212    171 |
> restarts              : 1218
> decisions             : 720327  (0 % random)
> conflicts             : 434111
> propagations          : 96286331
> conflict literals     : 380436696  (3.8971 % deleted)
> Current optimal value 6833 after 484431 ms
|    434111 |   62595   116925   237818 |   123847   105320    171 |
|    434212 |   62683   117101   238170 |   136231   106199    171 |
|    434362 |   62683   117101   238170 |   149854   107394    170 |
|    434588 |   62683   117101   238170 |   164840   109209    171 |
|    434927 |   62731   117197   238362 |   181324   112386    170 |
|    435437 |   62809   117353   238674 |   199456   118759    170 |
|    436198 |   62895   117525   239018 |   219402   128355    168 |
|    437342 |   63076   117887   239742 |   241342   140609    167 |
|    439059 |   63172   118079   240126 |   265477   160218    162 |
|    441624 |   63265   118265   240498 |   292024   184847    155 |
> restarts              : 1251
> decisions             : 733888  (0 % random)
> conflicts             : 442356
> propagations          : 99164274
> conflict literals     : 386918821  (3.91968 % deleted)
> Current optimal value 6822 after 493693 ms
|    442356 |   63312   118359   240686 |   152899   191044    154 |
|    442457 |   63408   118551   241070 |   168189    96285    133 |
|    442609 |   63408   118551   241070 |   185008    97684    133 |
|    442835 |   63408   118551   241070 |   203509    99652    132 |
|    443174 |   63408   118551   241070 |   223860   102798    131 |
|    443682 |   63408   118551   241070 |   246246   107744    130 |
|    444442 |   63457   118649   241266 |   270871   116063    128 |
|    445587 |   63649   119033   242034 |   297958   127366    131 |
|    447303 |   63744   119223   242414 |   327754   148356    127 |
|    449867 |   63836   119407   242782 |   360529   172383    129 |
> restarts              : 1277
> decisions             : 747297  (0 % random)
> conflicts             : 450808
> propagations          : 101723972
> conflict literals     : 392480820  (3.9343 % deleted)
> Current optimal value 6757 after 502598 ms
|    450808 |   63836   119407   242782 |   149794   180680    129 |
|    450908 |   63885   119505   242978 |   164773    91112    120 |
|    451058 |   63885   119505   242978 |   181251    92417    120 |
|    451283 |   63885   119505   242978 |   199376    94626    120 |
|    451620 |   63885   119505   242978 |   219313    98021    120 |
|    452126 |   63885   119505   242978 |   241245   106083    119 |
> restarts              : 1278
> decisions             : 749449  (0 % random)
> conflicts             : 452203
> propagations          : 101927610
> conflict literals     : 393408579  (3.9366 % deleted)
> Current optimal value 6737 after 504042 ms
|    452203 |   63885   119505   242978 |   125297   107090    118 |
|    452303 |   63935   119605   243178 |   137826   107902    119 |
|    452454 |   63983   119701   243370 |   151609   109552    119 |
|    452681 |   64067   119869   243706 |   166770   111757    119 |
|    453021 |   64160   120055   244078 |   183447   116761    118 |
> restarts              : 1285
> decisions             : 751259  (0 % random)
> conflicts             : 453133
> propagations          : 102465525
> conflict literals     : 394123860  (3.93935 % deleted)
> Current optimal value 6733 after 505359 ms
|    453133 |   64160   120055   244078 |   129009   117678    119 |
|    453234 |   64250   120235   244438 |   141910   118515    119 |
|    453385 |   64250   120235   244438 |   156101   120095    119 |
|    453612 |   64250   120235   244438 |   171711   122496    119 |
> restarts              : 1290
> decisions             : 752237  (0 % random)
> conflicts             : 453638
> propagations          : 102827283
> conflict literals     : 394481685  (3.94071 % deleted)
> Current optimal value 6730 after 506074 ms
|    453638 |   64250   120235   244438 |   130748   122715    120 |
|    453739 |   64346   120427   244822 |   143823   123370    120 |
|    453889 |   64346   120427   244822 |   158205   124373    120 |
> restarts              : 1293
> decisions             : 752784  (0 % random)
> conflicts             : 453922
> propagations          : 103041285
> conflict literals     : 394632667  (3.94177 % deleted)
> Current optimal value 6713 after 506469 ms
|    453922 |   64346   120427   244822 |   131438   124591    120 |
> restarts              : 1294
> decisions             : 752874  (0 % random)
> conflicts             : 453938
> propagations          : 103106907
> conflict literals     : 394644362  (3.94182 % deleted)
> Current optimal value 6705 after 506555 ms
|    453938 |   64393   120521   245010 |   131517   124735    120 |
> restarts              : 1295
> decisions             : 753002  (0 % random)
> conflicts             : 453998
> propagations          : 103176622
> conflict literals     : 394693714  (3.94195 % deleted)
> Current optimal value 6687 after 506674 ms
|    453998 |   64440   120615   245198 |   131677   125121    120 |
|    454098 |   64489   120713   245394 |   144845   126223    120 |
|    454248 |   64489   120713   245394 |   159329   127290    120 |
|    454474 |   64537   120809   245586 |   175262   130163    120 |
|    454814 |   64582   120899   245766 |   192788   133305    120 |
|    455322 |   64582   120899   245766 |   212067   140254    119 |
|    456086 |   64630   120995   245958 |   233274   146887    122 |
|    457227 |   64630   120995   245958 |   256601   158794    123 |
> restarts              : 1310
> decisions             : 759198  (0 % random)
> conflicts             : 457676
> propagations          : 104470464
> conflict literals     : 397660539  (3.95097 % deleted)
> Current optimal value 6661 after 510878 ms
|    457676 |   64630   120995   245958 |   144397   162902    124 |
|    457776 |   64679   121093   246154 |   158837    82136    125 |
|    457926 |   64679   121093   246154 |   174721    83142    125 |
|    458151 |   64679   121093   246154 |   192193    85412    125 |
> restarts              : 1311
> decisions             : 759934  (0 % random)
> conflicts             : 458219
> propagations          : 104583717
> conflict literals     : 397981635  (3.95187 % deleted)
> Current optimal value 6659 after 511473 ms
|    458219 |   64679   121093   246154 |   118838    86127    125 |
|    458319 |   64727   121189   246346 |   130722    86937    125 |
|    458469 |   64727   121189   246346 |   143794    87769    127 |
|    458694 |   64727   121189   246346 |   158174    89807    127 |
|    459032 |   64776   121287   246542 |   173991    93959    126 |
> restarts              : 1315
> decisions             : 761598  (0 % random)
> conflicts             : 459257
> propagations          : 104927174
> conflict literals     : 398797288  (3.95477 % deleted)
> Current optimal value 6641 after 512580 ms
|    459257 |   64854   121443   246854 |   121994    95245    127 |
|    459358 |   64956   121647   247262 |   134194    95804    128 |
|    459508 |   64956   121647   247262 |   147613    96682    129 |
|    459734 |   65005   121745   247458 |   162374    98302    130 |
|    460073 |   65056   121847   247662 |   178612   100704    131 |
|    460583 |   65101   121937   247842 |   196473   108433    129 |
|    461343 |   65151   122037   248042 |   216120   118161    126 |
|    462488 |   65372   122479   248926 |   237733   128384    126 |
|    464205 |   65416   122567   249102 |   261506   145897    128 |
|    466769 |   65417   122569   249106 |   287657   180652    125 |
|    470620 |   65554   122843   249654 |   316422   236624    123 |
|    476410 |   66685   125105   254178 |   348065   320840    118 |
> restarts              : 1401
> decisions             : 803036  (0 % random)
> conflicts             : 482870
> propagations          : 112816021
> conflict literals     : 416305565  (3.98816 % deleted)
> Current optimal value 6631 after 541137 ms
|    482870 |   67873   127481   258930 |   173301   243128    107 |
> restarts              : 1402
> decisions             : 803121  (0 % random)
> conflicts             : 482889
> propagations          : 112885976
> conflict literals     : 416340119  (3.98832 % deleted)
> Current optimal value 6618 after 541301 ms
|    482889 |   67915   127565   259098 |   132858   121713     99 |
|    482990 |   68009   127753   259474 |   146143   122320    100 |
|    483140 |   68009   127753   259474 |   160758   123588    101 |
|    483365 |   68009   127753   259474 |   176833   126056    101 |
|    483702 |   68009   127753   259474 |   194517   129385    103 |
|    484208 |   68009   127753   259474 |   213969   134693    103 |
|    484968 |   68055   127845   259658 |   235366   143841    105 |
|    486107 |   68055   127845   259658 |   258902   159330    104 |
|    487816 |   68102   127939   259846 |   284792   180190    107 |
|    490378 |   68102   127939   259846 |   313272   216009    107 |
|    494224 |   68201   128137   260242 |   344599   270073    110 |
> restarts              : 1427
> decisions             : 827756  (0 % random)
> conflicts             : 498050
> propagations          : 115996623
> conflict literals     : 428586480  (4.01442 % deleted)
> Current optimal value 6592 after 557305 ms
|    498050 |   68824   129383   262734 |   199726   320499    112 |
|    498151 |   68918   129571   263110 |   219698   160946    117 |
|    498303 |   68918   129571   263110 |   241668   161821    118 |
> restarts              : 1431
> decisions             : 828512  (0 % random)
> conflicts             : 498463
> propagations          : 116313059
> conflict literals     : 428994291  (4.01573 % deleted)
> Current optimal value 6591 after 558023 ms
|    498463 |   68918   129571   263110 |   147220   162795    119 |
> restarts              : 1433
> decisions             : 828715  (0 % random)
> conflicts             : 498534
> propagations          : 116456773
> conflict literals     : 429070584  (4.01613 % deleted)
> Current optimal value 6567 after 558258 ms
|    498534 |   69008   129751   263470 |   120277    81786    117 |
|    498635 |   69101   129937   263842 |   132305    82401    118 |
|    498785 |   69101   129937   263842 |   145535    83160    120 |
> restarts              : 1435
> decisions             : 829160  (0 % random)
> conflicts             : 498799
> propagations          : 116618157
> conflict literals     : 429373946  (4.01753 % deleted)
> Current optimal value 6558 after 558594 ms
|    498799 |   69101   129937   263842 |   120814    83210    120 |
> restarts              : 1436
> decisions             : 829298  (0 % random)
> conflicts             : 498864
> propagations          : 116692949
> conflict literals     : 429427979  (4.01779 % deleted)
> Current optimal value 6553 after 558707 ms
|    498864 |   69146   130027   264022 |   120938    83493    121 |
> restarts              : 1437
> decisions             : 829366  (0 % random)
> conflicts             : 498868
> propagations          : 116762513
> conflict literals     : 429433004  (4.01782 % deleted)
> Current optimal value 6540 after 558782 ms
|    498868 |   69195   130125   264218 |   120995    83565    121 |
|    498968 |   69241   130217   264402 |   133094    84024    122 |
|    499120 |   69289   130313   264594 |   146404    84807    124 |
|    499346 |   69289   130313   264594 |   161044    85842    126 |
|    499685 |   69379   130493   264954 |   177149    88140    129 |
|    500193 |   69471   130677   265322 |   194864    92678    129 |
> restarts              : 1447
> decisions             : 831804  (0 % random)
> conflicts             : 500321
> propagations          : 117584338
> conflict literals     : 430984910  (4.0247 % deleted)
> Current optimal value 6514 after 560540 ms
|    500321 |   69560   130855   265678 |   124604    93662    130 |
|    500421 |   69605   130945   265858 |   137064    94617    131 |
|    500572 |   69651   131037   266042 |   150771    96406    130 |
|    500798 |   69701   131137   266242 |   165848    99640    130 |
> restarts              : 1451
> decisions             : 832899  (0 % random)
> conflicts             : 500909
> propagations          : 117917459
> conflict literals     : 431443527  (4.02554 % deleted)
> Current optimal value 6482 after 561337 ms
|    500909 |   69747   131229   266426 |   127004   100487    130 |
|    501009 |   69795   131325   266618 |   139704   101027    131 |
|    501159 |   69795   131325   266618 |   153674   102318    131 |
|    501386 |   69842   131419   266806 |   169042   105153    130 |
|    501726 |   69888   131511   266990 |   185946   109769    130 |
|    502234 |   69888   131511   266990 |   204541   116608    131 |
|    502998 |   69989   131713   267394 |   224995   124602    132 |
> restarts              : 1467
> decisions             : 838305  (0 % random)
> conflicts             : 504068
> propagations          : 119341191
> conflict literals     : 434522098  (4.02931 % deleted)
> Current optimal value 6465 after 565114 ms
|    504068 |   70121   131977   267922 |   139121   136092    133 |
|    504168 |   70169   132073   268114 |   153033   136658    133 |
|    504318 |   70169   132073   268114 |   168337   138079    134 |
|    504544 |   70215   132165   268298 |   185170   141256    133 |
|    504881 |   70215   132165   268298 |   203688   145302    133 |
> restarts              : 1469
> decisions             : 839950  (0 % random)
> conflicts             : 505171
> propagations          : 119575800
> conflict literals     : 435342138  (4.03266 % deleted)
> Current optimal value 6456 after 566205 ms
|    505171 |   70215   132165   268298 |   142957   147410    133 |
|    505271 |   70260   132255   268478 |   157252    74544    147 |
|    505421 |   70260   132255   268478 |   172977    76140    146 |
|    505646 |   70260   132255   268478 |   190275    77913    146 |
|    505983 |   70260   132255   268478 |   209303    82816    143 |
|    506489 |   70260   132255   268478 |   230233    89860    141 |
> restarts              : 1470
> decisions             : 842478  (0 % random)
> conflicts             : 506897
> propagations          : 119799395
> conflict literals     : 436580470  (4.03782 % deleted)
> Current optimal value 6453 after 567810 ms
|    506897 |   70260   132255   268478 |   125104    93763    141 |
> restarts              : 1471
> decisions             : 842608  (0 % random)
> conflicts             : 506949
> propagations          : 119873539
> conflict literals     : 436641251  (4.038 % deleted)
> Current optimal value 6435 after 567946 ms
|    506949 |   70308   132351   268670 |   125289    94220    141 |
|    507049 |   70356   132447   268862 |   137817    94883    142 |
|    507199 |   70356   132447   268862 |   151599    96209    142 |
|    507424 |   70356   132447   268862 |   166759    99024    141 |
|    507763 |   70399   132533   269034 |   183435   102971    140 |
|    508271 |   70399   132533   269034 |   201779   109692    137 |
|    509036 |   70492   132719   269406 |   221957   120079    134 |
|    510177 |   70539   132813   269594 |   244152   147078    123 |
|    511895 |   70582   132899   269766 |   268568   171524    124 |
|    514463 |   70584   132903   269774 |   295424   217642    121 |
|    518322 |   70729   133193   270354 |   324967   262569    128 |
|    524105 |   70921   133577   271122 |   357464   177442    128 |
|    532755 |   70965   133665   271298 |   393210   310747    122 |
