Starting solving at 120 ms
>>> Search start
> Conflicts |          ORIGINAL         |          LEARNT          | Progress
>           |    Vars  Clauses Literals |    Limit  Clauses Lit/Cl |         
|         0 |    1082     1229     2990 |     5473        1      2 |
>>> Initializing inductive definition 787
> Number of rules : 552.
> Number of recursive atoms in positive loops : 529.
> restarts              : 1
> decisions             : 68  (0 % random)
> conflicts             : 3
> propagations          : 1870
> conflict literals     : 259  (0 % deleted)
> Current optimal value 3842 after 127 ms
|         3 |    1203     1320     3123 |     5456      102    260 |
> restarts              : 2
> decisions             : 303  (0 % random)
> conflicts             : 9
> propagations          : 3482
> conflict literals     : 1313  (5.67529 % deleted)
> Current optimal value 3741 after 138 ms
|         9 |    1471     1855     4193 |     5648      143    206 |
> restarts              : 3
> decisions             : 337  (0 % random)
> conflicts             : 13
> propagations          : 5083
> conflict literals     : 1919  (4.05 % deleted)
> Current optimal value 3651 after 142 ms
|        13 |    1534     1981     4445 |     5702      178    180 |
> restarts              : 4
> decisions             : 424  (0 % random)
> conflicts             : 66
> propagations          : 9026
> conflict literals     : 10711  (3.22551 % deleted)
> Current optimal value 3647 after 151 ms
|        66 |    1733     2379     5241 |     5922      440    106 |
|       167 |    2019     2951     6385 |     6514      850     89 |
> restarts              : 7
> decisions             : 681  (0 % random)
> conflicts             : 230
> propagations          : 24095
> conflict literals     : 50277  (3.83129 % deleted)
> Current optimal value 3613 after 176 ms
|       230 |    2161     3235     6953 |     6427     1100     91 |
|       330 |    2400     3713     7909 |     7070     1515     82 |
> restarts              : 8
> decisions             : 938  (0 % random)
> conflicts             : 397
> propagations          : 38917
> conflict literals     : 77968  (4.14792 % deleted)
> Current optimal value 3609 after 200 ms
|       397 |    2546     4005     8493 |     6935     1854     77 |
> restarts              : 10
> decisions             : 1019  (0 % random)
> conflicts             : 426
> propagations          : 46904
> conflict literals     : 87734  (4.74567 % deleted)
> Current optimal value 3589 after 209 ms
|       426 |    2647     4207     8897 |     7044     1977     78 |
|       527 |    2833     4579     9641 |     7748     2477     78 |
|       678 |    3084     5081    10645 |     8523     3171     78 |
> restarts              : 14
> decisions             : 1658  (0 % random)
> conflicts             : 878
> propagations          : 102122
> conflict literals     : 214056  (5.98012 % deleted)
> Current optimal value 3540 after 284 ms
|       878 |    3405     5723    11929 |     8267     4132     78 |
> restarts              : 15
> decisions             : 1695  (0 % random)
> conflicts             : 884
> propagations          : 106027
> conflict literals     : 214986  (5.98458 % deleted)
> Current optimal value 3425 after 289 ms
|       884 |    3449     5811    12105 |     8309     4168     78 |
> restarts              : 16
> decisions             : 1733  (0 % random)
> conflicts             : 898
> propagations          : 110700
> conflict literals     : 218799  (6.00004 % deleted)
> Current optimal value 3405 after 295 ms
|       898 |    3495     5903    12289 |     8362     4236     78 |
|       999 |    3672     6257    12997 |     9198     4840     74 |
> restarts              : 19
> decisions             : 2081  (0 % random)
> conflicts             : 1116
> propagations          : 135946
> conflict literals     : 257140  (5.88158 % deleted)
> Current optimal value 3383 after 332 ms
|      1116 |    3815     6543    13569 |     8992     5487     72 |
|      1217 |    3978     6869    14221 |     9891     5886     72 |
|      1368 |    4145     7203    14889 |    10881     6939     68 |
> restarts              : 22
> decisions             : 2628  (0 % random)
> conflicts             : 1482
> propagations          : 177265
> conflict literals     : 331392  (6.16059 % deleted)
> Current optimal value 3381 after 394 ms
|      1482 |    4251     7415    15313 |     9988     7601     67 |
|      1583 |    4375     7663    15809 |    10986     8023     67 |
|      1735 |    4473     7859    16201 |    12085     8865     66 |
|      1961 |    4657     8227    16937 |    13294    10178     64 |
|      2301 |    4887     8687    17857 |    14623    12488     60 |
> restarts              : 31
> decisions             : 4427  (0 % random)
> conflicts             : 2803
> propagations          : 352686
> conflict literals     : 575150  (6.1355 % deleted)
> Current optimal value 3336 after 619 ms
|      2803 |    5200     9313    19109 |    10830     8231     56 |
> restarts              : 32
> decisions             : 4564  (0 % random)
> conflicts             : 2882
> propagations          : 368190
> conflict literals     : 589372  (6.13167 % deleted)
> Current optimal value 3298 after 636 ms
|      2882 |    5279     9471    19425 |    11032     8679     56 |
|      2982 |    5348     9609    19701 |    12135     9227     56 |
|      3132 |    5402     9717    19917 |    13349    10260     54 |
|      3357 |    5567    10047    20577 |    14684    12403     51 |
|      3696 |    5788    10489    21461 |    16152    15522     48 |
|      4206 |    6013    10939    22361 |    17768    10859     45 |
> restarts              : 39
> decisions             : 6666  (0 % random)
> conflicts             : 4328
> propagations          : 562022
> conflict literals     : 812649  (6.12604 % deleted)
> Current optimal value 3274 after 893 ms
|      4328 |    6036    10985    22453 |    12544    11700     45 |
> restarts              : 40
> decisions             : 6724  (0 % random)
> conflicts             : 4359
> propagations          : 571917
> conflict literals     : 820029  (6.14113 % deleted)
> Current optimal value 3260 after 902 ms
|      4359 |    6067    11047    22577 |    12611    11839     45 |
> restarts              : 41
> decisions             : 6772  (0 % random)
> conflicts             : 4380
> propagations          : 580154
> conflict literals     : 826755  (6.12993 % deleted)
> Current optimal value 3240 after 911 ms
|      4380 |    6091    11095    22673 |    12656    11927     46 |
> restarts              : 42
> decisions             : 6797  (0 % random)
> conflicts             : 4382
> propagations          : 586459
> conflict literals     : 827100  (6.1303 % deleted)
> Current optimal value 3233 after 916 ms
|      4382 |    6117    11147    22777 |    12680    11947     46 |
|      4482 |    6160    11233    22949 |    13948    12675     46 |
|      4633 |    6217    11347    23177 |    15343    13687     46 |
|      4859 |    6278    11469    23421 |    16877    15656     45 |
> restarts              : 46
> decisions             : 7817  (0 % random)
> conflicts             : 5123
> propagations          : 687351
> conflict literals     : 956443  (6.18518 % deleted)
> Current optimal value 3223 after 1045 ms
|      5123 |    6363    11639    23761 |    14767    17715     44 |
> restarts              : 47
> decisions             : 7892  (0 % random)
> conflicts             : 5167
> propagations          : 698945
> conflict literals     : 963345  (6.1733 % deleted)
> Current optimal value 3173 after 1061 ms
|      5167 |    6395    11703    23889 |    11914     9092     49 |
|      5267 |    6449    11811    24105 |    13105     9735     48 |
|      5419 |    6518    11949    24381 |    14416    10950     47 |
|      5645 |    6556    12025    24533 |    15857    12452     47 |
> restarts              : 51
> decisions             : 8563  (0 % random)
> conflicts             : 5652
> propagations          : 771477
> conflict literals     : 1041270  (6.10764 % deleted)
> Current optimal value 3083 after 1151 ms
|      5652 |    6556    12025    24533 |    13156    12495     47 |
|      5753 |    6633    12179    24841 |    14471    13230     47 |
> restarts              : 53
> decisions             : 8789  (0 % random)
> conflicts             : 5795
> propagations          : 797907
> conflict literals     : 1065996  (6.08304 % deleted)
> Current optimal value 3075 after 1184 ms
|      5795 |    6639    12191    24865 |    13549    13509     47 |
> restarts              : 54
> decisions             : 8822  (0 % random)
> conflicts             : 5806
> propagations          : 805335
> conflict literals     : 1069722  (6.10123 % deleted)
> Current optimal value 3047 after 1192 ms
|      5806 |    6676    12265    25013 |    13594    13570     47 |
|      5907 |    6741    12395    25273 |    14953     7133     51 |
|      6058 |    6776    12465    25413 |    16449     8134     50 |
|      6284 |    6927    12767    26017 |    18094    10233     49 |
|      6624 |    7077    13067    26617 |    19903    13714     44 |
|      7131 |    7293    13499    27481 |    21893    19835     40 |
|      7891 |    7446    13805    28093 |    24083    13983     38 |
|      9030 |    7790    14493    29469 |    26491    27702     35 |
|     10739 |    8008    14929    30341 |    29140    28929     36 |
|     13307 |    8406    15725    31933 |    32054    18246     41 |
> restarts              : 79
> decisions             : 21795  (0 % random)
> conflicts             : 15290
> propagations          : 2058322
> conflict literals     : 2543194  (7.02036 % deleted)
> Current optimal value 2983 after 3002 ms
|     15290 |    8660    16233    32949 |    21706    33939     41 |
|     15390 |    8684    16281    33045 |    23877    17560     45 |
|     15540 |    8685    16283    33049 |    26265    18888     44 |
|     15765 |    8695    16303    33089 |    28891    21115     43 |
|     16105 |    8772    16457    33397 |    31780    24348     41 |
|     16614 |    8786    16485    33453 |    34958    28606     40 |
|     17377 |    8852    16617    33717 |    38454    34491     40 |
> restarts              : 94
> decisions             : 25942  (0 % random)
> conflicts             : 18245
> propagations          : 2501359
> conflict literals     : 2951038  (7.19796 % deleted)
> Current optimal value 2966 after 3619 ms
|     18245 |    8892    16697    33877 |    17823    21825     37 |
|     18345 |    8918    16749    33981 |    19605    11811     40 |
|     18495 |    8925    16763    34009 |    21566    13404     40 |
|     18720 |    8934    16781    34045 |    23722    15416     40 |
|     19059 |    8977    16867    34217 |    26095    19293     38 |
> restarts              : 100
> decisions             : 27615  (0 % random)
> conflicts             : 19447
> propagations          : 2680620
> conflict literals     : 3149617  (7.32498 % deleted)
> Current optimal value 2887 after 3870 ms
|     19447 |    9002    16917    34317 |    18320    23096     38 |
|     19548 |    9046    17005    34493 |    20152    12228     41 |
|     19698 |    9054    17021    34525 |    22167    13999     41 |
|     19924 |    9061    17035    34553 |    24384    16244     40 |
|     20263 |    9103    17119    34721 |    26822    20262     39 |
|     20773 |    9182    17277    35037 |    29505    25743     37 |
|     21533 |    9285    17483    35449 |    32455    20952     34 |
|     22678 |    9454    17821    36125 |    35701    18800     30 |
|     24395 |    9549    18011    36505 |    39271    36224     30 |
> restarts              : 125
> decisions             : 35515  (0 % random)
> conflicts             : 24745
> propagations          : 3479651
> conflict literals     : 3817278  (7.51808 % deleted)
> Current optimal value 2886 after 4978 ms
|     24745 |    9563    18039    36561 |    24330    40004     30 |
|     24845 |    9584    18081    36645 |    26763    20556     32 |
|     24995 |    9585    18083    36649 |    29439    21426     33 |
|     25221 |    9601    18115    36713 |    32383    22673     34 |
|     25558 |    9610    18133    36749 |    35622    26047     34 |
|     26064 |    9666    18245    36973 |    39184    31839     34 |
|     26823 |    9713    18339    37161 |    43102    42272     32 |
|     27962 |    9762    18437    37357 |    47412    30524     29 |
|     29671 |    9803    18519    37521 |    52154    46541     31 |
|     32233 |    9842    18597    37677 |    57369    44110     32 |
> restarts              : 128
> decisions             : 46806  (0 % random)
> conflicts             : 32992
> propagations          : 4363600
> conflict literals     : 4890670  (8.28595 % deleted)
> Current optimal value 2872 after 6552 ms
|     32992 |    9859    18631    37745 |    28892    53097     32 |
|     33092 |    9885    18683    37849 |    31781    27260     32 |
|     33242 |    9886    18685    37853 |    34959    28430     32 |
|     33467 |    9897    18707    37897 |    38455    30248     32 |
|     33804 |    9919    18751    37985 |    42300    33341     32 |
> restarts              : 129
> decisions             : 47938  (0 % random)
> conflicts             : 33815
> propagations          : 4475022
> conflict literals     : 5002839  (8.36383 % deleted)
> Current optimal value 2864 after 6705 ms
|     33815 |    9919    18751    37985 |    22379    33440     32 |
|     33915 |    9942    18797    38077 |    24617    17417     34 |
|     34065 |    9945    18803    38089 |    27079    18454     34 |
|     34290 |    9957    18827    38137 |    29787    20327     34 |
|     34627 |    9961    18835    38153 |    32766    23650     34 |
|     35137 |   10045    19003    38489 |    36042    27490     34 |
|     35899 |   10108    19129    38741 |    39646    33942     34 |
|     37044 |   10181    19275    39033 |    43611    27323     33 |
> restarts              : 146
> decisions             : 53998  (0 % random)
> conflicts             : 38012
> propagations          : 5102337
> conflict literals     : 5517209  (8.70436 % deleted)
> Current optimal value 2854 after 7561 ms
|     38012 |   10257    19427    39337 |    24466    39023     31 |
|     38113 |   10294    19501    39485 |    26912    20065     31 |
|     38264 |   10313    19539    39561 |    29603    21080     31 |
|     38490 |   10316    19545    39573 |    32564    23809     31 |
|     38828 |   10319    19551    39585 |    35820    26545     31 |
|     39338 |   10361    19635    39753 |    39402    33419     30 |
|     40100 |   10402    19717    39917 |    43343    21847     30 |
|     41240 |   10432    19777    40037 |    47677    34356     30 |
|     42953 |   10513    19939    40361 |    52445    31377     31 |
|     45525 |   10668    20249    40981 |    57689    61087     30 |
|     49385 |   10870    20653    41789 |    63458    49972     30 |
|     55162 |   11083    21078    42639 |    69804    50624     29 |
|     63846 |   11496    21904    44291 |    76784    63045     27 |
> restarts              : 243
> decisions             : 95321  (0 % random)
> conflicts             : 65591
> propagations          : 9141014
> conflict literals     : 9027478  (9.72468 % deleted)
> Current optimal value 2815 after 14097 ms
|     65591 |   11542    21996    44475 |    27260    44838     29 |
> restarts              : 245
> decisions             : 95414  (0 % random)
> conflicts             : 65636
> propagations          : 9168143
> conflict literals     : 9036157  (9.73134 % deleted)
> Current optimal value 2813 after 14128 ms
|     65636 |   11579    22070    44623 |    19891    22656     30 |
|     65737 |   11613    22138    44759 |    21880    11862     32 |
|     65887 |   11619    22150    44783 |    24068    13353     32 |
|     66115 |   11656    22224    44931 |    26475    15725     33 |
|     66453 |   11659    22230    44943 |    29122    19027     34 |
|     66960 |   11682    22276    45035 |    32035    24726     33 |
|     67720 |   11705    22322    45127 |    35238    33538     31 |
|     68859 |   11707    22326    45135 |    38762    44689     32 |
|     70568 |   11735    22382    45247 |    42638    40978     30 |
> restarts              : 254
> decisions             : 102497  (0 % random)
> conflicts             : 70635
> propagations          : 9769378
> conflict literals     : 9670616  (10.054 % deleted)
> Current optimal value 2773 after 15152 ms
|     70635 |   11735    22382    45247 |    26204    41284     31 |
|     70735 |   11757    22426    45335 |    28825    21413     31 |
|     70885 |   11759    22430    45343 |    31707    22533     32 |
> restarts              : 255
> decisions             : 102873  (0 % random)
> conflicts             : 70899
> propagations          : 9813876
> conflict literals     : 9714615  (10.0626 % deleted)
> Current optimal value 2750 after 15217 ms
|     70899 |   11759    22430    45343 |    19997    22614     32 |
> restarts              : 256
> decisions             : 102901  (0 % random)
> conflicts             : 70900
> propagations          : 9825784
> conflict literals     : 9714784  (10.0625 % deleted)
> Current optimal value 2709 after 15230 ms
|     70900 |   11774    22460    45403 |    16243    11323     34 |
|     71000 |   11790    22492    45467 |    17868    12065     34 |
|     71150 |   11792    22496    45475 |    19654    13439     34 |
|     71375 |   11793    22498    45479 |    21620    15701     34 |
|     71712 |   11794    22500    45483 |    23782    19611     33 |
|     72218 |   11800    22512    45507 |    26160    24750     33 |
|     72982 |   11821    22554    45591 |    28776    17163     37 |
|     74128 |   11876    22664    45811 |    31654    30103     35 |
|     75842 |   11889    22690    45863 |    34819    31389     36 |
> restarts              : 286
> decisions             : 113027  (0 % random)
> conflicts             : 77934
> propagations          : 10899167
> conflict literals     : 10794707  (10.3915 % deleted)
> Current optimal value 2706 after 16838 ms
|     77934 |   11996    22904    46291 |    24661    36133     34 |
|     78034 |   12014    22940    46363 |    27127    18771     34 |
|     78184 |   12014    22940    46363 |    29840    19950     35 |
|     78409 |   12014    22940    46363 |    32824    21937     35 |
|     78748 |   12036    22984    46451 |    36107    25405     35 |
|     79258 |   12064    23040    46563 |    39717    30058     35 |
|     80021 |   12133    23178    46839 |    43689    38739     34 |
> restarts              : 298
> decisions             : 116501  (0 % random)
> conflicts             : 80296
> propagations          : 11273616
> conflict literals     : 11143336  (10.539 % deleted)
> Current optimal value 2700 after 17385 ms
|     80296 |   12158    23228    46939 |    26352    40880     34 |
> restarts              : 300
> decisions             : 116552  (0 % random)
> conflicts             : 80304
> propagations          : 11298260
> conflict literals     : 11144039  (10.5395 % deleted)
> Current optimal value 2689 after 17410 ms
|     80304 |   12190    23292    47067 |    19574    20483     35 |
> restarts              : 301
> decisions             : 116643  (0 % random)
> conflicts             : 80367
> propagations          : 11316982
> conflict literals     : 11156179  (10.5457 % deleted)
> Current optimal value 2680 after 17434 ms
|     80367 |   12209    23330    47143 |    16262    10508     36 |
> restarts              : 302
> decisions             : 116733  (0 % random)
> conflicts             : 80416
> propagations          : 11333465
> conflict literals     : 11167028  (10.5476 % deleted)
> Current optimal value 2634 after 17450 ms
|     80416 |   12225    23362    47207 |    16360    10771     36 |
> restarts              : 303
> decisions             : 116764  (0 % random)
> conflicts             : 80420
> propagations          : 11346182
> conflict literals     : 11168075  (10.5486 % deleted)
> Current optimal value 2633 after 17458 ms
|     80420 |   12238    23388    47259 |    16381    10808     36 |
> restarts              : 304
> decisions             : 116804  (0 % random)
> conflicts             : 80432
> propagations          : 11359159
> conflict literals     : 11169812  (10.5502 % deleted)
> Current optimal value 2631 after 17467 ms
|     80432 |   12256    23424    47331 |    16414    10871     36 |
> restarts              : 305
> decisions             : 116851  (0 % random)
> conflicts             : 80453
> propagations          : 11373185
> conflict literals     : 11173820  (10.5545 % deleted)
> Current optimal value 2608 after 17477 ms
|     80453 |   12267    23446    47375 |    16462    10994     37 |
|     80554 |   12303    23518    47519 |    18108    11765     37 |
|     80705 |   12305    23522    47527 |    19919    13792     36 |
|     80931 |   12306    23524    47531 |    21911    15650     36 |
|     81269 |   12329    23570    47623 |    24102    18372     36 |
|     81779 |   12421    23754    47991 |    26513    25547     34 |
|     82541 |   12491    23894    48271 |    29164    20328     31 |
|     83681 |   12606    24124    48731 |    32081    19352     31 |
|     85390 |   12652    24216    48915 |    35289    36092     31 |
> restarts              : 319
> decisions             : 126967  (0 % random)
> conflicts             : 87158
> propagations          : 12212898
> conflict literals     : 12106881  (10.8565 % deleted)
> Current optimal value 2597 after 18944 ms
|     87158 |   12677    24266    49015 |    22872    29404     34 |
> restarts              : 320
> decisions             : 126998  (0 % random)
> conflicts             : 87161
> propagations          : 12226238
> conflict literals     : 12107844  (10.8563 % deleted)
> Current optimal value 2545 after 18959 ms
|     87161 |   12695    24302    49087 |    17993    14729     36 |
|     87261 |   12712    24336    49155 |    19792    15448     36 |
|     87411 |   12713    24338    49159 |    21771    17142     35 |
|     87636 |   12716    24344    49171 |    23948    19193     36 |
> restarts              : 321
> decisions             : 127677  (0 % random)
> conflicts             : 87657
> propagations          : 12291288
> conflict literals     : 12183295  (10.8738 % deleted)
> Current optimal value 2522 after 19064 ms
|     87657 |   12716    24344    49171 |    19537    19320     36 |
|     87757 |   12735    24382    49247 |    21491    19944     36 |
|     87907 |   12735    24382    49247 |    23640    21071     37 |
> restarts              : 322
> decisions             : 128006  (0 % random)
> conflicts             : 87915
> propagations          : 12332138
> conflict literals     : 12235274  (10.892 % deleted)
> Current optimal value 2499 after 19118 ms
|     87915 |   12735    24382    49247 |    20153    21129     37 |
|     88016 |   12771    24454    49391 |    22168    11210     41 |
|     88167 |   12771    24454    49391 |    24385    12645     40 |
|     88393 |   12777    24466    49415 |    26823    15498     39 |
|     88731 |   12788    24488    49459 |    29506    19707     37 |
> restarts              : 330
> decisions             : 130052  (0 % random)
> conflicts             : 89184
> propagations          : 12557499
> conflict literals     : 12425044  (10.9407 % deleted)
> Current optimal value 2492 after 19450 ms
|     89184 |   12811    24534    49551 |    21873    26138     35 |
|     89285 |   12842    24596    49675 |    24060    14143     33 |
|     89436 |   12862    24636    49755 |    26466    16337     33 |
|     89661 |   12868    24648    49779 |    29113    17919     33 |
|     89999 |   12891    24694    49871 |    32024    20781     34 |
> restarts              : 334
> decisions             : 131454  (0 % random)
> conflicts             : 90090
> propagations          : 12695608
> conflict literals     : 12572507  (10.9379 % deleted)
> Current optimal value 2456 after 19662 ms
|     90090 |   12893    24698    49879 |    20497    21846     34 |
> restarts              : 335
> decisions             : 131569  (0 % random)
> conflicts             : 90169
> propagations          : 12714471
> conflict literals     : 12583859  (10.9403 % deleted)
> Current optimal value 2425 after 19689 ms
|     90169 |   12909    24730    49943 |    17023    11391     37 |
|     90269 |   12923    24758    49999 |    18725    12592     36 |
|     90419 |   12926    24764    50011 |    20597    14514     35 |
|     90645 |   12943    24798    50079 |    22657    17717     33 |
> restarts              : 339
> decisions             : 132817  (0 % random)
> conflicts             : 90906
> propagations          : 12837705
> conflict literals     : 12661959  (10.9471 % deleted)
> Current optimal value 2377 after 19875 ms
|     90906 |   12983    24878    50239 |    20203    20785     33 |
> restarts              : 340
> decisions             : 132850  (0 % random)
> conflicts             : 90912
> propagations          : 12851076
> conflict literals     : 12662499  (10.9473 % deleted)
> Current optimal value 2359 after 19889 ms
|     90912 |   13002    24916    50315 |    16769    10444     31 |
|     91013 |   13032    24976    50435 |    18446    11058     32 |
|     91164 |   13035    24982    50447 |    20290    12265     33 |
|     91390 |   13042    24996    50475 |    22319    13771     35 |
> restarts              : 346
> decisions             : 133753  (0 % random)
> conflicts             : 91522
> propagations          : 12990497
> conflict literals     : 12783438  (10.9612 % deleted)
> Current optimal value 2327 after 20046 ms
|     91522 |   13065    25042    50567 |    18155    14475     37 |
|     91623 |   13100    25112    50707 |    19970    15093     37 |
|     91773 |   13108    25128    50739 |    21967    16528     37 |
|     91998 |   13112    25136    50755 |    24164    19199     36 |
|     92336 |   13118    25148    50779 |    26580    22987     35 |
> restarts              : 349
> decisions             : 135179  (0 % random)
> conflicts             : 92500
> propagations          : 13116532
> conflict literals     : 12921651  (10.9781 % deleted)
> Current optimal value 2308 after 20259 ms
|     92500 |   13122    25156    50795 |    21444    24230     35 |
> restarts              : 350
> decisions             : 135217  (0 % random)
> conflicts             : 92511
> propagations          : 13131038
> conflict literals     : 12924418  (10.9784 % deleted)
> Current optimal value 2295 after 20275 ms
|     92511 |   13142    25196    50875 |    17439    12173     38 |
> restarts              : 351
> decisions             : 135267  (0 % random)
> conflicts             : 92532
> propagations          : 13145641
> conflict literals     : 12928303  (10.9796 % deleted)
> Current optimal value 2284 after 20290 ms
|     92532 |   13160    25232    50947 |    17484    12273     38 |
> restarts              : 352
> decisions             : 135293  (0 % random)
> conflicts             : 92536
> propagations          : 13159144
> conflict literals     : 12929167  (10.9795 % deleted)
> Current optimal value 2219 after 20299 ms
|     92536 |   13178    25268    51019 |    17507    12305     38 |
|     92636 |   13202    25316    51115 |    19257    13081     38 |
|     92786 |   13207    25326    51135 |    21183    14193     39 |
> restarts              : 355
> decisions             : 135854  (0 % random)
> conflicts             : 92906
> propagations          : 13229674
> conflict literals     : 12994088  (10.9938 % deleted)
> Current optimal value 2217 after 20389 ms
|     92906 |   13244    25400    51283 |    18497    15145     39 |
|     93007 |   13286    25484    51451 |    20347    16020     39 |
|     93157 |   13292    25496    51475 |    22382    17108     39 |
|     93382 |   13293    25498    51479 |    24620    19892     38 |
|     93722 |   13314    25540    51563 |    27082    22572     38 |
|     94232 |   13321    25554    51591 |    29790    27364     38 |
|     94992 |   13326    25564    51611 |    32769    18096     40 |
> restarts              : 366
> decisions             : 139425  (0 % random)
> conflicts             : 95466
> propagations          : 13604430
> conflict literals     : 13405493  (11.0734 % deleted)
> Current optimal value 2194 after 20941 ms
|     95466 |   13333    25578    51639 |    20769    21781     40 |
|     95567 |   13364    25640    51763 |    22845    11610     42 |
|     95718 |   13367    25646    51775 |    25130    12736     43 |
> restarts              : 369
> decisions             : 139827  (0 % random)
> conflicts             : 95749
> propagations          : 13672910
> conflict literals     : 13457461  (11.0875 % deleted)
> Current optimal value 2193 after 21021 ms
|     95749 |   13368    25648    51779 |    17832    12901     43 |
|     95850 |   13405    25722    51927 |    19615    13597     44 |
|     96001 |   13428    25768    52019 |    21577    15578     42 |
|     96226 |   13429    25770    52023 |    23734    18121     40 |
|     96565 |   13466    25844    52171 |    26108    22823     37 |
|     97075 |   13482    25876    52235 |    28719    15872     32 |
|     97836 |   13489    25890    52263 |    31591    23840     32 |
|     98976 |   13495    25902    52287 |    34750    36461     31 |
|    100685 |   13512    25936    52355 |    38225    31589     33 |
> restarts              : 382
> decisions             : 150237  (0 % random)
> conflicts             : 102968
> propagations          : 14557887
> conflict literals     : 14492614  (11.1824 % deleted)
> Current optimal value 2172 after 22645 ms
|    102968 |   13535    25982    52447 |    24374    32192     34 |
> restarts              : 383
> decisions             : 150265  (0 % random)
> conflicts             : 102970
> propagations          : 14571538
> conflict literals     : 14492794  (11.1824 % deleted)
> Current optimal value 2162 after 22662 ms
|    102970 |   13554    26020    52523 |    19028    16117     34 |
> restarts              : 384
> decisions             : 150292  (0 % random)
> conflicts             : 102973
> propagations          : 14585222
> conflict literals     : 14493166  (11.1826 % deleted)
> Current optimal value 2129 after 22671 ms
|    102973 |   13566    26044    52571 |    19043    16138     34 |
|    103073 |   13579    26070    52623 |    20947    16735     34 |
|    103224 |   13595    26102    52687 |    23042    18019     34 |
|    103450 |   13595    26102    52687 |    25346    20207     34 |
|    103789 |   13597    26106    52695 |    27881    23721     34 |
|    104297 |   13601    26114    52711 |    30669    15287     32 |
|    105062 |   13611    26134    52751 |    33736    21649     34 |
|    106203 |   13651    26214    52911 |    37110    17731     30 |
|    107922 |   13689    26290    53063 |    40821    33500     32 |
> restarts              : 413
> decisions             : 158857  (0 % random)
> conflicts             : 109015
> propagations          : 15693050
> conflict literals     : 15259077  (11.2608 % deleted)
> Current optimal value 2108 after 24091 ms
|    109015 |   13705    26322    53127 |    27852    42287     32 |
> restarts              : 414
> decisions             : 158930  (0 % random)
> conflicts             : 109064
> propagations          : 15713311
> conflict literals     : 15266638  (11.2637 % deleted)
> Current optimal value 2102 after 24116 ms
|    109064 |   13724    26360    53203 |    20913    21431     33 |
> restarts              : 415
> decisions             : 158985  (0 % random)
> conflicts             : 109094
> propagations          : 15729327
> conflict literals     : 15269082  (11.2649 % deleted)
> Current optimal value 2098 after 24128 ms
|    109094 |   13738    26388    53259 |    20980    21604     33 |
|    109194 |   13754    26420    53323 |    23078    11334     33 |
|    109344 |   13754    26420    53323 |    25385    12312     34 |
> restarts              : 417
> decisions             : 159597  (0 % random)
> conflicts             : 109558
> propagations          : 15796709
> conflict literals     : 15337007  (11.2739 % deleted)
> Current optimal value 2080 after 24219 ms
|    109558 |   13767    26446    53375 |    18319    13565     35 |
|    109659 |   13800    26512    53507 |    20151    14306     35 |
> restarts              : 420
> decisions             : 159936  (0 % random)
> conflicts             : 109784
> propagations          : 15861267
> conflict literals     : 15370408  (11.2832 % deleted)
> Current optimal value 2077 after 24285 ms
|    109784 |   13801    26514    53511 |    18883    15188     35 |
> restarts              : 421
> decisions             : 159978  (0 % random)
> conflicts             : 109796
> propagations          : 15876285
> conflict literals     : 15373166  (11.2843 % deleted)
> Current optimal value 2074 after 24300 ms
|    109796 |   13819    26550    53583 |    18920    15263     36 |
|    109896 |   13835    26582    53647 |    20812    16057     36 |
|    110048 |   13852    26616    53715 |    22893    17121     36 |
> restarts              : 425
> decisions             : 160656  (0 % random)
> conflicts             : 110240
> propagations          : 15978406
> conflict literals     : 15452274  (11.2982 % deleted)
> Current optimal value 2063 after 24419 ms
|    110240 |   13871    26654    53791 |    20077    18631     37 |
> restarts              : 426
> decisions             : 160688  (0 % random)
> conflicts             : 110245
> propagations          : 15992512
> conflict literals     : 15452707  (11.2984 % deleted)
> Current optimal value 2045 after 24429 ms
|    110245 |   13889    26690    53863 |    20100    18662     37 |
|    110346 |   13913    26738    53959 |    22110    19359     37 |
|    110496 |   13913    26738    53959 |    24321    20911     36 |
|    110722 |   13913    26738    53959 |    26753    22834     36 |
|    111059 |   13914    26740    53963 |    29428    25821     36 |
|    111566 |   13916    26744    53971 |    32371    15875     34 |
|    112331 |   13966    26844    54171 |    35608    22787     33 |
|    113476 |   14017    26946    54375 |    39169    21604     25 |
|    115187 |   14127    27166    54815 |    43086    49047     25 |
|    117750 |   14148    27208    54899 |    47394    49614     27 |
|    121608 |   14200    27312    55107 |    52134    43754     28 |
|    127391 |   14477    27866    56215 |    57347    44929     24 |
|    136072 |   14756    28424    57331 |    63082    46116     27 |
> restarts              : 510
> decisions             : 211072  (0 % random)
> conflicts             : 141976
> propagations          : 20568703
> conflict literals     : 18936450  (11.6629 % deleted)
> Current optimal value 2042 after 32724 ms
|    141976 |   14814    28540    57563 |    31698    51606     27 |
|    142076 |   14829    28570    57623 |    34867    26472     27 |
|    142226 |   14829    28570    57623 |    38354    27458     27 |
> restarts              : 511
> decisions             : 211466  (0 % random)
> conflicts             : 142296
> propagations          : 20620058
> conflict literals     : 18985874  (11.6677 % deleted)
> Current optimal value 2035 after 32810 ms
|    142296 |   14829    28570    57623 |    23821    27947     27 |
> restarts              : 512
> decisions             : 211495  (0 % random)
> conflicts             : 142297
> propagations          : 20634919
> conflict literals     : 18986240  (11.6679 % deleted)
> Current optimal value 2027 after 32827 ms
|    142297 |   14843    28598    57679 |    19179    13992     30 |
> restarts              : 513
> decisions             : 211539  (0 % random)
> conflicts             : 142311
> propagations          : 20650849
> conflict literals     : 18989746  (11.6682 % deleted)
> Current optimal value 2023 after 32838 ms
|    142311 |   14854    28620    57723 |    19202    14038     30 |
> restarts              : 514
> decisions             : 211563  (0 % random)
> conflicts             : 142312
> propagations          : 20665842
> conflict literals     : 18990107  (11.6684 % deleted)
> Current optimal value 2014 after 32848 ms
|    142312 |   14871    28654    57791 |    19219    14057     30 |
|    142412 |   14888    28688    57859 |    21141    14717     31 |
|    142562 |   14889    28690    57863 |    23255    16515     30 |
|    142787 |   14891    28694    57871 |    25581    21014     29 |
|    143124 |   14891    28694    57871 |    28139    25912     28 |
|    143630 |   14897    28706    57895 |    30953    32962     27 |
|    144389 |   14900    28712    57907 |    34048    44270     27 |
|    145532 |   14939    28790    58063 |    37453    19508     24 |
|    147248 |   15031    28974    58431 |    41199    21656     26 |
|    149823 |   15108    29128    58739 |    45318    37452     27 |
|    153677 |   15280    29472    59427 |    49850    44459     26 |
|    159467 |   15750    30412    61307 |    54835    50102     22 |
|    168139 |   16386    31684    63851 |    60319    55539     25 |
|    181154 |   18014    34940    70363 |    66351    78190     24 |
|    200662 |   18693    36298    73079 |    72986    49969     22 |
|    229935 |   19338    37588    75659 |    80285    86898     24 |
|    273819 |   19854    38620    77723 |    88313    90080     23 |
> restarts              : 956
> decisions             : 483528  (0 % random)
> conflicts             : 307077
> propagations          : 46468221
> conflict literals     : 35498207  (14.1861 % deleted)
> Current optimal value 2005 after 83733 ms
|    307077 |   20228    39368    79219 |    48933    92484     28 |
|    307177 |   20239    39390    79263 |    53826    47023     30 |
|    307327 |   20239    39390    79263 |    59209    48474     30 |
|    307552 |   20239    39390    79263 |    65130    51665     29 |
|    307889 |   20239    39390    79263 |    71643    54966     29 |
|    308399 |   20260    39432    79347 |    78807    61178     29 |
|    309162 |   20274    39460    79403 |    86688    69273     29 |
|    310308 |   20344    39600    79683 |    95357    79161     30 |
|    312023 |   20365    39642    79767 |   104892    97430     30 |
|    314594 |   20424    39760    80003 |   115382    78949     28 |
|    318453 |   20472    39856    80195 |   126920    73289     25 |
|    324236 |   20524    39960    80403 |   139612   104900     24 |
|    332886 |   20539    39990    80463 |   153573   139708     25 |
|    345861 |   20556    40024    80531 |   168931   152309     25 |
|    365323 |   20573    40058    80599 |   185824   160458     25 |
|    394516 |   20600    40112    80707 |   204406   159674     23 |
> restarts              : 1086
> decisions             : 673401  (0 % random)
> conflicts             : 438356
> propagations          : 64324412
> conflict literals     : 47587650  (15.4904 % deleted)
> Current optimal value 1988 after 122791 ms
|    438356 |   20865    40642    81767 |    83651   195364     26 |
|    438456 |   20876    40664    81811 |    92016    98236     27 |
|    438606 |   20876    40664    81811 |   101218   100067     27 |
|    438831 |   20876    40664    81811 |   111339   102686     27 |
|    439169 |   20888    40688    81859 |   122473   106774     27 |
|    439679 |   20888    40688    81859 |   134721   113796     27 |
|    440442 |   20901    40714    81911 |   148193   120447     27 |
> restarts              : 1100
> decisions             : 677419  (0 % random)
> conflicts             : 440916
> propagations          : 64896514
> conflict literals     : 47814965  (15.5142 % deleted)
> Current optimal value 1955 after 123622 ms
|    440916 |   20901    40714    81911 |    60123   124708     27 |
|    441016 |   20912    40736    81955 |    66135    63031     27 |
|    441167 |   20922    40756    81995 |    72749    64601     27 |
|    441392 |   20922    40756    81995 |    80024    67091     27 |
|    441729 |   20922    40756    81995 |    88026    71852     27 |
|    442238 |   20950    40812    82107 |    96829    79181     27 |
|    443001 |   20978    40868    82219 |   106512    87497     27 |
> restarts              : 1112
> decisions             : 681133  (0 % random)
> conflicts             : 443343
> propagations          : 65394080
> conflict literals     : 48002410  (15.5354 % deleted)
> Current optimal value 1930 after 124387 ms
|    443343 |   21003    40918    82319 |    49011    91168     27 |
> restarts              : 1113
> decisions             : 681167  (0 % random)
> conflicts             : 443353
> propagations          : 65415720
> conflict literals     : 48003282  (15.5356 % deleted)
> Current optimal value 1909 after 124425 ms
|    443353 |   21014    40940    82363 |    33841    45636     25 |
|    443453 |   21026    40964    82411 |    37225    23428     23 |
|    443604 |   21040    40992    82467 |    40948    25295     23 |
> restarts              : 1116
> decisions             : 681799  (0 % random)
> conflicts             : 443746
> propagations          : 65514875
> conflict literals     : 48036121  (15.5404 % deleted)
> Current optimal value 1896 after 124556 ms
|    443746 |   21052    41016    82515 |    27495    26523     24 |
|    443846 |   21063    41038    82559 |    30245    27151     24 |
|    443996 |   21063    41038    82559 |    33269    28014     24 |
|    444222 |   21074    41060    82603 |    36596    29425     25 |
|    444559 |   21074    41060    82603 |    40256    31782     26 |
|    445065 |   21074    41060    82603 |    44282    36329     26 |
|    445826 |   21084    41080    82643 |    48710    45022     26 |
> restarts              : 1121
> decisions             : 684926  (0 % random)
> conflicts             : 446091
> propagations          : 65848478
> conflict literals     : 48256796  (15.5747 % deleted)
> Current optimal value 1882 after 125134 ms
|    446091 |   21084    41080    82643 |    34197    46564     27 |
|    446192 |   21105    41122    82727 |    37617    23911     28 |
|    446343 |   21105    41122    82727 |    41378    25011     28 |
|    446569 |   21105    41122    82727 |    45516    26937     28 |
> restarts              : 1126
> decisions             : 685964  (0 % random)
> conflicts             : 446852
> propagations          : 66023440
> conflict literals     : 48337545  (15.5832 % deleted)
> Current optimal value 1866 after 125362 ms
|    446852 |   21105    41122    82727 |    28348    28974     28 |
|    446953 |   21123    41158    82799 |    31182    15132     27 |
|    447104 |   21123    41158    82799 |    34301    16230     27 |
|    447331 |   21123    41158    82799 |    37731    17806     28 |
|    447669 |   21123    41158    82799 |    41504    20181     29 |
|    448176 |   21123    41158    82799 |    45654    24324     29 |
|    448938 |   21145    41202    82887 |    50220    31290     30 |
|    450083 |   21192    41296    83075 |    55242    40898     30 |
|    451797 |   21218    41348    83179 |    60766    56914     30 |
|    454361 |   21242    41396    83275 |    66843    41730     29 |
|    458206 |   21254    41420    83323 |    73527    72775     31 |
> restarts              : 1151
> decisions             : 701483  (0 % random)
> conflicts             : 458745
> propagations          : 67768168
> conflict literals     : 49576231  (15.7942 % deleted)
> Current optimal value 1854 after 128323 ms
|    458745 |   21254    41420    83323 |    44491    77106     31 |
|    458845 |   21262    41436    83355 |    48940    39204     31 |
|    458995 |   21262    41436    83355 |    53834    40676     31 |
|    459220 |   21262    41436    83355 |    59217    42390     31 |
> restarts              : 1152
> decisions             : 702517  (0 % random)
> conflicts             : 459554
> propagations          : 67872160
> conflict literals     : 49656895  (15.813 % deleted)
> Current optimal value 1839 after 128530 ms
|    459554 |   21262    41436    83355 |    33639    44533     32 |
> restarts              : 1153
> decisions             : 702540  (0 % random)
> conflicts             : 459555
> propagations          : 67893548
> conflict literals     : 49656998  (15.813 % deleted)
> Current optimal value 1836 after 128554 ms
|    459555 |   21274    41460    83403 |    26230    22284     30 |
> restarts              : 1154
> decisions             : 702562  (0 % random)
> conflicts             : 459556
> propagations          : 67914848
> conflict literals     : 49657079  (15.813 % deleted)
> Current optimal value 1815 after 128566 ms
|    459556 |   21285    41482    83447 |    26243    22301     30 |
|    459656 |   21294    41500    83483 |    28868    22934     30 |
|    459806 |   21294    41500    83483 |    31754    24362     30 |
|    460031 |   21294    41500    83483 |    34930    26040     30 |
|    460368 |   21294    41500    83483 |    38423    29269     30 |
|    460874 |   21294    41500    83483 |    42265    33976     30 |
|    461633 |   21296    41504    83491 |    46492    39681     31 |
|    462772 |   21296    41504    83491 |    51141    47093     33 |
> restarts              : 1156
> decisions             : 706927  (0 % random)
> conflicts             : 463117
> propagations          : 68349743
> conflict literals     : 50104316  (15.9113 % deleted)
> Current optimal value 1789 after 129342 ms
|    463117 |   21308    41528    83539 |    35332    49522     33 |
> restarts              : 1157
> decisions             : 706954  (0 % random)
> conflicts             : 463119
> propagations          : 68371419
> conflict literals     : 50104675  (15.9115 % deleted)
> Current optimal value 1772 after 129368 ms
|    463119 |   21318    41548    83579 |    27093    24784     34 |
> restarts              : 1158
> decisions             : 706990  (0 % random)
> conflicts             : 463127
> propagations          : 68393964
> conflict literals     : 50106537  (15.912 % deleted)
> Current optimal value 1763 after 129383 ms
|    463127 |   21329    41570    83623 |    27115    24828     34 |
|    463228 |   21345    41602    83687 |    29826    25232     35 |
|    463379 |   21345    41602    83687 |    32809    26013     36 |
|    463606 |   21357    41626    83735 |    36090    27343     37 |
> restarts              : 1163
> decisions             : 707646  (0 % random)
> conflicts             : 463613
> propagations          : 68562689
> conflict literals     : 50198697  (15.9326 % deleted)
> Current optimal value 1761 after 129550 ms
|    463613 |   21357    41626    83735 |    27979    27365     37 |
> restarts              : 1164
> decisions             : 707714  (0 % random)
> conflicts             : 463654
> propagations          : 68588549
> conflict literals     : 50210341  (15.9349 % deleted)
> Current optimal value 1757 after 129570 ms
|    463654 |   21367    41646    83775 |    28040    27526     37 |
|    463755 |   21391    41694    83871 |    30844    28209     37 |
|    463905 |   21391    41694    83871 |    33928    29125     38 |
|    464130 |   21391    41694    83871 |    37321    30384     38 |
|    464467 |   21391    41694    83871 |    41053    33208     37 |
|    464977 |   21430    41772    84027 |    45158    38433     36 |
|    465740 |   21431    41774    84031 |    49674    24205     29 |
|    466885 |   21458    41827    84137 |    54642    41306     28 |
|    468595 |   21458    41827    84137 |    60106    36384     26 |
|    471170 |   21481    41873    84229 |    66116    35874     29 |
|    475031 |   22011    42933    86349 |    72728    59129     21 |
|    480802 |   22718    44347    89177 |    80001    44548     21 |
|    489486 |   23276    45463    91409 |    88001    76259     19 |
|    502486 |   24313    47537    95557 |    96801    93801     20 |
|    521963 |   24343    47597    95677 |   106481    57737     24 |
> restarts              : 1310
> decisions             : 811140  (0 % random)
> conflicts             : 526440
> propagations          : 79277599
> conflict literals     : 55777144  (16.3203 % deleted)
> Current optimal value 1751 after 152287 ms
|    526440 |   24379    47669    95821 |    43010    66413     25 |
|    526540 |   24392    47695    95873 |    47311    33821     25 |
|    526690 |   24392    47695    95873 |    52042    35098     26 |
> restarts              : 1311
> decisions             : 811723  (0 % random)
> conflicts             : 526845
> propagations          : 79347988
> conflict literals     : 55823084  (16.3298 % deleted)
> Current optimal value 1734 after 152422 ms
|    526845 |   24392    47695    95873 |    33247    37099     26 |
|    526946 |   24410    47731    95945 |    36572    19431     25 |
|    527096 |   24410    47731    95945 |    40229    20665     26 |
|    527324 |   24410    47731    95945 |    44252    22369     26 |
> restarts              : 1317
> decisions             : 812877  (0 % random)
> conflicts             : 527637
> propagations          : 79578305
> conflict literals     : 55895271  (16.3455 % deleted)
> Current optimal value 1724 after 152673 ms
|    527637 |   24422    47754    95991 |    28978    24233     27 |
|    527737 |   24431    47772    96027 |    31876    24740     27 |
|    527887 |   24431    47772    96027 |    35063    25664     27 |
|    528114 |   24438    47786    96055 |    38570    27355     28 |
|    528454 |   24448    47806    96095 |    42427    30693     28 |
|    528961 |   24458    47826    96135 |    46669    36560     27 |
|    529721 |   24467    47844    96171 |    51336    46562     27 |
|    530867 |   24525    47960    96403 |    56470    31031     24 |
|    532583 |   24554    48018    96519 |    62117    45160     26 |
|    535147 |   24575    48060    96603 |    68329    43702     23 |
|    538998 |   24641    48192    96867 |    75162    55583     24 |
|    544788 |   24784    48478    97439 |    82678    75033     23 |
> restarts              : 1402
> decisions             : 851093  (0 % random)
> conflicts             : 551323
> propagations          : 84190320
> conflict literals     : 57765041  (16.5989 % deleted)
> Current optimal value 1702 after 160340 ms
|    551323 |   24843    48596    97675 |    38370    51568     22 |
|    551424 |   24860    48630    97743 |    42207    26397     22 |
|    551574 |   24860    48630    97743 |    46428    28169     22 |
|    551799 |   24860    48630    97743 |    51071    31967     23 |
|    552136 |   24860    48630    97743 |    56178    38311     23 |
|    552642 |   24860    48630    97743 |    61796    46533     23 |
|    553402 |   24869    48648    97779 |    67975    58093     23 |
|    554541 |   24870    48650    97783 |    74773    74755     23 |
|    556250 |   24879    48668    97819 |    82250    53623     22 |
|    558812 |   24881    48672    97827 |    90476    54090     20 |
|    562657 |   24889    48688    97859 |    99523    73057     20 |
> restarts              : 1418
> decisions             : 872404  (0 % random)
> conflicts             : 564311
> propagations          : 85895394
> conflict literals     : 58615797  (16.7221 % deleted)
> Current optimal value 1686 after 164445 ms
|    564311 |   24925    48760    98003 |    52712    94428     21 |
|    564412 |   24940    48790    98063 |    57983    47721     21 |
|    564562 |   24941    48792    98067 |    63781    48960     21 |
|    564787 |   24941    48792    98067 |    70159    51475     21 |
|    565125 |   24951    48812    98107 |    77175    54417     22 |
|    565632 |   24951    48812    98107 |    84893    59338     22 |
|    566396 |   24958    48826    98135 |    93382    70674     22 |
|    567542 |   24958    48826    98135 |   102720    85617     23 |
|    569253 |   24958    48826    98135 |   112992    60787     23 |
|    571825 |   24985    48880    98243 |   124292   103704     23 |
|    575688 |   25081    49072    98627 |   136721    98023     22 |
|    581457 |   25130    49170    98823 |   150393   150539     20 |
|    590142 |   25286    49482    99447 |   165432   131005     20 |
|    603144 |   25380    49670    99823 |   181976   132166     22 |
|    622607 |   25399    49708    99899 |   200173   158832     23 |
|    651829 |   25447    49804   100091 |   220191   124349     23 |
> restarts              : 1662
> decisions             : 1075161  (0 % random)
> conflicts             : 688312
> propagations          : 104964500
> conflict literals     : 68072998  (17.9388 % deleted)
> Current optimal value 1670 after 209914 ms
|    688312 |   26028    50965   102413 |    99259   231865     22 |
> restarts              : 1663
> decisions             : 1075195  (0 % random)
> conflicts             : 688321
> propagations          : 104991419
> conflict literals     : 68073861  (17.939 % deleted)
> Current optimal value 1658 after 209990 ms
|    688321 |   26038    50985   102453 |    60637   115979     23 |
|    688421 |   26046    51001   102485 |    66701    58499     23 |
|    688571 |   26046    51001   102485 |    73371    59590     23 |
|    688796 |   26046    51001   102485 |    80708    61286     23 |
|    689133 |   26046    51001   102485 |    88779    64831     23 |
|    689639 |   26046    51001   102485 |    97657    72927     23 |
|    690398 |   26046    51001   102485 |   107422    89671     23 |
|    691544 |   26083    51075   102633 |   118165   104583     23 |
|    693258 |   26115    51139   102761 |   129981    70969     22 |
|    695835 |   26160    51229   102941 |   142979   106984     24 |
|    699690 |   26210    51329   103141 |   157277   114358     22 |
|    705477 |   26320    51549   103581 |   173005   178828     21 |
|    714152 |   26364    51637   103757 |   190305   145609     22 |
|    727164 |   26420    51749   103981 |   209336   178923     23 |
|    746627 |   26423    51755   103993 |   230270   206238     20 |
|    775920 |   26713    52335   105153 |   253297   139902     22 |
|    819830 |   26886    52681   105845 |   278626   206074     22 |
> restarts              : 2044
> decisions             : 1312169  (0 % random)
> conflicts             : 832118
> propagations          : 129990152
> conflict literals     : 80133748  (19.316 % deleted)
> Current optimal value 1657 after 265503 ms
|    832118 |   26937    52783   106049 |   119114   289611     23 |
|    832218 |   26942    52793   106069 |   131025    73194     22 |
|    832368 |   26942    52793   106069 |   144127    75017     22 |
|    832593 |   26942    52793   106069 |   158540    78125     22 |
|    832930 |   26942    52793   106069 |   174394    83444     23 |
|    833436 |   26942    52793   106069 |   191834    88322     23 |
|    834195 |   26942    52793   106069 |   211017    98118     23 |
> restarts              : 2045
> decisions             : 1316821  (0 % random)
> conflicts             : 835255
> propagations          : 130354998
> conflict literals     : 80407293  (19.3528 % deleted)
> Current optimal value 1654 after 266544 ms
|    835255 |   26942    52793   106069 |    62046   118398     23 |
|    835355 |   26950    52809   106101 |    68250    60079     24 |
> restarts              : 2046
> decisions             : 1316994  (0 % random)
> conflicts             : 835369
> propagations          : 130394832
> conflict literals     : 80417223  (19.354 % deleted)
> Current optimal value 1646 after 266615 ms
|    835369 |   26950    52809   106101 |    42636    60152     24 |
|    835469 |   26959    52827   106137 |    46899    30683     22 |
|    835619 |   26959    52827   106137 |    51589    31764     22 |
|    835844 |   26959    52827   106137 |    56748    34025     23 |
|    836181 |   26959    52827   106137 |    62423    37128     23 |
|    836687 |   26959    52827   106137 |    68666    44282     23 |
|    837447 |   26970    52849   106181 |    75532    52985     24 |
|    838586 |   26970    52849   106181 |    83086    69486     23 |
|    840294 |   26970    52849   106181 |    91394    93815     23 |
> restarts              : 2048
> decisions             : 1326173  (0 % random)
> conflicts             : 841608
> propagations          : 131024483
> conflict literals     : 80842056  (19.4162 % deleted)
> Current optimal value 1639 after 268325 ms
|    841608 |   26970    52849   106181 |    59994   112187     24 |
> restarts              : 2049
> decisions             : 1326225  (0 % random)
> conflicts             : 841631
> propagations          : 131053527
> conflict literals     : 80844615  (19.4164 % deleted)
> Current optimal value 1632 after 268373 ms
|    841631 |   26981    52871   106225 |    41357    56254     22 |
> restarts              : 2050
> decisions             : 1326254  (0 % random)
> conflicts             : 841635
> propagations          : 131080776
> conflict literals     : 80844944  (19.4166 % deleted)
> Current optimal value 1619 after 268403 ms
|    841635 |   26989    52887   106257 |    31996    28153     21 |
> restarts              : 2051
> decisions             : 1326288  (0 % random)
> conflicts             : 841647
> propagations          : 131108751
> conflict literals     : 80846541  (19.4169 % deleted)
> Current optimal value 1606 after 268429 ms
|    841647 |   26993    52895   106273 |    32016    28207     21 |
|    841747 |   27001    52911   106305 |    35218    28846     21 |
|    841897 |   27001    52911   106305 |    38740    30047     21 |
|    842122 |   27001    52911   106305 |    42614    31859     22 |
|    842459 |   27001    52911   106305 |    46875    34627     23 |
> restarts              : 2052
> decisions             : 1327373  (0 % random)
> conflicts             : 842482
> propagations          : 131208157
> conflict literals     : 80924563  (19.4288 % deleted)
> Current optimal value 1600 after 268629 ms
|    842482 |   27001    52911   106305 |    34207    34763     23 |
> restarts              : 2053
> decisions             : 1327435  (0 % random)
> conflicts             : 842516
> propagations          : 131238089
> conflict literals     : 80928675  (19.4301 % deleted)
> Current optimal value 1591 after 268659 ms
|    842516 |   27011    52931   106345 |    28467    17524     23 |
> restarts              : 2054
> decisions             : 1327462  (0 % random)
> conflicts             : 842518
> propagations          : 131265126
> conflict literals     : 80928757  (19.4301 % deleted)
> Current optimal value 1585 after 268674 ms
|    842518 |   27021    52951   106385 |    28480    17541     23 |
> restarts              : 2055
> decisions             : 1327487  (0 % random)
> conflicts             : 842519
> propagations          : 131292297
> conflict literals     : 80928825  (19.4301 % deleted)
> Current optimal value 1543 after 268689 ms
|    842519 |   27029    52967   106417 |    28490    17556     23 |
|    842619 |   27036    52981   106445 |    31339    18403     24 |
|    842769 |   27036    52981   106445 |    34473    20246     24 |
|    842994 |   27036    52981   106445 |    37920    23095     24 |
|    843331 |   27036    52981   106445 |    41712    28886     24 |
|    843837 |   27036    52981   106445 |    45883    35133     24 |
|    844596 |   27036    52981   106445 |    50472    53582     23 |
|    845735 |   27036    52981   106445 |    55519    70647     23 |
|    847443 |   27037    52983   106449 |    61071    55883     22 |
|    850005 |   27079    53067   106617 |    67178    75926     19 |
|    853849 |   27079    53067   106617 |    73896    47369     19 |
|    859615 |   27079    53067   106617 |    81286    53181     20 |
|    868264 |   27153    53215   106913 |    89414    78404     17 |
|    881238 |   27231    53371   107225 |    98356    98452     17 |
|    900699 |   27635    54179   108841 |   108191    91740     16 |
|    929891 |   27864    54637   109757 |   119011   126565     21 |
|    973798 |   27998    54905   110293 |   130912    74532     23 |
> restarts              : 2207
> decisions             : 1585742  (0 % random)
> conflicts             : 991301
> propagations          : 151289685
> conflict literals     : 89654942  (20.1877 % deleted)
> Current optimal value 1526 after 328280 ms
|    991301 |   28146    55201   110885 |    56990   100823     25 |
> restarts              : 2208
> decisions             : 1585779  (0 % random)
> conflicts             : 991310
> propagations          : 151318419
> conflict literals     : 89655405  (20.1878 % deleted)
> Current optimal value 1515 after 328323 ms
|    991310 |   28155    55219   110921 |    40207    50455     25 |
> restarts              : 2209
> decisions             : 1585804  (0 % random)
> conflicts             : 991312
> propagations          : 151346702
> conflict literals     : 89655499  (20.1878 % deleted)
> Current optimal value 1508 after 328353 ms
|    991312 |   28164    55237   110957 |    31811    25248     23 |
|    991413 |   28180    55269   111021 |    34992    25845     23 |
|    991564 |   28184    55277   111037 |    38491    26717     24 |
> restarts              : 2212
> decisions             : 1586197  (0 % random)
> conflicts             : 991574
> propagations          : 151455408
> conflict literals     : 89678789  (20.1928 % deleted)
> Current optimal value 1497 after 328463 ms
|    991574 |   28184    55277   111037 |    32330    26765     24 |
> restarts              : 2213
> decisions             : 1586227  (0 % random)
> conflicts             : 991577
> propagations          : 151483896
> conflict literals     : 89679159  (20.1928 % deleted)
> Current optimal value 1463 after 328479 ms
|    991577 |   28192    55293   111069 |    32342    26787     24 |
|    991677 |   28202    55313   111109 |    35576    27387     24 |
|    991829 |   28210    55329   111141 |    39134    28455     24 |
|    992055 |   28210    55329   111141 |    43048    30980     25 |
|    992394 |   28210    55329   111141 |    47352    35000     25 |
|    992902 |   28217    55343   111169 |    52088    39134     25 |
|    993662 |   28226    55361   111205 |    57297    47054     25 |
|    994808 |   28238    55385   111253 |    63026    32105     22 |
|    996523 |   28255    55419   111321 |    69329    58825     23 |
|    999087 |   28270    55449   111381 |    76262    61957     21 |
|   1002940 |   28325    55559   111601 |    83888    64813     20 |
|   1008728 |   28399    55707   111897 |    92277    71941     20 |
|   1017408 |   28500    55909   112301 |   101505   101522     24 |
> restarts              : 2302
> decisions             : 1634515  (0 % random)
> conflicts             : 1021066
> propagations          : 157177705
> conflict literals     : 92128929  (20.5434 % deleted)
> Current optimal value 1456 after 340710 ms
|   1021066 |   28507    55923   112329 |    52221    85794     26 |
|   1021166 |   28516    55941   112365 |    57443    43658     27 |
|   1021316 |   28516    55941   112365 |    63188    45411     27 |
|   1021541 |   28516    55941   112365 |    69507    47654     27 |
|   1021878 |   28516    55941   112365 |    76457    50690     27 |
|   1022384 |   28516    55941   112365 |    84103    55076     27 |
|   1023143 |   28516    55941   112365 |    92513    62794     27 |
|   1024282 |   28516    55941   112365 |   101765    79063     27 |
|   1025990 |   28516    55941   112365 |   111941   106967     26 |
|   1028561 |   28535    55979   112441 |   123135    97511     22 |
|   1032425 |   28562    56033   112549 |   135449   110340     21 |
|   1038208 |   28601    56111   112705 |   148994    87279     19 |
|   1046878 |   28641    56190   112863 |   163893   141764     18 |
|   1059908 |   30137    59182   118847 |   180283   109015     15 |
|   1079404 |   34412    67732   135947 |   198311   163758     15 |
|   1108691 |   37311    73530   147543 |   218142   189310     14 |
|   1152483 |   37816    74540   149563 |   239957   200664     14 |
|   1218357 |   38038    74984   150451 |   263952   141837     13 |
|   1317137 |   39201    77310   155103 |   290348   255017     18 |
