Starting solving at 127960 ms
>>> Search start
> Conflicts |          ORIGINAL         |          LEARNT          | Progress
>           |    Vars  Clauses Literals |    Limit  Clauses Lit/Cl |         
|         0 |  627761   631130  1575863 |  5946521        1      2 |
>>> Initializing inductive definition 785
> Number of rules : 314160.
> Number of recursive atoms in positive loops : 313600.
