Starting solving at 91 ms
>>> Search start
> Conflicts |          ORIGINAL         |          LEARNT          | Progress
>           |    Vars  Clauses Literals |    Limit  Clauses Lit/Cl |         
|         0 |      37       70      159 |      111        1      2 |
>>> Initializing inductive definition 787
> Number of rules : 20.
> Number of recursive atoms in positive loops : 16.
> restarts              : 1
> decisions             : 5  (0 % random)
> conflicts             : 0
> propagations          : 118
> conflict literals     : 0  (-nan % deleted)
> Current optimal value 218 after 91 ms
|         0 |      49       57      122 |      101        8      9 |
> restarts              : 2
> decisions             : 38  (0 % random)
> conflicts             : 29
> propagations          : 1076
> conflict literals     : 193  (15.3509 % deleted)
>>> Search done
bestvalue&&218
nrmodels&&1
total-solving-time1 ms
