alpha: 0.5
beta: 0.5
gamma: 1.5
stagT: 5
Random frameSizes and framesize is choosen randomly between 1 - maxframesize
When an improvement is found the usefullFramesize is set to the size of the removedassumptions
Maximum runtime: 600

Starting solving at: 123 ms
done
PrepModelIt duration: 127 ms
amount madeAssumptions: 86
Objval best sol: 9926
search limit: 1
useful search limit: 1
max frame size: 52
frame size: 26
useful frame size: 26
stag: 0/5
total spend time up to now: 119 ms
max time: 600
> Current optimal value 9926 after 128 ms
> Current optimal value 9889 after 125 ms
> Current optimal value 9606 after 137 ms
> Current optimal value 8392 after 142 ms
> Current optimal value 8290 after 375 ms
> Current optimal value 8276 after 458 ms
no more models to explore, program will end
end program after: 4471 ms
Total time spend: 4471 ms
Amount of new found models: 1919
Feasible object value: 9926
Result object value: 8276
