alpha: 0.5
beta: 0.5
gamma: 1.5
stagT: 5
Random frameSizes and framesize is choosen randomly between 1 - maxframesize
When an improvement is found the usefullFramesize is set to the size of the removedassumptions
Maximum runtime: 600

Starting solving at: 142 ms
done
PrepModelIt duration: 148 ms
amount madeAssumptions: 183
Objval best sol: 34033
search limit: 5
useful search limit: 5
max frame size: 114
frame size: 57
useful frame size: 57
stag: 0/5
total spend time up to now: 140 ms
max time: 600
> Current optimal value 34033 after 150 ms
> Current optimal value 32959 after 162 ms
> Current optimal value 32088 after 187 ms
> Current optimal value 31030 after 200 ms
> Current optimal value 29146 after 250 ms
> Current optimal value 28083 after 282 ms
> Current optimal value 27072 after 528 ms
> Current optimal value 27047 after 728 ms
> Current optimal value 26555 after 807 ms
no more models to explore, program will end
end program after: 10537 ms
Total time spend: 10538 ms
Amount of new found models: 2577
Feasible object value: 34033
Result object value: 26555
