Starting solving at 43 ms
>>> Search start
> Conflicts |          ORIGINAL         |          LEARNT          | Progress
>           |    Vars  Clauses Literals |    Limit  Clauses Lit/Cl |         
|         0 |     101        4        9 |      255        1      2 |
> restarts              : 1
> decisions             : 11  (0 % random)
> conflicts             : 1
> propagations          : 400
> conflict literals     : 2  (0 % deleted)
> Current optimal value -71 after 44 ms
|         1 |     116       26       52 |      300      112     49 |
> restarts              : 2
> decisions             : 105  (0 % random)
> conflicts             : 2
> propagations          : 624
> conflict literals     : 96  (0 % deleted)
> Current optimal value -73 after 46 ms
|         2 |     220      234      468 |      403      215     50 |
> restarts              : 3
> decisions             : 205  (0 % random)
> conflicts             : 3
> propagations          : 934
> conflict literals     : 190  (1.04167 % deleted)
> Current optimal value -85 after 48 ms
|         3 |     304      401      802 |      491      311     50 |
> restarts              : 4
> decisions             : 300  (0 % random)
> conflicts             : 3
> propagations          : 1314
> conflict literals     : 190  (1.04167 % deleted)
> Current optimal value -89 after 50 ms
|         3 |     380      553     1106 |      574      409     51 |
> restarts              : 5
> decisions             : 395  (0 % random)
> conflicts             : 3
> propagations          : 1764
> conflict literals     : 190  (1.04167 % deleted)
> Current optimal value -92 after 52 ms
|         3 |     450      693     1386 |      653      505     51 |
> restarts              : 6
> decisions             : 490  (0 % random)
> conflicts             : 3
> propagations          : 2277
> conflict literals     : 190  (1.04167 % deleted)
> Current optimal value -96 after 55 ms
|         3 |     513      819     1638 |      726      598     51 |
> restarts              : 7
> decisions             : 585  (0 % random)
> conflicts             : 4
> propagations          : 2863
> conflict literals     : 284  (0.699301 % deleted)
> Current optimal value -98 after 57 ms
|         4 |     568      929     1858 |      797      702     51 |
> restarts              : 8
> decisions             : 677  (0 % random)
> conflicts             : 6
> propagations          : 3489
> conflict literals     : 477  (0.417537 % deleted)
> Current optimal value -100 after 59 ms
|         6 |     614     1021     2042 |      861      800     52 |
> restarts              : 9
> decisions             : 765  (0 % random)
> conflicts             : 6
> propagations          : 4141
> conflict literals     : 477  (0.417537 % deleted)
> Current optimal value -104 after 62 ms
|         6 |     652     1097     2194 |      913      881     51 |
> restarts              : 10
> decisions             : 854  (0 % random)
> conflicts             : 13
> propagations          : 4955
> conflict literals     : 1128  (0.965759 % deleted)
> Current optimal value -105 after 64 ms
|        13 |     689     1171     2342 |      980     1007     53 |
> restarts              : 11
> decisions             : 938  (0 % random)
> conflicts             : 13
> propagations          : 5669
> conflict literals     : 1128  (0.965759 % deleted)
> Current optimal value -109 after 66 ms
|        13 |     714     1221     2442 |     1022     1085     52 |
> restarts              : 12
> decisions             : 1033  (0 % random)
> conflicts             : 13
> propagations          : 6410
> conflict literals     : 1128  (0.965759 % deleted)
> Current optimal value -117 after 69 ms
|        13 |     741     1275     2550 |     1070     1174     52 |
> restarts              : 13
> decisions             : 1118  (0 % random)
> conflicts             : 17
> propagations          : 7296
> conflict literals     : 1510  (0.788436 % deleted)
> Current optimal value -120 after 71 ms
|        17 |     776     1345     2690 |     1126     1272     52 |
> restarts              : 14
> decisions             : 1214  (0 % random)
> conflicts             : 18
> propagations          : 8100
> conflict literals     : 1609  (0.740284 % deleted)
> Current optimal value -122 after 73 ms
|        18 |     802     1397     2794 |     1174     1364     52 |
> restarts              : 15
> decisions             : 1309  (0 % random)
> conflicts             : 18
> propagations          : 8918
> conflict literals     : 1609  (0.740284 % deleted)
> Current optimal value -126 after 76 ms
|        18 |     818     1429     2858 |      984      761     53 |
> restarts              : 16
> decisions             : 1406  (0 % random)
> conflicts             : 19
> propagations          : 9837
> conflict literals     : 1700  (0.758903 % deleted)
> Current optimal value -136 after 78 ms
|        19 |     842     1477     2954 |     1030      853     53 |
> restarts              : 17
> decisions             : 1505  (0 % random)
> conflicts             : 19
> propagations          : 10695
> conflict literals     : 1700  (0.758903 % deleted)
> Current optimal value -154 after 81 ms
|        19 |     858     1509     3018 |     1070      939     53 |
> restarts              : 18
> decisions             : 1601  (0 % random)
> conflicts             : 19
> propagations          : 11567
> conflict literals     : 1700  (0.758903 % deleted)
> Current optimal value -166 after 83 ms
|        19 |     872     1537     3074 |     1104     1014     53 |
> restarts              : 19
> decisions             : 1699  (0 % random)
> conflicts             : 19
> propagations          : 12453
> conflict literals     : 1700  (0.758903 % deleted)
> Current optimal value -181 after 86 ms
|        19 |     886     1565     3130 |     1141     1098     53 |
> restarts              : 20
> decisions             : 1790  (0 % random)
> conflicts             : 20
> propagations          : 13371
> conflict literals     : 1789  (0.886427 % deleted)
> Current optimal value -184 after 88 ms
|        20 |     900     1593     3186 |     1180     1185     53 |
> restarts              : 21
> decisions             : 1915  (0 % random)
> conflicts             : 58
> propagations          : 15861
> conflict literals     : 5035  (1.08055 % deleted)
> Current optimal value -186 after 94 ms
|        58 |     930     1653     3306 |     1342     1613     60 |
> restarts              : 22
> decisions             : 2003  (0 % random)
> conflicts             : 60
> propagations          : 16852
> conflict literals     : 5217  (1.11827 % deleted)
> Current optimal value -188 after 97 ms
|        60 |     936     1665     3330 |     1113      914     69 |
> restarts              : 23
> decisions             : 2093  (0 % random)
> conflicts             : 60
> propagations          : 17799
> conflict literals     : 5217  (1.11827 % deleted)
> Current optimal value -190 after 99 ms
|        60 |     947     1687     3374 |     1146      990     68 |
> restarts              : 24
> decisions             : 2183  (0 % random)
> conflicts             : 64
> propagations          : 18831
> conflict literals     : 5577  (1.2396 % deleted)
> Current optimal value -193 after 102 ms
|        64 |     951     1695     3390 |     1182     1089     67 |
|       165 |     970     1733     3466 |     1300     1185     83 |
|       316 |     977     1747     3494 |     1430     1081     83 |
|       543 |     996     1785     3570 |     1573     1438     84 |
|       881 |    1001     1795     3590 |     1730     1924     83 |
|      1388 |    1006     1805     3610 |     1903     1726     83 |
|      2148 |    1019     1831     3662 |     2093     2532     80 |
|      3287 |    1027     1847     3694 |     2303     1743     78 |
|      5005 |    1040     1872     3744 |     2533     2911     82 |
> restarts              : 45
> decisions             : 8747  (0 % random)
> conflicts             : 5303
> propagations          : 247654
> conflict literals     : 413979  (3.25627 % deleted)
> Current optimal value -203 after 635 ms
|      5303 |    1046     1884     3768 |     1436     1663     82 |
> restarts              : 46
> decisions             : 8838  (0 % random)
> conflicts             : 5305
> propagations          : 248729
> conflict literals     : 414172  (3.25503 % deleted)
> Current optimal value -216 after 637 ms
|      5305 |    1047     1886     3772 |     1189      920     79 |
> restarts              : 47
> decisions             : 8928  (0 % random)
> conflicts             : 5305
> propagations          : 249776
> conflict literals     : 414172  (3.25503 % deleted)
> Current optimal value -220 after 639 ms
|      5305 |    1047     1886     3772 |     1210      982     77 |
> restarts              : 48
> decisions             : 9023  (0 % random)
> conflicts             : 5308
> propagations          : 250852
> conflict literals     : 414455  (3.25423 % deleted)
> Current optimal value -222 after 642 ms
|      5308 |    1047     1886     3772 |     1240     1072     76 |
> restarts              : 49
> decisions             : 9117  (0 % random)
> conflicts             : 5310
> propagations          : 251936
> conflict literals     : 414637  (3.25443 % deleted)
> Current optimal value -228 after 644 ms
|      5310 |    1048     1888     3776 |     1268     1156     76 |
> restarts              : 50
> decisions             : 9209  (0 % random)
> conflicts             : 5310
> propagations          : 252985
> conflict literals     : 414637  (3.25443 % deleted)
> Current optimal value -232 after 647 ms
|      5310 |    1049     1890     3780 |     1297     1239     75 |
|      5410 |    1050     1892     3784 |     1426     1993     79 |
|      5561 |    1050     1892     3784 |     1569     1575     84 |
|      5787 |    1052     1896     3792 |     1726     2304     84 |
|      6125 |    1053     1898     3796 |     1898     1942     81 |
|      6635 |    1056     1903     3806 |     2088     1623     76 |
|      7397 |    1056     1903     3806 |     2297     1960     81 |
|      8538 |    1056     1903     3806 |     2527     2712     83 |
|     10247 |    1056     1903     3806 |     2780     3165     80 |
|     12809 |    1056     1903     3806 |     3058     3043     79 |
|     16672 |    1061     1913     3826 |     3364     3501     80 |
|     22460 |    1062     1915     3830 |     3700     2707     77 |
|     31131 |    1062     1915     3830 |     4070     4764     84 |
> restarts              : 127
> decisions             : 40026  (0 % random)
> conflicts             : 31366
> propagations          : 1292088
> conflict literals     : 2424119  (3.58208 % deleted)
> Current optimal value -234 after 3378 ms
|     31366 |    1062     1915     3830 |     2013     3363     82 |
> restarts              : 128
> decisions             : 40118  (0 % random)
> conflicts             : 31366
> propagations          : 1293150
> conflict literals     : 2424119  (3.58208 % deleted)
> Current optimal value -236 after 3381 ms
|     31366 |    1062     1915     3830 |     1483     1772     80 |
> restarts              : 129
> decisions             : 40209  (0 % random)
> conflicts             : 31366
> propagations          : 1294212
> conflict literals     : 2424119  (3.58208 % deleted)
> Current optimal value -237 after 3384 ms
|     31366 |    1062     1915     3830 |     1217      975     75 |
> restarts              : 130
> decisions             : 40301  (0 % random)
> conflicts             : 31366
> propagations          : 1295274
> conflict literals     : 2424119  (3.58208 % deleted)
> Current optimal value -239 after 3386 ms
|     31366 |    1062     1915     3830 |     1235     1029     74 |
> restarts              : 131
> decisions             : 40414  (0 % random)
> conflicts             : 31390
> propagations          : 1296906
> conflict literals     : 2426259  (3.58046 % deleted)
> Current optimal value -243 after 3390 ms
|     31390 |    1062     1915     3830 |     1317     1275     76 |
> restarts              : 132
> decisions             : 40540  (0 % random)
> conflicts             : 31424
> propagations          : 1299049
> conflict literals     : 2429178  (3.57738 % deleted)
> Current optimal value -245 after 3396 ms
|     31424 |    1062     1915     3830 |     1440     1645     76 |
> restarts              : 133
> decisions             : 40648  (0 % random)
> conflicts             : 31447
> propagations          : 1300667
> conflict literals     : 2431243  (3.57628 % deleted)
> Current optimal value -248 after 3401 ms
|     31447 |    1062     1915     3830 |     1243     1052     77 |
|     31547 |    1062     1915     3830 |     1367     1552     79 |
|     31697 |    1062     1915     3830 |     1504     2402     82 |
|     31922 |    1062     1915     3830 |     1654     2236     83 |
|     32260 |    1062     1915     3830 |     1819     1584     80 |
|     32768 |    1062     1915     3830 |     2001     2028     78 |
|     33532 |    1062     1915     3830 |     2202     2262     82 |
|     34673 |    1062     1915     3830 |     2422     2669     80 |
|     36392 |    1062     1915     3830 |     2664     2408     76 |
|     38958 |    1062     1915     3830 |     2930     2658     83 |
|     42820 |    1062     1915     3830 |     3224     1836     77 |
|     48600 |    1062     1915     3830 |     3546     3529     79 |
|     57280 |    1062     1915     3830 |     3901     4156     81 |
|     70287 |    1062     1915     3830 |     4291     3074     84 |
|     89755 |    1062     1915     3830 |     4720     3932     79 |
|    119050 |    1062     1915     3830 |     5192     3769     83 |
|    162964 |    1062     1915     3830 |     5711     4170     78 |
|    228721 |    1062     1915     3830 |     6282     4671     81 |
|    327483 |    1062     1915     3830 |     6910     6822     83 |
|    475497 |    1062     1915     3830 |     7602     5670     80 |
> restarts              : 1087
> decisions             : 581652  (0 % random)
> conflicts             : 516354
> propagations          : 22179069
> conflict literals     : 40182536  (1.27051 % deleted)
> Current optimal value -250 after 57630 ms
|    516354 |    1062     1915     3830 |     2384     4475     84 |
|    516454 |    1062     1915     3830 |     2622     2991     83 |
|    516604 |    1062     1915     3830 |     2884     2257     82 |
|    516829 |    1062     1915     3830 |     3173     3827     84 |
|    517166 |    1062     1915     3830 |     3490     3920     84 |
> restarts              : 1088
> decisions             : 582798  (0 % random)
> conflicts             : 517422
> propagations          : 22211884
> conflict literals     : 40272717  (1.27537 % deleted)
> Current optimal value -251 after 57738 ms
|    517422 |    1062     1915     3830 |     1975     3248     83 |
> restarts              : 1089
> decisions             : 582881  (0 % random)
> conflicts             : 517424
> propagations          : 22212995
> conflict literals     : 40272901  (1.27538 % deleted)
> Current optimal value -252 after 57741 ms
|    517424 |    1062     1915     3830 |     1463     1713     78 |
|    517524 |    1062     1915     3830 |     1609     1580     78 |
|    517674 |    1062     1915     3830 |     1770     2384     81 |
|    517901 |    1062     1915     3830 |     1947     1248     76 |
|    518240 |    1062     1915     3830 |     2142     2147     77 |
|    518748 |    1062     1915     3830 |     2356     2338     74 |
|    519512 |    1062     1915     3830 |     2592     3171     77 |
|    520653 |    1062     1915     3830 |     2851     2442     76 |
|    522372 |    1062     1915     3830 |     3136     2173     80 |
|    524938 |    1062     1915     3830 |     3450     3189     77 |
|    528799 |    1062     1915     3830 |     3795     2487     80 |
|    534580 |    1062     1915     3830 |     4175     2762     78 |
|    543233 |    1062     1915     3830 |     4592     4569     79 |
|    556264 |    1062     1915     3830 |     5051     4192     78 |
|    575788 |    1062     1915     3830 |     5557     3972     78 |
|    605008 |    1062     1915     3830 |     6112     5112     79 |
|    648919 |    1062     1915     3830 |     6723     4974     80 |
|    714714 |    1062     1915     3830 |     7396     5221     78 |
> restarts              : 1731
> decisions             : 896341  (0 % random)
> conflicts             : 793357
> propagations          : 33997180
> conflict literals     : 61468161  (1.19416 % deleted)
> Current optimal value -253 after 88448 ms
|    793357 |    1062     1915     3830 |     3665     8319     82 |
|    793458 |    1062     1915     3830 |     4031     2869     80 |
|    793610 |    1062     1915     3830 |     4435     3858     80 |
|    793836 |    1062     1915     3830 |     4878     2988     81 |
|    794175 |    1062     1915     3830 |     5366     5334     82 |
|    794683 |    1062     1915     3830 |     5903     5051     82 |
|    795443 |    1062     1915     3830 |     6493     3655     81 |
|    796588 |    1062     1915     3830 |     7142     7511     81 |
|    798304 |    1062     1915     3830 |     7856     8191     79 |
|    800873 |    1062     1915     3830 |     8642     4967     80 |
|    804735 |    1062     1915     3830 |     9506     6179     79 |
|    810509 |    1062     1915     3830 |    10457     8644     82 |
|    819160 |    1062     1915     3830 |    11503     6612     82 |
|    832144 |    1062     1915     3830 |    12653    10943     79 |
|    851671 |    1062     1915     3830 |    13919     8432     79 |
|    880943 |    1062     1915     3830 |    15311    14422     78 |
> restarts              : 1979
> decisions             : 1008584  (0 % random)
> conflicts             : 891068
> propagations          : 38090743
> conflict literals     : 68995293  (1.17209 % deleted)
> Current optimal value -254 after 99839 ms
|    891068 |    1062     1915     3830 |     4308    10249     82 |
|    891168 |    1062     1915     3830 |     4739     3196     83 |
|    891318 |    1062     1915     3830 |     5213     3942     84 |
|    891545 |    1062     1915     3830 |     5734     5298     83 |
|    891884 |    1062     1915     3830 |     6308     4482     81 |
|    892393 |    1062     1915     3830 |     6939     4947     80 |
|    893157 |    1062     1915     3830 |     7633     6288     78 |
|    894299 |    1062     1915     3830 |     8396     4417     79 |
|    896017 |    1062     1915     3830 |     9236     6249     79 |
|    898585 |    1062     1915     3830 |    10159     6398     79 |
|    902444 |    1062     1915     3830 |    11175     9181     79 |
|    908227 |    1062     1915     3830 |    12293     7241     80 |
|    916877 |    1062     1915     3830 |    13522    12421     80 |
|    929853 |    1062     1915     3830 |    14874    12754     83 |
|    949314 |    1062     1915     3830 |    16362    12995     80 |
|    978507 |    1062     1915     3830 |    17998    14687     82 |
|   1022297 |    1062     1915     3830 |    19798    16374     80 |
|   1087981 |    1062     1915     3830 |    21778    20818     82 |
|   1186758 |    1062     1915     3830 |    23955    18940     79 |
|   1334807 |    1062     1915     3830 |    26351    19017     83 |
> restarts              : 2852
> decisions             : 1619105  (0 % random)
> conflicts             : 1450967
> propagations          : 60636833
> conflict literals     : 109204848  (2.59546 % deleted)
> Current optimal value -255 after 169824 ms
|   1450967 |    1062     1915     3830 |     8084    21575     83 |
|   1451068 |    1062     1915     3830 |     8892     6079     80 |
|   1451219 |    1062     1915     3830 |     9781     6916     80 |
|   1451446 |    1062     1915     3830 |    10759     8330     79 |
|   1451785 |    1062     1915     3830 |    11835    10164     78 |
|   1452292 |    1062     1915     3830 |    13019    12293     78 |
|   1453053 |    1062     1915     3830 |    14321     8968     77 |
|   1454198 |    1062     1915     3830 |    15753     8194     76 |
|   1455913 |    1062     1915     3830 |    17328    10665     83 |
|   1458477 |    1062     1915     3830 |    19061    16719     80 |
|   1462331 |    1062     1915     3830 |    20967    15689     81 |
|   1468118 |    1062     1915     3830 |    23064    20511     81 |
|   1476798 |    1062     1915     3830 |    25371    19623     81 |
|   1489790 |    1062     1915     3830 |    27908    23239     80 |
|   1509317 |    1062     1915     3830 |    30698    17730     78 |
|   1538555 |    1062     1915     3830 |    33768    19870     82 |
|   1582346 |    1062     1915     3830 |    37145    26755     79 |
|   1648125 |    1062     1915     3830 |    40860    23039     81 |
|   1746896 |    1062     1915     3830 |    44946    35327     78 |
|   1894983 |    1062     1915     3830 |    49441    40641     83 |
|   2117051 |    1062     1915     3830 |    54385    46490     84 |
|   2449619 |    1062     1915     3830 |    59823    42740     79 |
|   2949389 |    1062     1915     3830 |    65805    33689     81 |
|   3698959 |    1062     1915     3830 |    72386    39805     79 |
