Starting solving at 45 ms
>>> Search start
> Conflicts |          ORIGINAL         |          LEARNT          | Progress
>           |    Vars  Clauses Literals |    Limit  Clauses Lit/Cl |         
|         0 |     121        4        9 |      312        1      2 |
> restarts              : 1
> decisions             : 13  (0 % random)
> conflicts             : 1
> propagations          : 456
> conflict literals     : 3  (0 % deleted)
> Current optimal value -63 after 46 ms
|         1 |     143       36       72 |      367      133     58 |
> restarts              : 2
> decisions             : 126  (0 % random)
> conflicts             : 1
> propagations          : 731
> conflict literals     : 3  (0 % deleted)
> Current optimal value -65 after 48 ms
|         1 |     275      300      600 |      495      254     60 |
> restarts              : 3
> decisions             : 246  (0 % random)
> conflicts             : 2
> propagations          : 1124
> conflict literals     : 116  (0.854701 % deleted)
> Current optimal value -84 after 51 ms
|         2 |     378      506     1012 |      604      374     59 |
> restarts              : 4
> decisions             : 363  (0 % random)
> conflicts             : 2
> propagations          : 1591
> conflict literals     : 116  (0.854701 % deleted)
> Current optimal value -93 after 54 ms
|         2 |     467      684     1368 |      701      488     60 |
> restarts              : 5
> decisions             : 477  (0 % random)
> conflicts             : 2
> propagations          : 2140
> conflict literals     : 116  (0.854701 % deleted)
> Current optimal value -95 after 57 ms
|         2 |     549      848     1696 |      795      607     60 |
> restarts              : 6
> decisions             : 593  (0 % random)
> conflicts             : 4
> propagations          : 2784
> conflict literals     : 345  (0.576369 % deleted)
> Current optimal value -96 after 60 ms
|         4 |     619      987     1974 |      882      729     61 |
> restarts              : 7
> decisions             : 660  (0 % random)
> conflicts             : 4
> propagations          : 3442
> conflict literals     : 345  (0.576369 % deleted)
> Current optimal value -105 after 61 ms
|         4 |     658     1065     2130 |      930      794     61 |
> restarts              : 8
> decisions             : 775  (0 % random)
> conflicts             : 4
> propagations          : 4161
> conflict literals     : 345  (0.576369 % deleted)
> Current optimal value -108 after 64 ms
|         4 |     719     1187     2374 |     1009      909     61 |
> restarts              : 9
> decisions             : 891  (0 % random)
> conflicts             : 4
> propagations          : 4931
> conflict literals     : 345  (0.576369 % deleted)
> Current optimal value -114 after 67 ms
|         4 |     770     1289     2578 |     1080     1021     61 |
> restarts              : 10
> decisions             : 1005  (0 % random)
> conflicts             : 4
> propagations          : 5753
> conflict literals     : 345  (0.576369 % deleted)
> Current optimal value -116 after 71 ms
|         4 |     822     1393     2786 |     1153     1134     61 |
> restarts              : 11
> decisions             : 1120  (0 % random)
> conflicts             : 5
> propagations          : 6630
> conflict literals     : 458  (0.650759 % deleted)
> Current optimal value -124 after 74 ms
|         5 |     863     1475     2950 |     1217     1246     61 |
> restarts              : 12
> decisions             : 1235  (0 % random)
> conflicts             : 5
> propagations          : 7527
> conflict literals     : 458  (0.650759 % deleted)
> Current optimal value -142 after 77 ms
|         5 |     897     1543     3086 |     1275     1352     60 |
> restarts              : 13
> decisions             : 1352  (0 % random)
> conflicts             : 6
> propagations          : 8463
> conflict literals     : 573  (0.520833 % deleted)
> Current optimal value -145 after 80 ms
|         6 |     934     1617     3234 |     1337     1462     60 |
> restarts              : 14
> decisions             : 1488  (0 % random)
> conflicts             : 34
> propagations          : 10058
> conflict literals     : 3692  (1.54667 % deleted)
> Current optimal value -147 after 86 ms
|        34 |     978     1705     3410 |     1447     1705     64 |
> restarts              : 15
> decisions             : 1596  (0 % random)
> conflicts             : 34
> propagations          : 11071
> conflict literals     : 3692  (1.54667 % deleted)
> Current optimal value -159 after 89 ms
|        34 |    1013     1775     3550 |     1220      954     67 |
> restarts              : 16
> decisions             : 1712  (0 % random)
> conflicts             : 34
> propagations          : 12104
> conflict literals     : 3692  (1.54667 % deleted)
> Current optimal value -161 after 93 ms
|        34 |    1033     1815     3630 |     1265     1050     67 |
> restarts              : 17
> decisions             : 1829  (0 % random)
> conflicts             : 34
> propagations          : 13158
> conflict literals     : 3692  (1.54667 % deleted)
> Current optimal value -165 after 96 ms
|        34 |    1054     1857     3714 |     1310     1143     66 |
> restarts              : 18
> decisions             : 1944  (0 % random)
> conflicts             : 35
> propagations          : 14234
> conflict literals     : 3806  (1.62833 % deleted)
> Current optimal value -167 after 99 ms
|        35 |    1066     1881     3762 |     1348     1233     66 |
> restarts              : 19
> decisions             : 2060  (0 % random)
> conflicts             : 37
> propagations          : 15338
> conflict literals     : 4035  (1.58537 % deleted)
> Current optimal value -170 after 103 ms
|        37 |    1077     1903     3806 |     1393     1344     67 |
> restarts              : 20
> decisions             : 2174  (0 % random)
> conflicts             : 37
> propagations          : 16441
> conflict literals     : 4035  (1.58537 % deleted)
> Current optimal value -173 after 106 ms
|        37 |    1103     1955     3910 |     1443     1443     67 |
> restarts              : 21
> decisions             : 2293  (0 % random)
> conflicts             : 38
> propagations          : 17566
> conflict literals     : 4150  (1.61214 % deleted)
> Current optimal value -188 after 110 ms
|        38 |    1116     1981     3962 |     1479     1526     67 |
> restarts              : 22
> decisions             : 2404  (0 % random)
> conflicts             : 38
> propagations          : 18696
> conflict literals     : 4150  (1.61214 % deleted)
> Current optimal value -192 after 114 ms
|        38 |    1130     2009     4018 |     1523     1629     67 |
> restarts              : 24
> decisions             : 2640  (0 % random)
> conflicts             : 101
> propagations          : 23195
> conflict literals     : 10622  (1.03419 % deleted)
> Current optimal value -194 after 127 ms
|       101 |    1153     2055     4110 |     1400     1214     89 |
> restarts              : 25
> decisions             : 2775  (0 % random)
> conflicts             : 126
> propagations          : 25681
> conflict literals     : 13263  (1.10357 % deleted)
> Current optimal value -195 after 133 ms
|       126 |    1158     2065     4130 |     1477     1434     89 |
> restarts              : 26
> decisions             : 2833  (0 % random)
> conflicts             : 126
> propagations          : 26843
> conflict literals     : 13263  (1.10357 % deleted)
> Current optimal value -199 after 135 ms
|       126 |    1162     2073     4146 |     1498     1490     88 |
> restarts              : 27
> decisions             : 2943  (0 % random)
> conflicts             : 133
> propagations          : 28143
> conflict literals     : 14047  (1.09836 % deleted)
> Current optimal value -205 after 139 ms
|       133 |    1167     2083     4166 |     1536     1593     87 |
> restarts              : 28
> decisions             : 3075  (0 % random)
> conflicts             : 152
> propagations          : 29740
> conflict literals     : 16214  (1.05571 % deleted)
> Current optimal value -206 after 144 ms
|       152 |    1175     2099     4198 |     1613     1809     87 |
|       253 |    1191     2131     4262 |     1774     1458     97 |
|       403 |    1197     2143     4286 |     1952     2235    100 |
|       629 |    1200     2149     4298 |     2147     1858    100 |
|       966 |    1204     2157     4314 |     2362     3204    100 |
|      1473 |    1210     2169     4338 |     2598     2330     97 |
|      2232 |    1210     2169     4338 |     2858     2199    103 |
|      3374 |    1221     2190     4380 |     3143     3635     97 |
|      5093 |    1248     2243     4486 |     3458     3890     96 |
> restarts              : 47
> decisions             : 10101  (0 % random)
> conflicts             : 5673
> propagations          : 298586
> conflict literals     : 545293  (2.78232 % deleted)
> Current optimal value -208 after 800 ms
|      5673 |    1249     2245     4490 |     1969     2730    103 |
> restarts              : 48
> decisions             : 10219  (0 % random)
> conflicts             : 5676
> propagations          : 299891
> conflict literals     : 545641  (2.78111 % deleted)
> Current optimal value -213 after 805 ms
|      5676 |    1249     2245     4490 |     1555     1490    100 |
> restarts              : 49
> decisions             : 10335  (0 % random)
> conflicts             : 5684
> propagations          : 301311
> conflict literals     : 546540  (2.77736 % deleted)
> Current optimal value -214 after 809 ms
|      5684 |    1249     2245     4490 |     1584     1577    100 |
|      5784 |    1250     2247     4494 |     1743     2059     99 |
|      5934 |    1250     2247     4494 |     1917     2616    101 |
|      6159 |    1251     2249     4498 |     2109     1872    101 |
|      6499 |    1251     2249     4498 |     2320     2498     99 |
> restarts              : 54
> decisions             : 11706  (0 % random)
> conflicts             : 6633
> propagations          : 344784
> conflict literals     : 643258  (2.49279 % deleted)
> Current optimal value -215 after 926 ms
|      6633 |    1251     2249     4498 |     1649     1768     99 |
> restarts              : 55
> decisions             : 11817  (0 % random)
> conflicts             : 6643
> propagations          : 346385
> conflict literals     : 644298  (2.49093 % deleted)
> Current optimal value -216 after 930 ms
|      6643 |    1251     2249     4498 |     1704     1931     97 |
> restarts              : 56
> decisions             : 11929  (0 % random)
> conflicts             : 6644
> propagations          : 347639
> conflict literals     : 644417  (2.49048 % deleted)
> Current optimal value -217 after 934 ms
|      6644 |    1251     2249     4498 |     1420     1079     95 |
> restarts              : 57
> decisions             : 12044  (0 % random)
> conflicts             : 6649
> propagations          : 348969
> conflict literals     : 644986  (2.48908 % deleted)
> Current optimal value -218 after 937 ms
|      6649 |    1251     2249     4498 |     1433     1118     95 |
> restarts              : 58
> decisions             : 12155  (0 % random)
> conflicts             : 6649
> propagations          : 350220
> conflict literals     : 644986  (2.48908 % deleted)
> Current optimal value -222 after 941 ms
|      6649 |    1251     2249     4498 |     1461     1202     93 |
> restarts              : 59
> decisions             : 12279  (0 % random)
> conflicts             : 6665
> propagations          : 351880
> conflict literals     : 646731  (2.48517 % deleted)
> Current optimal value -223 after 945 ms
|      6665 |    1251     2249     4498 |     1504     1333     95 |
> restarts              : 60
> decisions             : 12400  (0 % random)
> conflicts             : 6678
> propagations          : 353387
> conflict literals     : 648167  (2.48157 % deleted)
> Current optimal value -227 after 950 ms
|      6678 |    1252     2251     4502 |     1561     1500     93 |
> restarts              : 61
> decisions             : 12499  (0 % random)
> conflicts             : 6686
> propagations          : 354835
> conflict literals     : 649035  (2.4795 % deleted)
> Current optimal value -229 after 954 ms
|      6686 |    1252     2251     4502 |     1602     1625     91 |
> restarts              : 62
> decisions             : 12610  (0 % random)
> conflicts             : 6686
> propagations          : 356087
> conflict literals     : 649035  (2.4795 % deleted)
> Current optimal value -233 after 957 ms
|      6686 |    1252     2251     4502 |     1638     1732     89 |
> restarts              : 63
> decisions             : 12764  (0 % random)
> conflicts             : 6732
> propagations          : 358800
> conflict literals     : 653980  (2.47023 % deleted)
> Current optimal value -235 after 966 ms
|      6732 |    1252     2251     4502 |     1802     2223     91 |
> restarts              : 64
> decisions             : 12865  (0 % random)
> conflicts             : 6732
> propagations          : 360052
> conflict literals     : 653980  (2.47023 % deleted)
> Current optimal value -237 after 969 ms
|      6732 |    1252     2251     4502 |     1466     1215     97 |
> restarts              : 65
> decisions             : 12990  (0 % random)
> conflicts             : 6746
> propagations          : 361594
> conflict literals     : 655529  (2.46759 % deleted)
> Current optimal value -240 after 974 ms
|      6746 |    1252     2251     4502 |     1535     1424     96 |
> restarts              : 66
> decisions             : 13097  (0 % random)
> conflicts             : 6775
> propagations          : 363808
> conflict literals     : 658765  (2.46226 % deleted)
> Current optimal value -241 after 979 ms
|      6775 |    1252     2251     4502 |     1606     1635     95 |
|      6875 |    1252     2251     4502 |     1766     2240     97 |
> restarts              : 67
> decisions             : 13376  (0 % random)
> conflicts             : 6967
> propagations          : 371687
> conflict literals     : 679021  (2.45479 % deleted)
> Current optimal value -243 after 1000 ms
|      6967 |    1252     2251     4502 |     1931     2610     98 |
|      7068 |    1252     2251     4502 |     2124     2049    100 |
|      7219 |    1252     2251     4502 |     2336     2988    100 |
|      7445 |    1252     2251     4502 |     2570     2380     99 |
|      7783 |    1254     2255     4510 |     2827     2287     94 |
|      8293 |    1254     2255     4510 |     3109     3230     94 |
|      9055 |    1255     2256     4512 |     3420     2527     92 |
|     10198 |    1255     2256     4512 |     3762     2459     94 |
|     11916 |    1255     2256     4512 |     4139     3543     97 |
|     14480 |    1255     2256     4512 |     4553     5408     98 |
|     18345 |    1255     2256     4512 |     5008     4144     94 |
|     24122 |    1255     2256     4512 |     5509     4795    100 |
|     32778 |    1255     2256     4512 |     6060     4841     96 |
|     45807 |    1255     2256     4512 |     6666     4200     96 |
|     65331 |    1255     2256     4512 |     7332     6327    100 |
|     94553 |    1255     2256     4512 |     8066     5950     94 |
|    138464 |    1255     2256     4512 |     8872     6591     98 |
|    204256 |    1255     2256     4512 |     9760     5822     98 |
|    303036 |    1255     2256     4512 |    10736     6131     99 |
|    451083 |    1255     2256     4512 |    11809     8371    100 |
|    673242 |    1255     2256     4512 |    12990    10138    101 |
> restarts              : 1853
> decisions             : 985626  (0 % random)
> conflicts             : 850393
> propagations          : 39777480
> conflict literals     : 77203625  (3.43366 % deleted)
> Current optimal value -244 after 111936 ms
|    850393 |    1255     2256     4512 |     5697    13903    103 |
> restarts              : 1854
> decisions             : 985739  (0 % random)
> conflicts             : 850404
> propagations          : 39779165
> conflict literals     : 77204844  (3.43362 % deleted)
> Current optimal value -246 after 111944 ms
|    850404 |    1255     2256     4512 |     2273     3631    100 |
> restarts              : 1855
> decisions             : 985834  (0 % random)
> conflicts             : 850410
> propagations          : 39780609
> conflict literals     : 77205513  (3.43359 % deleted)
> Current optimal value -249 after 111949 ms
|    850410 |    1255     2256     4512 |     1709     1939     97 |
|    850510 |    1255     2256     4512 |     1879     1862     97 |
> restarts              : 1856
> decisions             : 986153  (0 % random)
> conflicts             : 850626
> propagations          : 39788547
> conflict literals     : 77228582  (3.43319 % deleted)
> Current optimal value -252 after 111974 ms
|    850626 |    1255     2256     4512 |     1959     2689    101 |
|    850726 |    1255     2256     4512 |     2154     1806     97 |
|    850876 |    1255     2256     4512 |     2370     2461    100 |
|    851101 |    1255     2256     4512 |     2607     3580    101 |
|    851440 |    1255     2256     4512 |     2868     1909     95 |
|    851947 |    1255     2256     4512 |     3154     2738     93 |
|    852712 |    1255     2256     4512 |     3470     2358     93 |
|    853853 |    1255     2256     4512 |     3817     4368     93 |
|    855571 |    1255     2256     4512 |     4199     3571     94 |
|    858139 |    1255     2256     4512 |     4619     4838     97 |
|    861998 |    1255     2256     4512 |     5081     4666     97 |
|    867781 |    1255     2256     4512 |     5589     4509     97 |
|    876432 |    1255     2256     4512 |     6148     5464     97 |
|    889464 |    1255     2256     4512 |     6762     4982     94 |
|    908989 |    1255     2256     4512 |     7439     6617     97 |
|    938187 |    1255     2256     4512 |     8183     8536     96 |
|    981977 |    1255     2256     4512 |     9001     6640     98 |
|   1047662 |    1255     2256     4512 |     9901     5369     97 |
|   1146312 |    1255     2256     4512 |    10891     9298     96 |
|   1294484 |    1255     2256     4512 |    11981     9565     96 |
|   1516647 |    1255     2256     4512 |    13179    12371     96 |
|   1849719 |    1255     2256     4512 |    14497     7435     97 |
|   2349021 |    1255     2256     4512 |    15946    12819     97 |
|   3098608 |    1255     2256     4512 |    17541     8839     99 |
|   4222928 |    1255     2256     4512 |    19295    16574     95 |
