Starting solving at 41 ms
>>> Search start
> Conflicts |          ORIGINAL         |          LEARNT          | Progress
>           |    Vars  Clauses Literals |    Limit  Clauses Lit/Cl |         
|         0 |      61        4        9 |      145        1      2 |
> restarts              : 1
> decisions             : 15  (0 % random)
> conflicts             : 1
> propagations          : 284
> conflict literals     : 3  (0 % deleted)
> Current optimal value -65 after 42 ms
|         1 |      83       35       70 |      178       70     28 |
> restarts              : 2
> decisions             : 68  (0 % random)
> conflicts             : 2
> propagations          : 434
> conflict literals     : 55  (3.50877 % deleted)
> Current optimal value -67 after 43 ms
|         2 |     144      157      314 |      241      135     30 |
> restarts              : 3
> decisions             : 122  (0 % random)
> conflicts             : 4
> propagations          : 644
> conflict literals     : 161  (1.82927 % deleted)
> Current optimal value -70 after 44 ms
|         4 |     192      253      506 |      295      202     31 |
> restarts              : 4
> decisions             : 178  (0 % random)
> conflicts             : 4
> propagations          : 881
> conflict literals     : 161  (1.82927 % deleted)
> Current optimal value -73 after 45 ms
|         4 |     237      343      686 |      345      261     31 |
> restarts              : 5
> decisions             : 234  (0 % random)
> conflicts             : 4
> propagations          : 1149
> conflict literals     : 161  (1.82927 % deleted)
> Current optimal value -76 after 45 ms
|         4 |     268      405      810 |      381      309     31 |
> restarts              : 6
> decisions             : 288  (0 % random)
> conflicts             : 4
> propagations          : 1451
> conflict literals     : 161  (1.82927 % deleted)
> Current optimal value -79 after 46 ms
|         4 |     302      473      946 |      421      361     31 |
> restarts              : 7
> decisions             : 346  (0 % random)
> conflicts             : 8
> propagations          : 1838
> conflict literals     : 376  (1.05263 % deleted)
> Current optimal value -83 after 47 ms
|         8 |     339      547     1094 |      468      428     32 |
> restarts              : 8
> decisions             : 393  (0 % random)
> conflicts             : 9
> propagations          : 2252
> conflict literals     : 425  (1.16279 % deleted)
> Current optimal value -85 after 48 ms
|         9 |     360      589     1178 |      499      477     32 |
> restarts              : 9
> decisions             : 446  (0 % random)
> conflicts             : 9
> propagations          : 2641
> conflict literals     : 425  (1.16279 % deleted)
> Current optimal value -88 after 49 ms
|         9 |     389      647     1294 |      533      523     32 |
> restarts              : 10
> decisions             : 505  (0 % random)
> conflicts             : 9
> propagations          : 3055
> conflict literals     : 425  (1.16279 % deleted)
> Current optimal value -103 after 50 ms
|         9 |     414      697     1394 |      567      573     32 |
> restarts              : 11
> decisions             : 557  (0 % random)
> conflicts             : 9
> propagations          : 3484
> conflict literals     : 425  (1.16279 % deleted)
> Current optimal value -119 after 51 ms
|         9 |     429      727     1454 |      589      610     32 |
> restarts              : 12
> decisions             : 614  (0 % random)
> conflicts             : 10
> propagations          : 3952
> conflict literals     : 481  (1.02881 % deleted)
> Current optimal value -123 after 52 ms
|        10 |     446      761     1522 |      617      661     32 |
> restarts              : 13
> decisions             : 672  (0 % random)
> conflicts             : 12
> propagations          : 4434
> conflict literals     : 590  (1.17253 % deleted)
> Current optimal value -129 after 53 ms
|        12 |     462      793     1586 |      646      716     32 |
> restarts              : 14
> decisions             : 727  (0 % random)
> conflicts             : 12
> propagations          : 4913
> conflict literals     : 590  (1.17253 % deleted)
> Current optimal value -133 after 54 ms
|        12 |     479      827     1654 |      673      763     32 |
> restarts              : 15
> decisions             : 793  (0 % random)
> conflicts             : 32
> propagations          : 5863
> conflict literals     : 1609  (2.00974 % deleted)
> Current optimal value -134 after 56 ms
|        32 |     503      875     1750 |      742      922     35 |
> restarts              : 16
> decisions             : 882  (0 % random)
> conflicts             : 83
> propagations          : 8751
> conflict literals     : 4000  (2.84188 % deleted)
> Current optimal value -135 after 60 ms
|        83 |     530      929     1858 |      705      757     42 |
> restarts              : 17
> decisions             : 939  (0 % random)
> conflicts             : 90
> propagations          : 9478
> conflict literals     : 4367  (2.86922 % deleted)
> Current optimal value -137 after 61 ms
|        90 |     540      949     1898 |      742      848     42 |
> restarts              : 19
> decisions             : 1082  (0 % random)
> conflicts             : 137
> propagations          : 11994
> conflict literals     : 6537  (3.12685 % deleted)
> Current optimal value -138 after 66 ms
|       137 |     566     1001     2002 |      715      713     47 |
> restarts              : 20
> decisions             : 1138  (0 % random)
> conflicts             : 149
> propagations          : 12933
> conflict literals     : 7169  (2.93799 % deleted)
> Current optimal value -139 after 67 ms
|       149 |     574     1017     2034 |      756      821     46 |
> restarts              : 21
> decisions             : 1195  (0 % random)
> conflicts             : 154
> propagations          : 13645
> conflict literals     : 7428  (2.88927 % deleted)
> Current optimal value -141 after 68 ms
|       154 |     580     1029     2058 |      789      908     45 |
|       254 |     587     1043     2086 |      868      788     48 |
|       405 |     604     1076     2152 |      955     1014     47 |
|       630 |     615     1098     2196 |     1050     1406     47 |
|       970 |     631     1129     2258 |     1155      952     47 |
|      1479 |     640     1146     2292 |     1271     1184     47 |
|      2240 |     644     1154     2308 |     1398     1494     46 |
|      3380 |     647     1160     2320 |     1538     1951     46 |
|      5094 |     651     1168     2336 |     1692     1399     46 |
|      7667 |     657     1179     2358 |     1861     1450     46 |
|     11525 |     659     1183     2366 |     2047     1684     46 |
|     17305 |     661     1187     2374 |     2252     2131     46 |
> restarts              : 102
> decisions             : 29394  (0 % random)
> conflicts             : 24651
> propagations          : 1011046
> conflict literals     : 1029447  (6.28134 % deleted)
> Current optimal value -142 after 1671 ms
|     24651 |     661     1187     2374 |     1470     2792     48 |
|     24752 |     661     1187     2374 |     1617     1143     46 |
|     24903 |     661     1187     2374 |     1778     1851     46 |
|     25130 |     661     1187     2374 |     1956     1867     46 |
|     25469 |     661     1187     2374 |     2152     1443     47 |
|     25976 |     661     1187     2374 |     2367     2443     46 |
|     26737 |     661     1187     2374 |     2604     2270     46 |
|     27882 |     661     1187     2374 |     2864     3117     47 |
|     29597 |     661     1187     2374 |     3151     3153     46 |
|     32161 |     661     1187     2374 |     3466     2707     46 |
|     36006 |     661     1187     2374 |     3812     3427     48 |
|     41778 |     661     1187     2374 |     4194     4098     46 |
|     50462 |     661     1187     2374 |     4613     3122     47 |
|     63474 |     661     1187     2374 |     5074     3895     46 |
|     82983 |     661     1187     2374 |     5582     3967     47 |
|    112237 |     661     1187     2374 |     6140     5438     46 |
|    156148 |     661     1187     2374 |     6754     5765     46 |
|    221905 |     661     1187     2374 |     7430     4195     49 |
|    320686 |     661     1187     2374 |     8173     7578     46 |
> restarts              : 1023
> decisions             : 579358  (0 % random)
> conflicts             : 453750
> propagations          : 18036524
> conflict literals     : 18412879  (4.68347 % deleted)
>>> Search done
bestvalue&&-142
nrmodels&&1
total-solving-time31949 ms
