Starting solving at 41 ms
>>> Search start
> Conflicts |          ORIGINAL         |          LEARNT          | Progress
>           |    Vars  Clauses Literals |    Limit  Clauses Lit/Cl |         
|         0 |      91        4        9 |      227        1      2 |
> restarts              : 1
> decisions             : 16  (0 % random)
> conflicts             : 1
> propagations          : 379
> conflict literals     : 3  (0 % deleted)
> Current optimal value -85 after 42 ms
|         1 |     118       46       92 |      275      105     44 |
> restarts              : 2
> decisions             : 105  (0 % random)
> conflicts             : 1
> propagations          : 583
> conflict literals     : 3  (0 % deleted)
> Current optimal value -104 after 44 ms
|         1 |     204      217      434 |      361      190     43 |
> restarts              : 3
> decisions             : 194  (0 % random)
> conflicts             : 9
> propagations          : 966
> conflict literals     : 649  (1.66667 % deleted)
> Current optimal value -112 after 46 ms
|         9 |     291      390      780 |      465      329     49 |
> restarts              : 4
> decisions             : 270  (0 % random)
> conflicts             : 10
> propagations          : 1317
> conflict literals     : 737  (1.47059 % deleted)
> Current optimal value -117 after 48 ms
|        10 |     347      502     1004 |      528      408     49 |
> restarts              : 5
> decisions             : 352  (0 % random)
> conflicts             : 10
> propagations          : 1719
> conflict literals     : 737  (1.47059 % deleted)
> Current optimal value -120 after 49 ms
|        10 |     402      612     1224 |      590      483     48 |
> restarts              : 6
> decisions             : 423  (0 % random)
> conflicts             : 10
> propagations          : 2163
> conflict literals     : 737  (1.47059 % deleted)
> Current optimal value -129 after 51 ms
|        10 |     444      696     1392 |      640      550     48 |
> restarts              : 7
> decisions             : 513  (0 % random)
> conflicts             : 13
> propagations          : 2686
> conflict literals     : 991  (1.58888 % deleted)
> Current optimal value -136 after 52 ms
|        13 |     489      786     1572 |      702      644     49 |
> restarts              : 8
> decisions             : 599  (0 % random)
> conflicts             : 13
> propagations          : 3215
> conflict literals     : 991  (1.58888 % deleted)
> Current optimal value -139 after 54 ms
|        13 |     529      866     1732 |      753      718     48 |
> restarts              : 9
> decisions             : 682  (0 % random)
> conflicts             : 13
> propagations          : 3779
> conflict literals     : 991  (1.58888 % deleted)
> Current optimal value -145 after 56 ms
|        13 |     564      936     1872 |      800      789     48 |
> restarts              : 10
> decisions             : 798  (0 % random)
> conflicts             : 58
> propagations          : 5891
> conflict literals     : 4587  (2.07088 % deleted)
> Current optimal value -154 after 60 ms
|        58 |     619     1046     2092 |      931     1072     54 |
> restarts              : 11
> decisions             : 881  (0 % random)
> conflicts             : 58
> propagations          : 6541
> conflict literals     : 4587  (2.07088 % deleted)
> Current optimal value -157 after 62 ms
|        58 |     650     1108     2216 |      977     1149     53 |
> restarts              : 12
> decisions             : 969  (0 % random)
> conflicts             : 64
> propagations          : 7375
> conflict literals     : 5079  (1.94981 % deleted)
> Current optimal value -159 after 65 ms
|        64 |     677     1162     2324 |      843      692     60 |
> restarts              : 13
> decisions             : 1056  (0 % random)
> conflicts             : 64
> propagations          : 8076
> conflict literals     : 5079  (1.94981 % deleted)
> Current optimal value -162 after 67 ms
|        64 |     701     1210     2420 |      883      764     60 |
> restarts              : 14
> decisions             : 1139  (0 % random)
> conflicts             : 64
> propagations          : 8788
> conflict literals     : 5079  (1.94981 % deleted)
> Current optimal value -169 after 68 ms
|        64 |     712     1232     2464 |      907      813     59 |
> restarts              : 15
> decisions             : 1224  (0 % random)
> conflicts             : 64
> propagations          : 9518
> conflict literals     : 5079  (1.94981 % deleted)
> Current optimal value -185 after 70 ms
|        64 |     730     1268     2536 |      939      875     59 |
> restarts              : 16
> decisions             : 1307  (0 % random)
> conflicts             : 64
> propagations          : 10264
> conflict literals     : 5079  (1.94981 % deleted)
> Current optimal value -189 after 72 ms
|        64 |     746     1300     2600 |      972      940     59 |
> restarts              : 17
> decisions             : 1392  (0 % random)
> conflicts             : 66
> propagations          : 11068
> conflict literals     : 5244  (1.92631 % deleted)
> Current optimal value -192 after 73 ms
|        66 |     760     1328     2656 |     1007     1017     59 |
> restarts              : 18
> decisions             : 1473  (0 % random)
> conflicts             : 66
> propagations          : 11834
> conflict literals     : 5244  (1.92631 % deleted)
> Current optimal value -193 after 75 ms
|        66 |     766     1340     2680 |     1033     1083     59 |
> restarts              : 20
> decisions             : 1650  (0 % random)
> conflicts             : 118
> propagations          : 18501
> conflict literals     : 8761  (1.57286 % deleted)
> Current optimal value -194 after 84 ms
|       118 |     797     1402     2804 |      980      864     68 |
|       219 |     851     1509     3018 |     1078      974     74 |
|       369 |     875     1557     3114 |     1186     1222     73 |
|       595 |     897     1601     3202 |     1305     1584     73 |
> restarts              : 23
> decisions             : 2348  (0 % random)
> conflicts             : 631
> propagations          : 42728
> conflict literals     : 44933  (2.74242 % deleted)
> Current optimal value -195 after 131 ms
|       631 |     898     1603     3206 |     1356     1790     74 |
> restarts              : 24
> decisions             : 2419  (0 % random)
> conflicts             : 633
> propagations          : 43704
> conflict literals     : 45096  (2.73698 % deleted)
> Current optimal value -201 after 133 ms
|       633 |     908     1623     3246 |     1095      988     72 |
> restarts              : 25
> decisions             : 2505  (0 % random)
> conflicts             : 637
> propagations          : 44708
> conflict literals     : 45427  (2.72174 % deleted)
> Current optimal value -203 after 135 ms
|       637 |     910     1627     3254 |     1124     1069     72 |
> restarts              : 26
> decisions             : 2603  (0 % random)
> conflicts             : 658
> propagations          : 46217
> conflict literals     : 47090  (2.69857 % deleted)
> Current optimal value -205 after 139 ms
|       658 |     915     1637     3274 |     1190     1258     72 |
> restarts              : 27
> decisions             : 2662  (0 % random)
> conflicts             : 658
> propagations          : 47137
> conflict literals     : 47090  (2.69857 % deleted)
> Current optimal value -212 after 140 ms
|       658 |     920     1647     3294 |     1214     1320     71 |
> restarts              : 28
> decisions             : 2747  (0 % random)
> conflicts             : 661
> propagations          : 48135
> conflict literals     : 47334  (2.69103 % deleted)
> Current optimal value -213 after 142 ms
|       661 |     924     1655     3310 |     1245     1406     71 |
> restarts              : 29
> decisions             : 2823  (0 % random)
> conflicts             : 661
> propagations          : 49060
> conflict literals     : 47334  (2.69103 % deleted)
> Current optimal value -214 after 143 ms
|       661 |     925     1657     3314 |     1252     1424     71 |
> restarts              : 30
> decisions             : 2908  (0 % random)
> conflicts             : 663
> propagations          : 50012
> conflict literals     : 47501  (2.70176 % deleted)
> Current optimal value -224 after 146 ms
|       663 |     929     1665     3330 |     1047      800     72 |
|       763 |     929     1665     3330 |     1151     1465     75 |
> restarts              : 31
> decisions             : 3090  (0 % random)
> conflicts             : 764
> propagations          : 53388
> conflict literals     : 55477  (2.6446 % deleted)
> Current optimal value -226 after 154 ms
|       764 |     929     1665     3330 |     1274     1481     75 |
> restarts              : 32
> decisions             : 3153  (0 % random)
> conflicts             : 764
> propagations          : 54324
> conflict literals     : 55477  (2.6446 % deleted)
> Current optimal value -233 after 156 ms
|       764 |     936     1679     3358 |     1051      800     74 |
> restarts              : 33
> decisions             : 3235  (0 % random)
> conflicts             : 764
> propagations          : 55269
> conflict literals     : 55477  (2.6446 % deleted)
> Current optimal value -237 after 158 ms
|       764 |     945     1697     3394 |     1081      870     72 |
> restarts              : 34
> decisions             : 3321  (0 % random)
> conflicts             : 769
> propagations          : 56278
> conflict literals     : 55891  (2.64079 % deleted)
> Current optimal value -239 after 161 ms
|       769 |     948     1703     3406 |     1108      945     72 |
> restarts              : 35
> decisions             : 3393  (0 % random)
> conflicts             : 769
> propagations          : 57231
> conflict literals     : 55891  (2.64079 % deleted)
> Current optimal value -242 after 162 ms
|       769 |     953     1713     3426 |     1130     1003     71 |
> restarts              : 36
> decisions             : 3477  (0 % random)
> conflicts             : 771
> propagations          : 58199
> conflict literals     : 56060  (2.63981 % deleted)
> Current optimal value -245 after 164 ms
|       771 |     957     1721     3442 |     1154     1066     69 |
|       872 |     961     1729     3458 |     1269     1683     71 |
|      1023 |     964     1735     3470 |     1396     1293     75 |
|      1248 |     965     1737     3474 |     1536     1730     73 |
|      1587 |     968     1743     3486 |     1690     2152     73 |
|      2097 |     979     1765     3530 |     1859     2105     70 |
|      2858 |     984     1775     3550 |     2044     2689     71 |
|      4003 |     985     1777     3554 |     2249     1986     72 |
|      5719 |     992     1791     3582 |     2474     2339     72 |
|      8284 |     992     1791     3582 |     2721     1862     70 |
|     12134 |     994     1795     3590 |     2994     2282     72 |
|     17925 |     994     1795     3590 |     3293     3068     72 |
|     26605 |     995     1797     3594 |     3622     2364     73 |
|     39596 |     995     1797     3594 |     3985     3467     73 |
|     59120 |     995     1797     3594 |     4383     3037     72 |
|     88362 |     995     1797     3594 |     4821     5302     75 |
|    132277 |     995     1797     3594 |     5304     5734     70 |
> restarts              : 468
> decisions             : 188449  (0 % random)
> conflicts             : 162694
> propagations          : 7049898
> conflict literals     : 11220397  (1.24456 % deleted)
> Current optimal value -250 after 15994 ms
|    162694 |     995     1797     3594 |     2768     5832     73 |
> restarts              : 469
> decisions             : 188532  (0 % random)
> conflicts             : 162719
> propagations          : 7051735
> conflict literals     : 11222234  (1.24487 % deleted)
> Current optimal value -256 after 15998 ms
|    162719 |     996     1799     3598 |     1863     3114     73 |
|    162819 |     996     1799     3598 |     2049     2130     72 |
|    162969 |     996     1799     3598 |     2254     2968     74 |
|    163195 |     996     1799     3598 |     2479     2843     72 |
|    163535 |     996     1799     3598 |     2727     2072     67 |
|    164043 |     996     1799     3598 |     3000     3063     67 |
|    164803 |     996     1799     3598 |     3300     1975     66 |
|    165942 |     996     1799     3598 |     3630     2417     70 |
|    167658 |     996     1799     3598 |     3993     2802     69 |
|    170233 |     996     1799     3598 |     4392     2423     69 |
|    174087 |     996     1799     3598 |     4832     4697     69 |
|    179855 |     996     1799     3598 |     5315     3231     71 |
|    188505 |     996     1799     3598 |     5846     4110     69 |
|    201480 |     996     1799     3598 |     6431     3980     71 |
|    220941 |     996     1799     3598 |     7074     4971     70 |
|    250233 |     996     1799     3598 |     7782     4036     70 |
|    294143 |     996     1799     3598 |     8560     6530     72 |
|    359986 |     996     1799     3598 |     9416     8521     72 |
|    458644 |     996     1799     3598 |    10358     7229     72 |
|    606691 |     996     1799     3598 |    11393     7356     70 |
|    828882 |     996     1799     3598 |    12533     7598     72 |
|   1161792 |     996     1799     3598 |    13786     9236     70 |
|   1661591 |     996     1799     3598 |    15165     7955     72 |
|   2410683 |     996     1799     3598 |    16681    13632     71 |
|   3535004 |     996     1799     3598 |    18350    10755     71 |
|   5220464 |     996     1799     3598 |    20185    18990     73 |
