Starting solving at 43 ms
>>> Search start
> Conflicts |          ORIGINAL         |          LEARNT          | Progress
>           |    Vars  Clauses Literals |    Limit  Clauses Lit/Cl |         
|         0 |      91        4        9 |      227        1      2 |
> restarts              : 1
> decisions             : 16  (0 % random)
> conflicts             : 2
> propagations          : 387
> conflict literals     : 86  (1.14943 % deleted)
> Current optimal value -86 after 44 ms
|         2 |     116       42       84 |      277      113     46 |
> restarts              : 2
> decisions             : 106  (0 % random)
> conflicts             : 11
> propagations          : 750
> conflict literals     : 815  (0.972053 % deleted)
> Current optimal value -91 after 46 ms
|        11 |     221      251      502 |      402      279     55 |
> restarts              : 3
> decisions             : 165  (0 % random)
> conflicts             : 23
> propagations          : 1186
> conflict literals     : 1823  (1.45946 % deleted)
> Current optimal value -94 after 47 ms
|        23 |     279      367      734 |      472      375     56 |
> restarts              : 4
> decisions             : 230  (0 % random)
> conflicts             : 26
> propagations          : 1534
> conflict literals     : 2085  (1.27841 % deleted)
> Current optimal value -101 after 49 ms
|        26 |     331      471      942 |      530      444     54 |
> restarts              : 5
> decisions             : 313  (0 % random)
> conflicts             : 27
> propagations          : 1932
> conflict literals     : 2174  (1.22672 % deleted)
> Current optimal value -115 after 50 ms
|        27 |     386      581     1162 |      593      522     53 |
> restarts              : 6
> decisions             : 403  (0 % random)
> conflicts             : 28
> propagations          : 2382
> conflict literals     : 2262  (1.17955 % deleted)
> Current optimal value -122 after 52 ms
|        28 |     439      687     1374 |      655      602     53 |
> restarts              : 7
> decisions             : 492  (0 % random)
> conflicts             : 28
> propagations          : 2872
> conflict literals     : 2262  (1.17955 % deleted)
> Current optimal value -130 after 54 ms
|        28 |     490      789     1578 |      709      664     53 |
> restarts              : 8
> decisions             : 579  (0 % random)
> conflicts             : 28
> propagations          : 3397
> conflict literals     : 2262  (1.17955 % deleted)
> Current optimal value -133 after 56 ms
|        28 |     525      859     1718 |      754      728     53 |
> restarts              : 9
> decisions             : 669  (0 % random)
> conflicts             : 29
> propagations          : 3960
> conflict literals     : 2351  (1.17697 % deleted)
> Current optimal value -147 after 57 ms
|        29 |     560      929     1858 |      798      791     52 |
> restarts              : 10
> decisions             : 759  (0 % random)
> conflicts             : 30
> propagations          : 4563
> conflict literals     : 2439  (1.13498 % deleted)
> Current optimal value -157 after 59 ms
|        30 |     590      989     1978 |      840      855     52 |
> restarts              : 11
> decisions             : 844  (0 % random)
> conflicts             : 30
> propagations          : 5174
> conflict literals     : 2439  (1.13498 % deleted)
> Current optimal value -164 after 61 ms
|        30 |     611     1031     2062 |      874      917     53 |
> restarts              : 12
> decisions             : 934  (0 % random)
> conflicts             : 31
> propagations          : 5810
> conflict literals     : 2524  (1.13592 % deleted)
> Current optimal value -180 after 62 ms
|        31 |     632     1073     2146 |      909      980     52 |
> restarts              : 13
> decisions             : 1049  (0 % random)
> conflicts             : 64
> propagations          : 9953
> conflict literals     : 4762  (1.0185 % deleted)
> Current optimal value -187 after 68 ms
|        64 |     684     1177     2354 |     1040     1269     57 |
> restarts              : 14
> decisions             : 1134  (0 % random)
> conflicts             : 68
> propagations          : 10748
> conflict literals     : 5092  (1.03013 % deleted)
> Current optimal value -190 after 70 ms
|        68 |     722     1253     2506 |      891      745     62 |
> restarts              : 15
> decisions             : 1212  (0 % random)
> conflicts             : 68
> propagations          : 11481
> conflict literals     : 5092  (1.03013 % deleted)
> Current optimal value -209 after 72 ms
|        68 |     733     1275     2550 |      914      791     62 |
> restarts              : 16
> decisions             : 1296  (0 % random)
> conflicts             : 74
> propagations          : 12380
> conflict literals     : 5576  (0.976736 % deleted)
> Current optimal value -212 after 73 ms
|        74 |     744     1297     2594 |      951      882     62 |
> restarts              : 18
> decisions             : 1516  (0 % random)
> conflicts             : 167
> propagations          : 16408
> conflict literals     : 12730  (1.52394 % deleted)
> Current optimal value -215 after 83 ms
|       167 |     790     1389     2778 |     1219     1594     67 |
> restarts              : 19
> decisions             : 1597  (0 % random)
> conflicts             : 177
> propagations          : 17510
> conflict literals     : 13534  (1.52794 % deleted)
> Current optimal value -218 after 86 ms
|       177 |     814     1437     2874 |     1009      916     76 |
> restarts              : 20
> decisions             : 1662  (0 % random)
> conflicts             : 187
> propagations          : 18621
> conflict literals     : 14327  (1.48525 % deleted)
> Current optimal value -221 after 88 ms
|       187 |     833     1475     2950 |     1056     1018     74 |
> restarts              : 22
> decisions             : 1853  (0 % random)
> conflicts             : 261
> propagations          : 22980
> conflict literals     : 20088  (1.69326 % deleted)
> Current optimal value -222 after 97 ms
|       261 |     862     1533     3066 |     1276     1619     73 |
> restarts              : 23
> decisions             : 1913  (0 % random)
> conflicts             : 273
> propagations          : 24152
> conflict literals     : 21067  (1.67095 % deleted)
> Current optimal value -228 after 99 ms
|       273 |     871     1551     3102 |     1054      935     76 |
> restarts              : 24
> decisions             : 1992  (0 % random)
> conflicts             : 274
> propagations          : 25058
> conflict literals     : 21151  (1.66899 % deleted)
> Current optimal value -229 after 101 ms
|       274 |     881     1571     3142 |     1087     1016     74 |
> restarts              : 25
> decisions             : 2074  (0 % random)
> conflicts             : 275
> propagations          : 25950
> conflict literals     : 21234  (1.66258 % deleted)
> Current optimal value -230 after 103 ms
|       275 |     885     1579     3158 |     1116     1093     73 |
> restarts              : 26
> decisions             : 2160  (0 % random)
> conflicts             : 282
> propagations          : 27021
> conflict literals     : 21803  (1.63321 % deleted)
> Current optimal value -233 after 106 ms
|       282 |     886     1581     3162 |     1151     1196     72 |
|       382 |     898     1605     3210 |     1266     1710     72 |
|       534 |     914     1637     3274 |     1392     1177     75 |
> restarts              : 29
> decisions             : 2612  (0 % random)
> conflicts             : 580
> propagations          : 44968
> conflict literals     : 43362  (2.16376 % deleted)
> Current optimal value -235 after 136 ms
|       580 |     915     1639     3278 |     1261     1470     76 |
> restarts              : 30
> decisions             : 2702  (0 % random)
> conflicts             : 595
> propagations          : 46411
> conflict literals     : 44531  (2.13182 % deleted)
> Current optimal value -237 after 139 ms
|       595 |     926     1661     3322 |     1074      887     73 |
> restarts              : 31
> decisions             : 2833  (0 % random)
> conflicts             : 647
> propagations          : 49217
> conflict literals     : 48479  (2.07845 % deleted)
> Current optimal value -240 after 145 ms
|       647 |     931     1671     3342 |     1204     1267     73 |
> restarts              : 32
> decisions             : 2901  (0 % random)
> conflicts             : 647
> propagations          : 50151
> conflict literals     : 48479  (2.07845 % deleted)
> Current optimal value -243 after 147 ms
|       647 |     934     1677     3354 |     1229     1335     71 |
> restarts              : 33
> decisions             : 2984  (0 % random)
> conflicts             : 647
> propagations          : 51092
> conflict literals     : 48479  (2.07845 % deleted)
> Current optimal value -252 after 149 ms
|       647 |     941     1691     3382 |     1252     1391     70 |
|       748 |     946     1701     3402 |     1377     1319     74 |
|       898 |     948     1705     3410 |     1515     1091     71 |
|      1126 |     971     1750     3500 |     1667     1928     70 |
|      1464 |     977     1762     3524 |     1834     1478     69 |
|      1973 |     982     1772     3544 |     2017     1605     69 |
|      2736 |     986     1780     3560 |     2219     2067     72 |
|      3878 |     992     1792     3584 |     2441     2810     71 |
|      5597 |     998     1804     3608 |     2685     3113     71 |
|      8162 |    1000     1808     3616 |     2953     2339     71 |
|     12010 |    1000     1808     3616 |     3249     3497     69 |
|     17803 |    1002     1812     3624 |     3574     3107     69 |
|     26484 |    1002     1812     3624 |     3931     2914     73 |
|     39474 |    1002     1812     3624 |     4324     4958     70 |
|     58999 |    1003     1814     3628 |     4756     3245     72 |
|     88241 |    1003     1814     3628 |     5232     5161     70 |
|    132156 |    1003     1814     3628 |     5755     4368     72 |
|    197970 |    1003     1814     3628 |     6331     5101     74 |
> restarts              : 638
> decisions             : 294428  (0 % random)
> conflicts             : 260224
> propagations          : 11331873
> conflict literals     : 16405777  (4.89105 % deleted)
> Current optimal value -256 after 26299 ms
|    260224 |    1003     1814     3628 |     2444     4842     76 |
|    260324 |    1003     1814     3628 |     2688     2966     74 |
|    260474 |    1003     1814     3628 |     2957     1874     71 |
|    260699 |    1003     1814     3628 |     3252     3022     73 |
|    261036 |    1003     1814     3628 |     3578     2427     71 |
|    261545 |    1003     1814     3628 |     3936     2903     69 |
|    262308 |    1003     1814     3628 |     4329     3049     71 |
|    263454 |    1003     1814     3628 |     4762     3648     71 |
|    265169 |    1003     1814     3628 |     5238     5488     72 |
|    267741 |    1003     1814     3628 |     5762     4205     71 |
|    271599 |    1003     1814     3628 |     6339     4556     71 |
|    277383 |    1003     1814     3628 |     6973     5093     72 |
|    286061 |    1003     1814     3628 |     7670     7511     71 |
|    299069 |    1003     1814     3628 |     8437     7992     72 |
|    318532 |    1003     1814     3628 |     9281     5212     72 |
|    347830 |    1003     1814     3628 |    10209     6256     72 |
|    391741 |    1003     1814     3628 |    11230    10338     70 |
|    457454 |    1003     1814     3628 |    12353     9878     74 |
|    556167 |    1003     1814     3628 |    13588    11443     72 |
|    704280 |    1003     1814     3628 |    14947    11667     70 |
|    926473 |    1003     1814     3628 |    16442    13926     72 |
|   1259383 |    1003     1814     3628 |    18086    15386     72 |
|   1759189 |    1003     1814     3628 |    19894    16041     69 |
|   2508214 |    1003     1814     3628 |    21884    14005     72 |
|   3632530 |    1003     1814     3628 |    24072    17019     73 |
