alpha: 0.5
beta: 0.5
gamma: 1.5
stagT: 5
Random frameSizes and framesize is choosen randomly between 1 - maxframesize
When an improvement is found the usefullFramesize is set to the size of the removedassumptions
Maximum runtime: 600

Starting solving at: 173 ms
done
PrepModelIt duration: 194 ms
amount madeAssumptions: 1899
Objval best sol: 4107
search limit: 4
useful search limit: 4
max frame size: 78
frame size: 39
useful frame size: 39
stag: 0/5
total spend time up to now: 88 ms
max time: 600
> Current optimal value 4107 after 195 ms
> Current optimal value 4008 after 133 ms
> Current optimal value 3952 after 208 ms
> Current optimal value 3804 after 217 ms
> Current optimal value 3751 after 235 ms
> Current optimal value 3721 after 346 ms
> Current optimal value 3680 after 428 ms
> Current optimal value 3596 after 618 ms
> Current optimal value 3584 after 646 ms
> Current optimal value 3553 after 781 ms
> Current optimal value 3507 after 828 ms
> Current optimal value 3482 after 963 ms
> Current optimal value 3466 after 1083 ms
> Current optimal value 3345 after 1144 ms
> Current optimal value 3288 after 1576 ms
> Current optimal value 3251 after 1675 ms
> Current optimal value 3224 after 1793 ms
> Current optimal value 3211 after 1825 ms
> Current optimal value 3205 after 2545 ms
> Current optimal value 3187 after 2747 ms
> Current optimal value 3178 after 2763 ms
> Current optimal value 3161 after 2794 ms
> Current optimal value 3159 after 3130 ms
> Current optimal value 3147 after 3360 ms
> Current optimal value 3123 after 3392 ms
> Current optimal value 2988 after 3412 ms
> Current optimal value 2930 after 3507 ms
> Current optimal value 2925 after 3924 ms
> Current optimal value 2900 after 4583 ms
> Current optimal value 2842 after 4619 ms
> Current optimal value 2798 after 5105 ms
> Current optimal value 2780 after 5737 ms
> Current optimal value 2758 after 5816 ms
> Current optimal value 2757 after 6198 ms
> Current optimal value 2742 after 6531 ms
> Current optimal value 2659 after 10671 ms
> Current optimal value 2646 after 13824 ms
> Current optimal value 2640 after 15422 ms
> Current optimal value 2628 after 21684 ms
> Current optimal value 2582 after 22000 ms
> Current optimal value 2568 after 23697 ms
> Current optimal value 2565 after 23872 ms
> Current optimal value 2547 after 24275 ms
> Current optimal value 2528 after 24420 ms
> Current optimal value 2516 after 24596 ms
> Current optimal value 2511 after 25989 ms
> Current optimal value 2471 after 26723 ms
> Current optimal value 2432 after 26796 ms
> Current optimal value 2421 after 26870 ms
> Current optimal value 2392 after 30567 ms
> Current optimal value 2372 after 30658 ms
> Current optimal value 2358 after 30976 ms
> Current optimal value 2325 after 58399 ms
> Current optimal value 2319 after 59157 ms
> Current optimal value 2306 after 59939 ms
> Current optimal value 2285 after 60265 ms
> Current optimal value 2272 after 72665 ms
> Current optimal value 2228 after 82854 ms
> Current optimal value 2222 after 111812 ms
> Current optimal value 2190 after 111928 ms
> Current optimal value 2168 after 136367 ms
> Current optimal value 2138 after 137147 ms
> Current optimal value 2136 after 171054 ms
> Current optimal value 2133 after 193996 ms
> Current optimal value 2132 after 194057 ms
> Current optimal value 2110 after 199661 ms
> Current optimal value 2084 after 227558 ms
> Current optimal value 2027 after 243231 ms
> Current optimal value 1991 after 300202 ms
> Current optimal value 1990 after 301903 ms
> Current optimal value 1972 after 373848 ms
> Current optimal value 1970 after 388907 ms
> Current optimal value 1930 after 415957 ms
> Current optimal value 1919 after 501855 ms
> Current optimal value 1899 after 567707 ms
> Current optimal value 1883 after 569132 ms
> Current optimal value 1848 after 569887 ms
> Current optimal value 1845 after 580311 ms
