alpha: 0.5
beta: 0.5
gamma: 1.5
stagT: 5
Random frameSizes and framesize is choosen randomly between 1 - maxframesize
When an improvement is found the usefullFramesize is set to the size of the removedassumptions
Maximum runtime: 600

Starting solving at: 264 ms
done
PrepModelIt duration: 296 ms
amount madeAssumptions: 2735
Objval best sol: 6781
search limit: 5
useful search limit: 5
max frame size: 96
frame size: 48
useful frame size: 48
stag: 0/5
total spend time up to now: 106 ms
max time: 600
> Current optimal value 6781 after 296 ms
> Current optimal value 6757 after 169 ms
> Current optimal value 6679 after 183 ms
> Current optimal value 6672 after 219 ms
> Current optimal value 6595 after 257 ms
> Current optimal value 6564 after 297 ms
> Current optimal value 6272 after 356 ms
> Current optimal value 6249 after 481 ms
> Current optimal value 6138 after 496 ms
> Current optimal value 6109 after 542 ms
> Current optimal value 6105 after 646 ms
> Current optimal value 5994 after 746 ms
> Current optimal value 5899 after 807 ms
> Current optimal value 5862 after 847 ms
> Current optimal value 5817 after 1007 ms
> Current optimal value 5753 after 1103 ms
> Current optimal value 5707 after 1210 ms
> Current optimal value 5608 after 1264 ms
> Current optimal value 5580 after 1350 ms
> Current optimal value 5540 after 1499 ms
> Current optimal value 5530 after 1539 ms
> Current optimal value 5440 after 1698 ms
> Current optimal value 5389 after 1824 ms
> Current optimal value 5371 after 1918 ms
> Current optimal value 5272 after 2109 ms
> Current optimal value 5232 after 2144 ms
> Current optimal value 5007 after 2223 ms
> Current optimal value 4944 after 2275 ms
> Current optimal value 4902 after 2396 ms
> Current optimal value 4890 after 2461 ms
> Current optimal value 4745 after 2830 ms
> Current optimal value 4735 after 2872 ms
> Current optimal value 4711 after 2917 ms
> Current optimal value 4625 after 2933 ms
> Current optimal value 4621 after 3171 ms
> Current optimal value 4618 after 3348 ms
> Current optimal value 4517 after 3363 ms
> Current optimal value 4346 after 3480 ms
> Current optimal value 4283 after 3721 ms
> Current optimal value 4250 after 3820 ms
> Current optimal value 4200 after 4088 ms
> Current optimal value 4126 after 4291 ms
> Current optimal value 3950 after 4612 ms
> Current optimal value 3893 after 5503 ms
> Current optimal value 3860 after 5526 ms
> Current optimal value 3854 after 6070 ms
> Current optimal value 3776 after 6114 ms
> Current optimal value 3685 after 6233 ms
> Current optimal value 3661 after 6871 ms
> Current optimal value 3598 after 6919 ms
> Current optimal value 3597 after 7209 ms
> Current optimal value 3479 after 8838 ms
> Current optimal value 3468 after 10037 ms
> Current optimal value 3349 after 10482 ms
> Current optimal value 3296 after 35052 ms
> Current optimal value 3269 after 35189 ms
> Current optimal value 3254 after 39235 ms
> Current optimal value 3231 after 42908 ms
> Current optimal value 3211 after 43761 ms
> Current optimal value 3167 after 48688 ms
> Current optimal value 3161 after 101169 ms
> Current optimal value 3033 after 128859 ms
> Current optimal value 3029 after 140290 ms
> Current optimal value 3014 after 147153 ms
> Current optimal value 2981 after 155738 ms
> Current optimal value 2965 after 198670 ms
> Current optimal value 2925 after 199824 ms
> Current optimal value 2834 after 216427 ms
> Current optimal value 2805 after 216600 ms
> Current optimal value 2784 after 216834 ms
> Current optimal value 2773 after 224528 ms
> Current optimal value 2747 after 226227 ms
> Current optimal value 2744 after 244832 ms
> Current optimal value 2722 after 287866 ms
> Current optimal value 2697 after 288451 ms
> Current optimal value 2671 after 297696 ms
> Current optimal value 2640 after 337223 ms
> Current optimal value 2599 after 419818 ms
> Current optimal value 2568 after 462729 ms
> Current optimal value 2563 after 477217 ms
> Current optimal value 2535 after 480052 ms
> Current optimal value 2507 after 483786 ms
> Current optimal value 2486 after 593559 ms
