alpha: 0.5
beta: 0.5
gamma: 1.5
stagT: 5
Random frameSizes and framesize is choosen randomly between 1 - maxframesize
When an improvement is found the usefullFramesize is set to the size of the removedassumptions
Maximum runtime: 600

Starting solving at: 7528 ms
done
PrepModelIt duration: 7734 ms
amount madeAssumptions: 12833
Objval best sol: 167563
search limit: 6
useful search limit: 6
max frame size: 200
frame size: 100
useful frame size: 100
stag: 0/5
total spend time up to now: 372 ms
max time: 600
> Current optimal value 167563 after 7736 ms
> Current optimal value 167415 after 911 ms
> Current optimal value 166997 after 1049 ms
> Current optimal value 166074 after 1132 ms
> Current optimal value 165791 after 1369 ms
> Current optimal value 163417 after 1557 ms
> Current optimal value 162249 after 1698 ms
> Current optimal value 160980 after 1836 ms
> Current optimal value 160450 after 2568 ms
> Current optimal value 158693 after 2706 ms
> Current optimal value 157649 after 3046 ms
> Current optimal value 154053 after 4743 ms
> Current optimal value 153226 after 4925 ms
> Current optimal value 152984 after 5764 ms
> Current optimal value 152708 after 5844 ms
> Current optimal value 150496 after 6332 ms
> Current optimal value 146238 after 6669 ms
> Current optimal value 144676 after 7160 ms
> Current optimal value 142419 after 7634 ms
> Current optimal value 142163 after 8350 ms
> Current optimal value 139751 after 8990 ms
> Current optimal value 138189 after 9072 ms
> Current optimal value 137044 after 9775 ms
> Current optimal value 136624 after 10182 ms
> Current optimal value 134321 after 10635 ms
> Current optimal value 133802 after 11784 ms
> Current optimal value 133042 after 11966 ms
> Current optimal value 130197 after 12413 ms
> Current optimal value 130112 after 13334 ms
> Current optimal value 129868 after 13413 ms
> Current optimal value 128476 after 13952 ms
> Current optimal value 128288 after 14031 ms
> Current optimal value 127552 after 15988 ms
> Current optimal value 126531 after 16506 ms
> Current optimal value 126306 after 17134 ms
> Current optimal value 125510 after 17321 ms
> Current optimal value 124981 after 17673 ms
> Current optimal value 124109 after 18186 ms
> Current optimal value 121601 after 18906 ms
> Current optimal value 119725 after 19492 ms
> Current optimal value 119717 after 20073 ms
> Current optimal value 119622 after 20698 ms
> Current optimal value 118545 after 21605 ms
> Current optimal value 117422 after 22036 ms
> Current optimal value 116909 after 22265 ms
> Current optimal value 116458 after 23659 ms
> Current optimal value 116104 after 24282 ms
> Current optimal value 115237 after 24443 ms
> Current optimal value 114064 after 24580 ms
> Current optimal value 113867 after 25825 ms
> Current optimal value 113434 after 26286 ms
> Current optimal value 112168 after 27036 ms
> Current optimal value 111001 after 27429 ms
> Current optimal value 110706 after 28728 ms
> Current optimal value 109416 after 28800 ms
> Current optimal value 109268 after 30549 ms
> Current optimal value 107329 after 30712 ms
> Current optimal value 105834 after 31154 ms
> Current optimal value 105115 after 31283 ms
> Current optimal value 104637 after 32228 ms
> Current optimal value 103034 after 33047 ms
> Current optimal value 102793 after 35848 ms
> Current optimal value 102287 after 36101 ms
> Current optimal value 101106 after 36241 ms
> Current optimal value 100757 after 36314 ms
> Current optimal value 97482 after 36427 ms
> Current optimal value 97303 after 36613 ms
> Current optimal value 95564 after 36981 ms
> Current optimal value 94949 after 38073 ms
> Current optimal value 94542 after 39429 ms
> Current optimal value 94513 after 39974 ms
> Current optimal value 92900 after 40192 ms
> Current optimal value 92873 after 42360 ms
> Current optimal value 92622 after 42807 ms
> Current optimal value 91941 after 43074 ms
> Current optimal value 91785 after 43905 ms
> Current optimal value 91582 after 47723 ms
> Current optimal value 91393 after 49479 ms
> Current optimal value 90875 after 49856 ms
> Current optimal value 90825 after 51159 ms
> Current optimal value 90388 after 52961 ms
> Current optimal value 90000 after 53373 ms
> Current optimal value 89691 after 54591 ms
> Current optimal value 89128 after 55223 ms
> Current optimal value 89027 after 55709 ms
> Current optimal value 88013 after 56689 ms
> Current optimal value 88010 after 57650 ms
> Current optimal value 87214 after 57723 ms
> Current optimal value 86683 after 57937 ms
> Current optimal value 86279 after 58687 ms
> Current optimal value 86192 after 59430 ms
> Current optimal value 86031 after 59888 ms
> Current optimal value 85477 after 60505 ms
> Current optimal value 84359 after 61214 ms
> Current optimal value 82902 after 63242 ms
> Current optimal value 82772 after 64307 ms
> Current optimal value 82312 after 68094 ms
> Current optimal value 82247 after 68679 ms
> Current optimal value 81914 after 71757 ms
> Current optimal value 81693 after 73156 ms
> Current optimal value 81392 after 73568 ms
> Current optimal value 81348 after 74168 ms
> Current optimal value 81301 after 74998 ms
> Current optimal value 80486 after 76573 ms
> Current optimal value 79772 after 77550 ms
> Current optimal value 79641 after 77674 ms
> Current optimal value 79601 after 79435 ms
> Current optimal value 79516 after 79705 ms
> Current optimal value 79177 after 79936 ms
> Current optimal value 78958 after 82190 ms
> Current optimal value 78325 after 83032 ms
> Current optimal value 78275 after 83486 ms
> Current optimal value 77957 after 88208 ms
> Current optimal value 75888 after 95731 ms
> Current optimal value 75513 after 106484 ms
> Current optimal value 75428 after 119298 ms
> Current optimal value 75214 after 120357 ms
> Current optimal value 74972 after 125127 ms
> Current optimal value 74896 after 127556 ms
> Current optimal value 74626 after 128031 ms
> Current optimal value 74317 after 128167 ms
> Current optimal value 74186 after 133976 ms
> Current optimal value 73879 after 134052 ms
> Current optimal value 73851 after 137514 ms
> Current optimal value 73716 after 156425 ms
> Current optimal value 73494 after 168077 ms
> Current optimal value 72710 after 168209 ms
> Current optimal value 72020 after 176519 ms
> Current optimal value 71734 after 182553 ms
> Current optimal value 71733 after 207726 ms
> Current optimal value 71378 after 208680 ms
> Current optimal value 71266 after 212319 ms
> Current optimal value 70502 after 212404 ms
> Current optimal value 70038 after 212560 ms
> Current optimal value 68950 after 214876 ms
> Current optimal value 68689 after 218361 ms
> Current optimal value 67561 after 224192 ms
> Current optimal value 66839 after 225886 ms
> Current optimal value 65936 after 226927 ms
> Current optimal value 65609 after 229041 ms
> Current optimal value 65420 after 230036 ms
> Current optimal value 65336 after 232691 ms
> Current optimal value 65144 after 236296 ms
> Current optimal value 64467 after 238744 ms
> Current optimal value 63669 after 260636 ms
> Current optimal value 63515 after 267505 ms
> Current optimal value 63273 after 273295 ms
> Current optimal value 63204 after 277793 ms
> Current optimal value 62764 after 278305 ms
> Current optimal value 62491 after 281732 ms
> Current optimal value 62043 after 282852 ms
> Current optimal value 61975 after 284225 ms
> Current optimal value 61581 after 288938 ms
> Current optimal value 61303 after 289333 ms
> Current optimal value 60726 after 289449 ms
> Current optimal value 59914 after 291429 ms
> Current optimal value 59007 after 292144 ms
> Current optimal value 59006 after 294551 ms
> Current optimal value 58610 after 296697 ms
> Current optimal value 57856 after 308242 ms
> Current optimal value 57656 after 320123 ms
> Current optimal value 57529 after 386099 ms
> Current optimal value 57117 after 474751 ms
> Current optimal value 55830 after 520999 ms
> Current optimal value 55764 after 588151 ms
