alpha: 0.5
beta: 0.5
gamma: 1.5
stagT: 5
Random frameSizes and framesize is choosen randomly between 1 - maxframesize
When an improvement is found the usefullFramesize is set to the size of the removedassumptions
Maximum runtime: 600

Starting solving at: 152405 ms
done
PrepModelIt duration: 156221 ms
amount madeAssumptions: 106132
Objval best sol: 640353
search limit: 7
useful search limit: 7
max frame size: 636
frame size: 318
useful frame size: 318
stag: 0/5
total spend time up to now: 5081 ms
max time: 600
> Current optimal value 640353 after 156233 ms
> Current optimal value 638575 after 6563 ms
> Current optimal value 636940 after 8826 ms
> Current optimal value 635887 after 9827 ms
> Current optimal value 634349 after 12534 ms
> Current optimal value 633024 after 14418 ms
> Current optimal value 630874 after 16269 ms
> Current optimal value 628628 after 19535 ms
> Current optimal value 627638 after 20477 ms
> Current optimal value 624833 after 33593 ms
> Current optimal value 623287 after 35814 ms
> Current optimal value 621166 after 38481 ms
> Current optimal value 619786 after 42741 ms
> Current optimal value 619696 after 66325 ms
> Current optimal value 619341 after 69067 ms
> Current optimal value 617907 after 72578 ms
> Current optimal value 616200 after 74864 ms
> Current optimal value 614161 after 81062 ms
> Current optimal value 614064 after 88436 ms
> Current optimal value 612961 after 97416 ms
> Current optimal value 612619 after 100091 ms
> Current optimal value 612059 after 114422 ms
> Current optimal value 610657 after 124730 ms
> Current optimal value 610593 after 129020 ms
> Current optimal value 610567 after 149801 ms
> Current optimal value 609033 after 150758 ms
> Current optimal value 608312 after 161600 ms
> Current optimal value 606657 after 167504 ms
> Current optimal value 604264 after 173669 ms
> Current optimal value 603342 after 183271 ms
> Current optimal value 598858 after 185584 ms
> Current optimal value 597396 after 202171 ms
> Current optimal value 596458 after 203470 ms
> Current optimal value 595727 after 215260 ms
> Current optimal value 595389 after 219523 ms
> Current optimal value 594484 after 220474 ms
> Current optimal value 594065 after 236837 ms
> Current optimal value 592462 after 244924 ms
> Current optimal value 591664 after 251016 ms
> Current optimal value 591585 after 268014 ms
> Current optimal value 587752 after 276455 ms
> Current optimal value 583461 after 280064 ms
> Current optimal value 581168 after 286152 ms
> Current optimal value 581014 after 294523 ms
> Current optimal value 580280 after 306789 ms
> Current optimal value 578817 after 309918 ms
> Current optimal value 576066 after 311718 ms
> Current optimal value 575889 after 326218 ms
> Current optimal value 575280 after 331486 ms
> Current optimal value 573758 after 340125 ms
> Current optimal value 570104 after 352100 ms
> Current optimal value 569894 after 359876 ms
> Current optimal value 567379 after 366006 ms
> Current optimal value 566923 after 371443 ms
> Current optimal value 564807 after 376497 ms
> Current optimal value 564191 after 387035 ms
> Current optimal value 561320 after 395113 ms
> Current optimal value 561104 after 400376 ms
> Current optimal value 557150 after 407817 ms
> Current optimal value 556687 after 418647 ms
> Current optimal value 556394 after 420525 ms
> Current optimal value 556202 after 427717 ms
> Current optimal value 554558 after 441146 ms
> Current optimal value 551557 after 444419 ms
