alpha: 0.5
beta: 0.5
gamma: 1.5
stagT: 5
Random frameSizes and framesize is choosen randomly between 1 - maxframesize
When an improvement is found the usefullFramesize is set to the size of the removedassumptions
Maximum runtime: 600

Starting solving at: 59 ms
done
PrepModelIt duration: 60 ms
amount madeAssumptions: 51
Objval best sol: 218
search limit: 1
useful search limit: 1
max frame size: 10
frame size: 5
useful frame size: 5
stag: 0/5
total spend time up to now: 53 ms
max time: 600
> Current optimal value 218 after 61 ms
no more models to explore, program will end
end program after: 71 ms
Total time spend: 71 ms
Amount of new found models: 23
Feasible object value: 218
Result object value: 218
