alpha: 0.5
beta: 0.5
gamma: 1.5
stagT: 5
Random frameSizes and framesize is choosen randomly between 1 - maxframesize
When an improvement is found the usefullFramesize is set to the size of the removedassumptions
Maximum runtime: 600

Starting solving at: 616 ms
done
PrepModelIt duration: 1300 ms
amount madeAssumptions: 10484
Objval best sol: 3270
search limit: 308
useful search limit: 308
max frame size: 94
frame size: 47
useful frame size: 47
stag: 0/5
total spend time up to now: 1026 ms
max time: 600
> Current optimal value 3270 after 1301 ms
> Current optimal value 3258 after 1208 ms
> Current optimal value 3252 after 1827 ms
> Current optimal value 3233 after 27564 ms
> Current optimal value 3223 after 107131 ms
> Current optimal value 3211 after 107647 ms
> Current optimal value 3205 after 133293 ms
> Current optimal value 3193 after 138861 ms
> Current optimal value 3192 after 139850 ms
> Current optimal value 3190 after 140035 ms
> Current optimal value 3138 after 140220 ms
> Current optimal value 3136 after 140404 ms
> Current optimal value 3133 after 140589 ms
> Current optimal value 3127 after 141556 ms
> Current optimal value 3124 after 145400 ms
> Current optimal value 3087 after 145817 ms
> Current optimal value 3020 after 156483 ms
> Current optimal value 3015 after 159497 ms
> Current optimal value 2974 after 161711 ms
> Current optimal value 2962 after 167624 ms
> Current optimal value 2960 after 172104 ms
> Current optimal value 2958 after 172479 ms
> Current optimal value 2938 after 173264 ms
> Current optimal value 2909 after 175498 ms
> Current optimal value 2867 after 176887 ms
> Current optimal value 2815 after 178190 ms
> Current optimal value 2814 after 179898 ms
> Current optimal value 2798 after 183148 ms
> Current optimal value 2789 after 183568 ms
> Current optimal value 2780 after 183732 ms
> Current optimal value 2736 after 184812 ms
> Current optimal value 2719 after 185880 ms
> Current optimal value 2688 after 187680 ms
> Current optimal value 2638 after 191895 ms
> Current optimal value 2610 after 193229 ms
> Current optimal value 2605 after 194476 ms
> Current optimal value 2603 after 195858 ms
> Current optimal value 2590 after 197792 ms
> Current optimal value 2586 after 202473 ms
> Current optimal value 2574 after 204511 ms
> Current optimal value 2546 after 204769 ms
> Current optimal value 2543 after 207197 ms
> Current optimal value 2502 after 208584 ms
> Current optimal value 2479 after 212823 ms
> Current optimal value 2478 after 214929 ms
> Current optimal value 2474 after 215100 ms
> Current optimal value 2457 after 216108 ms
> Current optimal value 2456 after 217804 ms
> Current optimal value 2425 after 219034 ms
> Current optimal value 2421 after 220274 ms
> Current optimal value 2417 after 222352 ms
> Current optimal value 2391 after 224066 ms
> Current optimal value 2384 after 224388 ms
> Current optimal value 2380 after 226364 ms
> Current optimal value 2370 after 227438 ms
> Current optimal value 2300 after 230092 ms
> Current optimal value 2292 after 230468 ms
> Current optimal value 2280 after 231305 ms
> Current optimal value 2259 after 233645 ms
> Current optimal value 2218 after 233995 ms
> Current optimal value 2204 after 236183 ms
> Current optimal value 2186 after 237736 ms
> Current optimal value 2162 after 239910 ms
> Current optimal value 2156 after 240347 ms
> Current optimal value 2152 after 241998 ms
> Current optimal value 2140 after 245750 ms
> Current optimal value 2137 after 247851 ms
> Current optimal value 2136 after 251089 ms
> Current optimal value 2114 after 251763 ms
> Current optimal value 2076 after 254485 ms
> Current optimal value 2058 after 256136 ms
> Current optimal value 2045 after 256366 ms
> Current optimal value 2037 after 259225 ms
> Current optimal value 2007 after 263339 ms
> Current optimal value 1995 after 263859 ms
> Current optimal value 1993 after 267063 ms
> Current optimal value 1992 after 269887 ms
> Current optimal value 1955 after 271713 ms
> Current optimal value 1951 after 294916 ms
> Current optimal value 1946 after 312333 ms
> Current optimal value 1938 after 320255 ms
> Current optimal value 1937 after 326933 ms
> Current optimal value 1923 after 328171 ms
> Current optimal value 1922 after 335638 ms
> Current optimal value 1921 after 338016 ms
> Current optimal value 1913 after 341991 ms
> Current optimal value 1901 after 345413 ms
> Current optimal value 1899 after 346274 ms
> Current optimal value 1889 after 348435 ms
> Current optimal value 1888 after 359393 ms
> Current optimal value 1878 after 359612 ms
> Current optimal value 1873 after 361377 ms
> Current optimal value 1870 after 389816 ms
> Current optimal value 1851 after 398315 ms
> Current optimal value 1836 after 399374 ms
> Current optimal value 1823 after 413300 ms
> Current optimal value 1822 after 433213 ms
no more models to explore, program will end
end program after: 444768 ms
Total time spend: 444768 ms
Amount of new found models: 10768
Feasible object value: 3270
Result object value: 1822
