alpha: 0.5
beta: 0.5
gamma: 1.5
stagT: 5
Random frameSizes and framesize is choosen randomly between 1 - maxframesize
When an improvement is found the usefullFramesize is set to the size of the removedassumptions
Maximum runtime: 600

Starting solving at: 274 ms
done
PrepModelIt duration: 415 ms
amount madeAssumptions: 2677
Objval best sol: 5811
search limit: 326
useful search limit: 326
max frame size: 38
frame size: 19
useful frame size: 19
stag: 0/5
total spend time up to now: 242 ms
max time: 600
> Current optimal value 5811 after 416 ms
> Current optimal value 5492 after 10834 ms
> Current optimal value 5305 after 10901 ms
> Current optimal value 5265 after 37304 ms
> Current optimal value 5170 after 37416 ms
> Current optimal value 5086 after 37460 ms
> Current optimal value 5005 after 41825 ms
> Current optimal value 4988 after 153297 ms
