Starting solving at 5306 ms
>>> Search start
> Conflicts |          ORIGINAL         |          LEARNT          | Progress
>           |    Vars  Clauses Literals |    Limit  Clauses Lit/Cl |         
|         0 |   22202     1194     2687 |   108434      297      2 |
|       101 |   48651    52222   104444 |   119277    34031   2051 |
|       252 |   96502   147850   295700 |   131205   151569   1291 |
|       478 |  114723   184282   368564 |   144326   171145     30 |
|       818 |  117938   190712   381424 |   158758   179682     31 |
