Starting solving at 8833 ms
>>> Search start
> Conflicts |          ORIGINAL         |          LEARNT          | Progress
>           |    Vars  Clauses Literals |    Limit  Clauses Lit/Cl |         
|         0 |    9802      794     1787 |    45345      197      2 |
|       101 |   15879    11751    23502 |    49880     8745    360 |
|       252 |   27894    35748    71496 |    54868    36108    621 |
|       478 |   59694    99293   198586 |    60355    68903     19 |
|       818 |   63700   107305   214610 |    66390   120751     20 |
|      1326 |   68345   116595   233190 |    73029    72224     19 |
|      2090 |   77050   134005   268010 |    80332   149766     19 |
|      3231 |   93578   167061   334122 |    88365    95767    286 |
> restarts              : 22
> decisions             : 83848  (0 % random)
> conflicts             : 3924
> propagations          : 4936421
> conflict literals     : 497518  (24.3247 % deleted)
> Current optimal value 185741 after 593212 ms
|      3924 |   99473   178851   357702 |   126486    65562    242 |
> restarts              : 23
> decisions             : 85608  (0 % random)
> conflicts             : 3926
> propagations          : 5037591
> conflict literals     : 498352  (24.2944 % deleted)
> Current optimal value 185540 after 594234 ms
|      3926 |  101146   182197   364394 |   128989    69726    230 |
> restarts              : 24
> decisions             : 86031  (0 % random)
> conflicts             : 3957
> propagations          : 5143267
> conflict literals     : 506381  (24.0229 % deleted)
> Current optimal value 185412 after 594911 ms
|      3957 |  101633   183171   366342 |   131433    76084    216 |
|      4057 |  102245   184395   368790 |   144577    86986    198 |
|      4208 |  102915   185735   371470 |   159034   101550    180 |
|      4435 |  103755   187415   374830 |   174938   118077    167 |
