Starting solving at 49438 ms
>>> Search start
> Conflicts |          ORIGINAL         |          LEARNT          | Progress
>           |    Vars  Clauses Literals |    Limit  Clauses Lit/Cl |         
|         0 |   39602     1594     3587 |   204721      397      2 |
|       101 |   81950    83767   167534 |   225193    56661   2900 |
|       252 |   97786   115403   230806 |   247712   104282   2595 |
