alpha: 0.5
beta: 0.5
gamma: 1.5
stagT: 5
Random frameSizes and framesize is choosen randomly between 1 - maxframesize
When an improvement is found the usefullFramesize is set to the size of the removedassumptions
Maximum runtime: 600

Starting solving at: 162 ms
done
PrepModelIt duration: 257 ms
amount madeAssumptions: 17100
Objval best sol: 225
search limit: 1
useful search limit: 1
max frame size: 0
frame size: 0
useful frame size: 0
stag: 0/5
total spend time up to now: 232 ms
max time: 600
> Current optimal value 225 after 258 ms
> Current optimal value 224 after 272 ms
> Current optimal value 223 after 325 ms
> Current optimal value 222 after 404 ms
> Current optimal value 221 after 449 ms
> Current optimal value 220 after 507 ms
> Current optimal value 219 after 588 ms
> Current optimal value 218 after 666 ms
> Current optimal value 217 after 764 ms
> Current optimal value 216 after 794 ms
> Current optimal value 215 after 847 ms
> Current optimal value 214 after 902 ms
> Current optimal value 213 after 930 ms
> Current optimal value 212 after 1057 ms
> Current optimal value 211 after 1106 ms
> Current optimal value 210 after 1192 ms
> Current optimal value 209 after 1256 ms
> Current optimal value 208 after 1334 ms
> Current optimal value 207 after 1397 ms
> Current optimal value 206 after 1441 ms
> Current optimal value 205 after 1487 ms
> Current optimal value 204 after 1549 ms
> Current optimal value 203 after 1594 ms
> Current optimal value 202 after 1638 ms
> Current optimal value 201 after 1977 ms
> Current optimal value 200 after 4612 ms
> Current optimal value 199 after 10397 ms
> Current optimal value 198 after 11778 ms
> Current optimal value 197 after 13797 ms
> Current optimal value 196 after 14147 ms
> Current optimal value 195 after 15621 ms
> Current optimal value 194 after 15644 ms
> Current optimal value 193 after 15696 ms
> Current optimal value 192 after 15718 ms
> Current optimal value 191 after 15785 ms
> Current optimal value 190 after 26545 ms
> Current optimal value 189 after 26578 ms
> Current optimal value 188 after 26608 ms
> Current optimal value 187 after 26637 ms
> Current optimal value 186 after 26667 ms
> Current optimal value 185 after 26695 ms
> Current optimal value 184 after 26723 ms
> Current optimal value 183 after 26749 ms
> Current optimal value 182 after 26793 ms
