alpha: 0.5
beta: 0.5
gamma: 1.5
stagT: 5
Random frameSizes and framesize is choosen randomly between 1 - maxframesize
When an improvement is found the usefullFramesize is set to the size of the removedassumptions
Maximum runtime: 600

Starting solving at: 618 ms
done
PrepModelIt duration: 1021 ms
amount madeAssumptions: 67950
Objval best sol: 450
search limit: 1
useful search limit: 1
max frame size: 0
frame size: 0
useful frame size: 0
stag: 0/5
total spend time up to now: 901 ms
max time: 600
> Current optimal value 450 after 1023 ms
> Current optimal value 449 after 1181 ms
> Current optimal value 448 after 1664 ms
> Current optimal value 447 after 2061 ms
> Current optimal value 446 after 2706 ms
> Current optimal value 445 after 3289 ms
> Current optimal value 444 after 3666 ms
> Current optimal value 443 after 3934 ms
> Current optimal value 442 after 4166 ms
> Current optimal value 441 after 4613 ms
> Current optimal value 440 after 4887 ms
> Current optimal value 439 after 5285 ms
> Current optimal value 438 after 5543 ms
> Current optimal value 437 after 5906 ms
> Current optimal value 436 after 6154 ms
> Current optimal value 435 after 6391 ms
> Current optimal value 434 after 6807 ms
> Current optimal value 433 after 7029 ms
> Current optimal value 432 after 7255 ms
> Current optimal value 431 after 7727 ms
> Current optimal value 430 after 8022 ms
> Current optimal value 429 after 8228 ms
> Current optimal value 428 after 8609 ms
> Current optimal value 427 after 8816 ms
> Current optimal value 426 after 9015 ms
> Current optimal value 425 after 9301 ms
> Current optimal value 424 after 9505 ms
> Current optimal value 423 after 9702 ms
> Current optimal value 422 after 9982 ms
> Current optimal value 421 after 10343 ms
> Current optimal value 420 after 10705 ms
> Current optimal value 419 after 11721 ms
> Current optimal value 418 after 12002 ms
> Current optimal value 417 after 12362 ms
> Current optimal value 416 after 13057 ms
> Current optimal value 415 after 13173 ms
> Current optimal value 414 after 16000 ms
> Current optimal value 413 after 17429 ms
> Current optimal value 412 after 17714 ms
> Current optimal value 411 after 18001 ms
> Current optimal value 410 after 18205 ms
> Current optimal value 409 after 18408 ms
> Current optimal value 408 after 18695 ms
> Current optimal value 407 after 18901 ms
> Current optimal value 406 after 19105 ms
> Current optimal value 405 after 20049 ms
> Current optimal value 404 after 20171 ms
> Current optimal value 403 after 20461 ms
> Current optimal value 402 after 20665 ms
> Current optimal value 401 after 20953 ms
> Current optimal value 400 after 26421 ms
> Current optimal value 399 after 27047 ms
> Current optimal value 398 after 27836 ms
> Current optimal value 397 after 27966 ms
> Current optimal value 396 after 28097 ms
> Current optimal value 395 after 28317 ms
> Current optimal value 394 after 28529 ms
> Current optimal value 393 after 28827 ms
> Current optimal value 392 after 29039 ms
> Current optimal value 391 after 29337 ms
> Current optimal value 390 after 29549 ms
> Current optimal value 389 after 506669 ms
> Current optimal value 388 after 506868 ms
> Current optimal value 387 after 507005 ms
> Current optimal value 386 after 507141 ms
> Current optimal value 385 after 507277 ms
> Current optimal value 384 after 507411 ms
> Current optimal value 383 after 507546 ms
> Current optimal value 382 after 507679 ms
> Current optimal value 381 after 507812 ms
> Current optimal value 380 after 507946 ms
> Current optimal value 379 after 508079 ms
> Current optimal value 378 after 508215 ms
> Current optimal value 377 after 511864 ms
> Current optimal value 376 after 512000 ms
> Current optimal value 375 after 512135 ms
> Current optimal value 374 after 512270 ms
> Current optimal value 373 after 512406 ms
> Current optimal value 372 after 512543 ms
> Current optimal value 371 after 512678 ms
> Current optimal value 370 after 512813 ms
> Current optimal value 369 after 512946 ms
> Current optimal value 368 after 513080 ms
