>>> Initializing inductive definition 1308
> Number of rules : 1096.
Starting solving at 1906 ms
>>> Search start
> Conflicts |          ORIGINAL         |          LEARNT          | Progress
>           |    Vars  Clauses Literals |    Limit  Clauses Lit/Cl |         
|         0 |   51654   339539   864039 |   425040        1      2 |
>>> Initializing inductive definition 1309
> Number of rules : 48400.
|       101 |   49188   254108   682544 |   467544      135    120 |
|       252 |   47955   254108   682544 |   514298      319     64 |
|       478 |   47700   233501   632888 |   565728      549     79 |
|       818 |   46587   229352   622391 |   622301      935     62 |
|      1326 |   46571   226942   616447 |   684531     1541     56 |
|      2090 |   45950   225440   612947 |   752984     2542     45 |
|      3231 |   45366   223557   608432 |   828282     3822     72 |
|      4950 |   44295   215229   587357 |   911110     5064     80 |
|      7517 |   42816   213638   583369 |  1002222     7890     71 |
|     11377 |   42555   204830   561388 |  1102444    11981     76 |
|     17159 |   42213   202976   556679 |  1212688    18150     96 |
|     25839 |   41823   200679   550926 |  1333957    27201     95 |
|     38846 |   41817   200647   550862 |  1467353    41237     86 |
|     58367 |   40525   197020   541941 |  1614088    60465     95 |
|     87626 |   40187   191093   527428 |  1775497    83534    101 |
|    131523 |   39191   185037   512367 |  1953047   120166    117 |
|    197355 |   38842   183066   507429 |  2148352   175452    133 |
|    296082 |   38675   182198   505245 |  2363187   275626    146 |
|    444182 |   38618   181939   504544 |  2599505   426062    153 |
|    666279 |   37855   177661   494005 |  2859456   637204    181 |
