>>> Initializing inductive definition 1308
> Number of rules : 710.
Starting solving at 1213 ms
>>> Search start
> Conflicts |          ORIGINAL         |          LEARNT          | Progress
>           |    Vars  Clauses Literals |    Limit  Clauses Lit/Cl |         
|         0 |   29677   200965   507784 |   252589        1      2 |
>>> Initializing inductive definition 1309
> Number of rules : 29988.
|       101 |   29228   140115   375682 |   277847      124     24 |
|       252 |   26889   132220   357575 |   305632      283     52 |
|       478 |   26720   132220   357575 |   336195      560     86 |
|       818 |   25256   122022   332974 |   369815     1000     86 |
|      1326 |   24529   113428   312269 |   406797     1588     70 |
|      2090 |   24386   112687   310669 |   447476     2513     67 |
|      3231 |   24330   112656   310607 |   492224     3824     74 |
|      4950 |   24235   112382   309891 |   541446     5746     88 |
|      7517 |   23695   108890   301169 |   595591     8306     84 |
|     11377 |   23538   108444   300022 |   655150    12516     86 |
|     17159 |   22096    99922   278949 |   720665    17676     92 |
|     25839 |   22015    99533   277848 |   792732    26740     87 |
|     38846 |   21921    99379   277508 |   872005    40430     97 |
|     58367 |   21815    98820   276137 |   959206    60228    105 |
|     87626 |   21191    95305   267144 |  1055126    60615    116 |
|    131523 |   21172    95254   267018 |  1160639   105832    124 |
|    197355 |   20110    89082   251795 |  1276703   171007    140 |
|    296082 |   19686    86557   245673 |  1404373   270520    138 |
|    444182 |   19518    85757   243636 |  1544811   419165    141 |
|    666279 |   19492    85498   243080 |  1699292   641804    146 |
> restarts              : 1533
> decisions             : 1901590  (0 % random)
> conflicts             : 701047
> propagations          : 541149521
> conflict literals     : 101979100  (38.1324 % deleted)
> Current optimal value 34 after 592108 ms
|    701047 |   19106    85498   243080 |   290967   676588    145 |
|    701147 |   19106    85498   243080 |   320064    65633     53 |
|    701297 |   19106    85498   243080 |   352070    65785     54 |
|    701522 |   19047    85498   243080 |   387277    66019     54 |
|    701859 |   19047    85498   243080 |   426005    66359     54 |
|    702365 |   19047    85498   243080 |   468606    66874     55 |
|    703124 |   19043    85498   243080 |   515466    67642     55 |
|    704264 |   19043    85498   243080 |   567013    68786     57 |
|    705972 |   19043    85498   243080 |   623715    70498     58 |
|    708534 |   19043    85498   243080 |   686086    73080     63 |
|    712378 |   19043    85498   243080 |   754695    76943     67 |
