>>> Initializing inductive definition 1308
> Number of rules : 647.
Starting solving at 1100 ms
>>> Search start
> Conflicts |          ORIGINAL         |          LEARNT          | Progress
>           |    Vars  Clauses Literals |    Limit  Clauses Lit/Cl |         
|         0 |   26533   182001   459475 |   228678        1      2 |
>>> Initializing inductive definition 1309
> Number of rules : 27342.
|       101 |   26533   124770   334706 |   251545      117     63 |
|       252 |   25736   124770   334706 |   276700      334     38 |
|       478 |   25424   120751   326156 |   304370      618     48 |
|       818 |   21773   111846   304546 |   334807     1003     53 |
|      1326 |   21006    96083   264821 |   368288     1462     54 |
|      2090 |   20417    95975   264569 |   405117     2365     49 |
|      3231 |   20402    92717   256378 |   445628     3590     68 |
|      4950 |   20394    92652   256216 |   490191     5465     73 |
|      7517 |   20392    92630   256164 |   539210     8295     75 |
|     11377 |   20392    92630   256164 |   593131    12539     89 |
|     17159 |   20386    92619   256142 |   652445    18938    104 |
|     25839 |   20384    92586   256076 |   717689    28276    115 |
|     38846 |   20380    92564   256032 |   789458    42148    136 |
|     58367 |   20352    92529   255962 |   868404    62477    148 |
|     87626 |   20352    92433   255726 |   955244    92439    151 |
|    131523 |   20352    92433   255726 |  1050769   137250    170 |
|    197355 |   20348    92411   255682 |  1155846   204060    173 |
|    296082 |   20348    92411   255682 |  1271430   303611    175 |
> restarts              : 940
> decisions             : 1100211  (0 % random)
> conflicts             : 388560
> propagations          : 318451655
> conflict literals     : 67957700  (55.5148 % deleted)
> Current optimal value 31 after 310881 ms
|    388560 |   20346    92404   255668 |   196651   396508    171 |
|    388660 |   20346    92404   255668 |   216316    47493     67 |
|    388810 |   20346    92404   255668 |   237948    47653     68 |
|    389037 |   20346    92404   255668 |   261743    47891     69 |
|    389376 |   20346    92404   255668 |   287917    48241     70 |
|    389884 |   20346    92404   255668 |   316709    48761     72 |
|    390649 |   20346    92404   255668 |   348380    49557     74 |
|    391790 |   20346    92404   255668 |   383218    50700     74 |
|    393499 |   20346    92404   255668 |   421540    52421     74 |
|    396062 |   18373    92404   255668 |   463694    54997     75 |
|    399921 |   18373    92404   255668 |   510063    58881     79 |
|    405710 |   17887    92404   255668 |   561070    64716     84 |
|    414384 |   17886    92404   255668 |   617177    73438     89 |
|    427360 |   17886    92404   255668 |   678894    86554     91 |
|    446822 |   17886    92404   255668 |   746784   106248    123 |
|    476015 |   17886    92404   255668 |   821462   135652    136 |
> restarts              : 1024
> decisions             : 1304881  (0 % random)
> conflicts             : 493776
> propagations          : 404582073
> conflict literals     : 85290034  (54.745 % deleted)
>>> Search done
bestvalue&&31
nrmodels&&1
total-solving-time376475 ms
