>>> Initializing inductive definition 1308
> Number of rules : 689.
Starting solving at 1170 ms
>>> Search start
> Conflicts |          ORIGINAL         |          LEARNT          | Progress
>           |    Vars  Clauses Literals |    Limit  Clauses Lit/Cl |         
|         0 |   27880   194508   491288 |   244560        1      2 |
>>> Initializing inductive definition 1309
> Number of rules : 29106.
|       101 |   27601   131414   352796 |   269016      119     63 |
|       252 |   25009   121030   328145 |   295918      326     35 |
|       478 |   24647   121030   328145 |   325509      590     49 |
|       818 |   24166   112244   306127 |   358060      986     47 |
|      1326 |   23134   111733   304830 |   393866     1556     38 |
|      2090 |   22084   103805   285651 |   433253     2352     40 |
|      3231 |   22075   100918   278430 |   476578     3523     49 |
|      4950 |   21944   100184   276675 |   524236     5434     47 |
|      7517 |   21912   100055   276350 |   576660     6987     41 |
|     11377 |   21434    97272   269667 |   634326    10011     43 |
|     17159 |   20932    94480   262625 |   697759    15612     50 |
|     25839 |   20921    94436   262531 |   767535    24597     59 |
> restarts              : 125
> decisions             : 207983  (0 % random)
> conflicts             : 33423
> propagations          : 34572845
> conflict literals     : 2057263  (22.8586 % deleted)
> Current optimal value 33 after 13383 ms
|     33423 |   20901    94389   262414 |    78148    32498     60 |
|     33523 |   20901    94389   262414 |    85963    32598     60 |
|     33673 |   20901    94389   262414 |    94559    32753     60 |
|     33899 |   20898    94389   262414 |   104015    32988     60 |
|     34236 |   20898    94389   262414 |   114417    33337     60 |
|     34742 |   20898    94389   262414 |   125859    33870     60 |
|     35501 |   20898    94389   262414 |   138445    34662     61 |
|     36640 |   20898    94389   262414 |   152289    35896     65 |
|     38349 |   20886    94351   262316 |   167518    37669     64 |
|     40911 |   20788    94073   261574 |   184270    40252     68 |
|     44765 |   20744    93656   260413 |   202697    44166     72 |
|     50552 |   20201    90867   253207 |   222967    48627     75 |
|     59232 |   20146    90513   252270 |   245263    57561     77 |
|     72250 |   20043    89866   250578 |   269790    70476     78 |
> restarts              : 255
> decisions             : 345801  (0 % random)
> conflicts             : 83569
> propagations          : 75572458
> conflict literals     : 6411869  (31.1306 % deleted)
>>> Search done
bestvalue&&33
nrmodels&&1
total-solving-time29298 ms
