>>> Initializing inductive definition 1308
> Number of rules : 752.
Starting solving at 1265 ms
>>> Search start
> Conflicts |          ORIGINAL         |          LEARNT          | Progress
>           |    Vars  Clauses Literals |    Limit  Clauses Lit/Cl |         
|         0 |   31024   213594   539963 |   268588        1      2 |
>>> Initializing inductive definition 1309
> Number of rules : 31752.
|       101 |   30636   146759   393866 |   295447      133     54 |
|       252 |   30208   146759   393866 |   324991      305     87 |
|       478 |   29983   142863   384520 |   357491      587     81 |
|       818 |   29367   139818   377304 |   393240      978     62 |
|      1326 |   29232   137516   371530 |   432564     1473    120 |
|      2090 |   28378   133404   362534 |   475820     2372     90 |
|      3231 |   25423   119944   328701 |   523402     3634     72 |
|      4950 |   25216   116492   320008 |   575742     5461     61 |
|      7517 |   24273   111288   307523 |   633317     8292     59 |
|     11377 |   24073   110074   304582 |   696648    12395     60 |
|     17159 |   23956   110019   304453 |   766313    18512     64 |
|     25839 |   23591   107377   297856 |   842945    26754     64 |
|     38846 |   23580   107333   297762 |   927239    40000     64 |
> restarts              : 158
> decisions             : 274129  (0 % random)
> conflicts             : 51140
> propagations          : 51979745
> conflict literals     : 3310622  (25.7263 % deleted)
> Current optimal value 36 after 19567 ms
|     51140 |   23559   107218   297501 |    92382    52596     62 |
|     51240 |   23559   107218   297501 |   101620    52697     62 |
|     51391 |   23559   107218   297501 |   111782    52847     62 |
|     51618 |   23559   107218   297501 |   122960    53078     62 |
|     51958 |   23559   107218   297501 |   135256    53417     62 |
|     52465 |   23559   107218   297501 |   148782    53957     62 |
|     53230 |   23555   107197   297444 |   163660    54766     62 |
|     54371 |   23539   107197   297444 |   180027    56005     62 |
|     56089 |   23429   107197   297444 |   198029    57890     64 |
|     58657 |   23428   106633   295903 |   217832    60506     67 |
|     62503 |   23428   106628   295893 |   239615    64565     73 |
|     68298 |   23423   106628   295893 |   263577    70670     76 |
|     76979 |   23415   106560   295710 |   289935    79827     82 |
|     89956 |   23399   106512   295581 |   318928    93231     94 |
|    109453 |   23391   106473   295480 |   350821   113221    102 |
|    138735 |   23391   106427   295357 |   385903   142969    105 |
> restarts              : 477
> decisions             : 601769  (0 % random)
> conflicts             : 171534
> propagations          : 147238632
> conflict literals     : 18354412  (39.2418 % deleted)
>>> Search done
bestvalue&&36
nrmodels&&1
total-solving-time66200 ms
