>>> Initializing inductive definition 1308
> Number of rules : 647.
Starting solving at 1106 ms
>>> Search start
> Conflicts |          ORIGINAL         |          LEARNT          | Progress
>           |    Vars  Clauses Literals |    Limit  Clauses Lit/Cl |         
|         0 |   25693   183105   462787 |   229046        1      2 |
>>> Initializing inductive definition 1309
> Number of rules : 27342.
|       101 |   25589   119769   322232 |   251950      120    220 |
|       252 |   25225   117743   317657 |   277145      284    145 |
|       478 |   24735   117743   317657 |   304860      549    104 |
|       818 |   24205   115282   312282 |   335346      992     70 |
|      1326 |   23744   111893   304521 |   368880     1537     59 |
|      2090 |   22968   106793   292140 |   405768     2392     52 |
|      3231 |   22049   103668   284509 |   446345     3693     49 |
|      4950 |   21422    98447   271517 |   490980     5409     49 |
|      7517 |   21400    98330   271276 |   540078     8226     52 |
|     11377 |   21293    97802   269980 |   594086    10447     54 |
|     17159 |   21281    97757   269890 |   653494    16495     57 |
|     25839 |   20876    95640   264641 |   718844    24720     60 |
> restarts              : 95
> decisions             : 192832  (0 % random)
> conflicts             : 26659
> propagations          : 26665889
> conflict literals     : 1689374  (18.7204 % deleted)
> Current optimal value 31 after 10451 ms
|     26659 |   20876    95640   264641 |    74080    25557     60 |
|     26759 |   20867    95577   264496 |    81488    23107     60 |
|     26909 |   20867    95577   264496 |    89636    23258     60 |
|     27134 |   20867    95577   264496 |    98600    23488     61 |
|     27473 |   20867    95577   264496 |   108460    23837     61 |
|     27982 |   20867    95577   264496 |   119306    24377     62 |
|     28745 |   20867    95577   264496 |   131237    25173     62 |
|     29889 |   20867    95541   264386 |   144360    26360     63 |
|     31605 |   20867    95541   264386 |   158797    28151     65 |
|     34175 |   20861    95526   264351 |   174676    30794     66 |
|     38020 |   20859    95516   264331 |   192144    34715     68 |
|     43787 |   20857    95506   264311 |   211358    40664     71 |
|     52467 |   20857    95496   264291 |   232494    49580     72 |
|     65483 |   20855    95488   264275 |   255744    62916     70 |
> restarts              : 204
> decisions             : 307448  (0 % random)
> conflicts             : 65807
> propagations          : 65108050
> conflict literals     : 4747020  (26.2778 % deleted)
>>> Search done
bestvalue&&31
nrmodels&&1
total-solving-time26145 ms
