>>> Initializing inductive definition 1308
> Number of rules : 542.
Starting solving at 951 ms
>>> Search start
> Conflicts |          ORIGINAL         |          LEARNT          | Progress
>           |    Vars  Clauses Literals |    Limit  Clauses Lit/Cl |         
|         0 |   20453   151612   382567 |   189512        1      2 |
>>> Initializing inductive definition 1309
> Number of rules : 22932.
|       101 |   19161    94194   253799 |   208463      118     20 |
|       252 |   18941    86478   235234 |   229309      293     38 |
|       478 |   18280    84681   231160 |   252240      603     38 |
|       818 |   17618    82075   224740 |   277465     1032     39 |
|      1326 |   17608    80096   220294 |   305211     1584     47 |
|      2090 |   17158    77880   215078 |   335732     2509     44 |
|      3231 |   17152    77824   214966 |   369305     3830     49 |
|      4950 |   17052    77343   213776 |   406236     5679     49 |
|      7517 |   17048    77302   213694 |   446860     8565     63 |
|     11377 |   17038    77232   213554 |   491546    12704     84 |
|     17159 |   17029    77198   213486 |   540700    18744     82 |
|     25839 |   17018    77134   213358 |   594770    27908    104 |
|     38846 |   17008    77068   213226 |   654247    41614    147 |
|     58367 |   16997    77046   213182 |   719672    61918    178 |
|     87626 |   16989    76924   212920 |   791640    91766    178 |
> restarts              : 350
> decisions             : 533713  (0 % random)
> conflicts             : 129432
> propagations          : 115288715
> conflict literals     : 23935347  (45.1706 % deleted)
> Current optimal value 26 after 76579 ms
|    129432 |   16985    76905   212882 |    98647   134284    178 |
|    129532 |   16985    76905   212882 |   108512   134396    178 |
|    129682 |   16985    76905   212882 |   119363   134567    178 |
|    129909 |   16985    76905   212882 |   131299   134796    178 |
|    130249 |   16985    76905   212882 |   144429   135140    178 |
|    130756 |   16985    76905   212882 |   158872   135657    179 |
|    131521 |   16985    76905   212882 |   174759   136428    178 |
|    132662 |   16985    76905   212882 |   192235   137590    178 |
|    134380 |   16985    76905   212882 |   211459   139326    178 |
|    136948 |   16985    76905   212882 |   232605   141920    178 |
|    140793 |   16985    76905   212882 |   255865   145799    178 |
|    146560 |   16983    76905   212882 |   281452   151650    178 |
|    155241 |   16979    76864   212800 |   309597   160389    177 |
|    168259 |   16979    76864   212800 |   340557   173481    176 |
|    187771 |   16961    76800   212672 |   374613   193141    174 |
> restarts              : 511
> decisions             : 696894  (0 % random)
> conflicts             : 197760
> propagations          : 177434453
> conflict literals     : 34903299  (50.5833 % deleted)
>>> Search done
bestvalue&&26
nrmodels&&1
total-solving-time146729 ms
