alpha: 0.5
beta: 0.5
gamma: 1.5
stagT: 5
Random frameSizes and framesize is choosen randomly between 1 - maxframesize
When an improvement is found the usefullFramesize is set to the size of the removedassumptions
Maximum runtime: 600

Starting solving at: 112 ms
done
PrepModelIt duration: 139 ms
amount madeAssumptions: 1149
Objval best sol: 4602
search limit: 100
useful search limit: 100
max frame size: 22
frame size: 11
useful frame size: 11
stag: 0/5
total spend time up to now: 82 ms
max time: 600
> Current optimal value 4602 after 140 ms
> Current optimal value 4598 after 98 ms
> Current optimal value 4452 after 6822 ms
> Current optimal value 4414 after 7535 ms
> Current optimal value 4298 after 7623 ms
> Current optimal value 4194 after 7760 ms
> Current optimal value 4151 after 8242 ms
> Current optimal value 4087 after 8416 ms
> Current optimal value 3925 after 8577 ms
> Current optimal value 3893 after 9027 ms
> Current optimal value 3808 after 9045 ms
> Current optimal value 3722 after 9305 ms
> Current optimal value 3688 after 9542 ms
no more models to explore, program will end
end program after: 10396 ms
Total time spend: 10396 ms
Amount of new found models: 2908
Feasible object value: 4602
Result object value: 3688
