alpha: 0.5
beta: 0.5
gamma: 1.5
stagT: 5
Random frameSizes and framesize is choosen randomly between 1 - maxframesize
When an improvement is found the usefullFramesize is set to the size of the removedassumptions
Maximum runtime: 600

Starting solving at: 7464 ms
done
PrepModelIt duration: 8045 ms
amount madeAssumptions: 12796
Objval best sol: 140024
search limit: 209
useful search limit: 209
max frame size: 92
frame size: 46
useful frame size: 46
stag: 0/5
total spend time up to now: 910 ms
max time: 600
> Current optimal value 140024 after 8047 ms
> Current optimal value 138630 after 1061 ms
> Current optimal value 137919 after 1334 ms
> Current optimal value 137142 after 102570 ms
> Current optimal value 135656 after 111031 ms
> Current optimal value 134133 after 123306 ms
> Current optimal value 133927 after 126365 ms
> Current optimal value 133076 after 128883 ms
> Current optimal value 132334 after 129125 ms
> Current optimal value 131451 after 141096 ms
> Current optimal value 130245 after 161454 ms
no more models to explore, program will end
end program after: 208890 ms
Total time spend: 208890 ms
Amount of new found models: 5774
Feasible object value: 140024
Result object value: 130245
