alpha: 0.5
beta: 0.5
gamma: 1.5
stagT: 5
Random frameSizes and framesize is choosen randomly between 1 - maxframesize
When an improvement is found the usefullFramesize is set to the size of the removedassumptions
Maximum runtime: 600

Starting solving at: 138634 ms
done
PrepModelIt duration: 166967 ms
amount madeAssumptions: 105682
Objval best sol: 371815
search limit: 2727
useful search limit: 2727
max frame size: 186
frame size: 93
useful frame size: 93
stag: 0/5
total spend time up to now: 32000 ms
max time: 600
> Current optimal value 371815 after 166980 ms
> Current optimal value 371156 after 34888 ms
