alpha: 0.5
beta: 0.5
gamma: 1.5
stagT: 5
Random frameSizes and framesize is choosen randomly between 1 - maxframesize
When an improvement is found the usefullFramesize is set to the size of the removedassumptions
Maximum runtime: 600

Starting solving at: 6290 ms
done
PrepModelIt duration: 14472 ms
amount madeAssumptions: 51335
Objval best sol: 1438568
search limit: 1808
useful search limit: 1808
max frame size: 212
frame size: 106
useful frame size: 106
stag: 0/5
total spend time up to now: 9952 ms
max time: 600
> Current optimal value 1438568 after 14478 ms
> Current optimal value 1436625 after 11510 ms
> Current optimal value 1436268 after 14356 ms
