alpha: 0.5
beta: 0.5
gamma: 1.5
stagT: 5
Random frameSizes and framesize is choosen randomly between 1 - maxframesize
When an improvement is found the usefullFramesize is set to the size of the removedassumptions
Maximum runtime: 600

Starting solving at: 8080 ms
done
PrepModelIt duration: 11883 ms
amount madeAssumptions: 26527
Objval best sol: 328652
search limit: 903
useful search limit: 903
max frame size: 126
frame size: 63
useful frame size: 63
stag: 0/5
total spend time up to now: 4645 ms
max time: 600
> Current optimal value 328652 after 11885 ms
