Starting solving at 466 ms
>>> Search start
> Conflicts |          ORIGINAL         |          LEARNT          | Progress
>           |    Vars  Clauses Literals |    Limit  Clauses Lit/Cl |         
>>> Initializing inductive definition 1324
> Number of rules : 112.
> restarts              : 1
> decisions             : 23  (0 % random)
> conflicts             : 1
> propagations          : 3015
> conflict literals     : 3  (0 % deleted)
> 1 model found
>>> Search done
nrmodels&&1
total-solving-time2 ms
First objective value: 553 at 483 ms
DETECTED HARD NEIGHBORHOODS: 
PlaysIn/0 1 Location/1 2 <- "T0" "T1" "T2" "T3" 
Starting local search at 549 ms
Initial objective value: 553 at 550 ms
Strengthened objective value: 472 at 568 ms
Starting solving at 939 ms
>>> Search start
>>> Initializing inductive definition 8556
> Number of rules : 112.
|       101 |    1372     2572     6208 |     3603     1312      5 |
> restarts              : 2
> decisions             : 193  (0 % random)
> conflicts             : 164
> propagations          : 73636
> conflict literals     : 3930  (14.267 % deleted)
> 1 model found
>>> Search done
nrmodels&&1
total-solving-time29 ms
Starting local search at 984 ms
Initial objective value: 442 at 987 ms
Strengthened objective value: 433 at 1004 ms
Starting solving at 1379 ms
>>> Search start
>>> Initializing inductive definition 15505
> Number of rules : 112.
> restarts              : 1
> decisions             : 38  (0 % random)
> conflicts             : 25
> propagations          : 15964
> conflict literals     : 506  (6.98529 % deleted)
> 1 model found
>>> Search done
nrmodels&&1
total-solving-time7 ms
Starting local search at 1401 ms
Initial objective value: 417 at 1405 ms
Strengthened objective value: 416 at 1419 ms
Starting solving at 1807 ms
>>> Search start
>>> Initializing inductive definition 22467
> Number of rules : 112.
|       101 |    2076     4620    11008 |     6656     1285      4 |
|       252 |    2076     4620    11008 |     7322     1644      6 |
|       478 |    2076     4620    11008 |     8054     2070      8 |
|       818 |    2076     4620    11008 |     8859     2688     11 |
|      1326 |    2048     4537    10818 |     9745     2995     11 |
|      2090 |    1550     3222     7755 |    10720     1790      7 |
> restarts              : 15
> decisions             : 2354  (0 % random)
> conflicts             : 2189
> propagations          : 1330603
> conflict literals     : 42965  (21.3499 % deleted)
>>> Search done
