Starting solving at 1356 ms
>>> Search start
> Conflicts |          ORIGINAL         |          LEARNT          | Progress
>           |    Vars  Clauses Literals |    Limit  Clauses Lit/Cl |         
>>> Initializing inductive definition 1324
> Number of rules : 3312.
|       101 |   61908    86916   217824 |    99792     6669      3 |
|       252 |   61908    86916   217824 |   109771    14993      3 |
|       478 |   61908    86916   217824 |   120748    76857      2 |
|       818 |   61908    86916   217824 |   132823    98520      2 |
|      1326 |   61908    86916   217824 |   146105   114194      2 |
|      2090 |   61908    86916   217824 |   160716   129602      2 |
|      3231 |   61908    86916   217824 |   176787   140684      2 |
|      4950 |   61908    86916   217824 |   194466   149748      3 |
|      7517 |   61908    86916   217824 |   213913   156149      3 |
|     11377 |   61908    86916   217824 |   235304   162777      5 |
> restarts              : 64
> decisions             : 538566  (0 % random)
> conflicts             : 16517
> propagations          : 59145295
> conflict literals     : 762947  (2.68583 % deleted)
> 1 model found
>>> Search done
nrmodels&&1
total-solving-time175261 ms
First objective value: 165443 at 176835 ms
DETECTED HARD NEIGHBORHOODS: 
PlaysIn/0 1 Location/1 2 <- "T6" "T9" "T7" "T8" "T0" "T5" "T2" "T4" "T10" "T11" "T3" "T1" 
Starting local search at 176921 ms
Initial objective value: 165443 at 176923 ms
Strengthened objective value: 157818 at 177840 ms
Starting solving at 179925 ms
>>> Search start
>>> Initializing inductive definition 11673
> Number of rules : 3312.
|       101 |   98484   196356   473280 |   353388    57034      3 |
|       252 |   98484   196356   473280 |   388727    88026      3 |
|       478 |   98484   196356   473280 |   427600   104906      3 |
|       818 |   98484   196356   473280 |   470360   117872      2 |
|      1326 |   98484   196356   473280 |   517396   128841      2 |
|      2090 |   98484   196356   473280 |   569136   139501      2 |
|      3231 |   98484   196356   473280 |   626050   146144      3 |
|      4950 |   98484   196356   473280 |   688655   150685      3 |
|      7517 |   98484   196356   473280 |   757520   154744      3 |
|     11377 |   98484   196356   473280 |   833272   159750      4 |
|     17159 |   98484   196356   473280 |   916599   166739      6 |
|     25839 |   98484   196356   473280 |  1008259   177992     13 |
> restarts              : 118
> decisions             : 749487  (0 % random)
> conflicts             : 31717
> propagations          : 143699301
> conflict literals     : 2223838  (7.10405 % deleted)
> 1 model found
>>> Search done
nrmodels&&1
total-solving-time385824 ms
Starting local search at 566129 ms
Initial objective value: 157805 at 566144 ms
Strengthened objective value: 151116 at 566898 ms
Starting solving at 569106 ms
>>> Search start
>>> Initializing inductive definition 21667
> Number of rules : 3312.
|       101 |  135060   305796   728736 |   599526    52589      3 |
|       252 |  135060   305796   728736 |   659478    78054      3 |
|       478 |  135060   305796   728736 |   725426    99182      3 |
|       818 |  135060   305796   728736 |   797969   116021      3 |
|      1326 |  135060   305796   728736 |   877766   125447      3 |
|      2090 |  135060   305796   728736 |   965542   131905      4 |
