Starting solving at 531 ms
>>> Search start
> Conflicts |          ORIGINAL         |          LEARNT          | Progress
>           |    Vars  Clauses Literals |    Limit  Clauses Lit/Cl |         
>>> Initializing inductive definition 1324
> Number of rules : 396.
> restarts              : 1
> decisions             : 190  (0 % random)
> conflicts             : 30
> propagations          : 32559
> conflict literals     : 738  (4.28016 % deleted)
> 1 model found
>>> Search done
nrmodels&&1
total-solving-time45 ms
First objective value: 33923 at 607 ms
DETECTED HARD NEIGHBORHOODS: 
PlaysIn/0 1 Location/1 2 <- "T0" "T4" "T5" "T1" "T2" "T3" 
Starting local search at 674 ms
Initial objective value: 33923 at 675 ms
Strengthened objective value: 30462 at 734 ms
Starting solving at 1212 ms
>>> Search start
>>> Initializing inductive definition 8850
> Number of rules : 396.
|       101 |    7345    13628    33104 |    20149     4954      4 |
> restarts              : 2
> decisions             : 237  (0 % random)
> conflicts             : 133
> propagations          : 211301
> conflict literals     : 12210  (6.38657 % deleted)
> 1 model found
>>> Search done
nrmodels&&1
total-solving-time134 ms
Starting local search at 1387 ms
Initial objective value: 30402 at 1394 ms
Strengthened objective value: 29958 at 1449 ms
Starting solving at 1955 ms
>>> Search start
>>> Initializing inductive definition 16105
> Number of rules : 396.
> restarts              : 1
> decisions             : 65  (0 % random)
> conflicts             : 1
> propagations          : 21236
> conflict literals     : 112  (5.08475 % deleted)
> 1 model found
>>> Search done
nrmodels&&1
total-solving-time15 ms
Starting local search at 2014 ms
Initial objective value: 29787 at 2021 ms
Strengthened objective value: 29329 at 2059 ms
Starting solving at 2600 ms
>>> Search start
>>> Initializing inductive definition 23247
> Number of rules : 396.
|       101 |   11377    25580    61040 |    41277     5423      4 |
|       252 |   11377    25580    61040 |    45404     7246      5 |
|       478 |   11377    25580    61040 |    49945     8434      7 |
> restarts              : 5
> decisions             : 852  (0 % random)
> conflicts             : 515
> propagations          : 581604
> conflict literals     : 36193  (11.5086 % deleted)
> 1 model found
>>> Search done
nrmodels&&1
total-solving-time386 ms
Starting local search at 3042 ms
Initial objective value: 28956 at 3052 ms
Strengthened objective value: 27804 at 3083 ms
Starting solving at 3644 ms
>>> Search start
>>> Initializing inductive definition 30312
> Number of rules : 396.
|       101 |   13393    31556    75008 |    51841     6021      4 |
> restarts              : 3
> decisions             : 629  (0 % random)
> conflicts             : 250
> propagations          : 415773
> conflict literals     : 16411  (9.04506 % deleted)
> 1 model found
>>> Search done
nrmodels&&1
total-solving-time272 ms
Starting local search at 3967 ms
Initial objective value: 27070 at 3975 ms
Strengthened objective value: 26557 at 4049 ms
Starting solving at 4609 ms
>>> Search start
>>> Initializing inductive definition 37804
> Number of rules : 396.
|       101 |   15409    37532    88976 |    62405     5505      4 |
|       252 |   15409    37532    88976 |    68645     7488      6 |
|       478 |   15409    37532    88976 |    75510     8799      7 |
|       818 |   15409    37532    88976 |    83061     9918      9 |
|      1326 |   15409    37532    88976 |    91367    10966     12 |
|      2090 |   15409    37532    88976 |   100504    12379     15 |
|      3231 |   15409    37532    88976 |   110554    13986     22 |
|      4950 |   15409    37532    88976 |   121610    16277     28 |
> restarts              : 32
> decisions             : 9843  (0 % random)
> conflicts             : 6906
> propagations          : 9023890
> conflict literals     : 551289  (19.2657 % deleted)
> 1 model found
>>> Search done
nrmodels&&1
total-solving-time5701 ms
Starting local search at 10375 ms
Initial objective value: 26369 at 10384 ms
Strengthened objective value: 26137 at 10422 ms
Starting solving at 11005 ms
>>> Search start
>>> Initializing inductive definition 44919
> Number of rules : 396.
|       101 |   17425    43508   102944 |    72969     6573      4 |
|       252 |   17425    43508   102944 |    80266     8384      5 |
|       478 |   17425    43508   102944 |    88292     9726      5 |
|       818 |   17425    43508   102944 |    97122    10555      8 |
|      1326 |   17425    43508   102944 |   106834    11509     10 |
|      2090 |   17425    43508   102944 |   117517    12688     14 |
|      3231 |   17425    43508   102944 |   129269    14259     20 |
|      4950 |   17425    43508   102944 |   142196    16482     26 |
|      7517 |   17425    43508   102944 |   156416    19848     35 |
|     11377 |   17425    43508   102944 |   172057    24854     44 |
|     17159 |   17425    43508   102944 |   189263    32388     51 |
> restarts              : 75
> decisions             : 28705  (0 % random)
> conflicts             : 20938
> propagations          : 31937076
> conflict literals     : 1785563  (21.8953 % deleted)
> 1 model found
>>> Search done
nrmodels&&1
total-solving-time25819 ms
Starting local search at 36894 ms
Initial objective value: 25912 at 36904 ms
Strengthened objective value: 24820 at 36963 ms
Starting solving at 37556 ms
>>> Search start
>>> Initializing inductive definition 52236
> Number of rules : 396.
|       101 |   19441    49484   116912 |    83533     5862      4 |
|       252 |   19441    49484   116912 |    91886     8547      4 |
|       478 |   19441    49484   116912 |   101075     9518      5 |
|       818 |   19441    49484   116912 |   111182    10329      8 |
|      1326 |   19441    49484   116912 |   122301    11424     10 |
|      2090 |   19441    49484   116912 |   134531    12622     14 |
|      3231 |   19441    49484   116912 |   147984    14114     21 |
|      4950 |   19441    49484   116912 |   162782    16272     27 |
|      7517 |   19441    49484   116912 |   179060    19533     34 |
|     11377 |   19441    49484   116912 |   196967    24330     41 |
|     17159 |   19441    49484   116912 |   216663    31431     50 |
|     25839 |   19441    49484   116912 |   238330    42700     57 |
|     38846 |   19441    49484   116912 |   262163    59550     63 |
|     58367 |   19441    49484   116912 |   288379    84945     67 |
|     87626 |   19441    49484   116912 |   317217   123778     70 |
|    131523 |   19441    49484   116912 |   348939   182540     73 |
|    197355 |   19441    49484   116912 |   383833   270719     74 |
|    296082 |   19441    49484   116912 |   422216    51471     50 |
