Starting solving at 687 ms
>>> Search start
> Conflicts |          ORIGINAL         |          LEARNT          | Progress
>           |    Vars  Clauses Literals |    Limit  Clauses Lit/Cl |         
>>> Initializing inductive definition 1324
> Number of rules : 960.
> restarts              : 1
> decisions             : 457  (0 % random)
> conflicts             : 61
> propagations          : 76053
> conflict literals     : 2274  (3.23404 % deleted)
> 1 model found
>>> Search done
nrmodels&&1
total-solving-time166 ms
First objective value: 368281 at 918 ms
DETECTED HARD NEIGHBORHOODS: 
PlaysIn/0 1 Location/1 2 <- "T0" "T4" "T5" "T1" "T2" "T3" "T6" "T7" 
Starting local search at 989 ms
Initial objective value: 368281 at 991 ms
Strengthened objective value: 319065 at 1215 ms
Starting solving at 1956 ms
>>> Search start
>>> Initializing inductive definition 9903
> Number of rules : 960.
|       101 |   22296    42296   102400 |    66506    14269      4 |
|       252 |   22296    42296   102400 |    73157    20914      4 |
|       478 |   22296    42296   102400 |    80472    22713      5 |
|       818 |   22296    42296   102400 |    88519    24905      7 |
|      1326 |   22296    42296   102400 |    97371    26172     10 |
|      2090 |   22296    42296   102400 |   107109    28923     13 |
|      3231 |   22296    42296   102400 |   117820    30893     19 |
|      4950 |   22296    42296   102400 |   129602    33674     26 |
|      7517 |   22296    42296   102400 |   142562    37922     35 |
|     11377 |   22296    42296   102400 |   156818    43673     50 |
|     17159 |   22296    42296   102400 |   172500    52990     61 |
|     25839 |   22296    42296   102400 |   189750    67088     73 |
> restarts              : 125
> decisions             : 42567  (0 % random)
> conflicts             : 32970
> propagations          : 44601860
> conflict literals     : 5017331  (30.2153 % deleted)
> 1 model found
>>> Search done
nrmodels&&1
total-solving-time90058 ms
Starting local search at 92132 ms
Initial objective value: 318229 at 92142 ms
Strengthened objective value: 316828 at 92372 ms
Starting solving at 93196 ms
>>> Search start
>>> Initializing inductive definition 18208
> Number of rules : 960.
> restarts              : 1
> decisions             : 142  (0 % random)
> conflicts             : 10
> propagations          : 80623
> conflict literals     : 953  (2.4565 % deleted)
> 1 model found
>>> Search done
nrmodels&&1
total-solving-time93 ms
Starting local search at 93431 ms
Initial objective value: 307670 at 93445 ms
Strengthened objective value: 304312 at 93588 ms
Starting solving at 94472 ms
>>> Search start
>>> Initializing inductive definition 25848
> Number of rules : 960.
|       101 |   35864    82744   196864 |   146057    15284      4 |
|       252 |   35864    82744   196864 |   160663    20648      4 |
|       478 |   35864    82744   196864 |   176729    23210      5 |
|       818 |   35864    82744   196864 |   194402    24575      7 |
|      1326 |   35864    82744   196864 |   213842    29103      9 |
|      2090 |   35864    82744   196864 |   235227    33528     10 |
|      3231 |   35864    82744   196864 |   258750    35570     15 |
|      4950 |   35864    82744   196864 |   284625    38488     19 |
|      7517 |   35864    82744   196864 |   313087    42322     28 |
|     11377 |   35864    82744   196864 |   344396    47584     38 |
> restarts              : 64
> decisions             : 42799  (0 % random)
> conflicts             : 16789
> propagations          : 31649489
> conflict literals     : 2424741  (19.9473 % deleted)
> 1 model found
>>> Search done
nrmodels&&1
total-solving-time64370 ms
Starting local search at 159005 ms
Initial objective value: 295017 at 159021 ms
Strengthened objective value: 290733 at 159182 ms
Starting solving at 160115 ms
>>> Search start
>>> Initializing inductive definition 33645
> Number of rules : 960.
|       101 |   42648   102968   244096 |   185833    14930      4 |
|       252 |   42648   102968   244096 |   204416    23718      4 |
|       478 |   42648   102968   244096 |   224858    28516      4 |
|       818 |   42648   102968   244096 |   247344    29795      6 |
|      1326 |   42648   102968   244096 |   272078    33119      6 |
|      2090 |   42648   102968   244096 |   299286    34902      6 |
|      3231 |   42648   102968   244096 |   329214    36535     12 |
|      4950 |   42648   102968   244096 |   362136    39049     17 |
|      7517 |   42648   102968   244096 |   398350    42564     26 |
|     11377 |   42648   102968   244096 |   438185    47540     37 |
|     17159 |   42648   102968   244096 |   482003    55394     48 |
|     25839 |   42648   102968   244096 |   530203    66845     61 |
|     38846 |   42648   102968   244096 |   583224    83425     78 |
> restarts              : 153
> decisions             : 101164  (0 % random)
> conflicts             : 49502
> propagations          : 99411212
> conflict literals     : 7563579  (22.1886 % deleted)
> 1 model found
>>> Search done
nrmodels&&1
total-solving-time179188 ms
Starting local search at 339502 ms
Initial objective value: 279376 at 339520 ms
Strengthened objective value: 273991 at 339751 ms
Starting solving at 340733 ms
>>> Search start
>>> Initializing inductive definition 41917
> Number of rules : 960.
|       101 |   49432   123192   291328 |   225608    14806      4 |
|       252 |   49432   123192   291328 |   248169    22811      4 |
|       478 |   49432   123192   291328 |   272986    24404      4 |
|       818 |   49432   123192   291328 |   300285    27401      5 |
|      1326 |   49432   123192   291328 |   330313    29140      8 |
|      2090 |   49432   123192   291328 |   363345    33308      9 |
|      3231 |   49432   123192   291328 |   399679    35203     15 |
|      4950 |   49432   123192   291328 |   439647    38490     18 |
|      7517 |   49432   123192   291328 |   483612    42050     25 |
|     11377 |   49432   123192   291328 |   531973    47235     36 |
|     17159 |   49432   123192   291328 |   585171    54843     48 |
|     25839 |   49432   123192   291328 |   643688    65969     62 |
|     38846 |   49432   123192   291328 |   708057    83240     76 |
|     58367 |   49432   123192   291328 |   778863   108124     89 |
