Starting solving at: 7804 ms
done
PrepModelIt duration: 11047 ms
> Current optimal value 84 after 11048 ms
> Current optimal value 83 after 18087 ms
> Current optimal value 82 after 303329 ms
> Current optimal value 81 after 583718 ms
