Starting solving at: 816 ms
done
PrepModelIt duration: 858 ms
> Current optimal value 25858 after 858 ms
> Current optimal value 25133 after 138 ms
> Current optimal value 24981 after 158 ms
> Current optimal value 24829 after 204 ms
> Current optimal value 24657 after 234 ms
> Current optimal value 24495 after 255 ms
> Current optimal value 24483 after 292 ms
> Current optimal value 24222 after 322 ms
> Current optimal value 24220 after 342 ms
> Current optimal value 24166 after 850 ms
> Current optimal value 24164 after 1276 ms
> Current optimal value 23466 after 1298 ms
> Current optimal value 23087 after 1319 ms
> Current optimal value 22977 after 1339 ms
> Current optimal value 22490 after 1405 ms
> Current optimal value 22405 after 2747 ms
> Current optimal value 22262 after 2874 ms
> Current optimal value 22161 after 2907 ms
> Current optimal value 21442 after 2936 ms
> Current optimal value 21293 after 4218 ms
> Current optimal value 21229 after 4241 ms
> Current optimal value 21110 after 4292 ms
> Current optimal value 20567 after 4315 ms
> Current optimal value 20522 after 4591 ms
> Current optimal value 20447 after 4622 ms
> Current optimal value 20395 after 4756 ms
> Current optimal value 20356 after 5137 ms
> Current optimal value 20277 after 8940 ms
> Current optimal value 20224 after 8967 ms
> Current optimal value 20123 after 9067 ms
> Current optimal value 19894 after 9092 ms
> Current optimal value 19720 after 9161 ms
> Current optimal value 19690 after 9185 ms
> Current optimal value 19625 after 9254 ms
> Current optimal value 19363 after 9321 ms
> Current optimal value 19014 after 12425 ms
> Current optimal value 18829 after 12499 ms
> Current optimal value 18801 after 13318 ms
> Current optimal value 18396 after 13367 ms
> Current optimal value 18359 after 13399 ms
> Current optimal value 18341 after 14111 ms
> Current optimal value 18116 after 14134 ms
> Current optimal value 17674 after 16021 ms
> Current optimal value 17541 after 21821 ms
> Current optimal value 17342 after 24858 ms
> Current optimal value 17148 after 25062 ms
> Current optimal value 16706 after 25091 ms
> Current optimal value 16653 after 25833 ms
> Current optimal value 16618 after 35933 ms
> Current optimal value 16578 after 40976 ms
> Current optimal value 16239 after 41187 ms
> Current optimal value 16146 after 44301 ms
> Current optimal value 16097 after 44441 ms
> Current optimal value 15917 after 44584 ms
> Current optimal value 15879 after 46942 ms
> Current optimal value 15801 after 50324 ms
> Current optimal value 15793 after 50498 ms
> Current optimal value 15660 after 51337 ms
> Current optimal value 15582 after 52876 ms
> Current optimal value 15478 after 56238 ms
> Current optimal value 15289 after 70510 ms
> Current optimal value 15276 after 74603 ms
> Current optimal value 15203 after 74671 ms
> Current optimal value 15186 after 78143 ms
> Current optimal value 15037 after 78279 ms
> Current optimal value 14690 after 78440 ms
> Current optimal value 14604 after 80567 ms
> Current optimal value 14519 after 101418 ms
> Current optimal value 14434 after 101479 ms
> Current optimal value 14383 after 106288 ms
> Current optimal value 14177 after 106423 ms
> Current optimal value 13974 after 106457 ms
> Current optimal value 13916 after 129297 ms
> Current optimal value 13910 after 138437 ms
> Current optimal value 13825 after 139506 ms
> Current optimal value 13762 after 139591 ms
> Current optimal value 13691 after 142456 ms
> Current optimal value 13182 after 147493 ms
> Current optimal value 13171 after 147550 ms
> Current optimal value 12746 after 149258 ms
> Current optimal value 12646 after 150595 ms
> Current optimal value 12552 after 151293 ms
> Current optimal value 12483 after 151500 ms
> Current optimal value 12418 after 152455 ms
> Current optimal value 12413 after 168704 ms
> Current optimal value 12313 after 169448 ms
> Current optimal value 12174 after 172555 ms
> Current optimal value 12061 after 187367 ms
> Current optimal value 11997 after 199928 ms
> Current optimal value 11879 after 201365 ms
> Current optimal value 11800 after 212427 ms
> Current optimal value 11570 after 215180 ms
> Current optimal value 11552 after 226604 ms
> Current optimal value 11325 after 231847 ms
> Current optimal value 11278 after 234884 ms
> Current optimal value 11272 after 272725 ms
> Current optimal value 11271 after 288487 ms
> Current optimal value 11055 after 308994 ms
> Current optimal value 11027 after 317467 ms
> Current optimal value 10917 after 318503 ms
> Current optimal value 10811 after 322804 ms
> Current optimal value 10783 after 331773 ms
> Current optimal value 10741 after 335110 ms
> Current optimal value 10648 after 419068 ms
> Current optimal value 10627 after 432503 ms
> Current optimal value 10452 after 448664 ms
> Current optimal value 10163 after 478182 ms
> Current optimal value 10121 after 504073 ms
> Current optimal value 10014 after 504694 ms
