Starting solving at: 26216 ms
done
PrepModelIt duration: 26749 ms
> Current optimal value 256460 after 26750 ms
> Current optimal value 253659 after 1043 ms
> Current optimal value 253228 after 1275 ms
> Current optimal value 251139 after 1506 ms
> Current optimal value 248482 after 1719 ms
> Current optimal value 248261 after 2049 ms
> Current optimal value 248138 after 2730 ms
> Current optimal value 247451 after 2950 ms
> Current optimal value 245377 after 3505 ms
> Current optimal value 245336 after 3720 ms
> Current optimal value 244253 after 3943 ms
> Current optimal value 241481 after 4248 ms
> Current optimal value 241291 after 5032 ms
> Current optimal value 239907 after 5254 ms
> Current optimal value 237513 after 5560 ms
> Current optimal value 236938 after 5778 ms
> Current optimal value 235939 after 6727 ms
> Current optimal value 235840 after 6954 ms
> Current optimal value 234619 after 7178 ms
> Current optimal value 232175 after 7409 ms
> Current optimal value 231565 after 7739 ms
> Current optimal value 228481 after 14498 ms
> Current optimal value 228107 after 16698 ms
> Current optimal value 224538 after 17105 ms
> Current optimal value 223867 after 17589 ms
> Current optimal value 223676 after 17819 ms
> Current optimal value 220965 after 18034 ms
> Current optimal value 220761 after 18245 ms
> Current optimal value 220332 after 18457 ms
> Current optimal value 216948 after 20693 ms
> Current optimal value 216916 after 21201 ms
> Current optimal value 216398 after 21501 ms
> Current optimal value 214377 after 22011 ms
> Current optimal value 214189 after 22476 ms
> Current optimal value 213626 after 22881 ms
> Current optimal value 212920 after 27435 ms
> Current optimal value 211811 after 28146 ms
> Current optimal value 211632 after 28677 ms
> Current optimal value 211044 after 28949 ms
> Current optimal value 210201 after 29964 ms
> Current optimal value 209540 after 30162 ms
> Current optimal value 208577 after 31645 ms
> Current optimal value 208055 after 32196 ms
> Current optimal value 205717 after 32396 ms
> Current optimal value 205198 after 32591 ms
> Current optimal value 204760 after 32775 ms
> Current optimal value 204237 after 32971 ms
> Current optimal value 203124 after 33333 ms
> Current optimal value 200908 after 33613 ms
> Current optimal value 199314 after 33913 ms
> Current optimal value 198923 after 34108 ms
> Current optimal value 198908 after 39729 ms
> Current optimal value 198499 after 40449 ms
> Current optimal value 196881 after 90110 ms
> Current optimal value 196175 after 92422 ms
> Current optimal value 195703 after 94280 ms
> Current optimal value 195625 after 95582 ms
> Current optimal value 195474 after 96510 ms
> Current optimal value 195433 after 97111 ms
> Current optimal value 194429 after 156919 ms
> Current optimal value 192311 after 157128 ms
> Current optimal value 189894 after 157605 ms
> Current optimal value 189188 after 157996 ms
> Current optimal value 187771 after 170317 ms
> Current optimal value 187250 after 170501 ms
> Current optimal value 187113 after 177110 ms
> Current optimal value 186917 after 200610 ms
> Current optimal value 186654 after 200883 ms
> Current optimal value 186252 after 201064 ms
> Current optimal value 184839 after 201343 ms
> Current optimal value 183706 after 201616 ms
> Current optimal value 183231 after 202523 ms
> Current optimal value 182692 after 254825 ms
> Current optimal value 182510 after 322884 ms
> Current optimal value 182017 after 324647 ms
> Current optimal value 181068 after 325383 ms
> Current optimal value 178422 after 325802 ms
> Current optimal value 177992 after 325987 ms
> Current optimal value 177457 after 355141 ms
> Current optimal value 176881 after 358922 ms
> Current optimal value 176466 after 359477 ms
> Current optimal value 174233 after 359671 ms
> Current optimal value 172296 after 360363 ms
> Current optimal value 171541 after 360805 ms
> Current optimal value 170772 after 367534 ms
> Current optimal value 169398 after 367793 ms
> Current optimal value 169123 after 401072 ms
> Current optimal value 168919 after 401275 ms
> Current optimal value 167489 after 401474 ms
> Current optimal value 166618 after 402930 ms
> Current optimal value 166468 after 403108 ms
> Current optimal value 164827 after 414454 ms
> Current optimal value 163883 after 448553 ms
> Current optimal value 163783 after 449391 ms
> Current optimal value 162949 after 456223 ms
> Current optimal value 162464 after 456832 ms
> Current optimal value 162232 after 460075 ms
> Current optimal value 162191 after 461402 ms
> Current optimal value 160992 after 464530 ms
> Current optimal value 160087 after 484104 ms
> Current optimal value 159865 after 508837 ms
> Current optimal value 159685 after 525667 ms
