Starting solving at: 6856 ms
done
PrepModelIt duration: 7061 ms
> Current optimal value 122013 after 7062 ms
> Current optimal value 121987 after 1070 ms
> Current optimal value 118712 after 1194 ms
> Current optimal value 116543 after 1288 ms
> Current optimal value 115090 after 6692 ms
> Current optimal value 114757 after 6828 ms
> Current optimal value 114663 after 7188 ms
> Current optimal value 114615 after 7275 ms
> Current optimal value 114417 after 7371 ms
> Current optimal value 114268 after 7567 ms
> Current optimal value 113125 after 7745 ms
> Current optimal value 111702 after 7893 ms
> Current optimal value 109044 after 8021 ms
> Current optimal value 107522 after 8153 ms
> Current optimal value 107123 after 8386 ms
> Current optimal value 106890 after 9285 ms
> Current optimal value 105445 after 25400 ms
> Current optimal value 104368 after 25577 ms
> Current optimal value 103751 after 25831 ms
> Current optimal value 103747 after 26160 ms
> Current optimal value 103131 after 26722 ms
> Current optimal value 102576 after 34660 ms
> Current optimal value 102095 after 34778 ms
> Current optimal value 101754 after 37452 ms
> Current optimal value 101156 after 37536 ms
> Current optimal value 100535 after 37624 ms
> Current optimal value 100410 after 38331 ms
> Current optimal value 100215 after 38421 ms
> Current optimal value 99115 after 38690 ms
> Current optimal value 97889 after 41751 ms
> Current optimal value 97880 after 43110 ms
> Current optimal value 97707 after 43240 ms
> Current optimal value 96199 after 43405 ms
> Current optimal value 94579 after 43601 ms
> Current optimal value 94463 after 43685 ms
> Current optimal value 93498 after 43809 ms
> Current optimal value 93319 after 43930 ms
> Current optimal value 92519 after 44125 ms
> Current optimal value 91917 after 44213 ms
> Current optimal value 90458 after 44433 ms
> Current optimal value 89616 after 44968 ms
> Current optimal value 89028 after 45144 ms
> Current optimal value 88733 after 46456 ms
> Current optimal value 88247 after 46542 ms
> Current optimal value 88013 after 46664 ms
> Current optimal value 87897 after 46745 ms
> Current optimal value 86974 after 71085 ms
> Current optimal value 86309 after 71191 ms
> Current optimal value 85804 after 74560 ms
> Current optimal value 84439 after 75299 ms
> Current optimal value 82038 after 87798 ms
> Current optimal value 81889 after 90915 ms
> Current optimal value 81595 after 92364 ms
> Current optimal value 81446 after 92449 ms
> Current optimal value 80979 after 92677 ms
> Current optimal value 80888 after 106817 ms
> Current optimal value 80847 after 118476 ms
> Current optimal value 80434 after 147719 ms
> Current optimal value 79772 after 149855 ms
> Current optimal value 79750 after 174660 ms
> Current optimal value 79745 after 182707 ms
> Current optimal value 79650 after 196567 ms
> Current optimal value 79292 after 196676 ms
> Current optimal value 78583 after 196898 ms
> Current optimal value 78148 after 196995 ms
> Current optimal value 76360 after 197106 ms
> Current optimal value 75238 after 197354 ms
> Current optimal value 75177 after 221059 ms
> Current optimal value 74681 after 221175 ms
> Current optimal value 73266 after 221689 ms
> Current optimal value 73171 after 222815 ms
> Current optimal value 72784 after 222958 ms
> Current optimal value 72493 after 238388 ms
> Current optimal value 71752 after 238542 ms
> Current optimal value 71367 after 250818 ms
> Current optimal value 71092 after 259067 ms
> Current optimal value 70587 after 259712 ms
> Current optimal value 70258 after 270501 ms
> Current optimal value 70057 after 323535 ms
> Current optimal value 69599 after 323968 ms
> Current optimal value 69420 after 341932 ms
> Current optimal value 69142 after 342592 ms
> Current optimal value 69018 after 366913 ms
> Current optimal value 68603 after 370333 ms
> Current optimal value 68198 after 391303 ms
> Current optimal value 68138 after 397517 ms
> Current optimal value 68052 after 406387 ms
> Current optimal value 67811 after 411996 ms
> Current optimal value 66837 after 417870 ms
> Current optimal value 66643 after 428110 ms
> Current optimal value 66040 after 466789 ms
> Current optimal value 65914 after 497822 ms
> Current optimal value 64447 after 520409 ms
> Current optimal value 63679 after 528540 ms
> Current optimal value 63539 after 529547 ms
