Starting solving at: 915 ms
done
PrepModelIt duration: 953 ms
> Current optimal value 53428 after 954 ms
> Current optimal value 52511 after 131 ms
> Current optimal value 52172 after 182 ms
> Current optimal value 50613 after 202 ms
> Current optimal value 50128 after 229 ms
> Current optimal value 50073 after 248 ms
> Current optimal value 49072 after 286 ms
> Current optimal value 48951 after 325 ms
> Current optimal value 48810 after 393 ms
> Current optimal value 48633 after 462 ms
> Current optimal value 47467 after 481 ms
> Current optimal value 47215 after 499 ms
> Current optimal value 47107 after 526 ms
> Current optimal value 46737 after 570 ms
> Current optimal value 45787 after 597 ms
> Current optimal value 45212 after 632 ms
> Current optimal value 45144 after 667 ms
> Current optimal value 44028 after 686 ms
> Current optimal value 42363 after 1043 ms
> Current optimal value 42119 after 1062 ms
> Current optimal value 41735 after 1081 ms
> Current optimal value 41553 after 1107 ms
> Current optimal value 39945 after 2746 ms
> Current optimal value 39645 after 2804 ms
> Current optimal value 39249 after 2851 ms
> Current optimal value 38265 after 3472 ms
> Current optimal value 37147 after 4211 ms
> Current optimal value 36605 after 4239 ms
> Current optimal value 36415 after 4330 ms
> Current optimal value 35969 after 7409 ms
> Current optimal value 34976 after 11074 ms
> Current optimal value 34903 after 11130 ms
> Current optimal value 34816 after 11155 ms
> Current optimal value 34720 after 11817 ms
> Current optimal value 34514 after 11874 ms
> Current optimal value 34370 after 13477 ms
> Current optimal value 33273 after 17036 ms
> Current optimal value 32488 after 18151 ms
> Current optimal value 32481 after 20937 ms
> Current optimal value 32385 after 21685 ms
> Current optimal value 32347 after 22319 ms
> Current optimal value 31970 after 22348 ms
> Current optimal value 31699 after 22423 ms
> Current optimal value 31128 after 28534 ms
> Current optimal value 31053 after 30714 ms
> Current optimal value 30888 after 38793 ms
> Current optimal value 30569 after 47272 ms
> Current optimal value 30524 after 54844 ms
> Current optimal value 29337 after 56866 ms
> Current optimal value 29127 after 56913 ms
> Current optimal value 28448 after 67855 ms
> Current optimal value 28381 after 68873 ms
> Current optimal value 27372 after 73079 ms
> Current optimal value 27141 after 74595 ms
> Current optimal value 26939 after 75035 ms
> Current optimal value 26906 after 80517 ms
> Current optimal value 25889 after 82360 ms
> Current optimal value 25701 after 109788 ms
> Current optimal value 25313 after 117091 ms
> Current optimal value 24725 after 120068 ms
> Current optimal value 24656 after 123702 ms
> Current optimal value 24146 after 125809 ms
> Current optimal value 23939 after 127224 ms
> Current optimal value 23842 after 149756 ms
> Current optimal value 23537 after 150618 ms
> Current optimal value 22888 after 153379 ms
> Current optimal value 22854 after 161056 ms
> Current optimal value 22332 after 234983 ms
> Current optimal value 22300 after 266075 ms
> Current optimal value 22217 after 276554 ms
> Current optimal value 22054 after 313181 ms
> Current optimal value 21847 after 332105 ms
> Current optimal value 21535 after 337494 ms
> Current optimal value 21433 after 367193 ms
> Current optimal value 21226 after 370285 ms
> Current optimal value 20996 after 372269 ms
> Current optimal value 20910 after 381655 ms
> Current optimal value 20675 after 409354 ms
> Current optimal value 20322 after 414487 ms
> Current optimal value 20279 after 453182 ms
> Current optimal value 20039 after 466757 ms
> Current optimal value 19921 after 540593 ms
> Current optimal value 19870 after 561235 ms
> Current optimal value 19446 after 574382 ms
> Current optimal value 19438 after 576040 ms
> Current optimal value 19426 after 576899 ms
> Current optimal value 19078 after 577504 ms
