Starting solving at 180 ms
>>> Search start
> Conflicts |          ORIGINAL         |          LEARNT          | Progress
>           |    Vars  Clauses Literals |    Limit  Clauses Lit/Cl |         
|         0 |     251    10295    20591 |     3433        0   -nan |
> restarts              : 1
> decisions             : 477  (0 % random)
> conflicts             : 0
> propagations          : 965
> conflict literals     : 0  (-nan % deleted)
> Current optimal value 250 after 202 ms
|         0 |     501    10665    21330 |     3705      445    123 |
> restarts              : 2
> decisions             : 727  (0 % random)
> conflicts             : 0
> propagations          : 1466
> conflict literals     : 0  (-nan % deleted)
> Current optimal value 249 after 212 ms
|         0 |     500    10665    21330 |     3751      582    125 |
> restarts              : 3
> decisions             : 976  (0 % random)
> conflicts             : 0
> propagations          : 1966
> conflict literals     : 0  (-nan % deleted)
> Current optimal value 248 after 221 ms
|         0 |     500    10665    21330 |     3790      700    127 |
> restarts              : 4
> decisions             : 1224  (0 % random)
> conflicts             : 0
> propagations          : 2466
> conflict literals     : 0  (-nan % deleted)
> Current optimal value 247 after 228 ms
|         0 |     500    10665    21330 |     3807      752    128 |
> restarts              : 5
> decisions             : 1471  (0 % random)
> conflicts             : 0
> propagations          : 2966
> conflict literals     : 0  (-nan % deleted)
> Current optimal value 246 after 236 ms
|         0 |     500    10665    21330 |     3839      847    129 |
> restarts              : 6
> decisions             : 1717  (0 % random)
> conflicts             : 0
> propagations          : 3466
> conflict literals     : 0  (-nan % deleted)
> Current optimal value 245 after 244 ms
|         0 |     500    10665    21330 |     3856      899    131 |
> restarts              : 7
> decisions             : 1962  (0 % random)
> conflicts             : 0
> propagations          : 3966
> conflict literals     : 0  (-nan % deleted)
> Current optimal value 244 after 252 ms
|         0 |     500    10665    21330 |     3889      998    131 |
> restarts              : 8
> decisions             : 2206  (0 % random)
> conflicts             : 0
> propagations          : 4466
> conflict literals     : 0  (-nan % deleted)
> Current optimal value 243 after 260 ms
|         0 |     500    10665    21330 |     3910     1061    132 |
> restarts              : 9
> decisions             : 2449  (0 % random)
> conflicts             : 0
> propagations          : 4966
> conflict literals     : 0  (-nan % deleted)
> Current optimal value 242 after 267 ms
|         0 |     500    10665    21330 |     3933     1130    132 |
> restarts              : 10
> decisions             : 2691  (0 % random)
> conflicts             : 0
> propagations          : 5466
> conflict literals     : 0  (-nan % deleted)
> Current optimal value 241 after 275 ms
|         0 |     500    10665    21330 |     3953     1190    132 |
> restarts              : 11
> decisions             : 2932  (0 % random)
> conflicts             : 0
> propagations          : 5966
> conflict literals     : 0  (-nan % deleted)
> Current optimal value 240 after 283 ms
|         0 |     500    10665    21330 |     3980     1270    133 |
> restarts              : 12
> decisions             : 3172  (0 % random)
> conflicts             : 0
> propagations          : 6466
> conflict literals     : 0  (-nan % deleted)
> Current optimal value 239 after 291 ms
|         0 |     500    10665    21330 |     4002     1336    135 |
> restarts              : 13
> decisions             : 3411  (0 % random)
> conflicts             : 0
> propagations          : 6966
> conflict literals     : 0  (-nan % deleted)
> Current optimal value 238 after 298 ms
|         0 |     500    10665    21330 |     4024     1402    136 |
> restarts              : 14
> decisions             : 3649  (0 % random)
> conflicts             : 1
> propagations          : 7470
> conflict literals     : 238  (0 % deleted)
> Current optimal value 237 after 305 ms
|         1 |     500    10665    21330 |     4044     1463    137 |
> restarts              : 15
> decisions             : 3887  (0 % random)
> conflicts             : 2
> propagations          : 7972
> conflict literals     : 475  (0 % deleted)
> Current optimal value 236 after 313 ms
|         2 |     500    10665    21330 |     4064     1522    138 |
> restarts              : 16
> decisions             : 4126  (0 % random)
> conflicts             : 4
> propagations          : 8489
> conflict literals     : 947  (0.105485 % deleted)
> Current optimal value 235 after 320 ms
|         4 |     500    10665    21330 |     4092     1607    140 |
> restarts              : 17
> decisions             : 4362  (0 % random)
> conflicts             : 6
> propagations          : 8996
> conflict literals     : 1417  (0.140944 % deleted)
> Current optimal value 234 after 328 ms
|         6 |     500    10665    21330 |     4116     1677    141 |
> restarts              : 18
> decisions             : 4598  (0 % random)
> conflicts             : 8
> propagations          : 9501
> conflict literals     : 1885  (0.158898 % deleted)
> Current optimal value 233 after 335 ms
|         8 |     500    10665    21330 |     4132     1725    142 |
> restarts              : 19
> decisions             : 4833  (0 % random)
> conflicts             : 12
> propagations          : 10024
> conflict literals     : 2814  (0.177368 % deleted)
> Current optimal value 232 after 342 ms
|        12 |     500    10665    21330 |     4157     1801    144 |
> restarts              : 20
> decisions             : 5068  (0 % random)
> conflicts             : 18
> propagations          : 10569
> conflict literals     : 4197  (0.261407 % deleted)
> Current optimal value 231 after 350 ms
|        18 |     500    10665    21330 |     4189     1897    147 |
> restarts              : 21
> decisions             : 5311  (0 % random)
> conflicts             : 35
> propagations          : 11240
> conflict literals     : 8072  (0.419442 % deleted)
> Current optimal value 230 after 360 ms
|        35 |     500    10665    21330 |     4283     2178    156 |
|       136 |     500    10665    21330 |     4711     3770    185 |
> restarts              : 23
> decisions             : 5874  (0 % random)
> conflicts             : 140
> propagations          : 13485
> conflict literals     : 31377  (1.45724 % deleted)
> Current optimal value 229 after 397 ms
|       140 |     500    10665    21330 |     4843     3858    186 |
|       240 |     500    10665    21330 |     5327     2872    219 |
|       390 |     500    10665    21330 |     5860     5148    224 |
> restarts              : 24
> decisions             : 6355  (0 % random)
> conflicts             : 390
> propagations          : 16770
> conflict literals     : 86580  (2.31078 % deleted)
> Current optimal value 228 after 464 ms
|       390 |     500    10665    21330 |     5278     5164    224 |
|       490 |     500    10665    21330 |     5806     3895    222 |
|       641 |     500    10665    21330 |     6386     6023    221 |
|       868 |     500    10665    21330 |     7025     5994    219 |
> restarts              : 29
> decisions             : 8071  (0 % random)
> conflicts             : 1002
> propagations          : 25163
> conflict literals     : 218742  (3.20465 % deleted)
> Current optimal value 227 after 663 ms
|      1002 |     500    10665    21330 |     4983     4280    221 |
|      1103 |     500    10665    21330 |     5482     3533    211 |
|      1253 |     500    10665    21330 |     6030     5614    217 |
|      1478 |     500    10665    21330 |     6633     5543    221 |
> restarts              : 31
> decisions             : 9179  (0 % random)
> conflicts             : 1661
> propagations          : 32747
> conflict literals     : 359366  (3.89793 % deleted)
> Current optimal value 226 after 856 ms
|      1661 |     500    10665    21330 |     5216     4978    220 |
> restarts              : 32
> decisions             : 9440  (0 % random)
> conflicts             : 1703
> propagations          : 33700
> conflict literals     : 368230  (3.94017 % deleted)
> Current optimal value 225 after 877 ms
|      1703 |     500    10665    21330 |     4541     2952    215 |
|      1803 |     500    10665    21330 |     4995     4519    213 |
|      1954 |     500    10665    21330 |     5494     4104    211 |
|      2180 |     500    10665    21330 |     6044     4317    217 |
> restarts              : 37
> decisions             : 11092  (0 % random)
> conflicts             : 2339
> propagations          : 42437
> conflict literals     : 499954  (4.54795 % deleted)
> Current optimal value 224 after 1088 ms
|      2339 |     500    10665    21330 |     4763     3619    215 |
|      2440 |     500    10665    21330 |     5239     2661    211 |
|      2590 |     500    10665    21330 |     5763     4521    216 |
|      2816 |     500    10665    21330 |     6339     4445    210 |
|      3155 |     500    10665    21330 |     6973     5374    211 |
> restarts              : 43
> decisions             : 13229  (0 % random)
> conflicts             : 3280
> propagations          : 55227
> conflict literals     : 690991  (5.39696 % deleted)
> Current optimal value 223 after 1367 ms
|      3280 |     500    10665    21330 |     5927     7110    211 |
|      3381 |     500    10665    21330 |     6519     5297    207 |
|      3532 |     500    10665    21330 |     7171     3978    213 |
|      3757 |     500    10665    21330 |     7888     7010    217 |
|      4095 |     500    10665    21330 |     8677     7503    214 |
|      4601 |     500    10665    21330 |     9545     8714    217 |
|      5366 |     500    10665    21330 |    10500     8435    207 |
|      6512 |     500    10665    21330 |    11550     7301    207 |
|      8223 |     500    10665    21330 |    12705     9981    217 |
> restarts              : 63
> decisions             : 23228  (0 % random)
> conflicts             : 9418
> propagations          : 133392
> conflict literals     : 1888990  (8.89343 % deleted)
> Current optimal value 222 after 3280 ms
|      9418 |     500    10665    21330 |     7274    11153    217 |
|      9519 |     500    10665    21330 |     8002     6977    211 |
|      9670 |     500    10665    21330 |     8802     4606    206 |
|      9896 |     500    10665    21330 |     9682     7635    209 |
|     10236 |     500    10665    21330 |    10650     7194    208 |
|     10744 |     500    10665    21330 |    11715     7963    211 |
|     11509 |     500    10665    21330 |    12887     6286    206 |
> restarts              : 78
> decisions             : 28420  (0 % random)
> conflicts             : 11747
> propagations          : 167951
> conflict literals     : 2332290  (9.52422 % deleted)
> Current optimal value 221 after 4038 ms
|     11747 |     500    10665    21330 |     6550     8981    210 |
|     11847 |     500    10665    21330 |     7205     5785    211 |
|     11998 |     500    10665    21330 |     7926     7673    210 |
|     12225 |     500    10665    21330 |     8718     5947    203 |
|     12565 |     500    10665    21330 |     9590     5491    202 |
|     13072 |     500    10665    21330 |    10549     5898    213 |
|     13837 |     500    10665    21330 |    11604     8350    202 |
|     14978 |     500    10665    21330 |    12765     8255    212 |
|     16687 |     500    10665    21330 |    14041     8080    213 |
> restarts              : 106
> decisions             : 40169  (0 % random)
> conflicts             : 18310
> propagations          : 275697
> conflict literals     : 3561031  (10.669 % deleted)
> Current optimal value 220 after 6285 ms
|     18310 |     500    10665    21330 |     6975    10254    205 |
|     18411 |     500    10665    21330 |     7672     6261    199 |
|     18561 |     500    10665    21330 |     8439     7953    203 |
|     18787 |     500    10665    21330 |     9283     6119    210 |
|     19125 |     500    10665    21330 |    10212     4994    207 |
> restarts              : 110
> decisions             : 42168  (0 % random)
> conflicts             : 19584
> propagations          : 295439
> conflict literals     : 3794189  (10.9301 % deleted)
> Current optimal value 219 after 6641 ms
|     19584 |     500    10665    21330 |     7062    10516    213 |
|     19684 |     500    10665    21330 |     7768     6291    209 |
|     19835 |     500    10665    21330 |     8545     7746    207 |
|     20061 |     500    10665    21330 |     9399     5673    203 |
|     20401 |     500    10665    21330 |    10339     9416    201 |
|     20909 |     500    10665    21330 |    11373    10010    205 |
|     21673 |     500    10665    21330 |    12511     6197    201 |
|     22814 |     500    10665    21330 |    13762    11382    211 |
|     24524 |     500    10665    21330 |    15138     7511    208 |
> restarts              : 127
> decisions             : 51560  (0 % random)
> conflicts             : 25956
> propagations          : 397981
> conflict literals     : 4937210  (12.0983 % deleted)
> Current optimal value 218 after 8882 ms
|     25956 |     500    10665    21330 |     6281     8172    209 |
|     26056 |     500    10665    21330 |     6909     5264    205 |
|     26206 |     500    10665    21330 |     7600     6853    208 |
|     26431 |     500    10665    21330 |     8360     5234    205 |
|     26768 |     500    10665    21330 |     9196     4958    206 |
> restarts              : 128
> decisions             : 53018  (0 % random)
> conflicts             : 27226
> propagations          : 415438
> conflict literals     : 5179529  (12.0343 % deleted)
> Current optimal value 217 after 9232 ms
|     27226 |     500    10665    21330 |     5516     5878    208 |
|     27326 |     500    10665    21330 |     6067     4180    205 |
|     27476 |     500    10665    21330 |     6674     5657    207 |
|     27702 |     500    10665    21330 |     7342     5092    202 |
|     28041 |     500    10665    21330 |     8076     5275    202 |
|     28550 |     500    10665    21330 |     8884     6379    203 |
> restarts              : 135
> decisions             : 55812  (0 % random)
> conflicts             : 28790
> propagations          : 441383
> conflict literals     : 5469572  (12.0481 % deleted)
> Current optimal value 216 after 9667 ms
|     28790 |     500    10665    21330 |     5230     5021    205 |
|     28891 |     500    10665    21330 |     5753     3525    195 |
> restarts              : 138
> decisions             : 56594  (0 % random)
> conflicts             : 29039
> propagations          : 446517
> conflict literals     : 5514164  (12.0696 % deleted)
> Current optimal value 215 after 9753 ms
|     29039 |     500    10665    21330 |     5460     5711    198 |
|     29140 |     500    10665    21330 |     6006     4193    197 |
|     29291 |     500    10665    21330 |     6607     5801    198 |
|     29517 |     500    10665    21330 |     7268     4513    200 |
|     29855 |     500    10665    21330 |     7994     4231    200 |
|     30361 |     500    10665    21330 |     8794     5059    201 |
|     31125 |     500    10665    21330 |     9673     8795    196 |
|     32270 |     500    10665    21330 |    10641    10005    197 |
|     33983 |     500    10665    21330 |    11705    11016    203 |
> restarts              : 159
> decisions             : 65314  (0 % random)
> conflicts             : 34177
> propagations          : 546033
> conflict literals     : 6386371  (12.9725 % deleted)
> Current optimal value 214 after 11478 ms
|     34177 |     500    10665    21330 |     5963     7218    203 |
|     34277 |     500    10665    21330 |     6559     4477    197 |
|     34427 |     500    10665    21330 |     7215     5639    199 |
|     34652 |     500    10665    21330 |     7936     7463    201 |
|     34989 |     500    10665    21330 |     8730     6508    200 |
|     35496 |     500    10665    21330 |     9603     6883    198 |
|     36260 |     500    10665    21330 |    10563     9953    197 |
|     37406 |     500    10665    21330 |    11620    10422    195 |
|     39121 |     500    10665    21330 |    12782     8857    191 |
|     41692 |     500    10665    21330 |    14060    12849    202 |
|     45538 |     500    10665    21330 |    15466    11310    204 |
|     51330 |     500    10665    21330 |    17013     9692    195 |
|     60013 |     500    10665    21330 |    18714    15275    194 |
|     72992 |     500    10665    21330 |    20585    12689    203 |
|     92484 |     500    10665    21330 |    22644    16816    202 |
|    121771 |     500    10665    21330 |    24908    18901    202 |
|    165687 |     500    10665    21330 |    27399    24970    205 |
|    231437 |     500    10665    21330 |    30139    20557    206 |
|    330217 |     500    10665    21330 |    33153    16333    203 |
> restarts              : 850
> decisions             : 491182  (0 % random)
> conflicts             : 338296
> propagations          : 6890825
> conflict literals     : 54282683  (22.2336 % deleted)
> Current optimal value 213 after 192908 ms
|    338296 |     500    10665    21330 |    13652    30285    199 |
|    338397 |     500    10665    21330 |    15017     8749    189 |
|    338547 |     500    10665    21330 |    16518     9977    191 |
|    338773 |     500    10665    21330 |    18170    11958    192 |
|    339113 |     500    10665    21330 |    19987    15009    191 |
|    339622 |     500    10665    21330 |    21986    19700    192 |
|    340382 |     500    10665    21330 |    24185    15307    195 |
|    341522 |     500    10665    21330 |    26603    14406    201 |
|    343237 |     500    10665    21330 |    29264    17587    196 |
|    345810 |     500    10665    21330 |    32190    27625    197 |
|    349667 |     500    10665    21330 |    35409    31082    200 |
|    355435 |     500    10665    21330 |    38950    26205    204 |
|    364106 |     500    10665    21330 |    42845    25876    196 |
|    377121 |     500    10665    21330 |    47130    33821    202 |
|    396645 |     500    10665    21330 |    51843    46855    203 |
|    425840 |     500    10665    21330 |    57027    44173    204 |
> restarts              : 1024
> decisions             : 635468  (0 % random)
> conflicts             : 449920
> propagations          : 9147517
> conflict literals     : 71069189  (23.2781 % deleted)
> Current optimal value 212 after 304965 ms
|    449920 |     500    10665    21330 |    17308    41255    203 |
|    450020 |     500    10665    21330 |    19039    11399    198 |
|    450170 |     500    10665    21330 |    20943    12586    198 |
|    450395 |     500    10665    21330 |    23037    14675    199 |
|    450732 |     500    10665    21330 |    25341    17624    200 |
|    451238 |     500    10665    21330 |    27875    22007    201 |
|    451997 |     500    10665    21330 |    30663    14433    198 |
|    453136 |     500    10665    21330 |    33729    24239    200 |
|    454844 |     500    10665    21330 |    37102    22228    200 |
|    457406 |     500    10665    21330 |    40812    25430    200 |
|    461250 |     500    10665    21330 |    44894    39776    202 |
|    467016 |     500    10665    21330 |    49383    23556    199 |
|    475665 |     500    10665    21330 |    54322    26173    199 |
|    488639 |     500    10665    21330 |    59754    33185    203 |
|    508160 |     500    10665    21330 |    65729    31941    195 |
|    537418 |     500    10665    21330 |    72302    44067    204 |
|    581334 |     500    10665    21330 |    79532    56076    204 |
