Starting solving at 278 ms
>>> Search start
> Conflicts |          ORIGINAL         |          LEARNT          | Progress
>           |    Vars  Clauses Literals |    Limit  Clauses Lit/Cl |         
|         0 |     301    14853    29707 |     4953        0   -nan |
> restarts              : 1
> decisions             : 833  (0 % random)
> conflicts             : 0
> propagations          : 1677
> conflict literals     : 0  (-nan % deleted)
> Current optimal value 300 after 321 ms
|         0 |     601    15298    30596 |     5340      717    145 |
> restarts              : 2
> decisions             : 1133  (0 % random)
> conflicts             : 0
> propagations          : 2278
> conflict literals     : 0  (-nan % deleted)
> Current optimal value 299 after 333 ms
|         0 |     600    15298    30596 |     5388      862    148 |
> restarts              : 3
> decisions             : 1432  (0 % random)
> conflicts             : 0
> propagations          : 2878
> conflict literals     : 0  (-nan % deleted)
> Current optimal value 298 after 345 ms
|         0 |     600    15298    30596 |     5424      970    149 |
> restarts              : 4
> decisions             : 1730  (0 % random)
> conflicts             : 0
> propagations          : 3478
> conflict literals     : 0  (-nan % deleted)
> Current optimal value 297 after 356 ms
|         0 |     600    15298    30596 |     5446     1035    150 |
> restarts              : 5
> decisions             : 2027  (0 % random)
> conflicts             : 0
> propagations          : 4078
> conflict literals     : 0  (-nan % deleted)
> Current optimal value 296 after 368 ms
|         0 |     600    15298    30596 |     5485     1153    151 |
> restarts              : 6
> decisions             : 2323  (0 % random)
> conflicts             : 0
> propagations          : 4678
> conflict literals     : 0  (-nan % deleted)
> Current optimal value 295 after 378 ms
|         0 |     600    15298    30596 |     5506     1214    153 |
> restarts              : 7
> decisions             : 2619  (0 % random)
> conflicts             : 0
> propagations          : 5278
> conflict literals     : 0  (-nan % deleted)
> Current optimal value 294 after 390 ms
|         0 |     600    15298    30596 |     5540     1318    154 |
> restarts              : 8
> decisions             : 2913  (0 % random)
> conflicts             : 0
> propagations          : 5878
> conflict literals     : 0  (-nan % deleted)
> Current optimal value 293 after 400 ms
|         0 |     600    15298    30596 |     5560     1377    154 |
> restarts              : 9
> decisions             : 3207  (0 % random)
> conflicts             : 1
> propagations          : 6482
> conflict literals     : 293  (0 % deleted)
> Current optimal value 292 after 411 ms
|         1 |     600    15298    30596 |     5586     1456    154 |
> restarts              : 10
> decisions             : 3500  (0 % random)
> conflicts             : 2
> propagations          : 7084
> conflict literals     : 585  (0 % deleted)
> Current optimal value 291 after 421 ms
|         2 |     600    15298    30596 |     5605     1512    155 |
> restarts              : 11
> decisions             : 3794  (0 % random)
> conflicts             : 4
> propagations          : 7699
> conflict literals     : 1166  (0 % deleted)
> Current optimal value 290 after 432 ms
|         4 |     600    15298    30596 |     5637     1608    156 |
> restarts              : 12
> decisions             : 4087  (0 % random)
> conflicts             : 6
> propagations          : 8315
> conflict literals     : 1745  (0 % deleted)
> Current optimal value 289 after 443 ms
|         6 |     600    15298    30596 |     5662     1682    158 |
> restarts              : 13
> decisions             : 4387  (0 % random)
> conflicts             : 14
> propagations          : 8996
> conflict literals     : 4045  (0.123457 % deleted)
> Current optimal value 288 after 455 ms
|        14 |     600    15298    30596 |     5719     1854    164 |
> restarts              : 14
> decisions             : 4679  (0 % random)
> conflicts             : 18
> propagations          : 9630
> conflict literals     : 5189  (0.192345 % deleted)
> Current optimal value 287 after 467 ms
|        18 |     600    15298    30596 |     5756     1964    167 |
> restarts              : 15
> decisions             : 4993  (0 % random)
> conflicts             : 46
> propagations          : 10457
> conflict literals     : 13159  (0.348353 % deleted)
> Current optimal value 286 after 484 ms
|        46 |     600    15298    30596 |     5894     2380    185 |
> restarts              : 16
> decisions             : 5323  (0 % random)
> conflicts             : 93
> propagations          : 11449
> conflict literals     : 26453  (0.545154 % deleted)
> Current optimal value 285 after 505 ms
|        93 |     600    15298    30596 |     6117     3049    206 |
|       194 |     600    15298    30596 |     6729     4567    229 |
> restarts              : 19
> decisions             : 6379  (0 % random)
> conflicts             : 297
> propagations          : 15157
> conflict literals     : 83104  (0.969995 % deleted)
> Current optimal value 284 after 585 ms
|       297 |     600    15298    30596 |     7096     5986    241 |
|       397 |     600    15298    30596 |     7806     7498    249 |
> restarts              : 21
> decisions             : 7048  (0 % random)
> conflicts             : 402
> propagations          : 17577
> conflict literals     : 112057  (1.12327 % deleted)
> Current optimal value 283 after 634 ms
|       402 |     600    15298    30596 |     7647     7637    249 |
|       503 |     600    15298    30596 |     8411     5425    270 |
|       653 |     600    15298    30596 |     9252     7618    274 |
> restarts              : 23
> decisions             : 7896  (0 % random)
> conflicts             : 687
> propagations          : 22058
> conflict literals     : 190744  (1.32638 % deleted)
> Current optimal value 282 after 742 ms
|       687 |     600    15298    30596 |     7821     8161    274 |
|       787 |     600    15298    30596 |     8603     5772    276 |
|       938 |     600    15298    30596 |     9464     8167    273 |
> restarts              : 26
> decisions             : 9064  (0 % random)
> conflicts             : 1036
> propagations          : 27630
> conflict literals     : 285787  (1.62949 % deleted)
> Current optimal value 281 after 909 ms
|      1036 |     600    15298    30596 |     8325     9671    270 |
> restarts              : 27
> decisions             : 9389  (0 % random)
> conflicts             : 1089
> propagations          : 28765
> conflict literals     : 300027  (1.72233 % deleted)
> Current optimal value 280 after 945 ms
|      1089 |     600    15298    30596 |     7005     5712    261 |
|      1189 |     600    15298    30596 |     7705     7207    260 |
|      1340 |     600    15298    30596 |     8476     5212    272 |
|      1566 |     600    15298    30596 |     9324     7916    270 |
|      1904 |     600    15298    30596 |    10256     8067    269 |
|      2410 |     600    15298    30596 |    11282     9776    274 |
|      3170 |     600    15298    30596 |    12410     6886    271 |
> restarts              : 32
> decisions             : 12982  (0 % random)
> conflicts             : 3339
> propagations          : 55915
> conflict literals     : 886009  (4.52726 % deleted)
> Current optimal value 279 after 1942 ms
|      3339 |     600    15298    30596 |     7995     8683    273 |
|      3439 |     600    15298    30596 |     8795     5845    270 |
|      3589 |     600    15298    30596 |     9674     7321    271 |
|      3814 |     600    15298    30596 |    10642     9773    273 |
|      4151 |     600    15298    30596 |    11706     7963    271 |
|      4661 |     600    15298    30596 |    12877     7940    256 |
|      5424 |     600    15298    30596 |    14164     9767    261 |
|      6569 |     600    15298    30596 |    15581     8171    265 |
> restarts              : 47
> decisions             : 20051  (0 % random)
> conflicts             : 6662
> propagations          : 100536
> conflict literals     : 1723878  (6.32208 % deleted)
> Current optimal value 278 after 3620 ms
|      6662 |     600    15298    30596 |     8177     9228    267 |
|      6762 |     600    15298    30596 |     8995     5920    261 |
> restarts              : 48
> decisions             : 20448  (0 % random)
> conflicts             : 6799
> propagations          : 102663
> conflict literals     : 1759899  (6.28437 % deleted)
> Current optimal value 277 after 3677 ms
|      6799 |     600    15298    30596 |     7222     6362    262 |
|      6899 |     600    15298    30596 |     7944     7671    260 |
|      7049 |     600    15298    30596 |     8738     5170    266 |
|      7274 |     600    15298    30596 |     9612     7650    269 |
|      7614 |     600    15298    30596 |    10573     6979    258 |
|      8122 |     600    15298    30596 |    11631     7008    262 |
|      8886 |     600    15298    30596 |    12794    10210    255 |
> restarts              : 61
> decisions             : 26061  (0 % random)
> conflicts             : 9230
> propagations          : 138007
> conflict literals     : 2365177  (6.83331 % deleted)
> Current optimal value 276 after 4839 ms
|      9230 |     600    15298    30596 |     7519     7253    256 |
|      9330 |     600    15298    30596 |     8270     4209    252 |
|      9480 |     600    15298    30596 |     9097     5588    257 |
|      9706 |     600    15298    30596 |    10007     7975    257 |
|     10043 |     600    15298    30596 |    11008     5954    263 |
|     10549 |     600    15298    30596 |    12109    11335    268 |
|     11309 |     600    15298    30596 |    13320     6803    264 |
|     12448 |     600    15298    30596 |    14652    10026    266 |
|     14156 |     600    15298    30596 |    16117    11041    267 |
|     16733 |     600    15298    30596 |    17729    13845    253 |
|     20592 |     600    15298    30596 |    19502    15061    261 |
|     26381 |     600    15298    30596 |    21452    11256    245 |
> restarts              : 117
> decisions             : 57039  (0 % random)
> conflicts             : 26390
> propagations          : 405948
> conflict literals     : 6479569  (9.52881 % deleted)
> Current optimal value 275 after 15727 ms
|     26390 |     600    15298    30596 |     8894    11380    246 |
|     26490 |     600    15298    30596 |     9784     6994    250 |
|     26640 |     600    15298    30596 |    10762     8228    253 |
|     26867 |     600    15298    30596 |    11838    10605    251 |
|     27207 |     600    15298    30596 |    13022     7798    243 |
|     27714 |     600    15298    30596 |    14324    12837    251 |
|     28474 |     600    15298    30596 |    15757    12209    261 |
|     29614 |     600    15298    30596 |    17333    15722    267 |
|     31323 |     600    15298    30596 |    19066    15266    268 |
|     33886 |     600    15298    30596 |    20973    19206    266 |
|     37730 |     600    15298    30596 |    23070    15395    267 |
|     43516 |     600    15298    30596 |    25377    19588    259 |
|     52198 |     600    15298    30596 |    27915    24286    259 |
> restarts              : 189
> decisions             : 101168  (0 % random)
> conflicts             : 53500
> propagations          : 790602
> conflict literals     : 12971841  (10.4031 % deleted)
> Current optimal value 274 after 35031 ms
|     53500 |     600    15298    30596 |    13105    24012    253 |
|     53600 |     600    15298    30596 |    14415    13364    253 |
> restarts              : 190
> decisions             : 101553  (0 % random)
> conflicts             : 53644
> propagations          : 793042
> conflict literals     : 13006171  (10.4068 % deleted)
> Current optimal value 273 after 35108 ms
|     53644 |     600    15298    30596 |     9724    13868    254 |
|     53744 |     600    15298    30596 |    10696     8336    254 |
|     53894 |     600    15298    30596 |    11766     9908    257 |
|     54119 |     600    15298    30596 |    12942    12297    259 |
> restarts              : 192
> decisions             : 102647  (0 % random)
> conflicts             : 54249
> propagations          : 801531
> conflict literals     : 13149908  (10.421 % deleted)
> Current optimal value 272 after 35343 ms
|     54249 |     600    15298    30596 |     7623     7567    260 |
|     54350 |     600    15298    30596 |     8386     4808    239 |
|     54501 |     600    15298    30596 |     9224     6665    243 |
|     54728 |     600    15298    30596 |    10147     9204    242 |
|     55066 |     600    15298    30596 |    11161     6767    247 |
|     55575 |     600    15298    30596 |    12277    11502    247 |
|     56338 |     600    15298    30596 |    13505    12724    246 |
|     57480 |     600    15298    30596 |    14856    10535    254 |
|     59199 |     600    15298    30596 |    16342    15442    251 |
|     61764 |     600    15298    30596 |    17976    15865    263 |
|     65626 |     600    15298    30596 |    19773    11548    255 |
> restarts              : 252
> decisions             : 130682  (0 % random)
> conflicts             : 67932
> propagations          : 1031410
> conflict literals     : 16391300  (10.4709 % deleted)
> Current optimal value 271 after 43027 ms
|     67932 |     600    15298    30596 |    10881    17339    253 |
|     68032 |     600    15298    30596 |    11969     9776    257 |
|     68182 |     600    15298    30596 |    13166    11046    258 |
|     68407 |     600    15298    30596 |    14482    13379    260 |
|     68745 |     600    15298    30596 |    15930     8425    257 |
|     69251 |     600    15298    30596 |    17523    12825    260 |
|     70010 |     600    15298    30596 |    19276    10812    259 |
|     71149 |     600    15298    30596 |    21203    11157    258 |
|     72858 |     600    15298    30596 |    23324    17868    262 |
|     75420 |     600    15298    30596 |    25656    22284    263 |
|     79265 |     600    15298    30596 |    28222    17727    261 |
> restarts              : 256
> decisions             : 144896  (0 % random)
> conflicts             : 80984
> propagations          : 1225738
> conflict literals     : 19325130  (11.2511 % deleted)
> Current optimal value 270 after 52330 ms
|     80984 |     600    15298    30596 |    12145    21133    263 |
|     81084 |     600    15298    30596 |    13360    11868    259 |
|     81234 |     600    15298    30596 |    14696    13381    260 |
|     81459 |     600    15298    30596 |    16165     7774    254 |
|     81796 |     600    15298    30596 |    17782    11059    258 |
|     82302 |     600    15298    30596 |    19560    15685    260 |
|     83061 |     600    15298    30596 |    21516    14297    261 |
> restarts              : 257
> decisions             : 147357  (0 % random)
> conflicts             : 83211
> propagations          : 1257788
> conflict literals     : 19829035  (11.3421 % deleted)
> Current optimal value 269 after 53469 ms
|     83211 |     600    15298    30596 |    10399    15894    261 |
|     83311 |     600    15298    30596 |    11439     9216    258 |
|     83461 |     600    15298    30596 |    12583    10587    258 |
|     83686 |     600    15298    30596 |    13841    13186    260 |
|     84023 |     600    15298    30596 |    15225     9344    257 |
|     84529 |     600    15298    30596 |    16748    13691    259 |
|     85288 |     600    15298    30596 |    18423    12854    259 |
|     86427 |     600    15298    30596 |    20265    14712    259 |
> restarts              : 258
> decisions             : 152043  (0 % random)
> conflicts             : 87665
> propagations          : 1325114
> conflict literals     : 20831688  (11.511 % deleted)
> Current optimal value 268 after 55714 ms
|     87665 |     600    15298    30596 |    11272    18512    261 |
|     87765 |     600    15298    30596 |    12399    10312    257 |
|     87915 |     600    15298    30596 |    13639    11775    258 |
|     88140 |     600    15298    30596 |    15003    13948    259 |
|     88477 |     600    15298    30596 |    16503     9352    254 |
|     88983 |     600    15298    30596 |    18153    13796    257 |
|     89742 |     600    15298    30596 |    19969    11749    257 |
|     90881 |     600    15298    30596 |    21965    12783    257 |
|     92600 |     600    15298    30596 |    24162    21654    246 |
|     95173 |     600    15298    30596 |    26578    24541    249 |
> restarts              : 286
> decisions             : 167321  (0 % random)
> conflicts             : 96341
> propagations          : 1476036
> conflict literals     : 22804706  (11.6217 % deleted)
> Current optimal value 267 after 62746 ms
|     96341 |     600    15298    30596 |    13237    24407    250 |
|     96441 |     600    15298    30596 |    14560    13313    250 |
|     96591 |     600    15298    30596 |    16016    14442    251 |
|     96816 |     600    15298    30596 |    17618    16260    252 |
|     97156 |     600    15298    30596 |    19380    10731    244 |
|     97665 |     600    15298    30596 |    21318    16284    245 |
|     98428 |     600    15298    30596 |    23450    13607    244 |
|     99572 |     600    15298    30596 |    25795    13635    248 |
|    101287 |     600    15298    30596 |    28374    17566    247 |
|    103858 |     600    15298    30596 |    31212    28820    250 |
|    107703 |     600    15298    30596 |    34333    21324    260 |
> restarts              : 324
> decisions             : 188381  (0 % random)
> conflicts             : 108662
> propagations          : 1698625
> conflict literals     : 25596600  (11.755 % deleted)
> Current optimal value 266 after 71929 ms
|    108662 |     600    15298    30596 |    16252    33452    257 |
|    108763 |     600    15298    30596 |    17877     9805    238 |
|    108913 |     600    15298    30596 |    19664    11737    243 |
|    109139 |     600    15298    30596 |    21631    15008    245 |
> restarts              : 327
> decisions             : 189590  (0 % random)
> conflicts             : 109197
> propagations          : 1707500
> conflict literals     : 25721777  (11.7482 % deleted)
> Current optimal value 265 after 72251 ms
|    109197 |     600    15298    30596 |    10377    15828    246 |
|    109298 |     600    15298    30596 |    11415     9345    247 |
|    109449 |     600    15298    30596 |    12556    10876    246 |
> restarts              : 331
> decisions             : 190876  (0 % random)
> conflicts             : 109579
> propagations          : 1715720
> conflict literals     : 25810087  (11.7433 % deleted)
> Current optimal value 264 after 72478 ms
|    109579 |     600    15298    30596 |     9313    12637    246 |
|    109680 |     600    15298    30596 |    10245     7770    233 |
|    109830 |     600    15298    30596 |    11269     9416    238 |
|    110056 |     600    15298    30596 |    12396    11869    240 |
|    110393 |     600    15298    30596 |    13636     8940    252 |
|    110901 |     600    15298    30596 |    14999     8450    248 |
> restarts              : 337
> decisions             : 193821  (0 % random)
> conflicts             : 111133
> propagations          : 1742765
> conflict literals     : 26173325  (11.7132 % deleted)
> Current optimal value 263 after 73169 ms
|    111133 |     600    15298    30596 |     9012    11733    249 |
|    111234 |     600    15298    30596 |     9913     7430    237 |
|    111385 |     600    15298    30596 |    10904     9309    239 |
|    111611 |     600    15298    30596 |    11995     6373    243 |
> restarts              : 341
> decisions             : 195335  (0 % random)
> conflicts             : 111755
> propagations          : 1754698
> conflict literals     : 26318649  (11.699 % deleted)
> Current optimal value 262 after 73463 ms
|    111755 |     600    15298    30596 |     7861     8281    247 |
|    111855 |     600    15298    30596 |     8647     5405    245 |
|    112007 |     600    15298    30596 |     9512     7144    240 |
|    112233 |     600    15298    30596 |    10463     9744    242 |
|    112572 |     600    15298    30596 |    11510     8773    243 |
> restarts              : 348
> decisions             : 198065  (0 % random)
> conflicts             : 112927
> propagations          : 1777845
> conflict literals     : 26585912  (11.6889 % deleted)
> Current optimal value 261 after 74006 ms
|    112927 |     600    15298    30596 |     7412     6932    247 |
|    113028 |     600    15298    30596 |     8153     4344    232 |
|    113178 |     600    15298    30596 |     8968     5666    238 |
|    113403 |     600    15298    30596 |     9865     8446    245 |
|    113740 |     600    15298    30596 |    10851     7727    248 |
> restarts              : 350
> decisions             : 199340  (0 % random)
> conflicts             : 113763
> propagations          : 1792287
> conflict literals     : 26778536  (11.6753 % deleted)
> Current optimal value 260 after 74302 ms
|    113763 |     600    15298    30596 |     7817     8147    248 |
|    113863 |     600    15298    30596 |     8598     5400    243 |
> restarts              : 351
> decisions             : 199763  (0 % random)
> conflicts             : 113956
> propagations          : 1795823
> conflict literals     : 26823679  (11.6702 % deleted)
> Current optimal value 259 after 74386 ms
|    113956 |     600    15298    30596 |     7422     6964    247 |
|    114056 |     600    15298    30596 |     8164     4060    237 |
|    114206 |     600    15298    30596 |     8981     5947    243 |
> restarts              : 352
> decisions             : 200292  (0 % random)
> conflicts             : 114268
> propagations          : 1801865
> conflict literals     : 26894983  (11.6653 % deleted)
> Current optimal value 258 after 74503 ms
|    114268 |     600    15298    30596 |     7378     6830    245 |
|    114368 |     600    15298    30596 |     8115     4090    236 |
|    114518 |     600    15298    30596 |     8927     5712    242 |
|    114745 |     600    15298    30596 |     9820     8768    240 |
|    115084 |     600    15298    30596 |    10802     7473    236 |
|    115592 |     600    15298    30596 |    11882     7841    240 |
|    116356 |     600    15298    30596 |    13070    11265    237 |
> restarts              : 364
> decisions             : 205044  (0 % random)
> conflicts             : 116499
> propagations          : 1846813
> conflict literals     : 27387472  (11.6729 % deleted)
> Current optimal value 257 after 75479 ms
|    116499 |     600    15298    30596 |     9528    13280    240 |
|    116599 |     600    15298    30596 |    10480     7872    240 |
|    116751 |     600    15298    30596 |    11528     9844    237 |
|    116977 |     600    15298    30596 |    12681     6271    230 |
|    117317 |     600    15298    30596 |    13949     9870    229 |
|    117825 |     600    15298    30596 |    15344     7733    236 |
|    118589 |     600    15298    30596 |    16879     8090    229 |
|    119730 |     600    15298    30596 |    18567    11445    245 |
|    121440 |     600    15298    30596 |    20424    10085    243 |
|    124002 |     600    15298    30596 |    22466    15752    248 |
|    127847 |     600    15298    30596 |    24713    19143    247 |
|    133628 |     600    15298    30596 |    27184    17372    236 |
> restarts              : 405
> decisions             : 232491  (0 % random)
> conflicts             : 135066
> propagations          : 2228105
> conflict literals     : 31284889  (12.2102 % deleted)
> Current optimal value 256 after 87378 ms
|    135066 |     600    15298    30596 |    11864    20289    240 |
|    135166 |     600    15298    30596 |    13050    11361    235 |
|    135316 |     600    15298    30596 |    14355    12687    236 |
|    135543 |     600    15298    30596 |    15791     7804    229 |
|    135882 |     600    15298    30596 |    17370    11766    232 |
|    136390 |     600    15298    30596 |    19107    17478    235 |
|    137150 |     600    15298    30596 |    21018    15298    242 |
|    138290 |     600    15298    30596 |    23120    16452    246 |
|    140005 |     600    15298    30596 |    25432    22265    238 |
|    142579 |     600    15298    30596 |    27975    24635    238 |
|    146435 |     600    15298    30596 |    30773    23250    247 |
|    152216 |     600    15298    30596 |    33850    22172    234 |
> restarts              : 485
> decisions             : 274572  (0 % random)
> conflicts             : 159359
> propagations          : 2766358
> conflict literals     : 36358861  (12.6364 % deleted)
> Current optimal value 255 after 108537 ms
|    159359 |     600    15298    30596 |    15053    29857    241 |
|    159460 |     600    15298    30596 |    16559     8703    232 |
|    159611 |     600    15298    30596 |    18214    10410    232 |
|    159838 |     600    15298    30596 |    20036    12877    231 |
|    160176 |     600    15298    30596 |    22040    16159    233 |
|    160683 |     600    15298    30596 |    24244    21213    236 |
|    161445 |     600    15298    30596 |    26668    16630    236 |
|    162590 |     600    15298    30596 |    29335    14521    231 |
|    164304 |     600    15298    30596 |    32268    17017    237 |
|    166868 |     600    15298    30596 |    35495    27202    245 |
|    170713 |     600    15298    30596 |    39045    30563    247 |
|    176480 |     600    15298    30596 |    42949    27152    246 |
|    185129 |     600    15298    30596 |    47244    25292    245 |
|    198104 |     600    15298    30596 |    51969    37878    248 |
|    217583 |     600    15298    30596 |    57166    51617    237 |
|    246881 |     600    15298    30596 |    62882    55223    235 |
|    290792 |     600    15298    30596 |    69171    59399    234 |
|    356612 |     600    15298    30596 |    76088    52154    247 |
