Starting solving at 672 ms
>>> Search start
> Conflicts |          ORIGINAL         |          LEARNT          | Progress
>           |    Vars  Clauses Literals |    Limit  Clauses Lit/Cl |         
|         0 |     501    41420    82841 |    13808        0   -nan |
> restarts              : 1
> decisions             : 2123  (0 % random)
> conflicts             : 0
> propagations          : 4257
> conflict literals     : 0  (-nan % deleted)
> Current optimal value 500 after 840 ms
|         0 |    1001    42165    84330 |    14601     1634    237 |
> restarts              : 2
> decisions             : 2623  (0 % random)
> conflicts             : 0
> propagations          : 5258
> conflict literals     : 0  (-nan % deleted)
> Current optimal value 499 after 873 ms
|         0 |    1000    42165    84330 |    14669     1837    241 |
> restarts              : 3
> decisions             : 3122  (0 % random)
> conflicts             : 0
> propagations          : 6258
> conflict literals     : 0  (-nan % deleted)
> Current optimal value 498 after 906 ms
|         0 |    1000    42165    84330 |    14730     2021    243 |
> restarts              : 4
> decisions             : 3620  (0 % random)
> conflicts             : 0
> propagations          : 7258
> conflict literals     : 0  (-nan % deleted)
> Current optimal value 497 after 935 ms
|         0 |    1000    42165    84330 |    14765     2126    245 |
> restarts              : 5
> decisions             : 4117  (0 % random)
> conflicts             : 0
> propagations          : 8258
> conflict literals     : 0  (-nan % deleted)
> Current optimal value 496 after 965 ms
|         0 |    1000    42165    84330 |    14815     2274    247 |
> restarts              : 6
> decisions             : 4613  (0 % random)
> conflicts             : 0
> propagations          : 9258
> conflict literals     : 0  (-nan % deleted)
> Current optimal value 495 after 993 ms
|         0 |    1000    42165    84330 |    14843     2360    248 |
> restarts              : 7
> decisions             : 5108  (0 % random)
> conflicts             : 0
> propagations          : 10258
> conflict literals     : 0  (-nan % deleted)
> Current optimal value 494 after 1024 ms
|         0 |    1000    42165    84330 |    14893     2508    250 |
> restarts              : 8
> decisions             : 5602  (0 % random)
> conflicts             : 0
> propagations          : 11258
> conflict literals     : 0  (-nan % deleted)
> Current optimal value 493 after 1052 ms
|         0 |    1000    42165    84330 |    14919     2587    251 |
> restarts              : 9
> decisions             : 6095  (0 % random)
> conflicts             : 0
> propagations          : 12258
> conflict literals     : 0  (-nan % deleted)
> Current optimal value 492 after 1081 ms
|         0 |    1000    42165    84330 |    14955     2696    253 |
> restarts              : 10
> decisions             : 6587  (0 % random)
> conflicts             : 0
> propagations          : 13258
> conflict literals     : 0  (-nan % deleted)
> Current optimal value 491 after 1108 ms
|         0 |    1000    42165    84330 |    14978     2765    255 |
> restarts              : 11
> decisions             : 7079  (0 % random)
> conflicts             : 1
> propagations          : 14262
> conflict literals     : 491  (0 % deleted)
> Current optimal value 490 after 1137 ms
|         1 |    1000    42165    84330 |    15012     2867    257 |
> restarts              : 12
> decisions             : 7571  (0 % random)
> conflicts             : 2
> propagations          : 15267
> conflict literals     : 981  (0 % deleted)
> Current optimal value 489 after 1164 ms
|         2 |    1000    42165    84330 |    15036     2938    259 |
> restarts              : 13
> decisions             : 8061  (0 % random)
> conflicts             : 3
> propagations          : 16273
> conflict literals     : 1470  (0 % deleted)
> Current optimal value 488 after 1192 ms
|         3 |    1000    42165    84330 |    15070     3041    261 |
> restarts              : 14
> decisions             : 8551  (0 % random)
> conflicts             : 4
> propagations          : 17278
> conflict literals     : 1958  (0 % deleted)
> Current optimal value 487 after 1219 ms
|         4 |    1000    42165    84330 |    15092     3106    263 |
> restarts              : 15
> decisions             : 9040  (0 % random)
> conflicts             : 5
> propagations          : 18284
> conflict literals     : 2445  (0 % deleted)
> Current optimal value 486 after 1248 ms
|         5 |    1000    42165    84330 |    15128     3214    263 |
> restarts              : 16
> decisions             : 9528  (0 % random)
> conflicts             : 6
> propagations          : 19289
> conflict literals     : 2931  (0 % deleted)
> Current optimal value 485 after 1275 ms
|         6 |    1000    42165    84330 |    15148     3274    265 |
> restarts              : 17
> decisions             : 10016  (0 % random)
> conflicts             : 7
> propagations          : 20294
> conflict literals     : 3416  (0 % deleted)
> Current optimal value 484 after 1303 ms
|         7 |    1000    42165    84330 |    15178     3365    266 |
> restarts              : 18
> decisions             : 10503  (0 % random)
> conflicts             : 8
> propagations          : 21299
> conflict literals     : 3900  (0 % deleted)
> Current optimal value 483 after 1329 ms
|         8 |    1000    42165    84330 |    15194     3413    267 |
> restarts              : 19
> decisions             : 11010  (0 % random)
> conflicts             : 31
> propagations          : 22461
> conflict literals     : 14954  (0.200214 % deleted)
> Current optimal value 482 after 1366 ms
|        31 |    1000    42165    84330 |    15335     3834    288 |
> restarts              : 20
> decisions             : 11511  (0 % random)
> conflicts             : 51
> propagations          : 23639
> conflict literals     : 24540  (0.256066 % deleted)
> Current optimal value 481 after 1403 ms
|        51 |    1000    42165    84330 |    15470     4240    304 |
> restarts              : 21
> decisions             : 12003  (0 % random)
> conflicts             : 63
> propagations          : 24748
> conflict literals     : 30276  (0.286533 % deleted)
> Current optimal value 480 after 1435 ms
|        63 |    1000    42165    84330 |    15565     4526    313 |
> restarts              : 23
> decisions             : 13010  (0 % random)
> conflicts             : 116
> propagations          : 27283
> conflict literals     : 55051  (0.381818 % deleted)
> Current optimal value 479 after 1518 ms
|       116 |    1000    42165    84330 |    15946     5668    343 |
> restarts              : 24
> decisions             : 13587  (0 % random)
> conflicts             : 207
> propagations          : 29249
> conflict literals     : 98222  (0.510504 % deleted)
> Current optimal value 478 after 1593 ms
|       207 |    1000    42165    84330 |    16570     7541    376 |
> restarts              : 25
> decisions             : 14160  (0 % random)
> conflicts             : 302
> propagations          : 31407
> conflict literals     : 143187  (0.57494 % deleted)
> Current optimal value 477 after 1669 ms
|       302 |    1000    42165    84330 |    17231     9523    396 |
|       402 |    1000    42165    84330 |    18954    11654    410 |
> restarts              : 27
> decisions             : 15342  (0 % random)
> conflicts             : 526
> propagations          : 35843
> conflict literals     : 248006  (0.816643 % deleted)
> Current optimal value 476 after 1880 ms
|       526 |    1000    42165    84330 |    18714    13971    421 |
|       627 |    1000    42165    84330 |    20585    15865    427 |
> restarts              : 29
> decisions             : 16418  (0 % random)
> conflicts             : 654
> propagations          : 39266
> conflict literals     : 307483  (0.894417 % deleted)
> Current optimal value 475 after 2009 ms
|       654 |    1000    42165    84330 |    19519    16387    428 |
|       754 |    1000    42165    84330 |    21471    18335    433 |
|       905 |    1000    42165    84330 |    23618    20847    432 |
|      1130 |    1000    42165    84330 |    25980    22670    436 |
|      1467 |    1000    42165    84330 |    28578    25428    439 |
> restarts              : 31
> decisions             : 18260  (0 % random)
> conflicts             : 1586
> propagations          : 56677
> conflict literals     : 721603  (3.45647 % deleted)
> Current optimal value 474 after 4210 ms
|      1586 |    1000    42165    84330 |    22917    26580    441 |
|      1687 |    1000    42165    84330 |    25208    15117    451 |
|      1839 |    1000    42165    84330 |    27729    17230    441 |
|      2065 |    1000    42165    84330 |    30502    19689    439 |
|      2405 |    1000    42165    84330 |    33552    24347    432 |
|      2913 |    1000    42165    84330 |    36908    28998    430 |
|      3677 |    1000    42165    84330 |    40598    20014    420 |
|      4818 |    1000    42165    84330 |    44658    33394    434 |
> restarts              : 51
> decisions             : 30606  (0 % random)
> conflicts             : 5285
> propagations          : 132027
> conflict literals     : 2311870  (6.45122 % deleted)
> Current optimal value 473 after 11561 ms
|      5285 |    1000    42165    84330 |    27757    41101    433 |
|      5386 |    1000    42165    84330 |    30533    22743    436 |
|      5537 |    1000    42165    84330 |    33586    24761    435 |
|      5762 |    1000    42165    84330 |    36945    27040    438 |
|      6102 |    1000    42165    84330 |    40639    31851    432 |
> restarts              : 57
> decisions             : 34231  (0 % random)
> conflicts             : 6249
> propagations          : 151725
> conflict literals     : 2732308  (6.41576 % deleted)
> Current optimal value 472 after 13530 ms
|      6249 |    1000    42165    84330 |    25364    33921    435 |
|      6350 |    1000    42165    84330 |    27900    18890    417 |
|      6501 |    1000    42165    84330 |    30690    20496    416 |
|      6727 |    1000    42165    84330 |    33759    22988    417 |
|      7065 |    1000    42165    84330 |    37135    26997    421 |
|      7571 |    1000    42165    84330 |    40848    32739    429 |
|      8331 |    1000    42165    84330 |    44933    21100    457 |
|      9471 |    1000    42165    84330 |    49427    36320    460 |
|     11179 |    1000    42165    84330 |    54369    31079    465 |
|     13748 |    1000    42165    84330 |    59806    35975    447 |
|     17613 |    1000    42165    84330 |    65787    59984    431 |
|     23397 |    1000    42165    84330 |    72366    38237    428 |
> restarts              : 114
> decisions             : 77145  (0 % random)
> conflicts             : 24206
> propagations          : 457951
> conflict literals     : 10410189  (7.57522 % deleted)
> Current optimal value 471 after 51314 ms
|     24206 |    1000    42165    84330 |    29773    47148    426 |
|     24307 |    1000    42165    84330 |    32750    25393    423 |
|     24457 |    1000    42165    84330 |    36025    26650    425 |
|     24683 |    1000    42165    84330 |    39627    28808    424 |
|     25022 |    1000    42165    84330 |    43590    33199    424 |
|     25532 |    1000    42165    84330 |    47949    41309    422 |
|     26293 |    1000    42165    84330 |    52744    27034    430 |
|     27433 |    1000    42165    84330 |    58019    42181    441 |
|     29142 |    1000    42165    84330 |    63821    37409    462 |
|     31705 |    1000    42165    84330 |    70203    39738    461 |
|     35549 |    1000    42165    84330 |    77223    56732    466 |
|     41331 |    1000    42165    84330 |    84945    65970    443 |
|     50016 |    1000    42165    84330 |    93440    58402    431 |
|     63031 |    1000    42165    84330 |   102784    59853    442 |
> restarts              : 238
> decisions             : 176200  (0 % random)
> conflicts             : 68597
> propagations          : 1111371
> conflict literals     : 29687693  (6.9896 % deleted)
> Current optimal value 470 after 168174 ms
|     68597 |    1000    42165    84330 |    46069    96036    449 |
|     68698 |    1000    42165    84330 |    50675    25809    438 |
|     68849 |    1000    42165    84330 |    55743    27737    437 |
|     69076 |    1000    42165    84330 |    61317    30990    433 |
|     69414 |    1000    42165    84330 |    67449    36604    435 |
|     69923 |    1000    42165    84330 |    74194    45722    435 |
|     70686 |    1000    42165    84330 |    81614    59116    435 |
|     71827 |    1000    42165    84330 |    89775    75003    439 |
|     73536 |    1000    42165    84330 |    98752    52528    454 |
|     76098 |    1000    42165    84330 |   108628    88984    460 |
|     79943 |    1000    42165    84330 |   119491    90726    467 |
|     85710 |    1000    42165    84330 |   131440   106452    465 |
|     94359 |    1000    42165    84330 |   144584   115564    467 |
|    107384 |    1000    42165    84330 |   159042   116280    443 |
> restarts              : 308
> decisions             : 246826  (0 % random)
> conflicts             : 107491
> propagations          : 1611675
> conflict literals     : 46636466  (6.76364 % deleted)
> Current optimal value 469 after 253980 ms
|    107491 |    1000    42165    84330 |    53460   118210    442 |
|    107591 |    1000    42165    84330 |    58806    31366    435 |
|    107743 |    1000    42165    84330 |    64687    34431    431 |
|    107969 |    1000    42165    84330 |    71155    37822    432 |
|    108309 |    1000    42165    84330 |    78271    44014    430 |
|    108817 |    1000    42165    84330 |    86098    53140    432 |
|    109576 |    1000    42165    84330 |    94708    64081    438 |
|    110716 |    1000    42165    84330 |   104179    81425    443 |
|    112425 |    1000    42165    84330 |   114596    57118    463 |
|    114992 |    1000    42165    84330 |   126056    99196    460 |
|    118854 |    1000    42165    84330 |   138662    97624    442 |
|    124642 |    1000    42165    84330 |   152528   116000    439 |
> restarts              : 382
> decisions             : 304540  (0 % random)
> conflicts             : 131952
> propagations          : 1972901
> conflict literals     : 57317131  (6.57464 % deleted)
> Current optimal value 468 after 341618 ms
|    131952 |    1000    42165    84330 |    61138   141243    444 |
|    132052 |    1000    42165    84330 |    67251    36479    457 |
|    132202 |    1000    42165    84330 |    73976    38334    457 |
|    132427 |    1000    42165    84330 |    81374    41011    458 |
|    132764 |    1000    42165    84330 |    89512    45454    458 |
|    133270 |    1000    42165    84330 |    98463    51032    459 |
|    134033 |    1000    42165    84330 |   108309    60354    453 |
> restarts              : 389
> decisions             : 309816  (0 % random)
> conflicts             : 134296
> propagations          : 2013927
> conflict literals     : 58302010  (6.61562 % deleted)
> Current optimal value 467 after 345729 ms
|    134296 |    1000    42165    84330 |    35534    64431    450 |
|    134396 |    1000    42165    84330 |    39087    33739    437 |
> restarts              : 390
> decisions             : 310356  (0 % random)
> conflicts             : 134396
> propagations          : 2016390
> conflict literals     : 58344701  (6.61646 % deleted)
> Current optimal value 466 after 345857 ms
|    134396 |    1000    42165    84330 |    25312    33765    437 |
|    134497 |    1000    42165    84330 |    27843    18603    409 |
|    134648 |    1000    42165    84330 |    30627    20772    409 |
|    134875 |    1000    42165    84330 |    33690    23666    407 |
|    135214 |    1000    42165    84330 |    37059    27938    408 |
|    135721 |    1000    42165    84330 |    40765    33903    415 |
|    136482 |    1000    42165    84330 |    44841    22297    431 |
|    137628 |    1000    42165    84330 |    49325    38735    426 |
|    139342 |    1000    42165    84330 |    54258    36411    431 |
|    141912 |    1000    42165    84330 |    59684    42840    442 |
|    145774 |    1000    42165    84330 |    65652    35270    428 |
|    151547 |    1000    42165    84330 |    72218    39562    459 |
> restarts              : 454
> decisions             : 357022  (0 % random)
> conflicts             : 153567
> propagations          : 2353322
> conflict literals     : 66544343  (6.64782 % deleted)
> Current optimal value 465 after 384341 ms
|    153567 |    1000    42165    84330 |    36544    67462    448 |
|    153668 |    1000    42165    84330 |    40198    35735    431 |
|    153819 |    1000    42165    84330 |    44218    37773    430 |
|    154046 |    1000    42165    84330 |    48640    41220    428 |
|    154384 |    1000    42165    84330 |    53504    46669    429 |
|    154891 |    1000    42165    84330 |    58855    54441    432 |
|    155653 |    1000    42165    84330 |    64740    35529    428 |
|    156798 |    1000    42165    84330 |    71214    51043    426 |
|    158512 |    1000    42165    84330 |    78336    40688    432 |
|    161082 |    1000    42165    84330 |    86169    75980    435 |
> restarts              : 492
> decisions             : 383007  (0 % random)
> conflicts             : 163109
> propagations          : 2522818
> conflict literals     : 70622457  (6.64732 % deleted)
> Current optimal value 464 after 409238 ms
|    163109 |    1000    42165    84330 |    34664    61821    436 |
|    163209 |    1000    42165    84330 |    38130    32258    430 |
|    163359 |    1000    42165    84330 |    41943    34392    432 |
|    163586 |    1000    42165    84330 |    46137    38279    430 |
|    163926 |    1000    42165    84330 |    50751    42779    426 |
|    164433 |    1000    42165    84330 |    55826    48977    428 |
|    165198 |    1000    42165    84330 |    61409    32163    416 |
|    166339 |    1000    42165    84330 |    67550    49254    428 |
|    168048 |    1000    42165    84330 |    74305    37657    454 |
> restarts              : 509
> decisions             : 397622  (0 % random)
> conflicts             : 170541
> propagations          : 2637977
> conflict literals     : 73766403  (6.69263 % deleted)
> Current optimal value 463 after 421836 ms
|    170541 |    1000    42165    84330 |    38153    72289    456 |
|    170641 |    1000    42165    84330 |    41968    37683    453 |
|    170791 |    1000    42165    84330 |    46165    39461    454 |
|    171016 |    1000    42165    84330 |    50782    42009    454 |
|    171354 |    1000    42165    84330 |    55860    46595    452 |
|    171860 |    1000    42165    84330 |    61446    52811    453 |
|    172619 |    1000    42165    84330 |    67590    62033    454 |
|    173758 |    1000    42165    84330 |    74350    42775    453 |
|    175466 |    1000    42165    84330 |    81785    65228    456 |
|    178028 |    1000    42165    84330 |    89963    59436    457 |
|    181872 |    1000    42165    84330 |    98959    62280    457 |
> restarts              : 512
> decisions             : 415183  (0 % random)
> conflicts             : 186812
> propagations          : 2853599
> conflict literals     : 80675148  (6.75644 % deleted)
> Current optimal value 462 after 451944 ms
|    186812 |    1000    42165    84330 |    43134    87231    459 |
|    186912 |    1000    42165    84330 |    47447    23561    453 |
|    187062 |    1000    42165    84330 |    52192    26221    454 |
> restarts              : 513
> decisions             : 415916  (0 % random)
> conflicts             : 187100
> propagations          : 2857888
> conflict literals     : 80802561  (6.75154 % deleted)
> Current optimal value 461 after 452300 ms
|    187100 |    1000    42165    84330 |    23040    26951    455 |
|    187200 |    1000    42165    84330 |    25344    15227    442 |
|    187350 |    1000    42165    84330 |    27879    17265    444 |
|    187575 |    1000    42165    84330 |    30667    21840    447 |
|    187912 |    1000    42165    84330 |    33733    28254    450 |
> restarts              : 514
> decisions             : 417294  (0 % random)
> conflicts             : 188035
> propagations          : 2869128
> conflict literals     : 81214527  (6.73676 % deleted)
> Current optimal value 460 after 453382 ms
|    188035 |    1000    42165    84330 |    24215    30474    451 |
|    188135 |    1000    42165    84330 |    26636    17269    449 |
|    188285 |    1000    42165    84330 |    29300    19121    450 |
|    188510 |    1000    42165    84330 |    32230    21985    451 |
|    188847 |    1000    42165    84330 |    35453    26779    453 |
> restarts              : 515
> decisions             : 418824  (0 % random)
> conflicts             : 189132
> propagations          : 2884140
> conflict literals     : 81691093  (6.72535 % deleted)
> Current optimal value 459 after 454760 ms
|    189132 |    1000    42165    84330 |    24657    31800    454 |
|    189232 |    1000    42165    84330 |    27122    17639    448 |
|    189382 |    1000    42165    84330 |    29834    19833    449 |
|    189607 |    1000    42165    84330 |    32818    23656    451 |
> restarts              : 516
> decisions             : 419920  (0 % random)
> conflicts             : 189789
> propagations          : 2892887
> conflict literals     : 81976149  (6.71876 % deleted)
> Current optimal value 458 after 455574 ms
|    189789 |    1000    42165    84330 |    22889    26498    451 |
|    189889 |    1000    42165    84330 |    25178    14945    438 |
|    190039 |    1000    42165    84330 |    27696    17606    441 |
> restarts              : 517
> decisions             : 420665  (0 % random)
> conflicts             : 190099
> propagations          : 2897739
> conflict literals     : 82109847  (6.71605 % deleted)
> Current optimal value 457 after 455933 ms
|    190099 |    1000    42165    84330 |    20329    18818    442 |
|    190199 |    1000    42165    84330 |    22362    20158    438 |
|    190349 |    1000    42165    84330 |    24598    22313    440 |
|    190574 |    1000    42165    84330 |    27058    13441    442 |
|    190911 |    1000    42165    84330 |    29764    18809    446 |
> restarts              : 518
> decisions             : 422004  (0 % random)
> conflicts             : 190985
> propagations          : 2910259
> conflict literals     : 82492823  (6.70632 % deleted)
> Current optimal value 456 after 456910 ms
|    190985 |    1000    42165    84330 |    20828    20313    447 |
|    191085 |    1000    42165    84330 |    22910    11097    439 |
|    191235 |    1000    42165    84330 |    25201    13418    441 |
|    191460 |    1000    42165    84330 |    27722    16877    444 |
> restarts              : 519
> decisions             : 422993  (0 % random)
> conflicts             : 191550
> propagations          : 2918803
> conflict literals     : 82734573  (6.70219 % deleted)
> Current optimal value 455 after 457492 ms
|    191550 |    1000    42165    84330 |    20286    18687    445 |
|    191650 |    1000    42165    84330 |    22314    20741    441 |
|    191800 |    1000    42165    84330 |    24546    23073    443 |
|    192025 |    1000    42165    84330 |    27000    13877    441 |
> restarts              : 520
> decisions             : 424005  (0 % random)
> conflicts             : 192138
> propagations          : 2927797
> conflict literals     : 82986767  (6.69669 % deleted)
> Current optimal value 454 after 458273 ms
|    192138 |    1000    42165    84330 |    19332    15825    442 |
|    192238 |    1000    42165    84330 |    21265    17655    438 |
> restarts              : 521
> decisions             : 424645  (0 % random)
> conflicts             : 192352
> propagations          : 2931805
> conflict literals     : 83078073  (6.69489 % deleted)
> Current optimal value 453 after 458567 ms
|    192352 |    1000    42165    84330 |    20461    19214    439 |
|    192452 |    1000    42165    84330 |    22507    20615    435 |
|    192602 |    1000    42165    84330 |    24758    22508    436 |
|    192827 |    1000    42165    84330 |    27234    25545    438 |
|    193164 |    1000    42165    84330 |    29957    15591    434 |
|    193670 |    1000    42165    84330 |    32953    22088    439 |
|    194429 |    1000    42165    84330 |    36249    32047    443 |
|    195568 |    1000    42165    84330 |    39873    28565    444 |
|    197276 |    1000    42165    84330 |    43861    30066    444 |
|    199838 |    1000    42165    84330 |    48247    23111    443 |
> restarts              : 522
> decisions             : 433269  (0 % random)
> conflicts             : 200570
> propagations          : 3061135
> conflict literals     : 86495710  (6.71261 % deleted)
> Current optimal value 452 after 471183 ms
|    200570 |    1000    42165    84330 |    25188    33393    445 |
> restarts              : 523
> decisions             : 433759  (0 % random)
> conflicts             : 200641
> propagations          : 3063354
> conflict literals     : 86526096  (6.7117 % deleted)
> Current optimal value 451 after 471324 ms
|    200641 |    1000    42165    84330 |    20042    17956    440 |
|    200741 |    1000    42165    84330 |    22046    19461    436 |
|    200891 |    1000    42165    84330 |    24251    21816    437 |
|    201116 |    1000    42165    84330 |    26676    25076    439 |
> restarts              : 524
> decisions             : 434664  (0 % random)
> conflicts             : 201134
> propagations          : 3071940
> conflict literals     : 86735568  (6.707 % deleted)
> Current optimal value 450 after 471808 ms
|    201134 |    1000    42165    84330 |    22550    25481    439 |
|    201234 |    1000    42165    84330 |    24805    14709    423 |
|    201384 |    1000    42165    84330 |    27286    17068    427 |
|    201609 |    1000    42165    84330 |    30014    21039    431 |
> restarts              : 525
> decisions             : 435620  (0 % random)
> conflicts             : 201668
> propagations          : 3080184
> conflict literals     : 86961540  (6.70282 % deleted)
> Current optimal value 449 after 472322 ms
|    201668 |    1000    42165    84330 |    21410    22060    432 |
|    201768 |    1000    42165    84330 |    23551    12514    427 |
|    201918 |    1000    42165    84330 |    25906    14407    430 |
|    202143 |    1000    42165    84330 |    28497    17269    433 |
|    202480 |    1000    42165    84330 |    31346    21448    435 |
|    202986 |    1000    42165    84330 |    34481    27825    438 |
> restarts              : 526
> decisions             : 437575  (0 % random)
> conflicts             : 203219
> propagations          : 3107478
> conflict literals     : 87602244  (6.70395 % deleted)
> Current optimal value 448 after 474262 ms
|    203219 |    1000    42165    84330 |    24571    31543    439 |
|    203319 |    1000    42165    84330 |    27028    17314    436 |
|    203469 |    1000    42165    84330 |    29731    18938    437 |
|    203694 |    1000    42165    84330 |    32704    21583    438 |
|    204031 |    1000    42165    84330 |    35974    25826    439 |
|    204537 |    1000    42165    84330 |    39572    33005    441 |
> restarts              : 527
> decisions             : 439925  (0 % random)
> conflicts             : 205169
> propagations          : 3141601
> conflict literals     : 88403184  (6.70799 % deleted)
> Current optimal value 447 after 477390 ms
|    205169 |    1000    42165    84330 |    21705    22946    438 |
|    205269 |    1000    42165    84330 |    23876    12848    431 |
|    205419 |    1000    42165    84330 |    26263    15016    433 |
> restarts              : 528
> decisions             : 440751  (0 % random)
> conflicts             : 205592
> propagations          : 3150439
> conflict literals     : 88577937  (6.70746 % deleted)
> Current optimal value 446 after 477884 ms
|    205592 |    1000    42165    84330 |    20045    17965    435 |
|    205692 |    1000    42165    84330 |    22049    19451    431 |
|    205842 |    1000    42165    84330 |    24254    21769    432 |
> restarts              : 529
> decisions             : 441628  (0 % random)
> conflicts             : 206060
> propagations          : 3159568
> conflict literals     : 88771044  (6.70666 % deleted)
> Current optimal value 445 after 478628 ms
|    206060 |    1000    42165    84330 |    18395    13015    430 |
|    206160 |    1000    42165    84330 |    20234    14392    425 |
|    206310 |    1000    42165    84330 |    22258    16924    428 |
|    206535 |    1000    42165    84330 |    24484    20138    430 |
> restarts              : 530
> decisions             : 442620  (0 % random)
> conflicts             : 206653
> propagations          : 3171191
> conflict literals     : 89014441  (6.70639 % deleted)
> Current optimal value 444 after 479234 ms
|    206653 |    1000    42165    84330 |    21302    21735    431 |
|    206753 |    1000    42165    84330 |    23432    12501    421 |
|    206903 |    1000    42165    84330 |    25775    14313    423 |
|    207128 |    1000    42165    84330 |    28352    17163    426 |
|    207465 |    1000    42165    84330 |    31188    21503    429 |
> restarts              : 531
> decisions             : 444177  (0 % random)
> conflicts             : 207808
> propagations          : 3194907
> conflict literals     : 89481177  (6.71136 % deleted)
> Current optimal value 443 after 480040 ms
|    207808 |    1000    42165    84330 |    22913    26568    432 |
|    207908 |    1000    42165    84330 |    25204    14842    429 |
|    208058 |    1000    42165    84330 |    27724    16516    430 |
|    208283 |    1000    42165    84330 |    30497    18983    431 |
|    208620 |    1000    42165    84330 |    33546    22949    433 |
|    209126 |    1000    42165    84330 |    36901    28246    434 |
|    209886 |    1000    42165    84330 |    40591    36724    433 |
|    211032 |    1000    42165    84330 |    44650    32540    414 |
|    212743 |    1000    42165    84330 |    49116    29201    414 |
|    215315 |    1000    42165    84330 |    54027    37273    411 |
|    219178 |    1000    42165    84330 |    59430    38271    403 |
> restarts              : 572
> decisions             : 472273  (0 % random)
> conflicts             : 219389
> propagations          : 3481952
> conflict literals     : 94042370  (6.83179 % deleted)
> Current optimal value 442 after 500884 ms
|    219389 |    1000    42165    84330 |    28067    42030    406 |
|    219489 |    1000    42165    84330 |    30873    22523    401 |
|    219640 |    1000    42165    84330 |    33961    24344    400 |
|    219865 |    1000    42165    84330 |    37357    27248    404 |
|    220202 |    1000    42165    84330 |    41092    31046    408 |
|    220708 |    1000    42165    84330 |    45202    36362    412 |
|    221468 |    1000    42165    84330 |    49722    45617    416 |
|    222607 |    1000    42165    84330 |    54694    33928    432 |
|    224316 |    1000    42165    84330 |    60164    53103    432 |
|    226892 |    1000    42165    84330 |    66180    56367    412 |
|    230752 |    1000    42165    84330 |    72798    37672    405 |
|    236540 |    1000    42165    84330 |    80078    65209    404 |
|    245200 |    1000    42165    84330 |    88086    46200    434 |
