Starting solving at 72 ms
>>> Search start
> Conflicts |          ORIGINAL         |          LEARNT          | Progress
>           |    Vars  Clauses Literals |    Limit  Clauses Lit/Cl |         
> restarts              : 1
> decisions             : 121  (0 % random)
> conflicts             : 0
> propagations          : 266
> conflict literals     : 0  (-nan % deleted)
> 1 model found
>>> Search done
nrmodels&&1
total-solving-time0 ms
First objective value: 0 at 74 ms
DETECTED HARD NEIGHBORHOODS: 
InKnapSack/0 <- 83 64 14 36 
InKnapSack/0 <- 53 52 
InKnapSack/0 <- 115 51 
InKnapSack/0 <- 73 37 
InKnapSack/0 <- 72 57 16 
InKnapSack/0 <- 81 87 
InKnapSack/0 <- 65 23 
InKnapSack/0 <- 90 29 
InKnapSack/0 <- 92 17 
InKnapSack/0 <- 85 61 71 
InKnapSack/0 <- 55 4 
InKnapSack/0 <- 108 18 79 
InKnapSack/0 <- 82 69 112 44 
InKnapSack/0 <- 63 97 
InKnapSack/0 <- 43 98 
InKnapSack/0 <- 38 100 
InKnapSack/0 <- 89 39 120 
InKnapSack/0 <- 84 116 
InKnapSack/0 <- 32 114 
InKnapSack/0 <- 105 12 111 
InKnapSack/0 <- 22 107 
InKnapSack/0 <- 109 9 103 
InKnapSack/0 <- 1 101 
InKnapSack/0 <- 10 34 74 
InKnapSack/0 <- 62 30 
InKnapSack/0 <- 19 26 28 
InKnapSack/0 <- 66 76 56 8 
InKnapSack/0 <- 60 27 
InKnapSack/0 <- 15 35 
InKnapSack/0 <- 59 24 
InKnapSack/0 <- 67 47 
InKnapSack/0 <- 50 7 
InKnapSack/0 <- 2 5 
InKnapSack/0 <- 77 88 20 
InKnapSack/0 <- 91 25 
Starting local search at 135 ms
Initial objective value: 0 at 136 ms
Strengthened objective value: 0 at 164 ms
Starting solving at 885 ms
>>> Search start
> restarts              : 1
> decisions             : 5  (0 % random)
> conflicts             : 0
> propagations          : 55449
> conflict literals     : 0  (-nan % deleted)
> 1 model found
>>> Search done
nrmodels&&1
total-solving-time4 ms
Starting local search at 981 ms
Initial objective value: -37 at 982 ms
Strengthened objective value: -46 at 1065 ms
Starting solving at 1785 ms
>>> Search start
> restarts              : 1
> decisions             : 9  (0 % random)
> conflicts             : 1
> propagations          : 55486
> conflict literals     : 83  (0 % deleted)
> 1 model found
>>> Search done
nrmodels&&1
total-solving-time5 ms
Starting local search at 1880 ms
Initial objective value: -55 at 1881 ms
Strengthened objective value: -70 at 1954 ms
Starting solving at 2677 ms
>>> Search start
> restarts              : 1
> decisions             : 16  (0 % random)
> conflicts             : 4
> propagations          : 55548
> conflict literals     : 374  (0.266667 % deleted)
> 1 model found
>>> Search done
nrmodels&&1
total-solving-time5 ms
Starting local search at 2775 ms
Initial objective value: -88 at 2776 ms
Strengthened objective value: -123 at 2858 ms
Starting solving at 3581 ms
>>> Search start
|       101 |     120        0        0 |    15242      182     96 |
> restarts              : 2
> decisions             : 137  (0 % random)
> conflicts             : 101
> propagations          : 56965
> conflict literals     : 9238  (7.0156 % deleted)
> 1 model found
>>> Search done
nrmodels&&1
total-solving-time19 ms
Starting local search at 3696 ms
Initial objective value: -126 at 3698 ms
Strengthened objective value: -197 at 3758 ms
Starting solving at 4494 ms
>>> Search start
|       101 |     120        0        0 |    15545      164     82 |
|       252 |     120        0        0 |    17100      412     82 |
|       478 |     120        0        0 |    18810      816     83 |
|       818 |     120        0        0 |    20691     1408     81 |
|      1326 |     120        0        0 |    22760     2246     81 |
|      2090 |     120        0        0 |    25036     3556     81 |
|      3231 |     120        0        0 |    27540     5464     81 |
|      4950 |     120        0        0 |    30294     8384     81 |
|      7517 |     120        0        0 |    33324    12536     81 |
> restarts              : 46
> decisions             : 13601  (0 % random)
> conflicts             : 10226
> propagations          : 230074
> conflict literals     : 834304  (9.31015 % deleted)
> 1 model found
>>> Search done
nrmodels&&1
total-solving-time1839 ms
Starting local search at 6426 ms
Initial objective value: -198 at 6427 ms
Strengthened objective value: -217 at 6506 ms
Starting solving at 7233 ms
>>> Search start
|       101 |     120        0        0 |    15849      165     71 |
|       252 |     120        0        0 |    17434      437     78 |
|       478 |     120        0        0 |    19177      802     76 |
|       818 |     120        0        0 |    21095     1381     77 |
|      1326 |     120        0        0 |    23205     2211     77 |
|      2090 |     120        0        0 |    25525     3483     77 |
|      3231 |     120        0        0 |    28078     5389     77 |
|      4950 |     120        0        0 |    30886     8284     78 |
|      7517 |     120        0        0 |    33974    12234     78 |
|     11377 |     120        0        0 |    37372    18270     78 |
|     17159 |     120        0        0 |    41109    27472     78 |
|     25839 |     120        0        0 |    45220    41024     78 |
|     38846 |     120        0        0 |    49742    61225     78 |
|     58367 |     120        0        0 |    54716    91463     78 |
|     87626 |     120        0        0 |    60188    46818     77 |
|    131523 |     120        0        0 |    66207   114046     77 |
|    197355 |     120        0        0 |    72828   113350     77 |
|    296082 |     120        0        0 |    80110    47095     78 |
|    444182 |     120        0        0 |    88122    41839     75 |
|    666279 |     120        0        0 |    96934   128427     77 |
|    999414 |     120        0        0 |   106627   102140     71 |
|   1499096 |     120        0        0 |   117290   152842     78 |
