Starting solving at 73 ms
>>> Search start
> Conflicts |          ORIGINAL         |          LEARNT          | Progress
>           |    Vars  Clauses Literals |    Limit  Clauses Lit/Cl |         
> restarts              : 1
> decisions             : 131  (0 % random)
> conflicts             : 0
> propagations          : 284
> conflict literals     : 0  (-nan % deleted)
> 1 model found
>>> Search done
nrmodels&&1
total-solving-time0 ms
First objective value: 0 at 74 ms
DETECTED HARD NEIGHBORHOODS: 
InKnapSack/0 <- 95 77 18 
InKnapSack/0 <- 63 101 
InKnapSack/0 <- 78 62 
InKnapSack/0 <- 59 53 91 
InKnapSack/0 <- 123 44 37 
InKnapSack/0 <- 93 29 
InKnapSack/0 <- 85 104 
InKnapSack/0 <- 51 17 
InKnapSack/0 <- 28 45 41 
InKnapSack/0 <- 1 4 
InKnapSack/0 <- 5 98 
InKnapSack/0 <- 112 25 99 
InKnapSack/0 <- 3 102 
InKnapSack/0 <- 92 14 105 
InKnapSack/0 <- 39 106 
InKnapSack/0 <- 84 26 108 
InKnapSack/0 <- 47 127 128 
InKnapSack/0 <- 23 126 
InKnapSack/0 <- 22 107 125 
InKnapSack/0 <- 64 121 
InKnapSack/0 <- 86 115 117 
InKnapSack/0 <- 103 109 111 
InKnapSack/0 <- 118 110 
InKnapSack/0 <- 70 30 
InKnapSack/0 <- 49 94 
InKnapSack/0 <- 74 8 11 
InKnapSack/0 <- 75 42 43 
InKnapSack/0 <- 12 58 
InKnapSack/0 <- 73 130 
InKnapSack/0 <- 40 129 
InKnapSack/0 <- 61 24 
InKnapSack/0 <- 69 50 15 6 34 
InKnapSack/0 <- 120 21 72 
InKnapSack/0 <- 57 89 20 114 
InKnapSack/0 <- 71 46 
InKnapSack/0 <- 2 32 56 
Starting local search at 148 ms
Initial objective value: 0 at 149 ms
Strengthened objective value: 0 at 182 ms
Starting solving at 976 ms
>>> Search start
> restarts              : 1
> decisions             : 10  (0 % random)
> conflicts             : 0
> propagations          : 61605
> conflict literals     : 0  (-nan % deleted)
> 1 model found
>>> Search done
nrmodels&&1
total-solving-time5 ms
Starting local search at 1084 ms
Initial objective value: -77 at 1085 ms
Strengthened objective value: -120 at 1147 ms
Starting solving at 1944 ms
>>> Search start
> restarts              : 1
> decisions             : 14  (0 % random)
> conflicts             : 2
> propagations          : 61629
> conflict literals     : 236  (0 % deleted)
> 1 model found
>>> Search done
nrmodels&&1
total-solving-time5 ms
Starting local search at 2052 ms
Initial objective value: -124 at 2053 ms
Strengthened objective value: -142 at 2114 ms
Starting solving at 2915 ms
>>> Search start
> restarts              : 1
> decisions             : 84  (0 % random)
> conflicts             : 70
> propagations          : 62306
> conflict literals     : 7926  (3.31788 % deleted)
> 1 model found
>>> Search done
nrmodels&&1
total-solving-time15 ms
Starting local search at 3033 ms
Initial objective value: -144 at 3034 ms
Strengthened objective value: -167 at 3109 ms
Starting solving at 3911 ms
>>> Search start
> restarts              : 1
> decisions             : 56  (0 % random)
> conflicts             : 38
> propagations          : 62017
> conflict literals     : 4273  (2.59859 % deleted)
> 1 model found
>>> Search done
nrmodels&&1
total-solving-time11 ms
Starting local search at 4025 ms
Initial objective value: -169 at 4026 ms
Strengthened objective value: -187 at 4105 ms
Starting solving at 4907 ms
>>> Search start
|       101 |     130        0        0 |    17249      183     98 |
> restarts              : 2
> decisions             : 178  (0 % random)
> conflicts             : 145
> propagations          : 63615
> conflict literals     : 15075  (4.37072 % deleted)
> 1 model found
>>> Search done
nrmodels&&1
total-solving-time27 ms
Starting local search at 5037 ms
Initial objective value: -193 at 5038 ms
Strengthened objective value: -202 at 5119 ms
Starting solving at 5920 ms
>>> Search start
|       101 |     130        0        0 |    17583      179     93 |
> restarts              : 2
> decisions             : 192  (0 % random)
> conflicts             : 110
> propagations          : 63445
> conflict literals     : 10939  (3.62964 % deleted)
> 1 model found
>>> Search done
nrmodels&&1
total-solving-time23 ms
Starting local search at 6048 ms
Initial objective value: -204 at 6049 ms
Strengthened objective value: -251 at 6117 ms
Starting solving at 6920 ms
>>> Search start
|       101 |     130        0        0 |    17918      161     90 |
|       252 |     130        0        0 |    19710      427     92 |
|       478 |     130        0        0 |    21681      812     91 |
|       818 |     130        0        0 |    23849     1372     91 |
|      1326 |     130        0        0 |    26234     2204     90 |
|      2090 |     130        0        0 |    28857     3488     90 |
|      3231 |     130        0        0 |    31743     5360     89 |
|      4950 |     130        0        0 |    34917     8225     89 |
|      7517 |     130        0        0 |    38409    12522     89 |
|     11377 |     130        0        0 |    42250    18852     89 |
|     17159 |     130        0        0 |    46475    28192     89 |
|     25839 |     130        0        0 |    51122    42033     89 |
|     38846 |     130        0        0 |    56235    62888     88 |
|     58367 |     130        0        0 |    61858    93670     88 |
|     87626 |     130        0        0 |    68044    36847     87 |
|    131523 |     130        0        0 |    74849   106848     88 |
|    197355 |     130        0        0 |    82333    95430     87 |
|    296082 |     130        0        0 |    90567   126985     87 |
|    444182 |     130        0        0 |    99624    96822     86 |
|    666279 |     130        0        0 |   109586    22452     88 |
> restarts              : 1853
> decisions             : 1023645  (0 % random)
> conflicts             : 863662
> propagations          : 13253502
> conflict literals     : 75287693  (11.0515 % deleted)
> 1 model found
>>> Search done
nrmodels&&1
total-solving-time311886 ms
Starting local search at 318901 ms
Initial objective value: -252 at 318902 ms
Strengthened objective value: -280 at 318991 ms
Starting solving at 319772 ms
>>> Search start
|       101 |     130        0        0 |    18252      180     86 |
|       252 |     130        0        0 |    20077      426     85 |
|       478 |     130        0        0 |    22085      790     85 |
|       818 |     130        0        0 |    24294     1375     87 |
|      1326 |     130        0        0 |    26723     2152     85 |
|      2090 |     130        0        0 |    29396     3436     86 |
|      3231 |     130        0        0 |    32335     5189     86 |
|      4950 |     130        0        0 |    35569     7945     86 |
|      7517 |     130        0        0 |    39126    11892     85 |
|     11377 |     130        0        0 |    43038    17856     85 |
|     17159 |     130        0        0 |    47342    26911     85 |
|     25839 |     130        0        0 |    52076    40299     84 |
|     38846 |     130        0        0 |    57284    59585     84 |
|     58367 |     130        0        0 |    63013    88227     84 |
|     87626 |     130        0        0 |    69314    27390     85 |
|    131523 |     130        0        0 |    76245    92664     84 |
|    197355 |     130        0        0 |    83870    72896     84 |
|    296082 |     130        0        0 |    92257    93192     83 |
|    444182 |     130        0        0 |   101483    43340     81 |
|    666279 |     130        0        0 |   111631    85822     84 |
