Starting solving at 73 ms
>>> Search start
> Conflicts |          ORIGINAL         |          LEARNT          | Progress
>           |    Vars  Clauses Literals |    Limit  Clauses Lit/Cl |         
> restarts              : 1
> decisions             : 131  (0 % random)
> conflicts             : 0
> propagations          : 284
> conflict literals     : 0  (-nan % deleted)
> 1 model found
>>> Search done
nrmodels&&1
total-solving-time0 ms
First objective value: 0 at 74 ms
DETECTED HARD NEIGHBORHOODS: 
InKnapSack/0 <- 122 65 
InKnapSack/0 <- 18 52 
InKnapSack/0 <- 95 50 
InKnapSack/0 <- 72 47 
InKnapSack/0 <- 62 25 
InKnapSack/0 <- 96 78 19 
InKnapSack/0 <- 40 107 
InKnapSack/0 <- 103 4 
InKnapSack/0 <- 76 44 43 
InKnapSack/0 <- 24 127 
InKnapSack/0 <- 60 92 54 
InKnapSack/0 <- 113 26 100 
InKnapSack/0 <- 64 102 
InKnapSack/0 <- 86 105 
InKnapSack/0 <- 15 93 106 
InKnapSack/0 <- 85 27 109 
InKnapSack/0 <- 48 129 128 
InKnapSack/0 <- 23 108 126 
InKnapSack/0 <- 38 45 124 
InKnapSack/0 <- 118 87 116 
InKnapSack/0 <- 90 21 58 115 
InKnapSack/0 <- 119 111 
InKnapSack/0 <- 112 104 110 
InKnapSack/0 <- 130 41 
InKnapSack/0 <- 94 30 
InKnapSack/0 <- 71 31 
InKnapSack/0 <- 75 12 9 
InKnapSack/0 <- 16 70 51 7 35 
InKnapSack/0 <- 2 5 
InKnapSack/0 <- 99 6 
InKnapSack/0 <- 121 73 22 
InKnapSack/0 <- 57 33 3 
InKnapSack/0 <- 46 42 29 
InKnapSack/0 <- 10 1 
InKnapSack/0 <- 79 63 
InKnapSack/0 <- 59 13 
Starting local search at 146 ms
Initial objective value: 0 at 147 ms
Strengthened objective value: 0 at 180 ms
Starting solving at 983 ms
>>> Search start
> restarts              : 1
> decisions             : 11  (0 % random)
> conflicts             : 0
> propagations          : 61605
> conflict literals     : 0  (-nan % deleted)
> 1 model found
>>> Search done
nrmodels&&1
total-solving-time5 ms
Starting local search at 1095 ms
Initial objective value: -118 at 1095 ms
Strengthened objective value: -134 at 1155 ms
Starting solving at 1953 ms
>>> Search start
> restarts              : 1
> decisions             : 86  (0 % random)
> conflicts             : 70
> propagations          : 62261
> conflict literals     : 7992  (2.73823 % deleted)
> 1 model found
>>> Search done
nrmodels&&1
total-solving-time15 ms
Starting local search at 2072 ms
Initial objective value: -136 at 2073 ms
Strengthened objective value: -164 at 2126 ms
Starting solving at 2926 ms
>>> Search start
> restarts              : 1
> decisions             : 66  (0 % random)
> conflicts             : 42
> propagations          : 62321
> conflict literals     : 4250  (4.55872 % deleted)
> 1 model found
>>> Search done
nrmodels&&1
total-solving-time12 ms
Starting local search at 3040 ms
Initial objective value: -165 at 3041 ms
Strengthened objective value: -190 at 3128 ms
Starting solving at 3928 ms
>>> Search start
|       101 |     130        0        0 |    16915      189     94 |
> restarts              : 3
> decisions             : 331  (0 % random)
> conflicts             : 205
> propagations          : 65213
> conflict literals     : 20460  (4.41039 % deleted)
> 1 model found
>>> Search done
nrmodels&&1
total-solving-time39 ms
Starting local search at 4071 ms
Initial objective value: -196 at 4072 ms
Strengthened objective value: -198 at 4115 ms
Starting solving at 4918 ms
>>> Search start
|       101 |     130        0        0 |    17249      154     96 |
> restarts              : 2
> decisions             : 164  (0 % random)
> conflicts             : 107
> propagations          : 62965
> conflict literals     : 11099  (3.94634 % deleted)
> 1 model found
>>> Search done
nrmodels&&1
total-solving-time22 ms
Starting local search at 5043 ms
Initial objective value: -199 at 5044 ms
Strengthened objective value: -211 at 5119 ms
Starting solving at 5919 ms
>>> Search start
|       101 |     130        0        0 |    17583      174     94 |
|       252 |     130        0        0 |    19342      456     94 |
|       478 |     130        0        0 |    21276      846     94 |
|       818 |     130        0        0 |    23404     1459     93 |
|      1326 |     130        0        0 |    25744     2351     92 |
> restarts              : 10
> decisions             : 1769  (0 % random)
> conflicts             : 1414
> propagations          : 82385
> conflict literals     : 142193  (6.04587 % deleted)
> 1 model found
>>> Search done
nrmodels&&1
total-solving-time238 ms
Starting local search at 6261 ms
Initial objective value: -214 at 6262 ms
Strengthened objective value: -249 at 6404 ms
Starting solving at 7204 ms
>>> Search start
|       101 |     130        0        0 |    17918      193     90 |
|       252 |     130        0        0 |    19710      458     91 |
|       478 |     130        0        0 |    21681      837     91 |
|       818 |     130        0        0 |    23849     1399     90 |
|      1326 |     130        0        0 |    26234     2240     89 |
|      2090 |     130        0        0 |    28857     3523     90 |
|      3231 |     130        0        0 |    31743     5360     89 |
|      4950 |     130        0        0 |    34917     8177     89 |
|      7517 |     130        0        0 |    38409    12378     89 |
|     11377 |     130        0        0 |    42250    18772     89 |
|     17159 |     130        0        0 |    46475    28139     89 |
|     25839 |     130        0        0 |    51122    42249     89 |
|     38846 |     130        0        0 |    56235    62620     88 |
> restarts              : 128
> decisions             : 48615  (0 % random)
> conflicts             : 39681
> propagations          : 682403
> conflict literals     : 3567657  (9.04992 % deleted)
> 1 model found
>>> Search done
nrmodels&&1
total-solving-time10280 ms
Starting local search at 17591 ms
Initial objective value: -252 at 17592 ms
Strengthened objective value: -275 at 17658 ms
Starting solving at 18462 ms
>>> Search start
|       101 |     130        0        0 |    18252      176     82 |
|       252 |     130        0        0 |    20077      439     87 |
|       478 |     130        0        0 |    22085      820     87 |
|       818 |     130        0        0 |    24294     1393     87 |
|      1326 |     130        0        0 |    26723     2225     87 |
|      2090 |     130        0        0 |    29396     3472     87 |
|      3231 |     130        0        0 |    32335     5290     86 |
|      4950 |     130        0        0 |    35569     8040     86 |
|      7517 |     130        0        0 |    39126    12094     86 |
|     11377 |     130        0        0 |    43038    18166     86 |
|     17159 |     130        0        0 |    47342    27089     86 |
|     25839 |     130        0        0 |    52076    39998     86 |
|     38846 |     130        0        0 |    57284    59857     85 |
|     58367 |     130        0        0 |    63013    88960     85 |
|     87626 |     130        0        0 |    69314    28186     86 |
|    131523 |     130        0        0 |    76245    94836     84 |
|    197355 |     130        0        0 |    83870    76035     83 |
|    296082 |     130        0        0 |    92257    97967     85 |
|    444182 |     130        0        0 |   101483    51513     83 |
|    666279 |     130        0        0 |   111631    97177     84 |
|    999414 |     130        0        0 |   122794   132762     83 |
