Starting solving at 71 ms
>>> Search start
> Conflicts |          ORIGINAL         |          LEARNT          | Progress
>           |    Vars  Clauses Literals |    Limit  Clauses Lit/Cl |         
> restarts              : 1
> decisions             : 61  (0 % random)
> conflicts             : 0
> propagations          : 156
> conflict literals     : 0  (-nan % deleted)
> 1 model found
>>> Search done
nrmodels&&1
total-solving-time0 ms
First objective value: 0 at 72 ms
DETECTED HARD NEIGHBORHOODS: 
InKnapSack/0 <- 44 35 
InKnapSack/0 <- 11 8 
InKnapSack/0 <- 14 20 
InKnapSack/0 <- 57 6 
InKnapSack/0 <- 24 32 
InKnapSack/0 <- 27 48 
InKnapSack/0 <- 41 50 
InKnapSack/0 <- 17 21 51 
InKnapSack/0 <- 34 15 
InKnapSack/0 <- 43 46 
InKnapSack/0 <- 39 36 18 
InKnapSack/0 <- 30 42 
InKnapSack/0 <- 7 33 
Starting local search at 83 ms
Initial objective value: 0 at 84 ms
Strengthened objective value: 0 at 91 ms
Starting solving at 392 ms
>>> Search start
> restarts              : 1
> decisions             : 7  (0 % random)
> conflicts             : 0
> propagations          : 21367
> conflict literals     : 0  (-nan % deleted)
> 1 model found
>>> Search done
nrmodels&&1
total-solving-time1 ms
Starting local search at 427 ms
Initial objective value: -48 at 427 ms
Strengthened objective value: -48 at 435 ms
Starting solving at 735 ms
>>> Search start
> restarts              : 1
> decisions             : 11  (0 % random)
> conflicts             : 0
> propagations          : 21368
> conflict literals     : 0  (-nan % deleted)
> 1 model found
>>> Search done
nrmodels&&1
total-solving-time2 ms
Starting local search at 770 ms
Initial objective value: -79 at 771 ms
Strengthened objective value: -82 at 785 ms
Starting solving at 1084 ms
>>> Search start
> restarts              : 1
> decisions             : 34  (0 % random)
> conflicts             : 27
> propagations          : 21625
> conflict literals     : 1227  (6.9044 % deleted)
> 1 model found
>>> Search done
nrmodels&&1
total-solving-time3 ms
Starting local search at 1120 ms
Initial objective value: -83 at 1120 ms
Strengthened objective value: -83 at 1128 ms
Starting solving at 1430 ms
>>> Search start
> restarts              : 1
> decisions             : 10  (0 % random)
> conflicts             : 1
> propagations          : 21376
> conflict literals     : 55  (0 % deleted)
> 1 model found
>>> Search done
nrmodels&&1
total-solving-time2 ms
Starting local search at 1465 ms
Initial objective value: -86 at 1466 ms
Strengthened objective value: -89 at 1481 ms
Starting solving at 1779 ms
>>> Search start
|       101 |      60        0        0 |     6080      182     37 |
> restarts              : 2
> decisions             : 121  (0 % random)
> conflicts             : 104
> propagations          : 22706
> conflict literals     : 3828  (15.4407 % deleted)
> 1 model found
>>> Search done
nrmodels&&1
total-solving-time9 ms
Starting local search at 1820 ms
Initial objective value: -94 at 1821 ms
Strengthened objective value: -96 at 1829 ms
Starting solving at 2131 ms
>>> Search start
> restarts              : 1
> decisions             : 118  (0 % random)
> conflicts             : 88
> propagations          : 22495
> conflict literals     : 3294  (10.973 % deleted)
> 1 model found
>>> Search done
nrmodels&&1
total-solving-time8 ms
Starting local search at 2173 ms
Initial objective value: -100 at 2174 ms
Strengthened objective value: -104 at 2188 ms
Starting solving at 2489 ms
>>> Search start
|       101 |      60        0        0 |     6340      192     37 |
> restarts              : 2
> decisions             : 147  (0 % random)
> conflicts             : 113
> propagations          : 23036
> conflict literals     : 3950  (15.6704 % deleted)
> 1 model found
>>> Search done
nrmodels&&1
total-solving-time11 ms
Starting local search at 2534 ms
Initial objective value: -107 at 2535 ms
Strengthened objective value: -116 at 2552 ms
Starting solving at 2854 ms
>>> Search start
|       101 |      60        0        0 |     6469      180     37 |
|       252 |      60        0        0 |     7116      469     38 |
|       478 |      60        0        0 |     7828      884     37 |
> restarts              : 6
> decisions             : 850  (0 % random)
> conflicts             : 696
> propagations          : 30991
> conflict literals     : 23589  (16.9986 % deleted)
> 1 model found
>>> Search done
nrmodels&&1
total-solving-time58 ms
Starting local search at 2946 ms
Initial objective value: -117 at 2947 ms
Strengthened objective value: -120 at 2962 ms
Starting solving at 3265 ms
>>> Search start
|       101 |      60        0        0 |     6599      183     36 |
|       252 |      60        0        0 |     7259      469     36 |
|       478 |      60        0        0 |     7985      879     36 |
|       818 |      60        0        0 |     8784     1513     35 |
> restarts              : 7
> decisions             : 1051  (0 % random)
> conflicts             : 845
> propagations          : 33620
> conflict literals     : 26864  (19.1014 % deleted)
> 1 model found
>>> Search done
nrmodels&&1
total-solving-time73 ms
Starting local search at 3372 ms
Initial objective value: -121 at 3372 ms
Strengthened objective value: -122 at 3383 ms
Starting solving at 3689 ms
>>> Search start
|       101 |      60        0        0 |     6729      186     37 |
> restarts              : 3
> decisions             : 261  (0 % random)
> conflicts             : 206
> propagations          : 24568
> conflict literals     : 6889  (13.193 % deleted)
> 1 model found
>>> Search done
nrmodels&&1
total-solving-time19 ms
Starting local search at 3741 ms
Initial objective value: -124 at 3742 ms
Strengthened objective value: -124 at 3750 ms
Starting solving at 4052 ms
>>> Search start
|       101 |      60        0        0 |     6859      189     35 |
> restarts              : 3
> decisions             : 319  (0 % random)
> conflicts             : 229
> propagations          : 24857
> conflict literals     : 7667  (15.5989 % deleted)
> 1 model found
>>> Search done
nrmodels&&1
total-solving-time21 ms
Starting local search at 4107 ms
Initial objective value: -129 at 4108 ms
Strengthened objective value: -131 at 4119 ms
Starting solving at 4424 ms
>>> Search start
|       101 |      60        0        0 |     6989      172     37 |
> restarts              : 2
> decisions             : 161  (0 % random)
> conflicts             : 136
> propagations          : 23291
> conflict literals     : 4644  (12.6082 % deleted)
> 1 model found
>>> Search done
nrmodels&&1
total-solving-time14 ms
Starting local search at 4473 ms
Initial objective value: -132 at 4474 ms
Strengthened objective value: -136 at 4485 ms
Starting solving at 4790 ms
>>> Search start
|       101 |      60        0        0 |     7118      182     34 |
|       252 |      60        0        0 |     7830      452     33 |
|       478 |      60        0        0 |     8613      868     34 |
|       818 |      60        0        0 |     9475     1467     33 |
|      1326 |      60        0        0 |    10422     2348     34 |
|      2090 |      60        0        0 |    11464     3711     34 |
|      3231 |      60        0        0 |    12611     5632     33 |
|      4950 |      60        0        0 |    13872     8479     33 |
|      7517 |      60        0        0 |    15259    12580     32 |
|     11377 |      60        0        0 |    16785    18847     31 |
|     17159 |      60        0        0 |    18464    28138     30 |
> restarts              : 64
> decisions             : 21633  (0 % random)
> conflicts             : 19129
> propagations          : 277164
> conflict literals     : 491508  (30.2709 % deleted)
> 1 model found
>>> Search done
nrmodels&&1
total-solving-time2359 ms
Starting local search at 7186 ms
Initial objective value: -137 at 7187 ms
Strengthened objective value: -140 at 7201 ms
Starting solving at 7507 ms
>>> Search start
|       101 |      60        0        0 |     7248      177     34 |
|       252 |      60        0        0 |     7973      454     32 |
|       478 |      60        0        0 |     8770      873     32 |
|       818 |      60        0        0 |     9647     1472     33 |
|      1326 |      60        0        0 |    10612     2347     32 |
|      2090 |      60        0        0 |    11673     3677     32 |
|      3231 |      60        0        0 |    12841     5547     31 |
|      4950 |      60        0        0 |    14125     8377     31 |
|      7517 |      60        0        0 |    15538    12619     30 |
|     11377 |      59        0        0 |    17091    17057     31 |
|     17159 |      59        0        0 |    18801    26372     30 |
|     25839 |      59        0        0 |    20681    20168     28 |
|     38846 |      59        0        0 |    22749    41215     26 |
|     58367 |      56        0        0 |    25024    22504     23 |
> restarts              : 255
> decisions             : 91137  (0 % random)
> conflicts             : 84536
> propagations          : 1073529
> conflict literals     : 1577734  (43.6276 % deleted)
> 1 model found
>>> Search done
nrmodels&&1
total-solving-time12227 ms
Starting local search at 19769 ms
Initial objective value: -141 at 19770 ms
Strengthened objective value: -141 at 19778 ms
Starting solving at 20083 ms
>>> Search start
|       101 |      60        0        0 |     7378      181     32 |
|       252 |      60        0        0 |     8116      454     32 |
|       478 |      60        0        0 |     8927      862     32 |
|       818 |      60        0        0 |     9820     1454     33 |
|      1326 |      60        0        0 |    10802     2320     32 |
|      2090 |      60        0        0 |    11883     3647     33 |
|      3231 |      60        0        0 |    13071     5659     33 |
|      4950 |      60        0        0 |    14378     8506     32 |
|      7517 |      60        0        0 |    15816    12769     32 |
|     11377 |      60        0        0 |    17397    18937     31 |
|     17159 |      59        0        0 |    19137    27082     30 |
|     25839 |      59        0        0 |    21051    19367     27 |
|     38846 |      59        0        0 |    23156    40114     26 |
|     58367 |      58        0        0 |    25472    24050     23 |
> restarts              : 253
> decisions             : 84829  (0 % random)
> conflicts             : 79255
> propagations          : 1019826
> conflict literals     : 1526289  (44.5389 % deleted)
> 1 model found
>>> Search done
nrmodels&&1
total-solving-time12211 ms
Starting local search at 32328 ms
Initial objective value: -142 at 32329 ms
Strengthened objective value: -142 at 32337 ms
Starting solving at 32643 ms
>>> Search start
|       101 |      60        0        0 |     7508      184     34 |
|       252 |      60        0        0 |     8259      457     34 |
|       478 |      60        0        0 |     9084      868     34 |
|       818 |      60        0        0 |     9993     1473     34 |
|      1326 |      60        0        0 |    10992     2362     33 |
|      2090 |      60        0        0 |    12092     3682     32 |
|      3231 |      59        0        0 |    13301     5221     32 |
|      4950 |      59        0        0 |    14631     7985     31 |
|      7517 |      59        0        0 |    16094    12069     30 |
|     11377 |      59        0        0 |    17704    18255     30 |
|     17159 |      59        0        0 |    19474    27320     29 |
|     25839 |      59        0        0 |    21421    20373     27 |
|     38846 |      57        0        0 |    23564    39933     26 |
|     58367 |      54        0        0 |    25920    23503     22 |
> restarts              : 255
> decisions             : 94059  (0 % random)
> conflicts             : 87616
> propagations          : 1068876
> conflict literals     : 1508255  (45.6223 % deleted)
>>> Search done
