alpha: 0.5
beta: 0.5
gamma: 1.5
stagT: 5
Random frameSizes and framesize is choosen randomly between 1 - maxframesize
When an improvement is found the usefullFramesize is set to the size of the removedassumptions
Maximum runtime: 600

Starting solving at: 300 ms
done
PrepModelIt duration: 348 ms
amount madeAssumptions: 762
Objval best sol: 16
search limit: 1
useful search limit: 1
max frame size: 77
frame size: 38
useful frame size: 38
stag: 0/5
total spend time up to now: 341 ms
max time: 600
> Current optimal value 16 after 349 ms
> Current optimal value 15 after 237219 ms
> Current optimal value 14 after 366312 ms
