alpha: 0.5
beta: 0.5
gamma: 1.5
stagT: 5
Random frameSizes and framesize is choosen randomly between 1 - maxframesize
When an improvement is found the usefullFramesize is set to the size of the removedassumptions
Maximum runtime: 600

Starting solving at: 4067 ms
done
PrepModelIt duration: 5112 ms
amount madeAssumptions: 9260
Objval best sol: 78
search limit: 482
useful search limit: 482
max frame size: 450
frame size: 225
useful frame size: 225
stag: 0/5
total spend time up to now: 5097 ms
max time: 600
> Current optimal value 78 after 5114 ms
> Current optimal value 77 after 55913 ms
> Current optimal value 76 after 263636 ms
