alpha: 0.5
beta: 0.5
gamma: 1.5
stagT: 5
Random frameSizes and framesize is choosen randomly between 1 - maxframesize
When an improvement is found the usefullFramesize is set to the size of the removedassumptions
Maximum runtime: 600

Starting solving at: 235 ms
done
PrepModelIt duration: 379 ms
amount madeAssumptions: 25483
Objval best sol: 275
search limit: 1
useful search limit: 1
max frame size: 0
frame size: 0
useful frame size: 0
stag: 0/5
total spend time up to now: 343 ms
max time: 600
> Current optimal value 275 after 380 ms
> Current optimal value 274 after 407 ms
> Current optimal value 273 after 499 ms
> Current optimal value 272 after 580 ms
> Current optimal value 271 after 725 ms
> Current optimal value 270 after 792 ms
> Current optimal value 269 after 919 ms
> Current optimal value 268 after 966 ms
> Current optimal value 267 after 1116 ms
> Current optimal value 266 after 1197 ms
> Current optimal value 265 after 1245 ms
> Current optimal value 264 after 1348 ms
> Current optimal value 263 after 1419 ms
> Current optimal value 262 after 1521 ms
> Current optimal value 261 after 1650 ms
> Current optimal value 260 after 1772 ms
> Current optimal value 259 after 1869 ms
> Current optimal value 258 after 1939 ms
> Current optimal value 257 after 2064 ms
> Current optimal value 256 after 2131 ms
> Current optimal value 255 after 2198 ms
> Current optimal value 254 after 2295 ms
> Current optimal value 253 after 2363 ms
> Current optimal value 252 after 2428 ms
> Current optimal value 251 after 2521 ms
> Current optimal value 250 after 2589 ms
> Current optimal value 249 after 2739 ms
> Current optimal value 248 after 2833 ms
> Current optimal value 247 after 2902 ms
> Current optimal value 246 after 3939 ms
> Current optimal value 245 after 4035 ms
> Current optimal value 244 after 9007 ms
> Current optimal value 243 after 9096 ms
> Current optimal value 242 after 9135 ms
> Current optimal value 241 after 9173 ms
> Current optimal value 240 after 9262 ms
> Current optimal value 239 after 10014 ms
> Current optimal value 238 after 10052 ms
> Current optimal value 237 after 10091 ms
> Current optimal value 236 after 10131 ms
> Current optimal value 235 after 10168 ms
> Current optimal value 234 after 10206 ms
> Current optimal value 233 after 10244 ms
> Current optimal value 232 after 10904 ms
> Current optimal value 231 after 10941 ms
> Current optimal value 230 after 10977 ms
> Current optimal value 229 after 11016 ms
