alpha: 0.5
beta: 0.5
gamma: 1.5
stagT: 5
Random frameSizes and framesize is choosen randomly between 1 - maxframesize
When an improvement is found the usefullFramesize is set to the size of the removedassumptions
Maximum runtime: 600

Starting solving at: 409 ms
done
PrepModelIt duration: 675 ms
amount madeAssumptions: 47250
Objval best sol: 375
search limit: 1
useful search limit: 1
max frame size: 0
frame size: 0
useful frame size: 0
stag: 0/5
total spend time up to now: 613 ms
max time: 600
> Current optimal value 375 after 677 ms
> Current optimal value 374 after 757 ms
> Current optimal value 373 after 965 ms
> Current optimal value 372 after 1151 ms
> Current optimal value 371 after 1477 ms
> Current optimal value 370 after 1642 ms
> Current optimal value 369 after 1794 ms
> Current optimal value 368 after 1938 ms
> Current optimal value 367 after 2155 ms
> Current optimal value 366 after 2417 ms
> Current optimal value 365 after 2592 ms
> Current optimal value 364 after 2834 ms
> Current optimal value 363 after 2925 ms
> Current optimal value 362 after 3153 ms
> Current optimal value 361 after 3376 ms
> Current optimal value 360 after 3525 ms
> Current optimal value 359 after 3673 ms
> Current optimal value 358 after 3879 ms
> Current optimal value 357 after 3962 ms
> Current optimal value 356 after 4275 ms
> Current optimal value 355 after 4412 ms
> Current optimal value 354 after 4550 ms
> Current optimal value 353 after 4689 ms
> Current optimal value 352 after 4766 ms
> Current optimal value 351 after 5132 ms
> Current optimal value 350 after 5319 ms
> Current optimal value 349 after 5455 ms
> Current optimal value 348 after 5587 ms
> Current optimal value 347 after 5776 ms
> Current optimal value 346 after 6016 ms
> Current optimal value 345 after 6251 ms
> Current optimal value 344 after 6594 ms
> Current optimal value 343 after 6999 ms
> Current optimal value 342 after 7403 ms
> Current optimal value 341 after 8027 ms
> Current optimal value 340 after 8216 ms
> Current optimal value 339 after 8404 ms
> Current optimal value 338 after 8650 ms
> Current optimal value 337 after 12855 ms
> Current optimal value 336 after 13546 ms
> Current optimal value 335 after 14246 ms
> Current optimal value 334 after 14652 ms
> Current optimal value 333 after 14741 ms
> Current optimal value 332 after 18194 ms
> Current optimal value 331 after 20826 ms
> Current optimal value 330 after 21612 ms
> Current optimal value 329 after 23065 ms
> Current optimal value 328 after 24730 ms
> Current optimal value 327 after 24932 ms
> Current optimal value 326 after 25022 ms
> Current optimal value 325 after 31213 ms
> Current optimal value 324 after 31398 ms
> Current optimal value 323 after 31588 ms
> Current optimal value 322 after 46459 ms
> Current optimal value 321 after 46526 ms
> Current optimal value 320 after 46862 ms
> Current optimal value 319 after 46930 ms
> Current optimal value 318 after 47001 ms
> Current optimal value 317 after 47163 ms
> Current optimal value 316 after 205094 ms
> Current optimal value 315 after 205223 ms
> Current optimal value 314 after 205322 ms
> Current optimal value 313 after 205420 ms
> Current optimal value 312 after 205629 ms
> Current optimal value 311 after 205725 ms
> Current optimal value 310 after 205821 ms
> Current optimal value 309 after 205917 ms
> Current optimal value 308 after 206073 ms
> Current optimal value 307 after 206168 ms
> Current optimal value 306 after 206262 ms
> Current optimal value 305 after 206532 ms
