alpha: 0.5
beta: 0.5
gamma: 1.5
stagT: 5
Random frameSizes and framesize is choosen randomly between 1 - maxframesize
When an improvement is found the usefullFramesize is set to the size of the removedassumptions
Maximum runtime: 600

Starting solving at: 670 ms
done
PrepModelIt duration: 1108 ms
amount madeAssumptions: 75683
Objval best sol: 475
search limit: 1
useful search limit: 1
max frame size: 0
frame size: 0
useful frame size: 0
stag: 0/5
total spend time up to now: 1003 ms
max time: 600
> Current optimal value 475 after 1110 ms
> Current optimal value 474 after 1285 ms
> Current optimal value 473 after 1715 ms
> Current optimal value 472 after 2092 ms
> Current optimal value 471 after 2714 ms
> Current optimal value 470 after 3021 ms
> Current optimal value 469 after 3553 ms
> Current optimal value 468 after 4060 ms
> Current optimal value 467 after 4388 ms
> Current optimal value 466 after 4702 ms
> Current optimal value 465 after 5134 ms
> Current optimal value 464 after 5425 ms
> Current optimal value 463 after 5834 ms
> Current optimal value 462 after 6103 ms
> Current optimal value 461 after 6248 ms
> Current optimal value 460 after 6837 ms
> Current optimal value 459 after 7184 ms
> Current optimal value 458 after 7610 ms
> Current optimal value 457 after 7948 ms
> Current optimal value 456 after 8385 ms
> Current optimal value 455 after 8715 ms
> Current optimal value 454 after 8953 ms
> Current optimal value 453 after 9188 ms
> Current optimal value 452 after 9519 ms
> Current optimal value 451 after 9750 ms
> Current optimal value 450 after 10166 ms
> Current optimal value 449 after 10397 ms
> Current optimal value 448 after 10627 ms
> Current optimal value 447 after 10866 ms
> Current optimal value 446 after 11278 ms
> Current optimal value 445 after 11683 ms
> Current optimal value 444 after 11994 ms
> Current optimal value 443 after 12216 ms
> Current optimal value 442 after 12619 ms
> Current optimal value 441 after 12747 ms
> Current optimal value 440 after 13062 ms
> Current optimal value 439 after 13462 ms
> Current optimal value 438 after 13677 ms
> Current optimal value 437 after 14075 ms
> Current optimal value 436 after 15375 ms
> Current optimal value 435 after 20717 ms
> Current optimal value 434 after 21034 ms
> Current optimal value 433 after 21527 ms
> Current optimal value 432 after 22656 ms
> Current optimal value 431 after 22792 ms
> Current optimal value 430 after 23019 ms
> Current optimal value 429 after 23515 ms
> Current optimal value 428 after 40481 ms
> Current optimal value 427 after 41176 ms
> Current optimal value 426 after 41504 ms
> Current optimal value 425 after 41834 ms
> Current optimal value 424 after 44622 ms
> Current optimal value 423 after 44773 ms
> Current optimal value 422 after 44920 ms
> Current optimal value 421 after 45069 ms
> Current optimal value 420 after 47766 ms
> Current optimal value 419 after 48097 ms
> Current optimal value 418 after 48246 ms
> Current optimal value 417 after 50402 ms
> Current optimal value 416 after 50554 ms
> Current optimal value 415 after 50705 ms
> Current optimal value 414 after 50855 ms
> Current optimal value 413 after 51100 ms
> Current optimal value 412 after 51251 ms
> Current optimal value 411 after 51400 ms
> Current optimal value 410 after 51549 ms
> Current optimal value 409 after 53612 ms
> Current optimal value 408 after 53767 ms
> Current optimal value 407 after 53922 ms
> Current optimal value 406 after 54077 ms
> Current optimal value 405 after 54232 ms
> Current optimal value 404 after 54385 ms
> Current optimal value 403 after 54538 ms
> Current optimal value 402 after 54691 ms
> Current optimal value 401 after 54847 ms
> Current optimal value 400 after 55002 ms
> Current optimal value 399 after 55155 ms
> Current optimal value 398 after 55307 ms
> Current optimal value 397 after 55459 ms
> Current optimal value 396 after 55797 ms
> Current optimal value 395 after 55948 ms
> Current optimal value 394 after 56194 ms
> Current optimal value 393 after 56345 ms
> Current optimal value 392 after 56495 ms
> Current optimal value 391 after 56830 ms
> Current optimal value 390 after 57071 ms
> Current optimal value 389 after 57403 ms
> Current optimal value 388 after 57550 ms
