Starting solving at: 121 ms
done
PrepModelIt duration: 133 ms
> Current optimal value 5488 after 133 ms
> Current optimal value 5451 after 90 ms
> Current optimal value 5448 after 117 ms
> Current optimal value 5358 after 127 ms
> Current optimal value 5198 after 133 ms
> Current optimal value 5110 after 170 ms
> Current optimal value 5101 after 213 ms
> Current optimal value 4993 after 366 ms
> Current optimal value 4927 after 376 ms
> Current optimal value 4912 after 414 ms
> Current optimal value 4902 after 2142 ms
> Current optimal value 4893 after 2532 ms
> Current optimal value 4828 after 2559 ms
> Current optimal value 4776 after 2569 ms
> Current optimal value 4711 after 2577 ms
> Current optimal value 4689 after 3510 ms
> Current optimal value 4672 after 5019 ms
> Current optimal value 4671 after 5140 ms
> Current optimal value 4641 after 5384 ms
> Current optimal value 4566 after 5398 ms
> Current optimal value 4553 after 5408 ms
> Current optimal value 4353 after 5418 ms
> Current optimal value 4331 after 5475 ms
> Current optimal value 4196 after 5482 ms
> Current optimal value 4175 after 5754 ms
> Current optimal value 4069 after 5762 ms
> Current optimal value 3984 after 5788 ms
> Current optimal value 3967 after 5794 ms
> Current optimal value 3887 after 7172 ms
> Current optimal value 3665 after 10597 ms
> Current optimal value 3581 after 15943 ms
> Current optimal value 3556 after 16156 ms
> Current optimal value 3542 after 16606 ms
> Current optimal value 3450 after 18917 ms
> Current optimal value 3263 after 18964 ms
> Current optimal value 3173 after 28195 ms
> Current optimal value 3078 after 28257 ms
> Current optimal value 3067 after 38178 ms
> Current optimal value 3025 after 68713 ms
> Current optimal value 3003 after 95609 ms
> Current optimal value 2994 after 112247 ms
> Current optimal value 2947 after 143769 ms
> Current optimal value 2888 after 143985 ms
> Current optimal value 2846 after 157852 ms
> Current optimal value 2790 after 160537 ms
> Current optimal value 2770 after 197576 ms
> Current optimal value 2764 after 200358 ms
> Current optimal value 2714 after 258075 ms
> Current optimal value 2640 after 269441 ms
> Current optimal value 2531 after 286227 ms
> Current optimal value 2512 after 308119 ms
> Current optimal value 2475 after 309251 ms
> Current optimal value 2467 after 314564 ms
> Current optimal value 2438 after 316640 ms
> Current optimal value 2433 after 354004 ms
> Current optimal value 2403 after 423270 ms
> Current optimal value 2354 after 445813 ms
> Current optimal value 2332 after 504985 ms
> Current optimal value 2327 after 582818 ms
> Current optimal value 2298 after 584356 ms
> Current optimal value 2251 after 598027 ms
