Starting solving at: 10639 ms
done
PrepModelIt duration: 10839 ms
> Current optimal value 188194 after 10839 ms
> Current optimal value 185522 after 447 ms
> Current optimal value 185290 after 639 ms
> Current optimal value 185036 after 732 ms
> Current optimal value 183509 after 829 ms
> Current optimal value 181971 after 1182 ms
> Current optimal value 181309 after 1360 ms
> Current optimal value 181004 after 1576 ms
> Current optimal value 179719 after 1818 ms
> Current optimal value 178475 after 1982 ms
> Current optimal value 178392 after 3167 ms
> Current optimal value 178175 after 3261 ms
> Current optimal value 178077 after 3485 ms
> Current optimal value 175856 after 3578 ms
> Current optimal value 173836 after 3675 ms
> Current optimal value 171488 after 3771 ms
> Current optimal value 169491 after 3870 ms
> Current optimal value 169345 after 3964 ms
> Current optimal value 168098 after 4138 ms
> Current optimal value 167722 after 4443 ms
> Current optimal value 167032 after 4749 ms
> Current optimal value 166733 after 5881 ms
> Current optimal value 165684 after 5975 ms
> Current optimal value 165551 after 6067 ms
> Current optimal value 165290 after 6244 ms
> Current optimal value 165232 after 13062 ms
> Current optimal value 165051 after 13201 ms
> Current optimal value 162929 after 15344 ms
> Current optimal value 162468 after 15994 ms
> Current optimal value 162327 after 16335 ms
> Current optimal value 162194 after 16505 ms
> Current optimal value 160966 after 16633 ms
> Current optimal value 160737 after 17098 ms
> Current optimal value 160605 after 17371 ms
> Current optimal value 160343 after 17539 ms
> Current optimal value 159831 after 17835 ms
> Current optimal value 159264 after 17914 ms
> Current optimal value 158970 after 24025 ms
> Current optimal value 157872 after 24633 ms
> Current optimal value 156890 after 24716 ms
> Current optimal value 156787 after 24797 ms
> Current optimal value 156718 after 24885 ms
> Current optimal value 156688 after 27149 ms
> Current optimal value 155444 after 27269 ms
> Current optimal value 153543 after 28329 ms
> Current optimal value 153141 after 29059 ms
> Current optimal value 151324 after 29414 ms
> Current optimal value 151177 after 31007 ms
> Current optimal value 150419 after 31106 ms
> Current optimal value 148620 after 32955 ms
> Current optimal value 147090 after 55166 ms
> Current optimal value 147061 after 94301 ms
> Current optimal value 145799 after 184651 ms
> Current optimal value 145739 after 185880 ms
> Current optimal value 145058 after 186005 ms
> Current optimal value 144056 after 186961 ms
> Current optimal value 143934 after 187812 ms
> Current optimal value 143729 after 225165 ms
> Current optimal value 143371 after 272951 ms
> Current optimal value 142758 after 465958 ms
> Current optimal value 142561 after 493883 ms
> Current optimal value 141935 after 497479 ms
> Current optimal value 141057 after 498250 ms
> Current optimal value 140196 after 524706 ms
> Current optimal value 140164 after 525104 ms
> Current optimal value 139643 after 544383 ms
> Current optimal value 137245 after 565201 ms
> Current optimal value 135374 after 565680 ms
