>>> Initializing inductive definition 1303
> Number of rules : 612.
Starting solving at 1086 ms
>>> Search start
> Conflicts |          ORIGINAL         |          LEARNT          | Progress
>           |    Vars  Clauses Literals |    Limit  Clauses Lit/Cl |         
|         0 |   26238   182202   461225 |   227869        0   -nan |
>>> Initializing inductive definition 1304
> Number of rules : 27104.
|       101 |   24064   126740   340622 |   250656      111     48 |
|       252 |   22166   112913   307487 |   275722      278     60 |
|       478 |   21450   101160   278022 |   303294      514     71 |
|       818 |   19062    90460   252364 |   333623      860     69 |
|      1326 |   18975    87755   245426 |   366986     1455     59 |
|      2090 |   18204    86633   242445 |   403685     2240     51 |
|      3231 |   18204    83563   234759 |   444053     3420    148 |
|      4950 |   17611    80118   226289 |   488458     5196    142 |
|      7517 |   17297    79638   225051 |   537304     8043    127 |
|     11377 |   17259    78330   221658 |   591035    12186    126 |
|     17159 |   16690    75017   213385 |   650138    17587    125 |
|     25839 |   16637    74800   212792 |   715152    26782    138 |
|     38846 |   16610    74627   212361 |   786667    40173    144 |
|     58367 |   16592    74524   212089 |   865334    60219    154 |
|     87626 |   16578    74440   211872 |   951868    90084    162 |
> restarts              : 258
> decisions             : 429722  (0 % random)
> conflicts             : 102653
> propagations          : 89751040
> conflict literals     : 17695262  (40.1565 % deleted)
> Current optimal value 28 after 50625 ms
|    102653 |   16579    74440   211872 |    94074   105380    167 |
|    102754 |   16579    74440   211872 |   103481   105481    167 |
|    102906 |   16576    74424   211825 |   113829   105629    167 |
|    103132 |   16576    74424   211825 |   125212   105856    167 |
|    103469 |   16576    74424   211825 |   137733   106208    168 |
|    103979 |   16576    74424   211825 |   151507   106724    168 |
|    104742 |   16576    74424   211825 |   166657   107493    167 |
|    105884 |   16572    74424   211825 |   183323   108646    167 |
|    107603 |   16572    74424   211825 |   201655   110399    169 |
|    110167 |   16571    74424   211825 |   221821   113028    169 |
|    114031 |   16571    74424   211825 |   244003   116972    170 |
|    119809 |   16571    74424   211825 |   268404   122817    173 |
|    128489 |   16571    74385   211728 |   295244   131624    173 |
|    141496 |   16571    74385   211728 |   324768   144760    174 |
|    161018 |   16571    74385   211728 |   357245   164513    174 |
|    190276 |   16558    74367   211678 |   392970   193940    174 |
|    234087 |   16555    74290   211474 |   432267   238032    169 |
> restarts              : 639
> decisions             : 793156  (0 % random)
> conflicts             : 270455
> propagations          : 215501063
> conflict literals     : 45291144  (51.0734 % deleted)
>>> Search done
bestvalue&&28
nrmodels&&1
total-solving-time209968 ms
