>>> Initializing inductive definition 1308
> Number of rules : 668.
Starting solving at 1132 ms
>>> Search start
> Conflicts |          ORIGINAL         |          LEARNT          | Progress
>           |    Vars  Clauses Literals |    Limit  Clauses Lit/Cl |         
|         0 |   26800   187979   474695 |   236574        0   -nan |
>>> Initializing inductive definition 1309
> Number of rules : 28224.
|       101 |   26080   126237   338982 |   260231      141     21 |
|       252 |   24378   113965   309579 |   286254      314     25 |
|       478 |   24064   112249   305481 |   314879      570     29 |
|       818 |   22828   112186   305328 |   346367      966     51 |
|      1326 |   22731   105137   288420 |   381004     1491     50 |
|      2090 |   21864   102727   282421 |   419105     2320     50 |
|      3231 |   21310    97239   268577 |   461015     3486     50 |
|      4950 |   21086    96521   266857 |   507117     5021     47 |
|      7517 |   21075    95884   265304 |   557829     7819     60 |
|     11377 |   20504    93030   258044 |   613612    11713     70 |
|     17159 |   20296    91776   254994 |   674973    17459     68 |
|     25839 |   20268    91675   254744 |   742470    26482     64 |
|     38846 |   20070    90462   251803 |   816717    39531     64 |
> restarts              : 158
> decisions             : 237088  (0 % random)
> conflicts             : 51164
> propagations          : 48312381
> conflict literals     : 3384579  (25.132 % deleted)
> Current optimal value 32 after 22528 ms
|     51164 |   19895    89961   250555 |    82198    52012     64 |
|     51264 |   19895    89961   250555 |    90418    52114     64 |
|     51416 |   19895    89961   250555 |    99459    52267     64 |
|     51642 |   19895    89961   250555 |   109405    52494     64 |
|     51982 |   19895    89961   250555 |   120346    52833     64 |
|     52489 |   19895    89961   250555 |   132381    53346     64 |
|     53254 |   19895    89490   249561 |   145619    52738     65 |
|     54395 |   19893    89490   249561 |   160181    53906     64 |
|     56114 |   19252    89490   249561 |   176199    55719     64 |
|     58681 |   19242    86233   241044 |   193819    56250     65 |
|     62527 |   19225    86109   240703 |   213201    60311     66 |
|     68322 |   19216    86063   240582 |   234521    66248     66 |
> restarts              : 237
> decisions             : 294658  (0 % random)
> conflicts             : 73132
> propagations          : 67268942
> conflict literals     : 4835718  (28.427 % deleted)
>>> Search done
bestvalue&&32
nrmodels&&1
total-solving-time29964 ms
