>>> Initializing inductive definition 1308
> Number of rules : 689.
Starting solving at 1125 ms
>>> Search start
> Conflicts |          ORIGINAL         |          LEARNT          | Progress
>           |    Vars  Clauses Literals |    Limit  Clauses Lit/Cl |         
|         0 |   27847   194336   490909 |   244558        0   -nan |
>>> Initializing inductive definition 1309
> Number of rules : 29106.
|       101 |   27568   131350   352668 |   269014      112     54 |
|       252 |   27483   129445   348059 |   295915      278     67 |
|       478 |   27471   129445   348059 |   325507      541     55 |
|       818 |   27029   129394   347930 |   358057      933     92 |
|      1326 |   26497   126229   340138 |   393863     1462     73 |
|      2090 |   26472   124059   334936 |   433250     2315     66 |
|      3231 |   25882   122537   331475 |   476575     3627     57 |
|      4950 |   25066   116744   316748 |   524232     5046     70 |
|      7517 |   21311   100305   277164 |   576655     7381     77 |
|     11377 |   21073    95840   265714 |   634321    11386     67 |
|     17159 |   21048    95616   265120 |   697753    17475     67 |
|     25839 |   20927    94890   263368 |   767528    24563     75 |
|     38846 |   20727    93736   260513 |   844281    37612     75 |
> restarts              : 173
> decisions             : 254528  (0 % random)
> conflicts             : 55051
> propagations          : 55545507
> conflict literals     : 4238731  (24.3791 % deleted)
> Current optimal value 33 after 23315 ms
|     55051 |   20638    93214   259236 |    85055    54061     75 |
|     55151 |   20638    93214   259236 |    93561    54165     75 |
|     55302 |   20638    93214   259236 |   102917    54320     75 |
|     55529 |   20638    93214   259236 |   113209    54547     75 |
|     55868 |   20638    93214   259236 |   124530    54895     75 |
|     56376 |   20638    93214   259236 |   136983    55414     75 |
|     57141 |   20638    93214   259236 |   150681    56188     75 |
|     58282 |   20551    93198   259198 |   165749    57270     75 |
|     59991 |   20551    93198   259198 |   182324    58995     75 |
|     62554 |   20551    93198   259198 |   200556    61608     76 |
|     66413 |   20551    92658   257876 |   220612    65362     76 |
|     72202 |   20551    92658   257876 |   242673    71265     76 |
> restarts              : 254
> decisions             : 312576  (0 % random)
> conflicts             : 80631
> propagations          : 78929281
> conflict literals     : 6200417  (26.6689 % deleted)
>>> Search done
bestvalue&&33
nrmodels&&1
total-solving-time33742 ms
