>>> Initializing inductive definition 1308
> Number of rules : 752.
Starting solving at 1236 ms
>>> Search start
> Conflicts |          ORIGINAL         |          LEARNT          | Progress
>           |    Vars  Clauses Literals |    Limit  Clauses Lit/Cl |         
|         0 |   30988   213407   539551 |   268588        0   -nan |
>>> Initializing inductive definition 1309
> Number of rules : 31752.
|       101 |   30806   146689   393726 |   295446      119     49 |
|       252 |   30806   146689   393726 |   324991      302     63 |
|       478 |   30461   146689   393726 |   357490      574     88 |
|       818 |   30390   144241   388424 |   393239      974     75 |
|      1326 |   29250   137418   371611 |   432563     1422     62 |
|      2090 |   29041   136513   369547 |   475820     2290     53 |
|      3231 |   24492   120830   330976 |   523402     3401     60 |
|      4950 |   24476   112690   310909 |   575742     5076     55 |
|      7517 |   24464   112633   310795 |   633316     7893     52 |
|     11377 |   24349   111956   309167 |   696648    11754     50 |
|     17159 |   24343   111920   309095 |   766312    17939     58 |
|     25839 |   24043   110671   306174 |   842944    26138     59 |
|     38846 |   23923   109546   303284 |   927238    39295     62 |
|     58367 |   23895   109376   302873 |  1019962    56910     80 |
|     87626 |   23602   107772   298960 |  1121958    81764     88 |
|    131523 |   23451   107022   296975 |  1234154   126415     91 |
> restarts              : 364
> decisions             : 507090  (0 % random)
> conflicts             : 131898
> propagations          : 127990221
> conflict literals     : 12072015  (26.9953 % deleted)
> Current optimal value 36 after 58219 ms
|    131898 |   23448   107022   296975 |   117174   126794     91 |
|    131998 |   23448   107022   296975 |   128891   126898     91 |
|    132149 |   23448   107022   296975 |   141780   127049     91 |
|    132376 |   23446   107022   296975 |   155958   127273     91 |
|    132716 |   23446   107022   296975 |   171554   127614     91 |
|    133223 |   23446   107022   296975 |   188709   128130     91 |
|    133988 |   23446   107022   296975 |   207580   128898     91 |
|    135129 |   23446   107022   296975 |   228338   130049     91 |
|    136838 |   23446   107022   296975 |   251172   131791     91 |
|    139401 |   23446   107022   296975 |   276290   134378     91 |
> restarts              : 383
> decisions             : 526305  (0 % random)
> conflicts             : 140117
> propagations          : 136008712
> conflict literals     : 12817843  (27.9421 % deleted)
>>> Search done
bestvalue&&36
nrmodels&&1
total-solving-time62101 ms
