>>> Initializing inductive definition 1308
> Number of rules : 584.
Starting solving at 973 ms
>>> Search start
> Conflicts |          ORIGINAL         |          LEARNT          | Progress
>           |    Vars  Clauses Literals |    Limit  Clauses Lit/Cl |         
|         0 |   22521   164189   414693 |   205318        0   -nan |
>>> Initializing inductive definition 1309
> Number of rules : 24696.
|       101 |   21729   104370   281071 |   225850      115     24 |
|       252 |   21729   104370   281071 |   248435      294     22 |
|       478 |   21237    99087   269023 |   273279      550     31 |
|       818 |   20180    96009   261467 |   300607      967     37 |
|      1326 |   19868    91893   251103 |   330667     1538     38 |
|      2090 |   19747    90524   248123 |   363734     2429     40 |
|      3231 |   19738    90487   248011 |   400107     3672     55 |
|      4950 |   19633    89946   246855 |   440118     5656     51 |
|      7517 |   19623    89912   246787 |   484130     8502     54 |
|     11377 |   19617    89858   246679 |   532543    12669     64 |
|     17159 |   18798    85228   234908 |   585798    18691     68 |
|     25839 |   18046    81468   225025 |   644377    25700     75 |
|     38846 |   17534    78752   218882 |   708815    39060     90 |
|     58367 |   16776    74407   209218 |   779697    56187    114 |
|     87626 |   16772    74387   209165 |   857667    86559    131 |
|    131523 |   16772    74387   209165 |   943433   131538    165 |
|    197355 |   16772    74387   209165 |  1037777   198270    181 |
> restarts              : 511
> decisions             : 753711  (0 % random)
> conflicts             : 200822
> propagations          : 165773847
> conflict literals     : 36983145  (48.2206 % deleted)
> Current optimal value 28 after 117318 ms
|    200822 |   16773    74387   209165 |   122571   201790    181 |
|    200922 |   16773    74387   209165 |   134828    34507    121 |
|    201072 |   16773    74387   209165 |   148311    34659    121 |
|    201297 |   16773    74387   209165 |   163142    34885    121 |
|    201634 |   16773    74387   209165 |   179457    35227    123 |
|    202140 |   16773    74387   209165 |   197402    35739    126 |
|    202899 |   16773    74387   209165 |   217143    36514    128 |
|    204038 |   16773    74387   209165 |   238857    37658    133 |
|    205753 |   16773    74387   209165 |   262743    39398    136 |
|    208326 |   16773    74387   209165 |   289017    41986    139 |
|    212183 |   16773    74387   209165 |   317919    45914    140 |
|    217977 |   16759    74374   209139 |   349711    51829    140 |
|    226645 |   16759    74294   208979 |   384682    60540    151 |
|    239666 |   16759    74294   208979 |   423150    73684    162 |
|    259170 |   16759    74294   208979 |   465465    93299    170 |
|    288448 |   16755    74280   208951 |   512012   122915    170 |
|    332331 |   16751    74245   208881 |   563213   167098    171 |
> restarts              : 1021
> decisions             : 1217734  (0 % random)
> conflicts             : 391192
> propagations          : 327236957
> conflict literals     : 68812417  (52.0498 % deleted)
>>> Search done
bestvalue&&28
nrmodels&&1
total-solving-time272223 ms
