>>> Initializing inductive definition 1308
> Number of rules : 920.
Starting solving at 1497 ms
>>> Search start
> Conflicts |          ORIGINAL         |          LEARNT          | Progress
>           |    Vars  Clauses Literals |    Limit  Clauses Lit/Cl |         
|         0 |   39273   265901   674117 |   333710        0   -nan |
>>> Initializing inductive definition 1309
> Number of rules : 38808.
|       101 |   38657   186178   500047 |   367081      116     62 |
|       252 |   38657   186178   500047 |   403789      288     46 |
|       478 |   37955   183768   494415 |   444168      580     58 |
|       818 |   37358   180195   486552 |   488585      988     50 |
|      1326 |   37358   177151   479491 |   537443     1547     79 |
|      2090 |   36128   171750   467352 |   591188     2440     72 |
|      3231 |   35679   170644   465010 |   650307     3758     66 |
|      4950 |   35434   167863   457733 |   715337     5722     76 |
|      7517 |   34459   164831   449728 |   786871     8567     88 |
|     11377 |   33879   158585   433651 |   865558    11321     85 |
|     17159 |   33824   158322   432992 |   952114    17603     81 |
|     25839 |   33699   157634   431370 |  1047325    27140     89 |
|     38846 |   33600   157081   430156 |  1152058    40988     94 |
|     58367 |   33221   154963   424881 |  1267264    57876    113 |
|     87626 |   33189   154760   424417 |  1393990    88280    115 |
|    131523 |   33030   153826   422037 |  1533389   133436    125 |
|    197355 |   32876   152955   419906 |  1686728   198942    126 |
|    296082 |   32849   152848   419628 |  1855401   299969    148 |
|    444182 |   32424   150250   413299 |  2040942   445538    159 |
|    666279 |   32392   149944   412615 |  2245036   670402    175 |
