alpha: 0.5
beta: 0.5
gamma: 1.5
stagT: 5
Random frameSizes and framesize is choosen randomly between 1 - maxframesize
When an improvement is found the usefullFramesize is set to the size of the removedassumptions
Maximum runtime: 600

Starting solving at: 480 ms
done
PrepModelIt duration: 525 ms
amount madeAssumptions: 1582
Objval best sol: 29879
search limit: 27
useful search limit: 27
max frame size: 1232
frame size: 616
useful frame size: 616
stag: 0/5
total spend time up to now: 520 ms
max time: 600
> Current optimal value 29879 after 534 ms
no more models to explore, program will end
end program after: 23099 ms
Total time spend: 23100 ms
Amount of new found models: 455
Feasible object value: 29879
Result object value: 29879
