alpha: 0.5
beta: 0.5
gamma: 1.5
stagT: 5
Random frameSizes and framesize is choosen randomly between 1 - maxframesize
When an improvement is found the usefullFramesize is set to the size of the removedassumptions
Maximum runtime: 600

Starting solving at: 760 ms
done
PrepModelIt duration: 827 ms
amount madeAssumptions: 3070
Objval best sol: 49995
search limit: 10
useful search limit: 10
max frame size: 2520
frame size: 1260
useful frame size: 1260
stag: 0/5
total spend time up to now: 825 ms
max time: 600
> Current optimal value 49995 after 844 ms
> Current optimal value 48944 after 14618 ms
> Current optimal value 48482 after 15188 ms
> Current optimal value 48328 after 56815 ms
> Current optimal value 47999 after 60792 ms
> Current optimal value 47995 after 63657 ms
> Current optimal value 47865 after 77645 ms
> Current optimal value 47861 after 79999 ms
> Current optimal value 47337 after 96025 ms
> Current optimal value 47217 after 505977 ms
> Current optimal value 46886 after 533381 ms
