alpha: 0.5
beta: 0.5
gamma: 1.5
stagT: 5
Random frameSizes and framesize is choosen randomly between 1 - maxframesize
When an improvement is found the usefullFramesize is set to the size of the removedassumptions
Maximum runtime: 600

Starting solving at: 778 ms
done
PrepModelIt duration: 847 ms
amount madeAssumptions: 3070
Objval best sol: 54365
search limit: 10
useful search limit: 10
max frame size: 2520
frame size: 1260
useful frame size: 1260
stag: 0/5
total spend time up to now: 846 ms
max time: 600
> Current optimal value 54365 after 864 ms
> Current optimal value 54326 after 8073 ms
> Current optimal value 53353 after 13071 ms
> Current optimal value 52559 after 30781 ms
> Current optimal value 51116 after 50328 ms
> Current optimal value 51098 after 88660 ms
> Current optimal value 50722 after 96165 ms
> Current optimal value 50495 after 198184 ms
> Current optimal value 50218 after 203714 ms
> Current optimal value 50174 after 219939 ms
> Current optimal value 50074 after 259811 ms
> Current optimal value 49664 after 282008 ms
> Current optimal value 49625 after 301358 ms
> Current optimal value 49242 after 388126 ms
> Current optimal value 48626 after 416650 ms
