Starting solving at 147 ms
>>> Search start
> Conflicts |          ORIGINAL         |          LEARNT          | Progress
>           |    Vars  Clauses Literals |    Limit  Clauses Lit/Cl |         
|         0 |     520     1683     3860 |      909        1      2 |
>>> Initializing inductive definition 1736
> Number of rules : 144.
> restarts              : 1
> decisions             : 2  (0 % random)
> conflicts             : 0
> propagations          : 716
> conflict literals     : 0  (-nan % deleted)
> Current optimal value 5176 after 147 ms
|         0 |     523     1582     3633 |      532        2     12 |
> restarts              : 2
> decisions             : 3  (0 % random)
> conflicts             : 2
> propagations          : 1675
> conflict literals     : 3  (0 % deleted)
>>> Search done
bestvalue&&5176
nrmodels&&1
total-solving-time2 ms
