Starting solving at 466 ms
>>> Search start
> Conflicts |          ORIGINAL         |          LEARNT          | Progress
>           |    Vars  Clauses Literals |    Limit  Clauses Lit/Cl |         
|         0 |   16981    57813   139037 |    32543        0   -nan |
>>> Initializing inductive definition 1736
> Number of rules : 3136.
|       101 |   16981    56797   137005 |    35797      100     15 |
> restarts              : 2
> decisions             : 193  (0 % random)
> conflicts             : 103
> propagations          : 331470
> conflict literals     : 1565  (11.3314 % deleted)
> Current optimal value 34432 after 537 ms
|       103 |   16982    56797   137005 |    20541      102     15 |
> restarts              : 3
> decisions             : 229  (0 % random)
> conflicts             : 118
> propagations          : 373967
> conflict literals     : 1911  (12.8988 % deleted)
> Current optimal value 34311 after 549 ms
|       118 |   16983    56797   137005 |    20990      120     17 |
|       219 |   16983    56797   137005 |    23089      227     21 |
|       370 |   16983    56797   137005 |    25398      386     23 |
|       596 |   16983    56797   137005 |    27938      614     26 |
|       934 |   16983    56797   137005 |    30731      954     28 |
|      1444 |   16982    56793   136997 |    33805     1446     29 |
> restarts              : 15
> decisions             : 3234  (0 % random)
> conflicts             : 1861
> propagations          : 5391108
> conflict literals     : 52641  (22.3756 % deleted)
>>> Search done
bestvalue&&34311
nrmodels&&1
total-solving-time1565 ms
