Starting solving at 79875 ms
>>> Search start
> Conflicts |          ORIGINAL         |          LEARNT          | Progress
>           |    Vars  Clauses Literals |    Limit  Clauses Lit/Cl |         
|         0 | 12405254 47226029 116849999 | 20795563        0   -nan |
>>> Initializing inductive definition 1736
> Number of rules : 756900.
|       101 | 12405254 47027099 116452139 | 22875119      133    129 |
> restarts              : 3
> decisions             : 14049  (0 % random)
> conflicts             : 223
> propagations          : 67000600
> conflict literals     : 41204  (1.03281 % deleted)
> Current optimal value 790849 after 109128 ms
|       223 | 12405255 47027099 116452139 | 15857028      259    159 |
> restarts              : 4
> decisions             : 18318  (0 % random)
> conflicts             : 225
> propagations          : 79408588
> conflict literals     : 42972  (1.00214 % deleted)
> Current optimal value 790744 after 116624 ms
|       225 | 12405256 47027099 116452139 | 15912073      263    170 |
|       326 | 12405256 47027099 116452139 | 17503280      388    257 |
|       477 | 12405256 47027099 116452139 | 19253608      569    209 |
|       703 | 12405256 47027099 116452139 | 21178969      826    251 |
> restarts              : 8
> decisions             : 37753  (0 % random)
> conflicts             : 828
> propagations          : 204586096
> conflict literals     : 310144  (0.948853 % deleted)
> Current optimal value 790542 after 162723 ms
|       828 | 12405257 47027099 116452139 | 15967369     1022    382 |
|       928 | 12405257 47027099 116452139 | 17564105     1152    386 |
|      1079 | 12405257 47027099 116452139 | 19320516     1318    410 |
|      1306 | 12405257 47027099 116452139 | 21252568     1565    390 |
|      1645 | 12405257 47027099 116452139 | 23377824     1960    459 |
|      2153 | 12405257 47027099 116452139 | 25715607     2533    482 |
|      2913 | 12405257 47027099 116452139 | 28287168     3416    527 |
|      4058 | 12405257 47027099 116452139 | 31115885     4640    538 |
> restarts              : 26
> decisions             : 598989  (0 % random)
> conflicts             : 4475
> propagations          : 1273692057
> conflict literals     : 2338557  (0.481685 % deleted)
> Current optimal value 764552 after 513626 ms
|      4475 | 12405258 47027099 116452139 | 16023766     5084    505 |
> restarts              : 27
> decisions             : 602293  (0 % random)
> conflicts             : 4491
> propagations          : 1286132556
> conflict literals     : 2353348  (0.480945 % deleted)
> Current optimal value 764055 after 521517 ms
|      4491 | 12405259 47027099 116452139 | 16078819     5115    508 |
|      4592 | 12405259 47027099 116452139 | 17686701     5232    504 |
|      4743 | 12405259 47027099 116452139 | 19455371     5404    508 |
|      4968 | 12405259 47027099 116452139 | 21400908     5682    510 |
