alpha: 0.5
beta: 0.5
gamma: 1.5
stagT: 5
Random frameSizes and framesize is choosen randomly between 1 - maxframesize
When an improvement is found the usefullFramesize is set to the size of the removedassumptions
Maximum runtime: 600

Starting solving at: 52 ms
done
PrepModelIt duration: 66 ms
amount madeAssumptions: 725
Objval best sol: 342
search limit: 203
useful search limit: 203
max frame size: 25
frame size: 12
useful frame size: 12
stag: 0/5
total spend time up to now: 48 ms
max time: 600
> Current optimal value 342 after 67 ms
> Current optimal value 337 after 53 ms
> Current optimal value 334 after 58 ms
> Current optimal value 310 after 63 ms
> Current optimal value 295 after 86 ms
> Current optimal value 277 after 92 ms
> Current optimal value 271 after 101 ms
> Current optimal value 239 after 109 ms
> Current optimal value 228 after 123 ms
> Current optimal value 218 after 143 ms
> Current optimal value 210 after 193 ms
> Current optimal value 207 after 228 ms
> Current optimal value 201 after 233 ms
> Current optimal value 181 after 238 ms
> Current optimal value 161 after 254 ms
> Current optimal value 159 after 278 ms
> Current optimal value 157 after 390 ms
> Current optimal value 153 after 402 ms
> Current optimal value 141 after 571 ms
> Current optimal value 140 after 653 ms
> Current optimal value 134 after 658 ms
> Current optimal value 126 after 881 ms
> Current optimal value 116 after 916 ms
> Current optimal value 112 after 996 ms
> Current optimal value 111 after 1011 ms
> Current optimal value 104 after 1016 ms
> Current optimal value 98 after 15611 ms
> Current optimal value 97 after 15662 ms
> Current optimal value 94 after 17949 ms
> Current optimal value 93 after 20492 ms
> Current optimal value 90 after 22073 ms
> Current optimal value 82 after 22338 ms
> Current optimal value 79 after 24378 ms
> Current optimal value 78 after 25157 ms
> Current optimal value 70 after 40664 ms
> Current optimal value 66 after 232071 ms
> Current optimal value 65 after 382733 ms
