alpha: 0.5
beta: 0.5
gamma: 1.5
stagT: 5
Random frameSizes and framesize is choosen randomly between 1 - maxframesize
When an improvement is found the usefullFramesize is set to the size of the removedassumptions
Maximum runtime: 600

Starting solving at: 52 ms
done
PrepModelIt duration: 69 ms
amount madeAssumptions: 896
Objval best sol: 398
search limit: 302
useful search limit: 302
max frame size: 28
frame size: 14
useful frame size: 14
stag: 0/5
total spend time up to now: 49 ms
max time: 600
> Current optimal value 398 after 70 ms
> Current optimal value 386 after 68 ms
> Current optimal value 373 after 73 ms
> Current optimal value 363 after 90 ms
> Current optimal value 359 after 171 ms
> Current optimal value 355 after 178 ms
> Current optimal value 353 after 204 ms
> Current optimal value 351 after 212 ms
> Current optimal value 343 after 237 ms
> Current optimal value 326 after 248 ms
> Current optimal value 313 after 284 ms
> Current optimal value 304 after 295 ms
> Current optimal value 282 after 305 ms
> Current optimal value 264 after 315 ms
> Current optimal value 258 after 348 ms
> Current optimal value 249 after 367 ms
> Current optimal value 244 after 372 ms
> Current optimal value 242 after 404 ms
> Current optimal value 241 after 508 ms
> Current optimal value 237 after 516 ms
> Current optimal value 230 after 564 ms
> Current optimal value 228 after 841 ms
> Current optimal value 216 after 950 ms
> Current optimal value 212 after 998 ms
> Current optimal value 211 after 1601 ms
> Current optimal value 210 after 1691 ms
> Current optimal value 198 after 1902 ms
> Current optimal value 193 after 1908 ms
> Current optimal value 189 after 1924 ms
> Current optimal value 188 after 2186 ms
> Current optimal value 180 after 2228 ms
> Current optimal value 179 after 3045 ms
> Current optimal value 154 after 3130 ms
> Current optimal value 151 after 3145 ms
> Current optimal value 142 after 3204 ms
> Current optimal value 132 after 3239 ms
> Current optimal value 129 after 3295 ms
> Current optimal value 126 after 32978 ms
> Current optimal value 122 after 34368 ms
> Current optimal value 116 after 34675 ms
> Current optimal value 115 after 34985 ms
> Current optimal value 102 after 35036 ms
> Current optimal value 93 after 53663 ms
> Current optimal value 90 after 82951 ms
> Current optimal value 89 after 85217 ms
> Current optimal value 88 after 85320 ms
> Current optimal value 87 after 99400 ms
> Current optimal value 84 after 101888 ms
> Current optimal value 83 after 140949 ms
> Current optimal value 82 after 141039 ms
> Current optimal value 81 after 267048 ms
> Current optimal value 80 after 358905 ms
