alpha: 0.5
beta: 0.5
gamma: 1.5
stagT: 5
Random frameSizes and framesize is choosen randomly between 1 - maxframesize
When an improvement is found the usefullFramesize is set to the size of the removedassumptions
Maximum runtime: 600

Starting solving at: 64 ms
done
PrepModelIt duration: 94 ms
amount madeAssumptions: 1152
Objval best sol: 522
search limit: 609
useful search limit: 609
max frame size: 32
frame size: 16
useful frame size: 16
stag: 0/5
total spend time up to now: 67 ms
max time: 600
> Current optimal value 522 after 95 ms
> Current optimal value 490 after 74 ms
> Current optimal value 462 after 80 ms
> Current optimal value 456 after 88 ms
> Current optimal value 444 after 152 ms
> Current optimal value 442 after 181 ms
> Current optimal value 438 after 229 ms
> Current optimal value 413 after 243 ms
> Current optimal value 405 after 273 ms
> Current optimal value 391 after 282 ms
> Current optimal value 382 after 301 ms
> Current optimal value 377 after 334 ms
> Current optimal value 361 after 341 ms
> Current optimal value 356 after 365 ms
> Current optimal value 355 after 390 ms
> Current optimal value 342 after 545 ms
> Current optimal value 331 after 567 ms
> Current optimal value 329 after 582 ms
> Current optimal value 317 after 606 ms
> Current optimal value 308 after 626 ms
> Current optimal value 291 after 651 ms
> Current optimal value 286 after 674 ms
> Current optimal value 282 after 715 ms
> Current optimal value 278 after 782 ms
> Current optimal value 274 after 798 ms
> Current optimal value 265 after 1136 ms
> Current optimal value 259 after 1175 ms
> Current optimal value 258 after 1235 ms
> Current optimal value 252 after 1248 ms
> Current optimal value 247 after 1323 ms
> Current optimal value 243 after 1337 ms
> Current optimal value 234 after 1351 ms
> Current optimal value 232 after 1427 ms
> Current optimal value 231 after 1500 ms
> Current optimal value 230 after 1529 ms
> Current optimal value 200 after 1541 ms
> Current optimal value 198 after 1667 ms
> Current optimal value 192 after 1679 ms
> Current optimal value 184 after 1757 ms
> Current optimal value 181 after 2658 ms
> Current optimal value 161 after 2859 ms
> Current optimal value 158 after 11458 ms
> Current optimal value 149 after 11543 ms
> Current optimal value 145 after 18108 ms
> Current optimal value 136 after 23351 ms
> Current optimal value 132 after 54028 ms
> Current optimal value 125 after 54578 ms
> Current optimal value 124 after 67519 ms
> Current optimal value 121 after 108612 ms
> Current optimal value 117 after 146479 ms
> Current optimal value 113 after 146563 ms
> Current optimal value 106 after 151140 ms
> Current optimal value 104 after 151181 ms
> Current optimal value 102 after 160274 ms
> Current optimal value 100 after 179926 ms
> Current optimal value 95 after 180425 ms
> Current optimal value 92 after 186803 ms
> Current optimal value 85 after 290305 ms
> Current optimal value 83 after 505368 ms
> Current optimal value 80 after 514306 ms
