alpha: 0.5
beta: 0.5
gamma: 1.5
stagT: 5
Random frameSizes and framesize is choosen randomly between 1 - maxframesize
When an improvement is found the usefullFramesize is set to the size of the removedassumptions
Maximum runtime: 600

Starting solving at: 61 ms
done
PrepModelIt duration: 80 ms
amount madeAssumptions: 1020
Objval best sol: 535
search limit: 260
useful search limit: 260
max frame size: 30
frame size: 15
useful frame size: 15
stag: 0/5
total spend time up to now: 54 ms
max time: 600
> Current optimal value 535 after 81 ms
> Current optimal value 503 after 61 ms
> Current optimal value 494 after 94 ms
> Current optimal value 485 after 125 ms
> Current optimal value 461 after 131 ms
> Current optimal value 447 after 168 ms
> Current optimal value 425 after 179 ms
> Current optimal value 401 after 201 ms
> Current optimal value 372 after 221 ms
> Current optimal value 341 after 256 ms
> Current optimal value 336 after 308 ms
> Current optimal value 334 after 318 ms
> Current optimal value 326 after 367 ms
> Current optimal value 325 after 424 ms
> Current optimal value 293 after 448 ms
> Current optimal value 292 after 528 ms
> Current optimal value 282 after 593 ms
> Current optimal value 268 after 632 ms
> Current optimal value 254 after 647 ms
> Current optimal value 245 after 738 ms
> Current optimal value 244 after 819 ms
> Current optimal value 218 after 826 ms
> Current optimal value 202 after 888 ms
> Current optimal value 200 after 994 ms
> Current optimal value 193 after 1188 ms
> Current optimal value 179 after 1256 ms
> Current optimal value 178 after 1277 ms
> Current optimal value 164 after 1322 ms
> Current optimal value 161 after 2152 ms
> Current optimal value 157 after 2679 ms
> Current optimal value 153 after 2883 ms
> Current optimal value 149 after 2925 ms
> Current optimal value 147 after 3052 ms
> Current optimal value 140 after 3138 ms
> Current optimal value 137 after 3181 ms
> Current optimal value 135 after 3248 ms
> Current optimal value 124 after 3273 ms
> Current optimal value 121 after 31314 ms
> Current optimal value 114 after 84730 ms
> Current optimal value 109 after 95721 ms
> Current optimal value 103 after 100956 ms
> Current optimal value 92 after 101763 ms
> Current optimal value 91 after 178446 ms
> Current optimal value 82 after 227768 ms
> Current optimal value 79 after 369738 ms
> Current optimal value 77 after 555788 ms
> Current optimal value 75 after 564228 ms
