Starting solving at 31638 ms
>>> Search start
> Conflicts |          ORIGINAL         |          LEARNT          | Progress
>           |    Vars  Clauses Literals |    Limit  Clauses Lit/Cl |         
|         0 |   44551    44551   111005 |   445225        0   -nan |
>>> Initializing inductive definition 785
> Number of rules : 22350.
> Number of recursive atoms in positive loops : 22201.
> restarts              : 1
> decisions             : 310  (0 % random)
> conflicts             : 3
> propagations          : 45765
> conflict literals     : 5513  (0 % deleted)
> Current optimal value 256460 after 31953 ms
|         3 |   44552    44551   111005 |   552075        6   1856 |
> restarts              : 2
> decisions             : 13407  (0 % random)
> conflicts             : 24
> propagations          : 90904
> conflict literals     : 96380  (1.40053 % deleted)
> Current optimal value 255716 after 32146 ms
|        24 |   44553    44551   111005 |   659724       39   3022 |
> restarts              : 3
> decisions             : 13573  (0 % random)
> conflicts             : 28
> propagations          : 135513
> conflict literals     : 106286  (1.27349 % deleted)
> Current optimal value 254166 after 32268 ms
|        28 |   44554    44551   111005 |   767364       47   2904 |
> restarts              : 4
> decisions             : 13747  (0 % random)
> conflicts             : 44
> propagations          : 180445
> conflict literals     : 199246  (1.0975 % deleted)
> Current optimal value 253577 after 32425 ms
|        44 |   44555    44551   111005 |   875010       75   3277 |
> restarts              : 6
> decisions             : 14152  (0 % random)
> conflicts             : 125
> propagations          : 271780
> conflict literals     : 669008  (0.901357 % deleted)
> Current optimal value 253151 after 32891 ms
|       125 |   44556    44551   111005 |   982688      195   3881 |
> restarts              : 7
> decisions             : 14333  (0 % random)
> conflicts             : 148
> propagations          : 316826
> conflict literals     : 843490  (0.880278 % deleted)
> Current optimal value 252757 after 33105 ms
|       148 |   44557    44551   111005 |  1090337      230   4113 |
> restarts              : 8
> decisions             : 14495  (0 % random)
> conflicts             : 150
> propagations          : 361417
> conflict literals     : 856329  (0.883373 % deleted)
> Current optimal value 251707 after 33266 ms
|       150 |   44558    44551   111005 |  1197975      234   4099 |
|       251 |   44558    44551   111005 |  1317773      386   4804 |
|       402 |   44558    44551   111005 |  1449550      611   5521 |
|       629 |   44558    44551   111005 |  1594505      929   5552 |
|       968 |   44558    44551   111005 |  1753956     1406   6291 |
|      1475 |   44558    44551   111005 |  1929351     2107   6871 |
> restarts              : 16
> decisions             : 18054  (0 % random)
> conflicts             : 1800
> propagations          : 768488
> conflict literals     : 16445338  (1.13228 % deleted)
> Current optimal value 251411 after 40012 ms
|      1800 |   44559    44551   111005 |  1306392     2571   6541 |
> restarts              : 17
> decisions             : 18298  (0 % random)
> conflicts             : 1865
> propagations          : 814845
> conflict literals     : 16737483  (1.13605 % deleted)
> Current optimal value 250239 after 40351 ms
|      1865 |   44560    44551   111005 |  1414065     2678   6407 |
> restarts              : 18
> decisions             : 18564  (0 % random)
> conflicts             : 1938
> propagations          : 861660
> conflict literals     : 17185519  (1.13767 % deleted)
> Current optimal value 249906 after 40738 ms
|      1938 |   44561    44551   111005 |  1521736     2780   6337 |
|      2038 |   44561    44551   111005 |  1673909     2916   6324 |
|      2189 |   44561    44551   111005 |  1841300     3128   6144 |
> restarts              : 22
> decisions             : 19716  (0 % random)
> conflicts             : 2336
> propagations          : 1051444
> conflict literals     : 19543561  (1.14653 % deleted)
> Current optimal value 249664 after 42501 ms
|      2336 |   44562    44551   111005 |  1629558     3333   6011 |
|      2436 |   44562    44551   111005 |  1792513     3476   5973 |
|      2587 |   44562    44551   111005 |  1971765     3696   5852 |
> restarts              : 25
> decisions             : 20649  (0 % random)
> conflicts             : 2696
> propagations          : 1195391
> conflict literals     : 21769105  (1.16878 % deleted)
> Current optimal value 249605 after 44081 ms
|      2696 |   44563    44551   111005 |  1737368     3852   5787 |
> restarts              : 26
> decisions             : 20800  (0 % random)
> conflicts             : 2698
> propagations          : 1239986
> conflict literals     : 21777471  (1.16861 % deleted)
> Current optimal value 249581 after 44262 ms
|      2698 |   44564    44551   111005 |  1845007     3856   5784 |
> restarts              : 28
> decisions             : 21107  (0 % random)
> conflicts             : 2704
> propagations          : 1329199
> conflict literals     : 21794322  (1.16802 % deleted)
> Current optimal value 248116 after 44597 ms
|      2704 |   44565    44551   111005 |  1952647     3865   5775 |
|      2805 |   44565    44551   111005 |  2147912     4003   5755 |
|      2955 |   44565    44551   111005 |  2362703     4199   5761 |
|      3180 |   44565    44551   111005 |  2598973     4487   5684 |
> restarts              : 31
> decisions             : 22442  (0 % random)
> conflicts             : 3283
> propagations          : 1482491
> conflict literals     : 25781688  (1.18793 % deleted)
> Current optimal value 247574 after 46892 ms
|      3283 |   44566    44551   111005 |  2060539     4630   5698 |
|      3383 |   44566    44551   111005 |  2266593     4775   5645 |
|      3533 |   44566    44551   111005 |  2493252     4963   5669 |
|      3758 |   44566    44551   111005 |  2742578     5258   5655 |
|      4096 |   44566    44551   111005 |  3016836     5693   5568 |
> restarts              : 34
> decisions             : 24266  (0 % random)
> conflicts             : 4192
> propagations          : 1644048
> conflict literals     : 31669972  (1.16587 % deleted)
> Current optimal value 247481 after 50033 ms
|      4192 |   44567    44551   111005 |  2168575     5825   5563 |
|      4293 |   44567    44551   111005 |  2385432     5968   5549 |
|      4445 |   44567    44551   111005 |  2623976     6163   5586 |
|      4671 |   44567    44551   111005 |  2886373     6454   5639 |
|      5009 |   44567    44551   111005 |  3175011     6901   5752 |
> restarts              : 40
> decisions             : 26526  (0 % random)
> conflicts             : 5087
> propagations          : 1941549
> conflict literals     : 39430755  (1.19848 % deleted)
> Current optimal value 247318 after 54104 ms
|      5087 |   44568    44551   111005 |  2276605     7004   5764 |
|      5188 |   44568    44551   111005 |  2504266     7140   5733 |
|      5339 |   44568    44551   111005 |  2754692     7341   5772 |
|      5566 |   44568    44551   111005 |  3030162     7644   5795 |
|      5904 |   44568    44551   111005 |  3333178     8100   5812 |
|      6411 |   44568    44551   111005 |  3666496     8782   6074 |
|      7173 |   44568    44551   111005 |  4033145     9782   6137 |
|      8319 |   44568    44551   111005 |  4436460    11298   6314 |
|     10032 |   44568    44551   111005 |  4880106    13526   6462 |
|     12596 |   44568    44551   111005 |  5368117    16996   6175 |
|     16450 |   44568    44551   111005 |  5904928    22093   6277 |
|     22237 |   44568    44551   111005 |  6495421    29596   6480 |
> restarts              : 109
> decisions             : 69640  (0 % random)
> conflicts             : 25235
> propagations          : 5696028
> conflict literals     : 218835308  (1.01724 % deleted)
> Current optimal value 247282 after 142131 ms
|     25235 |   44569    44551   111005 |  2393054    33439   6676 |
|     25336 |   44569    44551   111005 |  2632360    33587   6668 |
|     25487 |   44569    44551   111005 |  2895596    33783   6667 |
|     25714 |   44569    44551   111005 |  3185155    34071   6634 |
|     26053 |   44569    44551   111005 |  3503671    34493   6617 |
> restarts              : 117
> decisions             : 72149  (0 % random)
> conflicts             : 26131
> propagations          : 6073967
> conflict literals     : 224143597  (1.01779 % deleted)
> Current optimal value 247250 after 146749 ms
|     26131 |   44570    44551   111005 |  2501077    34594   6613 |
|     26231 |   44570    44551   111005 |  2751184    34742   6605 |
|     26381 |   44570    44551   111005 |  3026303    34941   6615 |
|     26608 |   44570    44551   111005 |  3328933    35235   6611 |
> restarts              : 121
> decisions             : 73966  (0 % random)
> conflicts             : 26890
> propagations          : 6273114
> conflict literals     : 230695553  (1.01399 % deleted)
> Current optimal value 247188 after 150291 ms
|     26890 |   44571    44551   111005 |  2609055    35616   6610 |
> restarts              : 123
> decisions             : 74316  (0 % random)
> conflicts             : 26924
> propagations          : 6362860
> conflict literals     : 230873184  (1.01409 % deleted)
> Current optimal value 247171 after 150798 ms
|     26924 |   44572    44551   111005 |  2716707    35662   6606 |
|     27024 |   44572    44551   111005 |  2988378    35795   6607 |
|     27175 |   44572    44551   111005 |  3287216    36004   6608 |
> restarts              : 125
> decisions             : 75033  (0 % random)
> conflicts             : 27217
> propagations          : 6458992
> conflict literals     : 233473027  (1.01193 % deleted)
> Current optimal value 246695 after 152225 ms
|     27217 |   44573    44551   111005 |  2824477    36058   6607 |
|     27317 |   44573    44551   111005 |  3106924    36203   6617 |
> restarts              : 126
> decisions             : 75487  (0 % random)
> conflicts             : 27436
> propagations          : 6509984
> conflict literals     : 236081480  (1.00897 % deleted)
> Current optimal value 246251 after 153308 ms
|     27436 |   44574    44551   111005 |  2932215    36362   6625 |
> restarts              : 127
> decisions             : 75707  (0 % random)
> conflicts             : 27484
> propagations          : 6555661
> conflict literals     : 236541278  (1.00948 % deleted)
> Current optimal value 245839 after 153764 ms
|     27484 |   44575    44551   111005 |  3039875    36430   6626 |
> restarts              : 128
> decisions             : 75872  (0 % random)
> conflicts             : 27485
> propagations          : 6600252
> conflict literals     : 236549092  (1.00946 % deleted)
> Current optimal value 245638 after 154023 ms
|     27485 |   44576    44551   111005 |  3147513    36432   6626 |
> restarts              : 129
> decisions             : 76037  (0 % random)
> conflicts             : 27487
> propagations          : 6644860
> conflict literals     : 236565524  (1.00944 % deleted)
> Current optimal value 245437 after 154288 ms
|     27487 |   44577    44551   111005 |  3255152    36435   6626 |
|     27587 |   44577    44551   111005 |  3580667    36582   6629 |
|     27737 |   44577    44551   111005 |  3938733    36783   6622 |
|     27963 |   44577    44551   111005 |  4332607    37072   6603 |
|     28303 |   44577    44551   111005 |  4765868    37509   6594 |
> restarts              : 135
> decisions             : 78724  (0 % random)
> conflicts             : 28749
> propagations          : 6948444
> conflict literals     : 246914006  (1.01063 % deleted)
> Current optimal value 245407 after 160393 ms
|     28749 |   44578    44551   111005 |  3363358    38141   6607 |
|     28849 |   44578    44551   111005 |  3699693    38278   6625 |
|     29001 |   44578    44551   111005 |  4069663    38469   6651 |
> restarts              : 139
> decisions             : 80013  (0 % random)
> conflicts             : 29214
> propagations          : 7140052
> conflict literals     : 251737540  (1.0063 % deleted)
> Current optimal value 245293 after 163262 ms
|     29214 |   44579    44551   111005 |  3471195    38740   6630 |
|     29315 |   44579    44551   111005 |  3818314    38880   6633 |
> restarts              : 141
> decisions             : 80509  (0 % random)
> conflicts             : 29376
> propagations          : 7233226
> conflict literals     : 253435717  (1.00507 % deleted)
> Current optimal value 245092 after 164456 ms
|     29376 |   44580    44551   111005 |  3578908    38969   6635 |
|     29476 |   44580    44551   111005 |  3936799    39113   6646 |
|     29627 |   44580    44551   111005 |  4330479    39314   6643 |
|     29852 |   44580    44551   111005 |  4763527    39607   6623 |
> restarts              : 143
> decisions             : 81946  (0 % random)
> conflicts             : 30068
> propagations          : 7343350
> conflict literals     : 258546099  (1.00112 % deleted)
> Current optimal value 245062 after 167501 ms
|     30068 |   44581    44551   111005 |  3686856    39901   6610 |
|     30168 |   44581    44551   111005 |  4055542    40029   6624 |
|     30319 |   44581    44551   111005 |  4461096    40224   6625 |
|     30545 |   44581    44551   111005 |  4907206    40525   6643 |
|     30885 |   44581    44551   111005 |  5397926    41003   6664 |
> restarts              : 150
> decisions             : 84531  (0 % random)
> conflicts             : 31129
> propagations          : 7686557
> conflict literals     : 270403163  (1.00294 % deleted)
> Current optimal value 245035 after 173677 ms
|     31129 |   44582    44551   111005 |  3794971    41333   6672 |
|     31229 |   44582    44551   111005 |  4174468    41481   6680 |
> restarts              : 151
> decisions             : 84929  (0 % random)
> conflicts             : 31332
> propagations          : 7736558
> conflict literals     : 273194606  (1.01124 % deleted)
> Current optimal value 244990 after 174818 ms
|     31332 |   44583    44551   111005 |  3902704    41619   6693 |
|     31433 |   44583    44551   111005 |  4292974    41760   6701 |
|     31583 |   44583    44551   111005 |  4722271    41980   6715 |
|     31811 |   44583    44551   111005 |  5194499    42298   6745 |
|     32149 |   44583    44551   111005 |  5713948    42727   6793 |
|     32656 |   44583    44551   111005 |  6285343    43456   6803 |
|     33416 |   44583    44551   111005 |  6913878    44499   6831 |
> restarts              : 159
> decisions             : 89397  (0 % random)
> conflicts             : 33788
> propagations          : 8164474
> conflict literals     : 300410228  (1.03419 % deleted)
> Current optimal value 244875 after 187970 ms
|     33788 |   44584    44551   111005 |  4011463    44986   6808 |
|     33888 |   44584    44551   111005 |  4412610    45131   6812 |
|     34038 |   44584    44551   111005 |  4853871    45327   6823 |
> restarts              : 160
> decisions             : 90069  (0 % random)
> conflicts             : 34128
> propagations          : 8218922
> conflict literals     : 304089388  (1.03835 % deleted)
> Current optimal value 244849 after 189680 ms
|     34128 |   44585    44551   111005 |  4119252    45441   6822 |
|     34228 |   44585    44551   111005 |  4531177    45589   6825 |
|     34378 |   44585    44551   111005 |  4984295    45794   6834 |
|     34603 |   44585    44551   111005 |  5482725    46077   6841 |
> restarts              : 161
> decisions             : 91184  (0 % random)
> conflicts             : 34759
> propagations          : 8281661
> conflict literals     : 310995583  (1.04577 % deleted)
> Current optimal value 244489 after 192631 ms
|     34759 |   44586    44551   111005 |  4227170    46283   6849 |
|     34860 |   44586    44551   111005 |  4649887    46436   6856 |
> restarts              : 163
> decisions             : 91643  (0 % random)
> conflicts             : 34870
> propagations          : 8373843
> conflict literals     : 312471825  (1.04903 % deleted)
> Current optimal value 244047 after 193806 ms
|     34870 |   44587    44551   111005 |  4334864    46452   6857 |
|     34971 |   44587    44551   111005 |  4768350    46591   6867 |
|     35122 |   44587    44551   111005 |  5245185    46794   6875 |
|     35347 |   44587    44551   111005 |  5769704    47102   6901 |
> restarts              : 168
> decisions             : 93469  (0 % random)
> conflicts             : 35614
> propagations          : 8623173
> conflict literals     : 321879026  (1.05845 % deleted)
> Current optimal value 243965 after 199128 ms
|     35614 |   44588    44551   111005 |  4442836    47455   6911 |
> restarts              : 170
> decisions             : 93888  (0 % random)
> conflicts             : 35709
> propagations          : 8714634
> conflict literals     : 322882964  (1.0595 % deleted)
> Current optimal value 243644 after 200193 ms
|     35709 |   44589    44551   111005 |  4550523    47605   6912 |
> restarts              : 171
> decisions             : 94120  (0 % random)
> conflicts             : 35782
> propagations          : 8761347
> conflict literals     : 323985647  (1.06481 % deleted)
> Current optimal value 243614 after 200881 ms
|     35782 |   44590    44551   111005 |  4658199    47720   6918 |
|     35883 |   44590    44551   111005 |  5124018    47855   6920 |
|     36033 |   44590    44551   111005 |  5636420    48069   6903 |
|     36259 |   44590    44551   111005 |  6200062    48389   6893 |
> restarts              : 174
> decisions             : 95502  (0 % random)
> conflicts             : 36450
> propagations          : 8913213
> conflict literals     : 329769077  (1.07281 % deleted)
> Current optimal value 243513 after 204670 ms
|     36450 |   44591    44551   111005 |  4766149    48658   6906 |
|     36550 |   44591    44551   111005 |  5242763    48787   6906 |
|     36700 |   44591    44551   111005 |  5767040    48978   6908 |
|     36925 |   44591    44551   111005 |  6343744    49276   6893 |
|     37264 |   44591    44551   111005 |  6978118    49720   6893 |
|     37774 |   44591    44551   111005 |  7675930    50389   6897 |
|     38537 |   44591    44551   111005 |  8443523    51386   6941 |
> restarts              : 189
> decisions             : 102503  (0 % random)
> conflicts             : 39564
> propagations          : 9672571
> conflict literals     : 360695549  (1.08485 % deleted)
> Current optimal value 243451 after 222775 ms
|     39564 |   44592    44551   111005 |  4875149    52747   6962 |
|     39664 |   44592    44551   111005 |  5362664    52905   6963 |
> restarts              : 190
> decisions             : 102895  (0 % random)
> conflicts             : 39776
> propagations          : 9722520
> conflict literals     : 362932046  (1.08751 % deleted)
> Current optimal value 243318 after 224164 ms
|     39776 |   44593    44551   111005 |  4982898    53082   6963 |
|     39876 |   44593    44551   111005 |  5481188    53230   6971 |
|     40026 |   44593    44551   111005 |  6029306    53449   6984 |
|     40253 |   44593    44551   111005 |  6632237    53752   6993 |
|     40592 |   44593    44551   111005 |  7295461    54195   7006 |
> restarts              : 197
> decisions             : 105408  (0 % random)
> conflicts             : 40821
> propagations          : 10064841
> conflict literals     : 375576120  (1.10031 % deleted)
> Current optimal value 243219 after 231248 ms
|     40821 |   44594    44551   111005 |  5091027    54556   7011 |
|     40922 |   44594    44551   111005 |  5600129    54719   7013 |
> restarts              : 200
> decisions             : 106222  (0 % random)
> conflicts             : 41033
> propagations          : 10205422
> conflict literals     : 377797646  (1.10185 % deleted)
> Current optimal value 243062 after 233300 ms
|     41033 |   44595    44551   111005 |  5198766    54861   7013 |
|     41134 |   44595    44551   111005 |  5718642    54998   7011 |
> restarts              : 202
> decisions             : 106703  (0 % random)
> conflicts             : 41136
> propagations          : 10297804
> conflict literals     : 378654101  (1.10264 % deleted)
> Current optimal value 242377 after 234500 ms
|     41136 |   44596    44551   111005 |  5306450    55001   7011 |
> restarts              : 203
> decisions             : 106882  (0 % random)
> conflicts             : 41143
> propagations          : 10342550
> conflict literals     : 378725787  (1.10265 % deleted)
> Current optimal value 242335 after 234925 ms
|     41143 |   44597    44551   111005 |  5414091    55014   7011 |
|     41244 |   44597    44551   111005 |  5955500    55153   7009 |
|     41394 |   44597    44551   111005 |  6551050    55350   7017 |
|     41620 |   44597    44551   111005 |  7206156    55651   7014 |
|     41957 |   44597    44551   111005 |  7926771    56092   7023 |
> restarts              : 206
> decisions             : 108907  (0 % random)
> conflicts             : 42077
> propagations          : 10506137
> conflict literals     : 387784588  (1.11002 % deleted)
> Current optimal value 242042 after 239998 ms
|     42077 |   44598    44551   111005 |  5522139    56244   7021 |
> restarts              : 207
> decisions             : 109086  (0 % random)
> conflicts             : 42082
> propagations          : 10550891
> conflict literals     : 387862100  (1.11065 % deleted)
> Current optimal value 241743 after 240426 ms
|     42082 |   44599    44551   111005 |  5629778    56251   7021 |
> restarts              : 208
> decisions             : 109260  (0 % random)
> conflicts             : 42088
> propagations          : 10595631
> conflict literals     : 387910942  (1.1107 % deleted)
> Current optimal value 241702 after 240853 ms
|     42088 |   44600    44551   111005 |  5737419    56262   7021 |
> restarts              : 209
> decisions             : 109477  (0 % random)
> conflicts             : 42126
> propagations          : 10641410
> conflict literals     : 388515344  (1.11236 % deleted)
> Current optimal value 241614 after 241417 ms
|     42126 |   44601    44551   111005 |  5845075    56316   7025 |
> restarts              : 210
> decisions             : 109655  (0 % random)
> conflicts             : 42140
> propagations          : 10686282
> conflict literals     : 388667619  (1.11268 % deleted)
> Current optimal value 241256 after 241861 ms
|     42140 |   44602    44551   111005 |  5952718    56335   7025 |
> restarts              : 211
> decisions             : 109837  (0 % random)
> conflicts             : 42165
> propagations          : 10731390
> conflict literals     : 388948751  (1.11335 % deleted)
> Current optimal value 240967 after 242386 ms
|     42165 |   44603    44551   111005 |  6060370    56378   7026 |
|     42265 |   44603    44551   111005 |  6666407    56517   7034 |
|     42416 |   44603    44551   111005 |  7333048    56753   7028 |
|     42641 |   44603    44551   111005 |  8066352    57050   7035 |
|     42980 |   44603    44551   111005 |  8872988    57523   7065 |
|     43490 |   44603    44551   111005 |  9760287    58240   7089 |
> restarts              : 221
> decisions             : 113962  (0 % random)
> conflicts             : 44098
> propagations          : 11237284
> conflict literals     : 413062242  (1.15174 % deleted)
> Current optimal value 240857 after 254665 ms
|     44098 |   44604    44551   111005 |  6168925    59131   7110 |
> restarts              : 222
> decisions             : 114132  (0 % random)
> conflicts             : 44108
> propagations          : 11282138
> conflict literals     : 413099494  (1.15174 % deleted)
> Current optimal value 240754 after 255131 ms
|     44108 |   44605    44551   111005 |  6276568    59147   7109 |
|     44208 |   44605    44551   111005 |  6904224    59284   7116 |
|     44358 |   44605    44551   111005 |  7594647    59487   7124 |
> restarts              : 223
> decisions             : 114832  (0 % random)
> conflicts             : 44544
> propagations          : 11339709
> conflict literals     : 417782496  (1.15429 % deleted)
> Current optimal value 240585 after 257365 ms
|     44544 |   44606    44551   111005 |  6384408    59756   7117 |
> restarts              : 224
> decisions             : 114992  (0 % random)
> conflicts             : 44552
> propagations          : 11384497
> conflict literals     : 417835962  (1.15424 % deleted)
> Current optimal value 240427 after 257830 ms
|     44552 |   44607    44551   111005 |  6492050    59770   7116 |
|     44652 |   44607    44551   111005 |  7141255    59914   7120 |
|     44803 |   44607    44551   111005 |  7855380    60132   7121 |
|     45030 |   44607    44551   111005 |  8640918    60460   7140 |
> restarts              : 228
> decisions             : 116382  (0 % random)
> conflicts             : 45173
> propagations          : 11583105
> conflict literals     : 425556435  (1.16056 % deleted)
> Current optimal value 240339 after 262242 ms
|     45173 |   44608    44551   111005 |  6599988    60673   7140 |
|     45274 |   44608    44551   111005 |  7259987    60825   7143 |
> restarts              : 231
> decisions             : 118521  (0 % random)
> conflicts             : 45385
> propagations          : 11722503
> conflict literals     : 428132067  (1.16432 % deleted)
> Current optimal value 240191 after 264433 ms
|     45385 |   44609    44551   111005 |  6707732    60993   7146 |
|     45486 |   44609    44551   111005 |  7378505    61137   7150 |
|     45638 |   44609    44551   111005 |  8116356    61345   7160 |
> restarts              : 236
> decisions             : 119867  (0 % random)
> conflicts             : 45847
> propagations          : 11958958
> conflict literals     : 434228671  (1.17181 % deleted)
> Current optimal value 239913 after 268719 ms
|     45847 |   44610    44551   111005 |  6815580    61625   7172 |
> restarts              : 237
> decisions             : 120038  (0 % random)
> conflicts             : 45859
> propagations          : 12003852
> conflict literals     : 434361977  (1.17177 % deleted)
> Current optimal value 239723 after 269247 ms
|     45859 |   44611    44551   111005 |  6923225    61646   7172 |
> restarts              : 238
> decisions             : 120265  (0 % random)
> conflicts             : 45915
> propagations          : 12050151
> conflict literals     : 435024853  (1.17292 % deleted)
> Current optimal value 239687 after 269988 ms
|     45915 |   44612    44551   111005 |  7030891    61734   7174 |
|     46015 |   44612    44551   111005 |  7733980    61891   7179 |
|     46165 |   44612    44551   111005 |  8507378    62091   7182 |
> restarts              : 240
> decisions             : 121025  (0 % random)
> conflicts             : 46250
> propagations          : 12148514
> conflict literals     : 439007447  (1.1792 % deleted)
> Current optimal value 239591 after 272394 ms
|     46250 |   44613    44551   111005 |  7138684    62200   7185 |
> restarts              : 241
> decisions             : 121188  (0 % random)
> conflicts             : 46254
> propagations          : 12193192
> conflict literals     : 439038819  (1.17916 % deleted)
> Current optimal value 239559 after 272952 ms
|     46254 |   44614    44551   111005 |  7246324    62207   7185 |
> restarts              : 242
> decisions             : 121385  (0 % random)
> conflicts             : 46299
> propagations          : 12238836
> conflict literals     : 439503842  (1.17965 % deleted)
> Current optimal value 239543 after 273672 ms
|     46299 |   44615    44551   111005 |  7353984    62277   7184 |
|     46399 |   44615    44551   111005 |  8089383    62431   7187 |
|     46550 |   44615    44551   111005 |  8898321    62638   7190 |
> restarts              : 244
> decisions             : 122186  (0 % random)
> conflicts             : 46666
> propagations          : 12338042
> conflict literals     : 443048307  (1.1793 % deleted)
> Current optimal value 239092 after 276313 ms
|     46666 |   44616    44551   111005 |  7461794    62794   7183 |
> restarts              : 245
> decisions             : 122385  (0 % random)
> conflicts             : 46699
> propagations          : 12383618
> conflict literals     : 443535237  (1.17962 % deleted)
> Current optimal value 239059 after 276966 ms
|     46699 |   44617    44551   111005 |  7569448    62845   7186 |
> restarts              : 246
> decisions             : 122561  (0 % random)
> conflicts             : 46718
> propagations          : 12428728
> conflict literals     : 443793059  (1.17975 % deleted)
> Current optimal value 238958 after 277625 ms
|     46718 |   44618    44551   111005 |  7677095    62874   7186 |
> restarts              : 247
> decisions             : 122749  (0 % random)
> conflicts             : 46744
> propagations          : 12474099
> conflict literals     : 444243416  (1.18064 % deleted)
> Current optimal value 238698 after 278338 ms
|     46744 |   44619    44551   111005 |  7784745    62911   7189 |
> restarts              : 248
> decisions             : 122973  (0 % random)
> conflicts             : 46786
> propagations          : 12520018
> conflict literals     : 444964601  (1.18081 % deleted)
> Current optimal value 238464 after 279087 ms
|     46786 |   44620    44551   111005 |  7892403    62973   7194 |
|     46887 |   44620    44551   111005 |  8681643    63120   7197 |
|     47038 |   44620    44551   111005 |  9549808    63320   7203 |
> restarts              : 251
> decisions             : 123872  (0 % random)
> conflicts             : 47110
> propagations          : 12663539
> conflict literals     : 448599661  (1.18218 % deleted)
> Current optimal value 238289 after 282298 ms
|     47110 |   44621    44551   111005 |  8000190    63423   7200 |
> restarts              : 252
> decisions             : 124097  (0 % random)
> conflicts             : 47170
> propagations          : 12709769
> conflict literals     : 449323559  (1.1827 % deleted)
> Current optimal value 238237 after 283146 ms
|     47170 |   44622    44551   111005 |  8107860    63519   7201 |
> restarts              : 253
> decisions             : 124267  (0 % random)
> conflicts             : 47183
> propagations          : 12754666
> conflict literals     : 449461985  (1.18259 % deleted)
> Current optimal value 237977 after 283788 ms
|     47183 |   44623    44551   111005 |  8215503    63536   7201 |
> restarts              : 254
> decisions             : 124545  (0 % random)
> conflicts             : 47263
> propagations          : 12801515
> conflict literals     : 450527991  (1.1835 % deleted)
> Current optimal value 237870 after 284729 ms
|     47263 |   44624    44551   111005 |  8323181    63658   7205 |
> restarts              : 255
> decisions             : 124703  (0 % random)
> conflicts             : 47265
> propagations          : 12846179
> conflict literals     : 450570586  (1.18352 % deleted)
> Current optimal value 237703 after 285342 ms
|     47265 |   44625    44551   111005 |  8430819    63662   7205 |
> restarts              : 256
> decisions             : 124856  (0 % random)
> conflicts             : 47268
> propagations          : 12890888
> conflict literals     : 450634405  (1.1835 % deleted)
> Current optimal value 237387 after 285970 ms
|     47268 |   44626    44551   111005 |  8538459    63668   7206 |
|     47368 |   44626    44551   111005 |  9392304    63823   7207 |
> restarts              : 258
> decisions             : 125384  (0 % random)
> conflicts             : 47444
> propagations          : 12984978
> conflict literals     : 452686870  (1.18402 % deleted)
> Current optimal value 237377 after 288038 ms
|     47444 |   44627    44551   111005 |  8646185    63935   7209 |
|     47545 |   44627    44551   111005 |  9510803    64072   7215 |
> restarts              : 261
> decisions             : 126128  (0 % random)
> conflicts             : 47667
> propagations          : 13125090
> conflict literals     : 455428698  (1.18631 % deleted)
> Current optimal value 237258 after 290817 ms
|     47667 |   44628    44551   111005 |  8753924    64241   7217 |
> restarts              : 262
> decisions             : 126304  (0 % random)
> conflicts             : 47688
> propagations          : 13170210
> conflict literals     : 455667157  (1.18621 % deleted)
> Current optimal value 237252 after 291547 ms
|     47688 |   44629    44551   111005 |  8861572    64273   7218 |
> restarts              : 264
> decisions             : 126687  (0 % random)
> conflicts             : 47745
> propagations          : 13260789
> conflict literals     : 456286076  (1.18659 % deleted)
> Current optimal value 237209 after 293010 ms
|     47745 |   44630    44551   111005 |  8969235    64350   7219 |
> restarts              : 265
> decisions             : 126860  (0 % random)
> conflicts             : 47769
> propagations          : 13305870
> conflict literals     : 456443204  (1.18676 % deleted)
> Current optimal value 237118 after 293734 ms
|     47769 |   44631    44551   111005 |  9076885    64387   7218 |
> restarts              : 266
> decisions             : 127045  (0 % random)
> conflicts             : 47797
> propagations          : 13351293
> conflict literals     : 456816856  (1.18704 % deleted)
> Current optimal value 237075 after 294508 ms
|     47797 |   44632    44551   111005 |  9184537    64430   7219 |
> restarts              : 268
> decisions             : 127358  (0 % random)
> conflicts             : 47803
> propagations          : 13440610
> conflict literals     : 456857395  (1.18699 % deleted)
> Current optimal value 236919 after 295787 ms
|     47803 |   44633    44551   111005 |  9292177    64439   7219 |
> restarts              : 269
> decisions             : 127541  (0 % random)
> conflicts             : 47831
> propagations          : 13485920
> conflict literals     : 457225026  (1.1872 % deleted)
> Current optimal value 236757 after 296585 ms
|     47831 |   44634    44551   111005 |  9399830    64485   7220 |
|     47932 |   44634    44551   111005 | 10339813    64612   7221 |
|     48082 |   44634    44551   111005 | 11373794    64817   7214 |
|     48307 |   44634    44551   111005 | 12511173    65099   7207 |
|     48644 |   44634    44551   111005 | 13762291    65556   7195 |
|     49154 |   44634    44551   111005 | 15138520    66243   7205 |
> restarts              : 276
> decisions             : 130847  (0 % random)
> conflicts             : 49273
> propagations          : 13841050
> conflict literals     : 470408094  (1.18728 % deleted)
> Current optimal value 236449 after 307735 ms
|     49273 |   44635    44551   111005 |  9508108    66407   7213 |
> restarts              : 278
> decisions             : 131197  (0 % random)
> conflicts             : 49308
> propagations          : 13931215
> conflict literals     : 470748636  (1.18768 % deleted)
> Current optimal value 236428 after 309211 ms
|     49308 |   44636    44551   111005 |  9615766    66470   7211 |
|     49408 |   44636    44551   111005 | 10577342    66627   7214 |
|     49558 |   44636    44551   111005 | 11635077    66820   7214 |
> restarts              : 279
> decisions             : 131744  (0 % random)
> conflicts             : 49595
> propagations          : 13983778
> conflict literals     : 473674642  (1.18712 % deleted)
> Current optimal value 236270 after 311259 ms
|     49595 |   44637    44551   111005 |  9723538    66874   7212 |
|     49695 |   44637    44551   111005 | 10695892    67014   7216 |
> restarts              : 281
> decisions             : 132225  (0 % random)
> conflicts             : 49719
> propagations          : 14076458
> conflict literals     : 475158953  (1.18802 % deleted)
> Current optimal value 236129 after 313272 ms
|     49719 |   44638    44551   111005 |  9831231    67040   7217 |
> restarts              : 282
> decisions             : 132396  (0 % random)
> conflicts             : 49728
> propagations          : 14121288
> conflict literals     : 475285179  (1.18821 % deleted)
> Current optimal value 236007 after 314045 ms
|     49728 |   44639    44551   111005 |  9938873    67055   7218 |
|     49828 |   44639    44551   111005 | 10932760    67197   7222 |
|     49979 |   44639    44551   111005 | 12026036    67427   7220 |
> restarts              : 285
> decisions             : 133342  (0 % random)
> conflicts             : 50140
> propagations          : 14266284
> conflict literals     : 479550987  (1.19105 % deleted)
> Current optimal value 235627 after 318200 ms
|     50140 |   44640    44551   111005 | 10046711    67658   7218 |
> restarts              : 286
> decisions             : 133547  (0 % random)
> conflicts             : 50187
> propagations          : 14312209
> conflict literals     : 480147085  (1.19181 % deleted)
> Current optimal value 235525 after 319052 ms
|     50187 |   44641    44551   111005 | 10154376    67739   7218 |
> restarts              : 287
> decisions             : 133701  (0 % random)
> conflicts             : 50189
> propagations          : 14356894
> conflict literals     : 480168700  (1.19193 % deleted)
> Current optimal value 235427 after 319773 ms
|     50189 |   44642    44551   111005 | 10262014    67743   7218 |
> restarts              : 288
> decisions             : 133877  (0 % random)
> conflicts             : 50212
> propagations          : 14402118
> conflict literals     : 480442797  (1.19238 % deleted)
> Current optimal value 235208 after 320623 ms
|     50212 |   44643    44551   111005 | 10369666    67785   7218 |
|     50312 |   44643    44551   111005 | 11406632    67933   7219 |
|     50462 |   44643    44551   111005 | 12547295    68154   7216 |
|     50688 |   44643    44551   111005 | 13802025    68445   7213 |
|     51028 |   44643    44551   111005 | 15182227    68925   7224 |
|     51536 |   44643    44551   111005 | 16700450    69580   7232 |
> restarts              : 296
> decisions             : 137115  (0 % random)
> conflicts             : 51665
> propagations          : 14800507
> conflict literals     : 495307389  (1.19226 % deleted)
> Current optimal value 235172 after 333347 ms
|     51665 |   44644    44551   111005 | 10477958    69749   7230 |
|     51766 |   44644    44551   111005 | 11525753    69905   7230 |
> restarts              : 300
> decisions             : 138160  (0 % random)
> conflicts             : 51911
> propagations          : 14985645
> conflict literals     : 497356696  (1.19141 % deleted)
> Current optimal value 235107 after 337402 ms
|     51911 |   44645    44551   111005 | 10585708    70087   7225 |
> restarts              : 301
> decisions             : 138323  (0 % random)
> conflicts             : 51913
> propagations          : 15030312
> conflict literals     : 497382494  (1.1914 % deleted)
> Current optimal value 234975 after 338193 ms
|     51913 |   44646    44551   111005 | 10693346    70091   7225 |
> restarts              : 302
> decisions             : 138502  (0 % random)
> conflicts             : 51935
> propagations          : 15075393
> conflict literals     : 497556412  (1.19141 % deleted)
> Current optimal value 234954 after 339055 ms
|     51935 |   44647    44551   111005 | 10800996    70128   7224 |
|     52035 |   44647    44551   111005 | 11881095    70275   7227 |
|     52186 |   44647    44551   111005 | 13069205    70491   7230 |
|     52413 |   44647    44551   111005 | 14376126    70810   7237 |
> restarts              : 307
> decisions             : 140039  (0 % random)
> conflicts             : 52524
> propagations          : 15314785
> conflict literals     : 504413989  (1.19512 % deleted)
> Current optimal value 234880 after 345757 ms
|     52524 |   44648    44551   111005 | 10908909    70954   7239 |
|     52625 |   44648    44551   111005 | 11999799    71101   7234 |
|     52775 |   44648    44551   111005 | 13199779    71289   7224 |
|     53001 |   44648    44551   111005 | 14519757    71580   7210 |
|     53340 |   44648    44551   111005 | 15971733    72041   7220 |
|     53850 |   44648    44551   111005 | 17568907    72738   7246 |
|     54610 |   44648    44551   111005 | 19325797    73769   7267 |
|     55750 |   44648    44551   111005 | 21258377    75370   7258 |
|     57459 |   44648    44551   111005 | 23384215    77756   7322 |
|     60024 |   44648    44551   111005 | 25722636    81363   7304 |
|     63887 |   44648    44551   111005 | 28294900    86507   7345 |
|     69675 |   44648    44551   111005 | 31124390    94111   7421 |
|     78343 |   44648    44551   111005 | 34236829   105305   7480 |
