Starting solving at 202 ms
>>> Search start
> Conflicts |          ORIGINAL         |          LEARNT          | Progress
>           |    Vars  Clauses Literals |    Limit  Clauses Lit/Cl |         
|         0 |    3403     3403     8405 |    25767        0   -nan |
>>> Initializing inductive definition 787
> Number of rules : 1722.
> Number of recursive atoms in positive loops : 1681.
> restarts              : 1
> decisions             : 118  (0 % random)
> conflicts             : 3
> propagations          : 3843
> conflict literals     : 511  (0 % deleted)
> Current optimal value 4290 after 209 ms
|         3 |    3404     3403     8405 |    31773        6    178 |
> restarts              : 2
> decisions             : 1036  (0 % random)
> conflicts             : 5
> propagations          : 7263
> conflict literals     : 1828  (0.0546747 % deleted)
> Current optimal value 4167 after 216 ms
|         5 |    3405     3403     8405 |    37944        9    394 |
> restarts              : 3
> decisions             : 1801  (0 % random)
> conflicts             : 22
> propagations          : 11021
> conflict literals     : 5461  (0.491983 % deleted)
> Current optimal value 4164 after 226 ms
|        22 |    3406     3403     8405 |    44123       35    222 |
> restarts              : 4
> decisions             : 1871  (0 % random)
> conflicts             : 41
> propagations          : 14862
> conflict literals     : 14096  (1.06682 % deleted)
> Current optimal value 4051 after 237 ms
|        41 |    3407     3403     8405 |    50303       63    297 |
> restarts              : 5
> decisions             : 1955  (0 % random)
> conflicts             : 79
> propagations          : 19334
> conflict literals     : 49925  (2.79211 % deleted)
> Current optimal value 4048 after 252 ms
|        79 |    3408     3403     8405 |    56493      123    490 |
> restarts              : 7
> decisions             : 2103  (0 % random)
> conflicts             : 129
> propagations          : 27368
> conflict literals     : 93983  (3.03033 % deleted)
> Current optimal value 3972 after 277 ms
|       129 |    3409     3403     8405 |    62687      192    556 |
> restarts              : 8
> decisions             : 2163  (0 % random)
> conflicts             : 136
> propagations          : 30936
> conflict literals     : 101058  (2.93151 % deleted)
> Current optimal value 3889 after 287 ms
|       136 |    3410     3403     8405 |    68860      202    563 |
|       236 |    3410     3403     8405 |    75746      342    579 |
> restarts              : 9
> decisions             : 2406  (0 % random)
> conflicts             : 241
> propagations          : 38280
> conflict literals     : 190412  (2.80044 % deleted)
> Current optimal value 3875 after 327 ms
|       241 |    3411     3403     8405 |    75080      349    590 |
|       342 |    3411     3403     8405 |    82588      487    633 |
|       492 |    3411     3403     8405 |    90846      689    619 |
> restarts              : 13
> decisions             : 3245  (0 % random)
> conflicts             : 648
> propagations          : 66816
> conflict literals     : 492642  (2.12132 % deleted)
> Current optimal value 3870 after 473 ms
|       648 |    3412     3403     8405 |    81432      895    579 |
> restarts              : 14
> decisions             : 3349  (0 % random)
> conflicts             : 686
> propagations          : 71391
> conflict literals     : 503234  (2.09265 % deleted)
> Current optimal value 3837 after 489 ms
|       686 |    3413     3403     8405 |    87620      948    559 |
|       787 |    3413     3403     8405 |    96382     1087    525 |
|       937 |    3413     3403     8405 |   106020     1280    485 |
|      1162 |    3413     3403     8405 |   116622     1586    495 |
> restarts              : 16
> decisions             : 4648  (0 % random)
> conflicts             : 1463
> propagations          : 106248
> conflict literals     : 971400  (1.89544 % deleted)
> Current optimal value 3796 after 709 ms
|      1463 |    3414     3403     8405 |    94134     1979    511 |
> restarts              : 17
> decisions             : 4719  (0 % random)
> conflicts             : 1476
> propagations          : 110139
> conflict literals     : 984867  (1.90753 % deleted)
> Current optimal value 3763 after 723 ms
|      1476 |    3415     3403     8405 |   100312     2001    512 |
|      1577 |    3415     3403     8405 |   110343     2143    526 |
> restarts              : 19
> decisions             : 5003  (0 % random)
> conflicts             : 1618
> propagations          : 120973
> conflict literals     : 1115929  (2.08727 % deleted)
> Current optimal value 3762 after 785 ms
|      1618 |    3416     3403     8405 |   106549     2203    529 |
> restarts              : 20
> decisions             : 5056  (0 % random)
> conflicts             : 1620
> propagations          : 124419
> conflict literals     : 1116596  (2.08665 % deleted)
> Current optimal value 3742 after 795 ms
|      1620 |    3417     3403     8405 |   112721     2207    529 |
> restarts              : 21
> decisions             : 5104  (0 % random)
> conflicts             : 1622
> propagations          : 127858
> conflict literals     : 1119069  (2.08565 % deleted)
> Current optimal value 3682 after 808 ms
|      1622 |    3418     3403     8405 |   118893     2211    529 |
|      1723 |    3418     3403     8405 |   130782     2346    546 |
|      1873 |    3418     3403     8405 |   143860     2546    566 |
|      2098 |    3418     3403     8405 |   158246     2842    583 |
|      2438 |    3418     3403     8405 |   174071     3285    595 |
> restarts              : 29
> decisions             : 7351  (0 % random)
> conflicts             : 2762
> propagations          : 199773
> conflict literals     : 2282177  (2.53375 % deleted)
> Current optimal value 3622 after 1318 ms
|      2762 |    3419     3403     8405 |   125557     3694    639 |
|      2862 |    3419     3403     8405 |   138113     3827    645 |
|      3013 |    3419     3403     8405 |   151924     4024    664 |
|      3238 |    3419     3403     8405 |   167117     4312    653 |
|      3575 |    3419     3403     8405 |   183828     4758    638 |
|      4082 |    3419     3403     8405 |   202211     5389    645 |
|      4841 |    3419     3403     8405 |   222433     6364    652 |
|      5986 |    3419     3403     8405 |   244676     7784    629 |
|      7703 |    3419     3403     8405 |   269144     9920    644 |
|     10277 |    3419     3403     8405 |   296058    13239    647 |
|     14126 |    3419     3403     8405 |   325664    18133    648 |
|     19910 |    3419     3403     8405 |   358230    25529    599 |
|     28594 |    3419     3403     8405 |   394053    36386    595 |
|     41579 |    3419     3403     8405 |   433459    52727    588 |
> restarts              : 135
> decisions             : 90431  (0 % random)
> conflicts             : 43170
> propagations          : 2274920
> conflict literals     : 31422530  (3.26332 % deleted)
> Current optimal value 3608 after 16950 ms
|     43170 |    3420     3403     8405 |   148764    54804    587 |
|     43270 |    3420     3403     8405 |   163641    54944    587 |
|     43422 |    3420     3403     8405 |   180005    55136    588 |
|     43648 |    3420     3403     8405 |   198005    55418    588 |
|     43987 |    3420     3403     8405 |   217806    55849    588 |
|     44495 |    3420     3403     8405 |   239586    56497    588 |
|     45255 |    3420     3403     8405 |   263545    57488    588 |
|     46401 |    3420     3403     8405 |   289900    59000    589 |
|     48116 |    3420     3403     8405 |   318890    61274    584 |
|     50685 |    3420     3403     8405 |   350779    64713    585 |
|     54547 |    3420     3403     8405 |   385857    69756    588 |
> restarts              : 191
> decisions             : 119939  (0 % random)
> conflicts             : 59096
> propagations          : 3039423
> conflict literals     : 43616300  (3.44157 % deleted)
> Current optimal value 3596 after 23153 ms
|     59096 |    3421     3403     8405 |   161892    75677    591 |
|     59196 |    3421     3403     8405 |   178081    75820    591 |
|     59346 |    3421     3403     8405 |   195890    76019    591 |
> restarts              : 192
> decisions             : 120452  (0 % random)
> conflicts             : 59474
> propagations          : 3053570
> conflict literals     : 43887428  (3.44598 % deleted)
> Current optimal value 3588 after 23281 ms
|     59474 |    3422     3403     8405 |   168240    76210    591 |
|     59574 |    3422     3403     8405 |   185064    76350    591 |
|     59724 |    3422     3403     8405 |   203571    76548    591 |
|     59949 |    3422     3403     8405 |   223928    76843    592 |
|     60286 |    3422     3403     8405 |   246321    77310    591 |
> restarts              : 193
> decisions             : 121737  (0 % random)
> conflicts             : 60365
> propagations          : 3086714
> conflict literals     : 44611744  (3.47441 % deleted)
> Current optimal value 3577 after 23618 ms
|     60365 |    3423     3403     8405 |   174814    77420    591 |
|     60465 |    3423     3403     8405 |   192295    77561    591 |
> restarts              : 194
> decisions             : 122099  (0 % random)
> conflicts             : 60605
> propagations          : 3097396
> conflict literals     : 44835965  (3.48485 % deleted)
> Current optimal value 3575 after 23710 ms
|     60605 |    3424     3403     8405 |   181099    77763    591 |
|     60705 |    3424     3403     8405 |   199208    77907    592 |
|     60855 |    3424     3403     8405 |   219129    78115    592 |
|     61080 |    3424     3403     8405 |   241042    78414    592 |
|     61419 |    3424     3403     8405 |   265147    78858    593 |
|     61927 |    3424     3403     8405 |   291661    79543    592 |
|     62691 |    3424     3403     8405 |   320827    80544    594 |
|     63832 |    3424     3403     8405 |   352910    82057    592 |
|     65551 |    3424     3403     8405 |   388201    84310    593 |
|     68118 |    3424     3403     8405 |   427021    87717    594 |
|     71978 |    3424     3403     8405 |   469724    92815    594 |
|     77760 |    3424     3403     8405 |   516696   100416    600 |
|     86411 |    3424     3403     8405 |   568366   111417    592 |
|     99388 |    3424     3403     8405 |   625202   127951    591 |
|    118915 |    3424     3403     8405 |   687723   152558    576 |
|    148187 |    3424     3403     8405 |   756495   190292    582 |
|    192082 |    3424     3403     8405 |   832145   245983    573 |
> restarts              : 511
> decisions             : 395205  (0 % random)
> conflicts             : 196014
> propagations          : 9254716
> conflict literals     : 140185530  (4.04834 % deleted)
> Current optimal value 3571 after 84719 ms
|    196014 |    3425     3403     8405 |   245057   251126    571 |
> restarts              : 512
> decisions             : 395295  (0 % random)
> conflicts             : 196053
> propagations          : 9258973
> conflict literals     : 140209753  (4.04869 % deleted)
> Current optimal value 3565 after 84843 ms
|    196053 |    3426     3403     8405 |   174011    19477    458 |
|    196153 |    3426     3403     8405 |   191412    19616    458 |
|    196303 |    3426     3403     8405 |   210553    19825    458 |
|    196528 |    3426     3403     8405 |   231608    20132    459 |
|    196865 |    3426     3403     8405 |   254769    20576    461 |
|    197371 |    3426     3403     8405 |   280246    21230    462 |
|    198130 |    3426     3403     8405 |   308271    22223    464 |
|    199269 |    3426     3403     8405 |   339098    23728    458 |
|    200977 |    3426     3403     8405 |   373008    25907    459 |
|    203552 |    3426     3403     8405 |   410308    29257    469 |
> restarts              : 538
> decisions             : 412769  (0 % random)
> conflicts             : 206202
> propagations          : 9645789
> conflict literals     : 146528322  (4.09474 % deleted)
> Current optimal value 3563 after 88979 ms
|    206202 |    3427     3403     8405 |   184603    32742    470 |
|    206303 |    3427     3403     8405 |   203063    32895    471 |
|    206453 |    3427     3403     8405 |   223369    33103    472 |
|    206679 |    3427     3403     8405 |   245706    33411    473 |
|    207017 |    3427     3403     8405 |   270277    33861    474 |
|    207523 |    3427     3403     8405 |   297304    34521    475 |
> restarts              : 543
> decisions             : 415347  (0 % random)
> conflicts             : 207861
> propagations          : 9706246
> conflict literals     : 147672760  (4.11545 % deleted)
> Current optimal value 3542 after 89634 ms
|    207861 |    3428     3403     8405 |   191522    34988    474 |
> restarts              : 544
> decisions             : 415478  (0 % random)
> conflicts             : 207933
> propagations          : 9711251
> conflict literals     : 147740538  (4.11593 % deleted)
> Current optimal value 3540 after 89675 ms
|    207933 |    3429     3403     8405 |   197726    35090    474 |
> restarts              : 545
> decisions             : 415521  (0 % random)
> conflicts             : 207934
> propagations          : 9714688
> conflict literals     : 147740686  (4.11593 % deleted)
> Current optimal value 3531 after 89692 ms
|    207934 |    3430     3403     8405 |   203897    35092    474 |
|    208034 |    3430     3403     8405 |   224287    35244    475 |
> restarts              : 546
> decisions             : 415708  (0 % random)
> conflicts             : 208054
> propagations          : 9721036
> conflict literals     : 147842462  (4.11782 % deleted)
> Current optimal value 3530 after 89754 ms
|    208054 |    3431     3403     8405 |   210129    35276    475 |
|    208154 |    3431     3403     8405 |   231141    35424    476 |
|    208304 |    3431     3403     8405 |   254256    35605    476 |
|    208529 |    3431     3403     8405 |   279681    35885    477 |
|    208866 |    3431     3403     8405 |   307649    36306    477 |
|    209373 |    3431     3403     8405 |   338414    36993    478 |
|    210136 |    3431     3403     8405 |   372256    37994    480 |
|    211281 |    3431     3403     8405 |   409481    39443    485 |
|    212996 |    3431     3403     8405 |   450430    41659    489 |
|    215567 |    3431     3403     8405 |   495473    44893    487 |
> restarts              : 575
> decisions             : 432608  (0 % random)
> conflicts             : 217202
> propagations          : 10109545
> conflict literals     : 153869012  (4.17085 % deleted)
> Current optimal value 3523 after 94481 ms
|    217202 |    3432     3403     8405 |   220217    47030    487 |
|    217302 |    3432     3403     8405 |   242239    47164    487 |
|    217452 |    3432     3403     8405 |   266462    47357    487 |
|    217677 |    3432     3403     8405 |   293109    47651    487 |
|    218014 |    3432     3403     8405 |   322420    48108    488 |
|    218520 |    3432     3403     8405 |   354662    48756    488 |
|    219279 |    3432     3403     8405 |   390128    49731    489 |
|    220422 |    3432     3403     8405 |   429141    51240    493 |
> restarts              : 582
> decisions             : 439211  (0 % random)
> conflicts             : 220973
> propagations          : 10256555
> conflict literals     : 156616004  (4.17973 % deleted)
> Current optimal value 3499 after 96384 ms
|    220973 |    3433     3403     8405 |   228026    51947    496 |
> restarts              : 583
> decisions             : 439332  (0 % random)
> conflicts             : 221009
> propagations          : 10260800
> conflict literals     : 156635336  (4.18031 % deleted)
> Current optimal value 3491 after 96420 ms
|    221009 |    3434     3403     8405 |   234215    52002    495 |
|    221110 |    3434     3403     8405 |   257636    52143    495 |
|    221260 |    3434     3403     8405 |   283400    52348    496 |
|    221487 |    3434     3403     8405 |   311740    52627    497 |
|    221826 |    3434     3403     8405 |   342914    53072    501 |
|    222333 |    3434     3403     8405 |   377206    53711    502 |
|    223094 |    3434     3403     8405 |   414926    54675    501 |
|    224240 |    3434     3403     8405 |   456419    56157    503 |
|    225954 |    3434     3403     8405 |   502061    58383    504 |
|    228524 |    3434     3403     8405 |   552267    61801    507 |
|    232386 |    3434     3403     8405 |   607494    66891    508 |
|    238159 |    3434     3403     8405 |   668243    74519    512 |
|    246819 |    3434     3403     8405 |   735068    85666    513 |
> restarts              : 664
> decisions             : 492488  (0 % random)
> conflicts             : 250025
> propagations          : 11657855
> conflict literals     : 176644063  (4.21934 % deleted)
> Current optimal value 3480 after 113256 ms
|    250025 |    3435     3403     8405 |   252995    89831    514 |
|    250126 |    3435     3403     8405 |   278294    89986    514 |
|    250277 |    3435     3403     8405 |   306124    90196    514 |
|    250503 |    3435     3403     8405 |   336736    90507    514 |
|    250841 |    3435     3403     8405 |   370410    90973    514 |
> restarts              : 669
> decisions             : 494538  (0 % random)
> conflicts             : 251343
> propagations          : 11715228
> conflict literals     : 177545715  (4.22581 % deleted)
> Current optimal value 3479 after 113918 ms
|    251343 |    3436     3403     8405 |   259771    91649    514 |
|    251443 |    3436     3403     8405 |   285748    91786    514 |
|    251593 |    3436     3403     8405 |   314323    91985    514 |
|    251821 |    3436     3403     8405 |   345756    92271    514 |
|    252160 |    3436     3403     8405 |   380331    92702    513 |
|    252668 |    3436     3403     8405 |   418364    93375    514 |
|    253433 |    3436     3403     8405 |   460201    94374    515 |
|    254574 |    3436     3403     8405 |   506221    95798    513 |
|    256292 |    3436     3403     8405 |   556843    98027    513 |
> restarts              : 699
> decisions             : 505079  (0 % random)
> conflicts             : 256935
> propagations          : 12002232
> conflict literals     : 181109470  (4.23761 % deleted)
> Current optimal value 3478 after 117212 ms
|    256935 |    3437     3403     8405 |   268349    98872    513 |
> restarts              : 700
> decisions             : 505190  (0 % random)
> conflicts             : 256982
> propagations          : 12006832
> conflict literals     : 181148963  (4.23824 % deleted)
> Current optimal value 3470 after 117249 ms
|    256982 |    3438     3403     8405 |   274545    98947    513 |
> restarts              : 701
> decisions             : 505263  (0 % random)
> conflicts             : 256999
> propagations          : 12010660
> conflict literals     : 181159100  (4.23849 % deleted)
> Current optimal value 3457 after 117277 ms
|    256999 |    3439     3403     8405 |   280724    98975    513 |
|    257099 |    3439     3403     8405 |   308797    99128    513 |
> restarts              : 702
> decisions             : 505464  (0 % random)
> conflicts             : 257122
> propagations          : 12017559
> conflict literals     : 181260121  (4.24042 % deleted)
> Current optimal value 3450 after 117358 ms
|    257122 |    3440     3403     8405 |   286957    99161    513 |
> restarts              : 703
> decisions             : 505562  (0 % random)
> conflicts             : 257170
> propagations          : 12022533
> conflict literals     : 181310029  (4.24193 % deleted)
> Current optimal value 3449 after 117402 ms
|    257170 |    3441     3403     8405 |   293150    99231    514 |
> restarts              : 704
> decisions             : 505619  (0 % random)
> conflicts             : 257184
> propagations          : 12026457
> conflict literals     : 181324471  (4.24215 % deleted)
> Current optimal value 3445 after 117429 ms
|    257184 |    3442     3403     8405 |   299327    99251    514 |
|    257285 |    3442     3403     8405 |   329260    99387    513 |
|    257437 |    3442     3403     8405 |   362186    99588    513 |
> restarts              : 708
> decisions             : 506272  (0 % random)
> conflicts             : 257538
> propagations          : 12048885
> conflict literals     : 181520132  (4.24565 % deleted)
> Current optimal value 3442 after 117658 ms
|    257538 |    3443     3403     8405 |   305654    99721    513 |
|    257639 |    3443     3403     8405 |   336220    99885    513 |
|    257790 |    3443     3403     8405 |   369842   100090    513 |
|    258017 |    3443     3403     8405 |   406826   100379    514 |
|    258356 |    3443     3403     8405 |   447508   100817    514 |
|    258864 |    3443     3403     8405 |   492259   101485    514 |
> restarts              : 717
> decisions             : 509411  (0 % random)
> conflicts             : 259281
> propagations          : 12134544
> conflict literals     : 182789840  (4.2584 % deleted)
> Current optimal value 3400 after 118756 ms
|    259281 |    3444     3403     8405 |   312602   102052    514 |
|    259381 |    3444     3403     8405 |   343862   102197    514 |
> restarts              : 718
> decisions             : 509628  (0 % random)
> conflicts             : 259413
> propagations          : 12141591
> conflict literals     : 182896585  (4.26013 % deleted)
> Current optimal value 3380 after 118841 ms
|    259413 |    3445     3403     8405 |   318835   102240    515 |
|    259513 |    3445     3403     8405 |   350718   102376    515 |
|    259664 |    3445     3403     8405 |   385790   102571    515 |
|    259890 |    3445     3403     8405 |   424369   102874    515 |
|    260230 |    3445     3403     8405 |   466806   103305    516 |
|    260738 |    3445     3403     8405 |   513486   103958    517 |
|    261502 |    3445     3403     8405 |   564835   104936    516 |
|    262643 |    3445     3403     8405 |   621319   106414    516 |
|    264353 |    3445     3403     8405 |   683451   108577    517 |
> restarts              : 747
> decisions             : 523111  (0 % random)
> conflicts             : 266349
> propagations          : 12526540
> conflict literals     : 187874079  (4.28528 % deleted)
> Current optimal value 3362 after 123995 ms
|    266349 |    3446     3403     8405 |   327992   111202    519 |
> restarts              : 748
> decisions             : 523184  (0 % random)
> conflicts             : 266366
> propagations          : 12530470
> conflict literals     : 187886660  (4.2855 % deleted)
> Current optimal value 3348 after 124026 ms
|    266366 |    3447     3403     8405 |   334173   111232    519 |
|    266466 |    3447     3403     8405 |   367590   111374    519 |
> restarts              : 749
> decisions             : 523547  (0 % random)
> conflicts             : 266561
> propagations          : 12540001
> conflict literals     : 188029562  (4.28675 % deleted)
> Current optimal value 3333 after 124155 ms
|    266561 |    3448     3403     8405 |   340434   111506    519 |
|    266662 |    3448     3403     8405 |   374478   111667    519 |
|    266813 |    3448     3403     8405 |   411925   111864    519 |
|    267040 |    3448     3403     8405 |   453118   112161    519 |
|    267378 |    3448     3403     8405 |   498430   112630    519 |
|    267887 |    3448     3403     8405 |   548273   113293    520 |
|    268650 |    3448     3403     8405 |   603100   114340    520 |
> restarts              : 762
> decisions             : 527459  (0 % random)
> conflicts             : 268725
> propagations          : 12658670
> conflict literals     : 189585689  (4.29255 % deleted)
> Current optimal value 3303 after 125603 ms
|    268725 |    3449     3403     8405 |   347582   114439    519 |
|    268826 |    3449     3403     8405 |   382340   114588    520 |
|    268976 |    3449     3403     8405 |   420575   114794    520 |
> restarts              : 764
> decisions             : 527972  (0 % random)
> conflicts             : 269022
> propagations          : 12676400
> conflict literals     : 189834050  (4.29536 % deleted)
> Current optimal value 3300 after 125807 ms
|    269022 |    3450     3403     8405 |   353893   114860    520 |
|    269122 |    3450     3403     8405 |   389282   115002    520 |
|    269272 |    3450     3403     8405 |   428210   115211    520 |
|    269497 |    3450     3403     8405 |   471032   115527    520 |
|    269834 |    3450     3403     8405 |   518135   115973    520 |
|    270340 |    3450     3403     8405 |   569948   116686    520 |
|    271100 |    3450     3403     8405 |   626943   117718    522 |
|    272239 |    3450     3403     8405 |   689637   119271    524 |
|    273947 |    3450     3403     8405 |   758601   121616    524 |
> restarts              : 766
> decisions             : 537969  (0 % random)
> conflicts             : 276094
> propagations          : 12926596
> conflict literals     : 195207717  (4.34399 % deleted)
> Current optimal value 3260 after 129715 ms
|    276094 |    3451     3403     8405 |   363302   124577    524 |
> restarts              : 767
> decisions             : 538033  (0 % random)
> conflicts             : 276106
> propagations          : 12930344
> conflict literals     : 195222193  (4.34444 % deleted)
> Current optimal value 3245 after 129747 ms
|    276106 |    3452     3403     8405 |   369480   124599    524 |
|    276206 |    3452     3403     8405 |   406428   124751    524 |
|    276356 |    3452     3403     8405 |   447071   124966    525 |
|    276581 |    3452     3403     8405 |   491778   125265    525 |
|    276920 |    3452     3403     8405 |   540956   125698    526 |
|    277429 |    3452     3403     8405 |   595051   126405    526 |
|    278192 |    3452     3403     8405 |   654556   127408    527 |
|    279336 |    3452     3403     8405 |   720012   128892    529 |
|    281051 |    3452     3403     8405 |   792013   131112    531 |
|    283622 |    3452     3403     8405 |   871215   134499    534 |
|    287481 |    3452     3403     8405 |   958336   139521    534 |
|    293264 |    3452     3403     8405 |  1054170   147016    539 |
|    301943 |    3452     3403     8405 |  1159587   158020    541 |
|    314950 |    3452     3403     8405 |  1275546   174731    539 |
|    334470 |    3452     3403     8405 |  1403100   200325    546 |
|    363731 |    3452     3403     8405 |  1543411   238974    560 |
|    407523 |    3452     3403     8405 |  1697752   296927    552 |
|    473270 |    3452     3403     8405 |  1867527   382534    565 |
|    572049 |    3452     3403     8405 |  2054280   508487    568 |
> restarts              : 1468
> decisions             : 1333416  (0 % random)
> conflicts             : 618440
> propagations          : 32842274
> conflict literals     : 448256486  (4.74276 % deleted)
> Current optimal value 3235 after 443375 ms
|    618440 |    3453     3403     8405 |   523013   566687    569 |
> restarts              : 1469
> decisions             : 1333553  (0 % random)
> conflicts             : 618463
> propagations          : 32846355
> conflict literals     : 448265588  (4.74288 % deleted)
> Current optimal value 3221 after 443632 ms
|    618463 |    3454     3403     8405 |   348168    23641    421 |
|    618563 |    3454     3403     8405 |   382985    23769    421 |
|    618713 |    3454     3403     8405 |   421283    23958    422 |
|    618938 |    3454     3403     8405 |   463412    24234    423 |
|    619277 |    3454     3403     8405 |   509753    24660    423 |
|    619786 |    3454     3403     8405 |   560728    25320    428 |
> restarts              : 1475
> decisions             : 1336857  (0 % random)
> conflicts             : 619793
> propagations          : 32922473
> conflict literals     : 449130866  (4.74319 % deleted)
> Current optimal value 3218 after 444617 ms
|    619793 |    3455     3403     8405 |   354901    25330    428 |
|    619894 |    3455     3403     8405 |   390391    25468    430 |
|    620046 |    3455     3403     8405 |   429431    25672    432 |
|    620272 |    3455     3403     8405 |   472374    25985    436 |
> restarts              : 1481
> decisions             : 1338128  (0 % random)
> conflicts             : 620394
> propagations          : 32963670
> conflict literals     : 449713612  (4.74632 % deleted)
> Current optimal value 3211 after 445107 ms
|    620394 |    3456     3403     8405 |   361342    26142    438 |
|    620495 |    3456     3403     8405 |   397476    26274    440 |
|    620645 |    3456     3403     8405 |   437224    26483    441 |
|    620871 |    3456     3403     8405 |   480947    26778    443 |
> restarts              : 1484
> decisions             : 1339576  (0 % random)
> conflicts             : 621057
> propagations          : 32996491
> conflict literals     : 450232200  (4.74649 % deleted)
> Current optimal value 3167 after 445572 ms
|    621057 |    3457     3403     8405 |   367802    27010    443 |
> restarts              : 1485
> decisions             : 1339663  (0 % random)
> conflicts             : 621063
> propagations          : 33000082
> conflict literals     : 450237609  (4.74652 % deleted)
> Current optimal value 3162 after 445601 ms
|    621063 |    3458     3403     8405 |   373976    27021    443 |
|    621163 |    3458     3403     8405 |   411373    27161    444 |
|    621313 |    3458     3403     8405 |   452511    27360    444 |
|    621538 |    3458     3403     8405 |   497762    27654    445 |
|    621877 |    3458     3403     8405 |   547538    28100    447 |
|    622386 |    3458     3403     8405 |   602292    28773    455 |
|    623150 |    3458     3403     8405 |   662521    29752    457 |
|    624292 |    3458     3403     8405 |   728774    31232    468 |
|    626001 |    3458     3403     8405 |   801651    33438    473 |
|    628577 |    3458     3403     8405 |   881816    36742    482 |
|    632437 |    3458     3403     8405 |   969998    41697    493 |
> restarts              : 1533
> decisions             : 1374969  (0 % random)
> conflicts             : 638173
> propagations          : 33877298
> conflict literals     : 463090545  (4.77328 % deleted)
> Current optimal value 3154 after 458691 ms
|    638173 |    3459     3403     8405 |   387493    49060    510 |
|    638273 |    3459     3403     8405 |   426242    49192    510 |
> restarts              : 1534
> decisions             : 1375362  (0 % random)
> conflicts             : 638414
> propagations          : 33887073
> conflict literals     : 463178046  (4.77404 % deleted)
> Current optimal value 3149 after 458829 ms
|    638414 |    3460     3403     8405 |   393767    49372    509 |
> restarts              : 1535
> decisions             : 1375433  (0 % random)
> conflicts             : 638425
> propagations          : 33890793
> conflict literals     : 463185106  (4.77418 % deleted)
> Current optimal value 3134 after 458861 ms
|    638425 |    3461     3403     8405 |   399944    49392    509 |
|    638525 |    3461     3403     8405 |   439938    49542    509 |
|    638675 |    3461     3403     8405 |   483932    49738    509 |
|    638900 |    3461     3403     8405 |   532325    50026    509 |
|    639237 |    3461     3403     8405 |   585558    50444    511 |
|    639743 |    3461     3403     8405 |   644114    51109    509 |
|    640502 |    3461     3403     8405 |   708525    52079    507 |
|    641641 |    3461     3403     8405 |   779378    53548    503 |
|    643349 |    3461     3403     8405 |   857316    55840    504 |
> restarts              : 1546
> decisions             : 1387984  (0 % random)
> conflicts             : 645393
> propagations          : 34189103
> conflict literals     : 467739369  (4.78718 % deleted)
> Current optimal value 3121 after 463538 ms
|    645393 |    3462     3403     8405 |   409172    58564    508 |
|    645494 |    3462     3403     8405 |   450089    58698    508 |
|    645645 |    3462     3403     8405 |   495098    58902    508 |
> restarts              : 1549
> decisions             : 1388662  (0 % random)
> conflicts             : 645748
> propagations          : 34210384
> conflict literals     : 467939845  (4.78819 % deleted)
> Current optimal value 3110 after 463807 ms
|    645748 |    3463     3403     8405 |   415505    59052    508 |
|    645848 |    3463     3403     8405 |   457055    59190    508 |
|    645998 |    3463     3403     8405 |   502761    59395    509 |
|    646226 |    3463     3403     8405 |   553037    59702    510 |
|    646565 |    3463     3403     8405 |   608340    60164    511 |
|    647073 |    3463     3403     8405 |   669174    60819    512 |
|    647838 |    3463     3403     8405 |   736092    61797    516 |
|    648979 |    3463     3403     8405 |   809701    63302    519 |
|    650688 |    3463     3403     8405 |   890671    65528    521 |
|    653265 |    3463     3403     8405 |   979739    68939    528 |
|    657124 |    3463     3403     8405 |  1077712    73960    523 |
|    662899 |    3463     3403     8405 |  1185484    81288    508 |
|    671582 |    3463     3403     8405 |  1304032    92294    505 |
|    684579 |    3463     3403     8405 |  1434435   108690    495 |
|    704103 |    3463     3403     8405 |  1577879   133644    482 |
|    733360 |    3463     3403     8405 |  1735667   171143    489 |
> restarts              : 1843
> decisions             : 1620850  (0 % random)
> conflicts             : 757276
> propagations          : 39678218
> conflict literals     : 537977250  (4.97427 % deleted)
> Current optimal value 3106 after 547868 ms
|    757276 |    3464     3403     8405 |   469399   202225    502 |
|    757376 |    3464     3403     8405 |   516339   202373    502 |
|    757526 |    3464     3403     8405 |   567973   202564    502 |
|    757753 |    3464     3403     8405 |   624770   202863    502 |
|    758092 |    3464     3403     8405 |   687248   203323    502 |
|    758600 |    3464     3403     8405 |   755972   204004    502 |
|    759360 |    3464     3403     8405 |   831570   205033    502 |
> restarts              : 1852
> decisions             : 1624901  (0 % random)
> conflicts             : 759842
> propagations          : 39778630
> conflict literals     : 539624813  (4.98661 % deleted)
> Current optimal value 3101 after 549326 ms
|    759842 |    3465     3403     8405 |   476717   205666    502 |
|    759942 |    3465     3403     8405 |   524388   205812    502 |
> restarts              : 1853
> decisions             : 1625226  (0 % random)
> conflicts             : 760055
> propagations          : 39787995
> conflict literals     : 539766149  (4.98784 % deleted)
> Current optimal value 3083 after 549473 ms
|    760055 |    3466     3403     8405 |   482988   205970    502 |
> restarts              : 1854
> decisions             : 1625288  (0 % random)
> conflicts             : 760059
> propagations          : 39791571
> conflict literals     : 539770423  (4.98791 % deleted)
> Current optimal value 3081 after 549505 ms
|    760059 |    3467     3403     8405 |   489161   205978    502 |
> restarts              : 1855
> decisions             : 1625348  (0 % random)
> conflicts             : 760063
> propagations          : 39795104
> conflict literals     : 539774562  (4.98792 % deleted)
> Current optimal value 3060 after 549536 ms
|    760063 |    3468     3403     8405 |   495334   205985    502 |
> restarts              : 1856
> decisions             : 1625424  (0 % random)
> conflicts             : 760088
> propagations          : 39799199
> conflict literals     : 539787788  (4.98806 % deleted)
> Current optimal value 3045 after 549577 ms
|    760088 |    3469     3403     8405 |   501518   206026    502 |
|    760188 |    3469     3403     8405 |   551670   206171    502 |
|    760338 |    3469     3403     8405 |   606837   206370    502 |
|    760563 |    3469     3403     8405 |   667520   206661    502 |
|    760900 |    3469     3403     8405 |   734272   207132    502 |
|    761409 |    3469     3403     8405 |   807700   207828    502 |
> restarts              : 1860
> decisions             : 1627468  (0 % random)
> conflicts             : 761425
> propagations          : 39855559
> conflict literals     : 540671559  (4.99346 % deleted)
> Current optimal value 3040 after 550467 ms
|    761425 |    3470     3403     8405 |   508295   207847    502 |
|    761525 |    3470     3403     8405 |   559125   207997    502 |
|    761675 |    3470     3403     8405 |   615037   208191    502 |
> restarts              : 1861
> decisions             : 1627947  (0 % random)
> conflicts             : 761738
> propagations          : 39868043
> conflict literals     : 540863644  (4.99412 % deleted)
> Current optimal value 3033 after 550666 ms
|    761738 |    3471     3403     8405 |   514608   208273    502 |
> restarts              : 1862
> decisions             : 1628060  (0 % random)
> conflicts             : 761796
> propagations          : 39872928
> conflict literals     : 540904771  (4.99438 % deleted)
> Current optimal value 3023 after 550722 ms
|    761796 |    3472     3403     8405 |   520809   208366    502 |
> restarts              : 1864
> decisions             : 1628175  (0 % random)
> conflicts             : 761830
> propagations          : 39880683
> conflict literals     : 540942794  (4.99455 % deleted)
> Current optimal value 3021 after 550797 ms
|    761830 |    3473     3403     8405 |   526997   208418    502 |
|    761931 |    3473     3403     8405 |   579696   208547    502 |
|    762081 |    3473     3403     8405 |   637666   208746    502 |
> restarts              : 1867
> decisions             : 1628716  (0 % random)
> conflicts             : 762103
> propagations          : 39899367
> conflict literals     : 541148626  (4.99564 % deleted)
> Current optimal value 3009 after 551045 ms
|    762103 |    3474     3403     8405 |   533286   208774    502 |
|    762203 |    3474     3403     8405 |   586614   208922    502 |
> restarts              : 1868
> decisions             : 1628953  (0 % random)
> conflicts             : 762269
> propagations          : 39907393
> conflict literals     : 541263029  (4.99654 % deleted)
> Current optimal value 3006 after 551164 ms
|    762269 |    3475     3403     8405 |   539536   209013    502 |
> restarts              : 1869
> decisions             : 1629072  (0 % random)
> conflicts             : 762336
> propagations          : 39912773
> conflict literals     : 541327702  (4.9976 % deleted)
> Current optimal value 3004 after 551231 ms
|    762336 |    3476     3403     8405 |   545739   209112    502 |
|    762436 |    3476     3403     8405 |   600313   209262    502 |
|    762587 |    3476     3403     8405 |   660344   209466    502 |
|    762814 |    3476     3403     8405 |   726379   209760    502 |
|    763153 |    3476     3403     8405 |   799016   210189    503 |
|    763661 |    3476     3403     8405 |   878918   210838    503 |
> restarts              : 1880
> decisions             : 1631762  (0 % random)
> conflicts             : 764011
> propagations          : 40000821
> conflict literals     : 542648746  (5.00594 % deleted)
> Current optimal value 2995 after 552576 ms
|    764011 |    3477     3403     8405 |   552637   211295    503 |
> restarts              : 1881
> decisions             : 1631812  (0 % random)
> conflicts             : 764018
> propagations          : 40004435
> conflict literals     : 542657928  (5.00605 % deleted)
> Current optimal value 2978 after 552614 ms
|    764018 |    3478     3403     8405 |   558811   211306    503 |
|    764119 |    3478     3403     8405 |   614692   211446    503 |
|    764269 |    3478     3403     8405 |   676161   211651    503 |
|    764494 |    3478     3403     8405 |   743777   211944    503 |
|    764831 |    3478     3403     8405 |   818155   212368    503 |
|    765338 |    3478     3403     8405 |   899971   213065    503 |
> restarts              : 1884
> decisions             : 1633917  (0 % random)
> conflicts             : 765419
> propagations          : 40059640
> conflict literals     : 543532002  (5.01477 % deleted)
> Current optimal value 2970 after 553590 ms
|    765419 |    3479     3403     8405 |   565613   213202    503 |
> restarts              : 1885
> decisions             : 1633972  (0 % random)
> conflicts             : 765425
> propagations          : 40063283
> conflict literals     : 543539045  (5.01482 % deleted)
> Current optimal value 2965 after 553627 ms
|    765425 |    3480     3403     8405 |   571787   213212    503 |
> restarts              : 1886
> decisions             : 1634017  (0 % random)
> conflicts             : 765430
> propagations          : 40066865
> conflict literals     : 543543168  (5.01487 % deleted)
> Current optimal value 2963 after 553662 ms
|    765430 |    3481     3403     8405 |   577961   213222    503 |
> restarts              : 1887
> decisions             : 1634067  (0 % random)
> conflicts             : 765435
> propagations          : 40070529
> conflict literals     : 543548074  (5.01491 % deleted)
> Current optimal value 2950 after 553698 ms
|    765435 |    3482     3403     8405 |   584133   213229    503 |
|    765535 |    3482     3403     8405 |   642547   213355    503 |
|    765685 |    3482     3403     8405 |   706801   213550    503 |
|    765910 |    3482     3403     8405 |   777481   213840    503 |
> restarts              : 1888
> decisions             : 1634967  (0 % random)
> conflicts             : 766013
> propagations          : 40092880
> conflict literals     : 543914975  (5.01503 % deleted)
> Current optimal value 2946 after 554129 ms
|    766013 |    3483     3403     8405 |   590552   213973    503 |
> restarts              : 1889
> decisions             : 1635016  (0 % random)
> conflicts             : 766015
> propagations          : 40096387
> conflict literals     : 543915246  (5.01503 % deleted)
> Current optimal value 2944 after 554164 ms
|    766015 |    3484     3403     8405 |   596723   213977    503 |
|    766115 |    3484     3403     8405 |   656396   214123    503 |
> restarts              : 1890
> decisions             : 1635215  (0 % random)
> conflicts             : 766119
> propagations          : 40102572
> conflict literals     : 543959044  (5.01533 % deleted)
> Current optimal value 2932 after 554258 ms
|    766119 |    3485     3403     8405 |   602945   214130    503 |
|    766219 |    3485     3403     8405 |   663239   214273    503 |
|    766369 |    3485     3403     8405 |   729563   214460    503 |
> restarts              : 1891
> decisions             : 1635732  (0 % random)
> conflicts             : 766449
> propagations          : 40115929
> conflict literals     : 544169440  (5.01674 % deleted)
> Current optimal value 2922 after 554509 ms
|    766449 |    3486     3403     8405 |   609265   214579    503 |
|    766550 |    3486     3403     8405 |   670191   214745    503 |
|    766701 |    3486     3403     8405 |   737210   214949    503 |
> restarts              : 1895
> decisions             : 1636305  (0 % random)
> conflicts             : 766803
> propagations          : 40139594
> conflict literals     : 544449224  (5.02055 % deleted)
> Current optimal value 2920 after 554864 ms
|    766803 |    3487     3403     8405 |   615613   215114    503 |
|    766904 |    3487     3403     8405 |   677175   215257    503 |
|    767054 |    3487     3403     8405 |   744892   215449    503 |
|    767280 |    3487     3403     8405 |   819381   215736    503 |
|    767618 |    3487     3403     8405 |   901319   216169    503 |
|    768124 |    3487     3403     8405 |   991451   216883    503 |
|    768888 |    3487     3403     8405 |  1090597   217954    504 |
|    770034 |    3487     3403     8405 |  1199656   219377    505 |
|    771746 |    3487     3403     8405 |  1319622   221478    507 |
|    774309 |    3487     3403     8405 |  1451584   224761    505 |
|    778154 |    3487     3403     8405 |  1596743   229707    503 |
|    783928 |    3487     3403     8405 |  1756417   237030    503 |
|    792613 |    3487     3403     8405 |  1932059   247990    506 |
