alpha: 0.5
beta: 0.5
gamma: 1.5
stagT: 5
Random frameSizes and framesize is choosen randomly between 1 - maxframesize
When an improvement is found the usefullFramesize is set to the size of the removedassumptions
Maximum runtime: 600

Starting solving at: 40 ms
done
PrepModelIt duration: 44 ms
amount madeAssumptions: 169
Objval best sol: 0
search limit: 1
useful search limit: 1
max frame size: 0
frame size: 0
useful frame size: 0
stag: 0/5
total spend time up to now: 36 ms
max time: 600
> Current optimal value 0 after 44 ms
> Current optimal value -18 after 37 ms
> Current optimal value -28 after 39 ms
> Current optimal value -29 after 41 ms
> Current optimal value -40 after 43 ms
> Current optimal value -49 after 45 ms
> Current optimal value -65 after 47 ms
> Current optimal value -68 after 49 ms
> Current optimal value -71 after 51 ms
> Current optimal value -74 after 53 ms
> Current optimal value -82 after 57 ms
> Current optimal value -84 after 62 ms
> Current optimal value -103 after 66 ms
> Current optimal value -105 after 74 ms
> Current optimal value -109 after 80 ms
> Current optimal value -110 after 100 ms
> Current optimal value -112 after 111 ms
no more models to explore, program will end
end program after: 461885 ms
Total time spend: 461885 ms
Amount of new found models: 333049
Feasible object value: 0
Result object value: -112
