Starting solving at: 26853 ms
done
PrepModelIt duration: 27372 ms
> Current optimal value 256460 after 27373 ms
> Current optimal value 253659 after 1020 ms
> Current optimal value 253228 after 1239 ms
> Current optimal value 251139 after 1461 ms
> Current optimal value 248482 after 1663 ms
> Current optimal value 248261 after 1973 ms
> Current optimal value 248138 after 2627 ms
> Current optimal value 247451 after 2838 ms
> Current optimal value 245377 after 3376 ms
> Current optimal value 245336 after 3579 ms
> Current optimal value 244253 after 3798 ms
> Current optimal value 241481 after 4085 ms
> Current optimal value 241291 after 4850 ms
> Current optimal value 239907 after 5066 ms
> Current optimal value 237513 after 5373 ms
> Current optimal value 236938 after 5592 ms
> Current optimal value 235939 after 6506 ms
> Current optimal value 235840 after 6721 ms
> Current optimal value 234619 after 6926 ms
> Current optimal value 232175 after 7145 ms
> Current optimal value 231565 after 7460 ms
> Current optimal value 231522 after 126173 ms
> Current optimal value 229924 after 126427 ms
> Current optimal value 229313 after 133506 ms
> Current optimal value 227600 after 133978 ms
> Current optimal value 226875 after 134167 ms
> Current optimal value 226834 after 134364 ms
> Current optimal value 226624 after 134939 ms
> Current optimal value 226509 after 135725 ms
> Current optimal value 222298 after 136003 ms
> Current optimal value 220310 after 166388 ms
> Current optimal value 219684 after 166953 ms
> Current optimal value 218550 after 167516 ms
> Current optimal value 216924 after 167709 ms
> Current optimal value 216221 after 167907 ms
> Current optimal value 215614 after 168098 ms
> Current optimal value 215504 after 168738 ms
> Current optimal value 215332 after 169011 ms
> Current optimal value 214930 after 169224 ms
> Current optimal value 214014 after 169419 ms
> Current optimal value 214004 after 169627 ms
> Current optimal value 213907 after 171067 ms
> Current optimal value 213494 after 171332 ms
> Current optimal value 213015 after 171671 ms
> Current optimal value 212399 after 172113 ms
> Current optimal value 211685 after 175144 ms
> Current optimal value 211368 after 175605 ms
> Current optimal value 210696 after 175794 ms
> Current optimal value 210271 after 177461 ms
> Current optimal value 208328 after 178085 ms
> Current optimal value 206399 after 178454 ms
> Current optimal value 205633 after 178655 ms
