Starting solving at: 2559 ms
done
PrepModelIt duration: 2658 ms
> Current optimal value 651440 after 2659 ms
> Current optimal value 644316 after 258 ms
> Current optimal value 630288 after 304 ms
> Current optimal value 609543 after 358 ms
> Current optimal value 604665 after 403 ms
> Current optimal value 590771 after 446 ms
> Current optimal value 588583 after 489 ms
> Current optimal value 586110 after 560 ms
> Current optimal value 585434 after 1318 ms
> Current optimal value 584219 after 1409 ms
> Current optimal value 582462 after 1775 ms
> Current optimal value 575550 after 1818 ms
> Current optimal value 573801 after 2884 ms
> Current optimal value 569448 after 2951 ms
> Current optimal value 567243 after 3000 ms
> Current optimal value 565312 after 3086 ms
> Current optimal value 562641 after 3953 ms
> Current optimal value 560687 after 4076 ms
> Current optimal value 555945 after 4120 ms
> Current optimal value 550279 after 4166 ms
> Current optimal value 549180 after 4209 ms
> Current optimal value 548126 after 4468 ms
> Current optimal value 544458 after 4510 ms
> Current optimal value 536902 after 4587 ms
> Current optimal value 536861 after 4930 ms
> Current optimal value 532086 after 5009 ms
> Current optimal value 527175 after 5049 ms
> Current optimal value 515881 after 5091 ms
> Current optimal value 514650 after 5149 ms
> Current optimal value 514590 after 10221 ms
> Current optimal value 511475 after 10284 ms
> Current optimal value 508020 after 11762 ms
> Current optimal value 506493 after 11805 ms
> Current optimal value 504784 after 11864 ms
