Starting solving at: 2666 ms
done
PrepModelIt duration: 5998 ms
> Current optimal value 6281 after 6001 ms
> Current optimal value 6280 after 5915 ms
> Current optimal value 6250 after 7705 ms
> Current optimal value 6248 after 9204 ms
> Current optimal value 6247 after 10176 ms
> Current optimal value 6244 after 11116 ms
> Current optimal value 6223 after 12249 ms
> Current optimal value 6200 after 13241 ms
> Current optimal value 6199 after 14622 ms
> Current optimal value 6193 after 18565 ms
> Current optimal value 6171 after 19537 ms
> Current optimal value 6158 after 20939 ms
> Current optimal value 6137 after 24149 ms
> Current optimal value 6118 after 26437 ms
> Current optimal value 6104 after 29808 ms
> Current optimal value 6090 after 30824 ms
> Current optimal value 6088 after 32713 ms
> Current optimal value 6087 after 57728 ms
> Current optimal value 6086 after 58702 ms
> Current optimal value 6077 after 60032 ms
> Current optimal value 6071 after 62508 ms
> Current optimal value 6054 after 63978 ms
> Current optimal value 6053 after 66521 ms
> Current optimal value 6040 after 67502 ms
> Current optimal value 6020 after 68542 ms
> Current optimal value 6005 after 71500 ms
> Current optimal value 5991 after 74571 ms
> Current optimal value 5987 after 76748 ms
> Current optimal value 5967 after 80395 ms
> Current optimal value 5934 after 81419 ms
> Current optimal value 5891 after 82433 ms
> Current optimal value 5888 after 83804 ms
> Current optimal value 5887 after 84830 ms
> Current optimal value 5883 after 111292 ms
> Current optimal value 5881 after 119578 ms
> Current optimal value 5877 after 120611 ms
> Current optimal value 5860 after 123228 ms
> Current optimal value 5823 after 124230 ms
> Current optimal value 5799 after 125575 ms
> Current optimal value 5795 after 127403 ms
> Current optimal value 5765 after 139680 ms
> Current optimal value 5751 after 141537 ms
> Current optimal value 5748 after 142526 ms
> Current optimal value 5745 after 143948 ms
> Current optimal value 5744 after 157498 ms
> Current optimal value 5743 after 162770 ms
> Current optimal value 5741 after 181310 ms
> Current optimal value 5738 after 183478 ms
