Starting solving at 241 ms
>>> Search start
> Conflicts |          ORIGINAL         |          LEARNT          | Progress
>           |    Vars  Clauses Literals |    Limit  Clauses Lit/Cl |         
|         0 |     275    12467    24934 |     4898        0   -nan |
> restarts              : 1
> decisions             : 276  (0 % random)
> conflicts             : 0
> propagations          : 279
> conflict literals     : 0  (-nan % deleted)
> Current optimal value 275 after 241 ms
|         0 |     276    12467    24934 |     5641        0   -nan |
> restarts              : 2
> decisions             : 551  (0 % random)
> conflicts             : 0
> propagations          : 555
> conflict literals     : 0  (-nan % deleted)
> Current optimal value 274 after 242 ms
|         0 |     277    12467    24934 |     6384        0   -nan |
> restarts              : 3
> decisions             : 825  (0 % random)
> conflicts             : 0
> propagations          : 832
> conflict literals     : 0  (-nan % deleted)
> Current optimal value 273 after 242 ms
|         0 |     278    12467    24934 |     7126        0   -nan |
> restarts              : 4
> decisions             : 1098  (0 % random)
> conflicts             : 0
> propagations          : 1110
> conflict literals     : 0  (-nan % deleted)
> Current optimal value 272 after 243 ms
|         0 |     279    12467    24934 |     7869        0   -nan |
> restarts              : 5
> decisions             : 1370  (0 % random)
> conflicts             : 0
> propagations          : 1389
> conflict literals     : 0  (-nan % deleted)
> Current optimal value 271 after 243 ms
|         0 |     280    12467    24934 |     8612        0   -nan |
> restarts              : 6
> decisions             : 1641  (0 % random)
> conflicts             : 0
> propagations          : 1669
> conflict literals     : 0  (-nan % deleted)
> Current optimal value 270 after 244 ms
|         0 |     281    12467    24934 |     9354        0   -nan |
> restarts              : 7
> decisions             : 1911  (0 % random)
> conflicts             : 0
> propagations          : 1950
> conflict literals     : 0  (-nan % deleted)
> Current optimal value 269 after 245 ms
|         0 |     282    12467    24934 |    10097        0   -nan |
> restarts              : 8
> decisions             : 2180  (0 % random)
> conflicts             : 0
> propagations          : 2232
> conflict literals     : 0  (-nan % deleted)
> Current optimal value 268 after 246 ms
|         0 |     283    12467    24934 |    10840        0   -nan |
> restarts              : 9
> decisions             : 2448  (0 % random)
> conflicts             : 0
> propagations          : 2515
> conflict literals     : 0  (-nan % deleted)
> Current optimal value 267 after 247 ms
|         0 |     284    12467    24934 |    11582        0   -nan |
> restarts              : 10
> decisions             : 2716  (0 % random)
> conflicts             : 0
> propagations          : 2799
> conflict literals     : 0  (-nan % deleted)
> Current optimal value 266 after 248 ms
|         0 |     285    12467    24934 |    12325        0   -nan |
> restarts              : 11
> decisions             : 2982  (0 % random)
> conflicts             : 0
> propagations          : 3084
> conflict literals     : 0  (-nan % deleted)
> Current optimal value 265 after 249 ms
|         0 |     286    12467    24934 |    13068        0   -nan |
> restarts              : 12
> decisions             : 3249  (0 % random)
> conflicts             : 0
> propagations          : 3370
> conflict literals     : 0  (-nan % deleted)
> Current optimal value 264 after 251 ms
|         0 |     287    12467    24934 |    13810        0   -nan |
> restarts              : 13
> decisions             : 3520  (0 % random)
> conflicts             : 6
> propagations          : 3687
> conflict literals     : 1580  (0.0632511 % deleted)
> Current optimal value 263 after 253 ms
|         6 |     288    12467    24934 |    14555        6    263 |
> restarts              : 14
> decisions             : 3788  (0 % random)
> conflicts             : 9
> propagations          : 3998
> conflict literals     : 2369  (0.0421941 % deleted)
> Current optimal value 262 after 254 ms
|         9 |     289    12467    24934 |    15299       10    263 |
> restarts              : 15
> decisions             : 4051  (0 % random)
> conflicts             : 10
> propagations          : 4291
> conflict literals     : 2631  (0.0379939 % deleted)
> Current optimal value 261 after 256 ms
|        10 |     290    12467    24934 |    16042       11    263 |
> restarts              : 16
> decisions             : 4324  (0 % random)
> conflicts             : 14
> propagations          : 4599
> conflict literals     : 3674  (0.0272109 % deleted)
> Current optimal value 260 after 258 ms
|        14 |     291    12467    24934 |    16786       15    263 |
> restarts              : 17
> decisions             : 4585  (0 % random)
> conflicts             : 15
> propagations          : 4894
> conflict literals     : 3934  (0.025413 % deleted)
> Current optimal value 259 after 260 ms
|        15 |     292    12467    24934 |    17529       16    262 |
> restarts              : 18
> decisions             : 4848  (0 % random)
> conflicts             : 19
> propagations          : 5217
> conflict literals     : 4967  (0.0201288 % deleted)
> Current optimal value 258 after 262 ms
|        19 |     293    12467    24934 |    18273       21    262 |
> restarts              : 19
> decisions             : 5108  (0 % random)
> conflicts             : 19
> propagations          : 5510
> conflict literals     : 4967  (0.0201288 % deleted)
> Current optimal value 257 after 265 ms
|        19 |     294    12467    24934 |    19016       21    262 |
> restarts              : 20
> decisions             : 5368  (0 % random)
> conflicts             : 19
> propagations          : 5804
> conflict literals     : 4967  (0.0201288 % deleted)
> Current optimal value 256 after 267 ms
|        19 |     295    12467    24934 |    19759       21    262 |
> restarts              : 22
> decisions             : 5751  (0 % random)
> conflicts             : 108
> propagations          : 7083
> conflict literals     : 27354  (0.229784 % deleted)
> Current optimal value 255 after 279 ms
|       108 |     296    12467    24934 |    20533      117    256 |
> restarts              : 23
> decisions             : 5899  (0 % random)
> conflicts             : 178
> propagations          : 7953
> conflict literals     : 45067  (0.28763 % deleted)
> Current optimal value 254 after 288 ms
|       178 |     297    12467    24934 |    21302      196    255 |
> restarts              : 24
> decisions             : 6050  (0 % random)
> conflicts             : 272
> propagations          : 9038
> conflict literals     : 68811  (0.230535 % deleted)
> Current optimal value 253 after 298 ms
|       272 |     298    12467    24934 |    22081      304    254 |
|       373 |     298    12467    24934 |    24289      404    254 |
|       524 |     298    12467    24934 |    26718      561    253 |
> restarts              : 27
> decisions             : 6636  (0 % random)
> conflicts             : 543
> propagations          : 11918
> conflict literals     : 136571  (0.171776 % deleted)
> Current optimal value 252 after 332 ms
|       543 |     299    12467    24934 |    22916      581    253 |
|       644 |     299    12467    24934 |    25207      690    253 |
> restarts              : 29
> decisions             : 7088  (0 % random)
> conflicts             : 684
> propagations          : 13849
> conflict literals     : 171640  (0.155317 % deleted)
> Current optimal value 251 after 357 ms
|       684 |     300    12467    24934 |    23710      735    253 |
> restarts              : 30
> decisions             : 7140  (0 % random)
> conflicts             : 686
> propagations          : 14170
> conflict literals     : 172141  (0.154865 % deleted)
> Current optimal value 250 after 360 ms
|       686 |     301    12467    24934 |    24454      738    253 |
> restarts              : 31
> decisions             : 7237  (0 % random)
> conflicts             : 696
> propagations          : 14543
> conflict literals     : 174634  (0.152658 % deleted)
> Current optimal value 249 after 363 ms
|       696 |     302    12467    24934 |    25200      748    253 |
> restarts              : 32
> decisions             : 7289  (0 % random)
> conflicts             : 698
> propagations          : 14866
> conflict literals     : 175131  (0.152225 % deleted)
> Current optimal value 248 after 365 ms
|       698 |     303    12467    24934 |    25943      751    253 |
> restarts              : 33
> decisions             : 7415  (0 % random)
> conflicts             : 737
> propagations          : 15585
> conflict literals     : 184735  (0.14972 % deleted)
> Current optimal value 247 after 373 ms
|       737 |     304    12467    24934 |    26701      796    252 |
> restarts              : 34
> decisions             : 7460  (0 % random)
> conflicts             : 738
> propagations          : 15893
> conflict literals     : 184982  (0.14952 % deleted)
> Current optimal value 246 after 376 ms
|       738 |     305    12467    24934 |    27444      797    252 |
> restarts              : 35
> decisions             : 7503  (0 % random)
> conflicts             : 738
> propagations          : 16198
> conflict literals     : 184982  (0.14952 % deleted)
> Current optimal value 245 after 377 ms
|       738 |     306    12467    24934 |    28187      797    252 |
> restarts              : 36
> decisions             : 7551  (0 % random)
> conflicts             : 738
> propagations          : 16504
> conflict literals     : 184982  (0.14952 % deleted)
> Current optimal value 244 after 379 ms
|       738 |     307    12467    24934 |    28929      797    252 |
> restarts              : 37
> decisions             : 7600  (0 % random)
> conflicts             : 738
> propagations          : 16811
> conflict literals     : 184982  (0.14952 % deleted)
> Current optimal value 243 after 381 ms
|       738 |     308    12467    24934 |    29672      797    252 |
> restarts              : 38
> decisions             : 7650  (0 % random)
> conflicts             : 738
> propagations          : 17119
> conflict literals     : 184982  (0.14952 % deleted)
> Current optimal value 242 after 383 ms
|       738 |     309    12467    24934 |    30415      797    252 |
> restarts              : 39
> decisions             : 7700  (0 % random)
> conflicts             : 738
> propagations          : 17428
> conflict literals     : 184982  (0.14952 % deleted)
> Current optimal value 241 after 385 ms
|       738 |     310    12467    24934 |    31157      797    252 |
> restarts              : 40
> decisions             : 7750  (0 % random)
> conflicts             : 738
> propagations          : 17738
> conflict literals     : 184982  (0.14952 % deleted)
> Current optimal value 240 after 387 ms
|       738 |     311    12467    24934 |    31900      797    252 |
> restarts              : 41
> decisions             : 7800  (0 % random)
> conflicts             : 738
> propagations          : 18049
> conflict literals     : 184982  (0.14952 % deleted)
> Current optimal value 239 after 389 ms
|       738 |     312    12467    24934 |    32643      797    252 |
> restarts              : 42
> decisions             : 7850  (0 % random)
> conflicts             : 738
> propagations          : 18361
> conflict literals     : 184982  (0.14952 % deleted)
> Current optimal value 238 after 392 ms
|       738 |     313    12467    24934 |    33385      797    252 |
> restarts              : 43
> decisions             : 7901  (0 % random)
> conflicts             : 738
> propagations          : 18674
> conflict literals     : 184982  (0.14952 % deleted)
> Current optimal value 237 after 394 ms
|       738 |     314    12467    24934 |    34128      797    252 |
> restarts              : 44
> decisions             : 7952  (0 % random)
> conflicts             : 738
> propagations          : 18988
> conflict literals     : 184982  (0.14952 % deleted)
> Current optimal value 236 after 397 ms
|       738 |     315    12467    24934 |    34871      797    252 |
> restarts              : 45
> decisions             : 8003  (0 % random)
> conflicts             : 738
> propagations          : 19303
> conflict literals     : 184982  (0.14952 % deleted)
> Current optimal value 235 after 399 ms
|       738 |     316    12467    24934 |    35613      797    252 |
> restarts              : 46
> decisions             : 8054  (0 % random)
> conflicts             : 738
> propagations          : 19619
> conflict literals     : 184982  (0.14952 % deleted)
> Current optimal value 234 after 402 ms
|       738 |     317    12467    24934 |    36356      797    252 |
> restarts              : 47
> decisions             : 8105  (0 % random)
> conflicts             : 738
> propagations          : 19936
> conflict literals     : 184982  (0.14952 % deleted)
> Current optimal value 233 after 404 ms
|       738 |     318    12467    24934 |    37099      797    252 |
> restarts              : 48
> decisions             : 8156  (0 % random)
> conflicts             : 738
> propagations          : 20254
> conflict literals     : 184982  (0.14952 % deleted)
> Current optimal value 232 after 407 ms
|       738 |     319    12467    24934 |    37841      797    252 |
> restarts              : 49
> decisions             : 8207  (0 % random)
> conflicts             : 738
> propagations          : 20573
> conflict literals     : 184982  (0.14952 % deleted)
> Current optimal value 231 after 410 ms
|       738 |     320    12467    24934 |    38584      797    252 |
> restarts              : 50
> decisions             : 8262  (0 % random)
> conflicts             : 738
> propagations          : 20893
> conflict literals     : 184982  (0.14952 % deleted)
> Current optimal value 230 after 413 ms
|       738 |     321    12467    24934 |    39327      797    252 |
> restarts              : 51
> decisions             : 8317  (0 % random)
> conflicts             : 738
> propagations          : 21214
> conflict literals     : 184982  (0.14952 % deleted)
> Current optimal value 229 after 416 ms
|       738 |     322    12467    24934 |    40069      797    252 |
> restarts              : 52
> decisions             : 8372  (0 % random)
> conflicts             : 738
> propagations          : 21536
> conflict literals     : 184982  (0.14952 % deleted)
> Current optimal value 228 after 419 ms
|       738 |     323    12467    24934 |    40812      797    252 |
> restarts              : 53
> decisions             : 8427  (0 % random)
> conflicts             : 738
> propagations          : 21859
> conflict literals     : 184982  (0.14952 % deleted)
> Current optimal value 227 after 422 ms
|       738 |     324    12467    24934 |    41555      797    252 |
> restarts              : 54
> decisions             : 8482  (0 % random)
> conflicts             : 738
> propagations          : 22183
> conflict literals     : 184982  (0.14952 % deleted)
> Current optimal value 226 after 425 ms
|       738 |     325    12467    24934 |    42297      797    252 |
> restarts              : 55
> decisions             : 8537  (0 % random)
> conflicts             : 738
> propagations          : 22508
> conflict literals     : 184982  (0.14952 % deleted)
> Current optimal value 225 after 428 ms
|       738 |     326    12467    24934 |    43040      797    252 |
> restarts              : 56
> decisions             : 8592  (0 % random)
> conflicts             : 738
> propagations          : 22834
> conflict literals     : 184982  (0.14952 % deleted)
> Current optimal value 224 after 432 ms
|       738 |     327    12467    24934 |    43783      797    252 |
> restarts              : 57
> decisions             : 8647  (0 % random)
> conflicts             : 738
> propagations          : 23161
> conflict literals     : 184982  (0.14952 % deleted)
> Current optimal value 223 after 435 ms
|       738 |     328    12467    24934 |    44525      797    252 |
> restarts              : 58
> decisions             : 8702  (0 % random)
> conflicts             : 738
> propagations          : 23489
> conflict literals     : 184982  (0.14952 % deleted)
> Current optimal value 222 after 439 ms
|       738 |     329    12467    24934 |    45268      797    252 |
> restarts              : 59
> decisions             : 8717  (0 % random)
> conflicts             : 738
> propagations          : 23818
> conflict literals     : 184982  (0.14952 % deleted)
> Current optimal value 221 after 442 ms
|       738 |     330    12467    24934 |    46011      797    252 |
|       839 |     330    12467    24934 |    50612      922    248 |
|       989 |     330    12467    24934 |    55673     1097    243 |
|      1215 |     330    12467    24934 |    61240     1341    238 |
|      1552 |     330    12467    24934 |    67364     1715    234 |
|      2059 |     330    12467    24934 |    74101     2261    231 |
|      2818 |     330    12467    24934 |    81511     3099    228 |
|      3958 |     330    12467    24934 |    89662     4390    225 |
|      5666 |     330    12467    24934 |    98628     6244    223 |
|      8238 |     330    12467    24934 |   108491     9045    221 |
|     12101 |     330    12467    24934 |   119340    13285    219 |
|     17884 |     330    12467    24934 |   131274    19595    218 |
|     26551 |     330    12467    24934 |   144402    29077    218 |
|     39556 |     330    12467    24934 |   158842    43105    217 |
|     59080 |     330    12467    24934 |   174726    64348    217 |
|     88306 |     330    12467    24934 |   192199    96335    217 |
|    132222 |     330    12467    24934 |   211419   144557    217 |
