Starting solving at 365 ms
>>> Search start
> Conflicts |          ORIGINAL         |          LEARNT          | Progress
>           |    Vars  Clauses Literals |    Limit  Clauses Lit/Cl |         
|         0 |     375    23250    46500 |     8819        0   -nan |
> restarts              : 1
> decisions             : 376  (0 % random)
> conflicts             : 0
> propagations          : 379
> conflict literals     : 0  (-nan % deleted)
> Current optimal value 375 after 366 ms
|         0 |     376    23250    46500 |     9887        0   -nan |
> restarts              : 2
> decisions             : 751  (0 % random)
> conflicts             : 0
> propagations          : 755
> conflict literals     : 0  (-nan % deleted)
> Current optimal value 374 after 367 ms
|         0 |     377    23250    46500 |    10956        0   -nan |
> restarts              : 3
> decisions             : 1125  (0 % random)
> conflicts             : 0
> propagations          : 1132
> conflict literals     : 0  (-nan % deleted)
> Current optimal value 373 after 368 ms
|         0 |     378    23250    46500 |    12025        0   -nan |
> restarts              : 4
> decisions             : 1498  (0 % random)
> conflicts             : 0
> propagations          : 1510
> conflict literals     : 0  (-nan % deleted)
> Current optimal value 372 after 369 ms
|         0 |     379    23250    46500 |    13093        0   -nan |
> restarts              : 5
> decisions             : 1870  (0 % random)
> conflicts             : 0
> propagations          : 1889
> conflict literals     : 0  (-nan % deleted)
> Current optimal value 371 after 370 ms
|         0 |     380    23250    46500 |    14162        0   -nan |
> restarts              : 6
> decisions             : 2242  (0 % random)
> conflicts             : 1
> propagations          : 2274
> conflict literals     : 371  (0 % deleted)
> Current optimal value 370 after 371 ms
|         1 |     381    23250    46500 |    15231        1    371 |
> restarts              : 7
> decisions             : 2614  (0 % random)
> conflicts             : 1
> propagations          : 2655
> conflict literals     : 371  (0 % deleted)
> Current optimal value 369 after 372 ms
|         1 |     382    23250    46500 |    16300        1    371 |
> restarts              : 8
> decisions             : 2984  (0 % random)
> conflicts             : 2
> propagations          : 3042
> conflict literals     : 740  (0 % deleted)
> Current optimal value 368 after 374 ms
|         2 |     383    23250    46500 |    17369        2    370 |
> restarts              : 9
> decisions             : 3355  (0 % random)
> conflicts             : 3
> propagations          : 3431
> conflict literals     : 1108  (0 % deleted)
> Current optimal value 367 after 375 ms
|         3 |     384    23250    46500 |    18438        3    369 |
> restarts              : 10
> decisions             : 3723  (0 % random)
> conflicts             : 4
> propagations          : 3822
> conflict literals     : 1475  (0 % deleted)
> Current optimal value 366 after 377 ms
|         4 |     385    23250    46500 |    19507        4    369 |
> restarts              : 11
> decisions             : 4089  (0 % random)
> conflicts             : 5
> propagations          : 4215
> conflict literals     : 1841  (0 % deleted)
> Current optimal value 365 after 379 ms
|         5 |     386    23250    46500 |    20576        5    368 |
> restarts              : 12
> decisions             : 4454  (0 % random)
> conflicts             : 5
> propagations          : 4601
> conflict literals     : 1841  (0 % deleted)
> Current optimal value 364 after 381 ms
|         5 |     387    23250    46500 |    21644        5    368 |
> restarts              : 13
> decisions             : 4823  (0 % random)
> conflicts             : 5
> propagations          : 4988
> conflict literals     : 1841  (0 % deleted)
> Current optimal value 363 after 383 ms
|         5 |     388    23250    46500 |    22713        5    368 |
> restarts              : 14
> decisions             : 5190  (0 % random)
> conflicts             : 5
> propagations          : 5376
> conflict literals     : 1841  (0 % deleted)
> Current optimal value 362 after 386 ms
|         5 |     389    23250    46500 |    23782        5    368 |
> restarts              : 15
> decisions             : 5560  (0 % random)
> conflicts             : 5
> propagations          : 5765
> conflict literals     : 1841  (0 % deleted)
> Current optimal value 361 after 388 ms
|         5 |     390    23250    46500 |    24850        5    368 |
> restarts              : 16
> decisions             : 5931  (0 % random)
> conflicts             : 7
> propagations          : 6166
> conflict literals     : 2562  (0 % deleted)
> Current optimal value 360 after 391 ms
|         7 |     391    23250    46500 |    25920        7    366 |
> restarts              : 17
> decisions             : 6294  (0 % random)
> conflicts             : 8
> propagations          : 6560
> conflict literals     : 2922  (0 % deleted)
> Current optimal value 359 after 394 ms
|         8 |     392    23250    46500 |    26989        8    365 |
> restarts              : 18
> decisions             : 6656  (0 % random)
> conflicts             : 10
> propagations          : 6963
> conflict literals     : 3639  (0 % deleted)
> Current optimal value 358 after 398 ms
|        10 |     393    23250    46500 |    28058       10    364 |
> restarts              : 19
> decisions             : 7019  (0 % random)
> conflicts             : 12
> propagations          : 7371
> conflict literals     : 4354  (0 % deleted)
> Current optimal value 357 after 402 ms
|        12 |     394    23250    46500 |    29127       12    363 |
> restarts              : 20
> decisions             : 7409  (0 % random)
> conflicts             : 19
> propagations          : 7832
> conflict literals     : 6849  (0 % deleted)
> Current optimal value 356 after 406 ms
|        19 |     395    23250    46500 |    30198       19    360 |
> restarts              : 21
> decisions             : 7771  (0 % random)
> conflicts             : 23
> propagations          : 8255
> conflict literals     : 8269  (0.0120919 % deleted)
> Current optimal value 355 after 410 ms
|        23 |     396    23250    46500 |    31268       23    360 |
> restarts              : 22
> decisions             : 8136  (0 % random)
> conflicts             : 28
> propagations          : 8682
> conflict literals     : 10039  (0.0298745 % deleted)
> Current optimal value 354 after 415 ms
|        28 |     397    23250    46500 |    32339       28    359 |
> restarts              : 23
> decisions             : 8506  (0 % random)
> conflicts             : 30
> propagations          : 9099
> conflict literals     : 10746  (0.0279096 % deleted)
> Current optimal value 353 after 419 ms
|        30 |     398    23250    46500 |    33408       30    358 |
> restarts              : 24
> decisions             : 8908  (0 % random)
> conflicts             : 54
> propagations          : 9793
> conflict literals     : 19173  (0.140625 % deleted)
> Current optimal value 352 after 427 ms
|        54 |     399    23250    46500 |    34486       58    355 |
> restarts              : 25
> decisions             : 9297  (0 % random)
> conflicts             : 62
> propagations          : 10274
> conflict literals     : 21977  (0.145395 % deleted)
> Current optimal value 351 after 433 ms
|        62 |     400    23250    46500 |    35557       66    354 |
> restarts              : 27
> decisions             : 9751  (0 % random)
> conflicts             : 104
> propagations          : 11381
> conflict literals     : 36290  (0.189774 % deleted)
> Current optimal value 350 after 447 ms
|       104 |     401    23250    46500 |    36640      107    352 |
> restarts              : 28
> decisions             : 9993  (0 % random)
> conflicts             : 162
> propagations          : 12212
> conflict literals     : 56501  (0.16962 % deleted)
> Current optimal value 349 after 458 ms
|       162 |     402    23250    46500 |    37730      171    351 |
|       263 |     402    23250    46500 |    41503      278    350 |
> restarts              : 30
> decisions             : 10504  (0 % random)
> conflicts             : 287
> propagations          : 13872
> conflict literals     : 99623  (0.133325 % deleted)
> Current optimal value 348 after 485 ms
|       287 |     403    23250    46500 |    38843      305    350 |
> restarts              : 31
> decisions             : 10624  (0 % random)
> conflicts             : 291
> propagations          : 14344
> conflict literals     : 101033  (0.131467 % deleted)
> Current optimal value 347 after 489 ms
|       291 |     404    23250    46500 |    39914      311    350 |
> restarts              : 32
> decisions             : 10692  (0 % random)
> conflicts             : 294
> propagations          : 14769
> conflict literals     : 102072  (0.130131 % deleted)
> Current optimal value 346 after 492 ms
|       294 |     405    23250    46500 |    40983      314    350 |
> restarts              : 33
> decisions             : 10840  (0 % random)
> conflicts             : 306
> propagations          : 15267
> conflict literals     : 106213  (0.125063 % deleted)
> Current optimal value 345 after 498 ms
|       306 |     406    23250    46500 |    42056      326    350 |
> restarts              : 34
> decisions             : 10946  (0 % random)
> conflicts             : 311
> propagations          : 15739
> conflict literals     : 107937  (0.123068 % deleted)
> Current optimal value 344 after 502 ms
|       311 |     407    23250    46500 |    43127      332    349 |
> restarts              : 35
> decisions             : 11021  (0 % random)
> conflicts             : 313
> propagations          : 16182
> conflict literals     : 108627  (0.122288 % deleted)
> Current optimal value 343 after 506 ms
|       313 |     408    23250    46500 |    44196      335    349 |
|       413 |     408    23250    46500 |    48616      446    348 |
|       563 |     408    23250    46500 |    53477      604    346 |
> restarts              : 37
> decisions             : 11620  (0 % random)
> conflicts             : 627
> propagations          : 20317
> conflict literals     : 215564  (0.111675 % deleted)
> Current optimal value 342 after 585 ms
|       627 |     409    23250    46500 |    45377      670    346 |
> restarts              : 38
> decisions             : 11713  (0 % random)
> conflicts             : 630
> propagations          : 20774
> conflict literals     : 216588  (0.111147 % deleted)
> Current optimal value 341 after 589 ms
|       630 |     410    23250    46500 |    46446      673    346 |
> restarts              : 39
> decisions             : 11814  (0 % random)
> conflicts             : 631
> propagations          : 21214
> conflict literals     : 216931  (0.110972 % deleted)
> Current optimal value 340 after 593 ms
|       631 |     411    23250    46500 |    47516      675    346 |
> restarts              : 40
> decisions             : 11891  (0 % random)
> conflicts             : 631
> propagations          : 21625
> conflict literals     : 216931  (0.110972 % deleted)
> Current optimal value 339 after 597 ms
|       631 |     412    23250    46500 |    48584      675    346 |
> restarts              : 41
> decisions             : 11952  (0 % random)
> conflicts             : 632
> propagations          : 22046
> conflict literals     : 217270  (0.110799 % deleted)
> Current optimal value 338 after 601 ms
|       632 |     413    23250    46500 |    49653      676    346 |
> restarts              : 42
> decisions             : 12023  (0 % random)
> conflicts             : 639
> propagations          : 22559
> conflict literals     : 219635  (0.109607 % deleted)
> Current optimal value 337 after 606 ms
|       639 |     414    23250    46500 |    50725      684    346 |
> restarts              : 43
> decisions             : 12076  (0 % random)
> conflicts             : 640
> propagations          : 22986
> conflict literals     : 219972  (0.109439 % deleted)
> Current optimal value 336 after 609 ms
|       640 |     415    23250    46500 |    51794      685    346 |
> restarts              : 44
> decisions             : 12129  (0 % random)
> conflicts             : 640
> propagations          : 23401
> conflict literals     : 219972  (0.109439 % deleted)
> Current optimal value 335 after 613 ms
|       640 |     416    23250    46500 |    52862      685    346 |
> restarts              : 45
> decisions             : 12185  (0 % random)
> conflicts             : 641
> propagations          : 23822
> conflict literals     : 220307  (0.109273 % deleted)
> Current optimal value 334 after 617 ms
|       641 |     417    23250    46500 |    53931      686    346 |
|       742 |     417    23250    46500 |    59324      816    343 |
|       892 |     417    23250    46500 |    65257      979    341 |
|      1117 |     417    23250    46500 |    71783     1221    339 |
|      1454 |     417    23250    46500 |    78961     1598    337 |
|      1964 |     417    23250    46500 |    86857     2152    335 |
> restarts              : 53
> decisions             : 14262  (0 % random)
> conflicts             : 2102
> propagations          : 49009
> conflict literals     : 699837  (0.124445 % deleted)
> Current optimal value 333 after 1152 ms
|      2102 |     418    23250    46500 |    55535     2292    335 |
> restarts              : 54
> decisions             : 14315  (0 % random)
> conflicts             : 2104
> propagations          : 49451
> conflict literals     : 700502  (0.124327 % deleted)
> Current optimal value 332 after 1157 ms
|      2104 |     419    23250    46500 |    56605     2295    335 |
> restarts              : 55
> decisions             : 14376  (0 % random)
> conflicts             : 2104
> propagations          : 49870
> conflict literals     : 700502  (0.124327 % deleted)
> Current optimal value 331 after 1161 ms
|      2104 |     420    23250    46500 |    57674     2295    335 |
> restarts              : 56
> decisions             : 14444  (0 % random)
> conflicts             : 2105
> propagations          : 50292
> conflict literals     : 700833  (0.124269 % deleted)
> Current optimal value 330 after 1165 ms
|      2105 |     421    23250    46500 |    58743     2296    335 |
> restarts              : 57
> decisions             : 14504  (0 % random)
> conflicts             : 2107
> propagations          : 50754
> conflict literals     : 701493  (0.124152 % deleted)
> Current optimal value 329 after 1170 ms
|      2107 |     422    23250    46500 |    59812     2299    335 |
> restarts              : 58
> decisions             : 14569  (0 % random)
> conflicts             : 2107
> propagations          : 51176
> conflict literals     : 701493  (0.124152 % deleted)
> Current optimal value 328 after 1175 ms
|      2107 |     423    23250    46500 |    60881     2299    335 |
> restarts              : 59
> decisions             : 14635  (0 % random)
> conflicts             : 2107
> propagations          : 51599
> conflict literals     : 701493  (0.124152 % deleted)
> Current optimal value 327 after 1179 ms
|      2107 |     424    23250    46500 |    61950     2299    335 |
> restarts              : 60
> decisions             : 14707  (0 % random)
> conflicts             : 2107
> propagations          : 52023
> conflict literals     : 701493  (0.124152 % deleted)
> Current optimal value 326 after 1184 ms
|      2107 |     425    23250    46500 |    63018     2299    335 |
> restarts              : 61
> decisions             : 14778  (0 % random)
> conflicts             : 2107
> propagations          : 52448
> conflict literals     : 701493  (0.124152 % deleted)
> Current optimal value 325 after 1189 ms
|      2107 |     426    23250    46500 |    64087     2299    335 |
> restarts              : 62
> decisions             : 14850  (0 % random)
> conflicts             : 2107
> propagations          : 52874
> conflict literals     : 701493  (0.124152 % deleted)
> Current optimal value 324 after 1194 ms
|      2107 |     427    23250    46500 |    65156     2299    335 |
> restarts              : 63
> decisions             : 14922  (0 % random)
> conflicts             : 2107
> propagations          : 53301
> conflict literals     : 701493  (0.124152 % deleted)
> Current optimal value 323 after 1198 ms
|      2107 |     428    23250    46500 |    66224     2299    335 |
> restarts              : 64
> decisions             : 14994  (0 % random)
> conflicts             : 2107
> propagations          : 53729
> conflict literals     : 701493  (0.124152 % deleted)
> Current optimal value 322 after 1203 ms
|      2107 |     429    23250    46500 |    67293     2299    335 |
> restarts              : 65
> decisions             : 15066  (0 % random)
> conflicts             : 2107
> propagations          : 54158
> conflict literals     : 701493  (0.124152 % deleted)
> Current optimal value 321 after 1209 ms
|      2107 |     430    23250    46500 |    68362     2299    335 |
> restarts              : 66
> decisions             : 15138  (0 % random)
> conflicts             : 2107
> propagations          : 54588
> conflict literals     : 701493  (0.124152 % deleted)
> Current optimal value 320 after 1214 ms
|      2107 |     431    23250    46500 |    69430     2299    335 |
> restarts              : 67
> decisions             : 15212  (0 % random)
> conflicts             : 2107
> propagations          : 55019
> conflict literals     : 701493  (0.124152 % deleted)
> Current optimal value 319 after 1220 ms
|      2107 |     432    23250    46500 |    70499     2299    335 |
> restarts              : 68
> decisions             : 15286  (0 % random)
> conflicts             : 2107
> propagations          : 55451
> conflict literals     : 701493  (0.124152 % deleted)
> Current optimal value 318 after 1225 ms
|      2107 |     433    23250    46500 |    71568     2299    335 |
> restarts              : 69
> decisions             : 15360  (0 % random)
> conflicts             : 2107
> propagations          : 55884
> conflict literals     : 701493  (0.124152 % deleted)
> Current optimal value 317 after 1231 ms
|      2107 |     434    23250    46500 |    72636     2299    335 |
> restarts              : 70
> decisions             : 15434  (0 % random)
> conflicts             : 2107
> propagations          : 56318
> conflict literals     : 701493  (0.124152 % deleted)
> Current optimal value 316 after 1237 ms
|      2107 |     435    23250    46500 |    73705     2299    335 |
> restarts              : 71
> decisions             : 15508  (0 % random)
> conflicts             : 2107
> propagations          : 56753
> conflict literals     : 701493  (0.124152 % deleted)
> Current optimal value 315 after 1243 ms
|      2107 |     436    23250    46500 |    74774     2299    335 |
> restarts              : 72
> decisions             : 15582  (0 % random)
> conflicts             : 2107
> propagations          : 57189
> conflict literals     : 701493  (0.124152 % deleted)
> Current optimal value 314 after 1249 ms
|      2107 |     437    23250    46500 |    75842     2299    335 |
> restarts              : 73
> decisions             : 15624  (0 % random)
> conflicts             : 2107
> propagations          : 57626
> conflict literals     : 701493  (0.124152 % deleted)
> Current optimal value 313 after 1255 ms
|      2107 |     438    23250    46500 |    76911     2299    335 |
> restarts              : 74
> decisions             : 15696  (0 % random)
> conflicts             : 2107
> propagations          : 58064
> conflict literals     : 701493  (0.124152 % deleted)
> Current optimal value 312 after 1261 ms
|      2107 |     439    23250    46500 |    77980     2299    335 |
> restarts              : 75
> decisions             : 15767  (0 % random)
> conflicts             : 2107
> propagations          : 58503
> conflict literals     : 701493  (0.124152 % deleted)
> Current optimal value 311 after 1268 ms
|      2107 |     440    23250    46500 |    79048     2299    335 |
> restarts              : 76
> decisions             : 15833  (0 % random)
> conflicts             : 2107
> propagations          : 58943
> conflict literals     : 701493  (0.124152 % deleted)
> Current optimal value 310 after 1275 ms
|      2107 |     441    23250    46500 |    80117     2299    335 |
> restarts              : 77
> decisions             : 15901  (0 % random)
> conflicts             : 2107
> propagations          : 59384
> conflict literals     : 701493  (0.124152 % deleted)
> Current optimal value 309 after 1282 ms
|      2107 |     442    23250    46500 |    81186     2299    335 |
> restarts              : 78
> decisions             : 15971  (0 % random)
> conflicts             : 2107
> propagations          : 59826
> conflict literals     : 701493  (0.124152 % deleted)
> Current optimal value 308 after 1289 ms
|      2107 |     443    23250    46500 |    82254     2299    335 |
> restarts              : 79
> decisions             : 16023  (0 % random)
> conflicts             : 2107
> propagations          : 60269
> conflict literals     : 701493  (0.124152 % deleted)
> Current optimal value 307 after 1296 ms
|      2107 |     444    23250    46500 |    83323     2299    335 |
> restarts              : 80
> decisions             : 16061  (0 % random)
> conflicts             : 2107
> propagations          : 60713
> conflict literals     : 701493  (0.124152 % deleted)
> Current optimal value 306 after 1302 ms
|      2107 |     445    23250    46500 |    84392     2299    335 |
> restarts              : 81
> decisions             : 16087  (0 % random)
> conflicts             : 2107
> propagations          : 61158
> conflict literals     : 701493  (0.124152 % deleted)
> Current optimal value 305 after 1309 ms
|      2107 |     446    23250    46500 |    85460     2299    335 |
|      2207 |     446    23250    46500 |    94006     2406    334 |
|      2358 |     446    23250    46500 |   103407     2574    332 |
|      2585 |     446    23250    46500 |   113748     2821    329 |
|      2923 |     446    23250    46500 |   125122     3196    326 |
|      3432 |     446    23250    46500 |   137635     3722    322 |
|      4195 |     446    23250    46500 |   151398     4519    318 |
|      5336 |     446    23250    46500 |   166538     5768    314 |
|      7047 |     446    23250    46500 |   183192     7700    311 |
|      9621 |     446    23250    46500 |   201511    10525    308 |
|     13481 |     446    23250    46500 |   221662    14768    306 |
|     19249 |     446    23250    46500 |   243829    21000    304 |
|     27917 |     446    23250    46500 |   268212    30459    303 |
|     40935 |     446    23250    46500 |   295033    45009    302 |
|     60459 |     446    23250    46500 |   324536    66368    302 |
> restarts              : 286
> decisions             : 108588  (0 % random)
> conflicts             : 87624
> propagations          : 1999274
> conflict literals     : 26210936  (0.504426 % deleted)
> Current optimal value 304 after 188541 ms
|     87624 |     447    23250    46500 |   117805    96126    301 |
> restarts              : 287
> decisions             : 108636  (0 % random)
> conflicts             : 87651
> propagations          : 2000317
> conflict literals     : 26219107  (0.504269 % deleted)
> Current optimal value 303 after 188640 ms
|     87651 |     448    23250    46500 |   118884    96158    301 |
|     87751 |     448    23250    46500 |   130772    96271    301 |
|     87901 |     448    23250    46500 |   143850    96458    301 |
> restarts              : 288
> decisions             : 109041  (0 % random)
> conflicts             : 88006
> propagations          : 2009002
> conflict literals     : 26326837  (0.505036 % deleted)
> Current optimal value 302 after 189778 ms
|     88006 |     449    23250    46500 |   120096    96587    301 |
|     88106 |     449    23250    46500 |   132105    96707    301 |
|     88256 |     449    23250    46500 |   145316    96875    301 |
|     88482 |     449    23250    46500 |   159847    97137    301 |
|     88822 |     449    23250    46500 |   175832    97541    301 |
|     89330 |     449    23250    46500 |   193415    98168    301 |
|     90094 |     449    23250    46500 |   212757    98988    301 |
|     91235 |     449    23250    46500 |   234033   100273    301 |
|     92954 |     449    23250    46500 |   257436   102198    301 |
|     95521 |     449    23250    46500 |   283180   105047    301 |
|     99367 |     449    23250    46500 |   311498   109259    301 |
|    105162 |     449    23250    46500 |   342647   115669    301 |
|    113843 |     449    23250    46500 |   376912   125121    300 |
|    126832 |     449    23250    46500 |   414603   139466    300 |
|    146357 |     449    23250    46500 |   456064   161073    300 |
