Starting solving at 421 ms
>>> Search start
> Conflicts |          ORIGINAL         |          LEARNT          | Progress
>           |    Vars  Clauses Literals |    Limit  Clauses Lit/Cl |         
|         0 |     400    26467    52934 |     9975        0   -nan |
> restarts              : 1
> decisions             : 401  (0 % random)
> conflicts             : 0
> propagations          : 404
> conflict literals     : 0  (-nan % deleted)
> Current optimal value 400 after 421 ms
|         0 |     401    26467    52934 |    11127        0   -nan |
> restarts              : 2
> decisions             : 801  (0 % random)
> conflicts             : 0
> propagations          : 805
> conflict literals     : 0  (-nan % deleted)
> Current optimal value 399 after 422 ms
|         0 |     402    26467    52934 |    12279        0   -nan |
> restarts              : 3
> decisions             : 1200  (0 % random)
> conflicts             : 0
> propagations          : 1207
> conflict literals     : 0  (-nan % deleted)
> Current optimal value 398 after 423 ms
|         0 |     403    26467    52934 |    13432        0   -nan |
> restarts              : 4
> decisions             : 1598  (0 % random)
> conflicts             : 0
> propagations          : 1610
> conflict literals     : 0  (-nan % deleted)
> Current optimal value 397 after 423 ms
|         0 |     404    26467    52934 |    14584        0   -nan |
> restarts              : 5
> decisions             : 1995  (0 % random)
> conflicts             : 0
> propagations          : 2014
> conflict literals     : 0  (-nan % deleted)
> Current optimal value 396 after 425 ms
|         0 |     405    26467    52934 |    15736        0   -nan |
> restarts              : 6
> decisions             : 2392  (0 % random)
> conflicts             : 0
> propagations          : 2419
> conflict literals     : 0  (-nan % deleted)
> Current optimal value 395 after 426 ms
|         0 |     406    26467    52934 |    16889        0   -nan |
> restarts              : 7
> decisions             : 2788  (0 % random)
> conflicts             : 0
> propagations          : 2825
> conflict literals     : 0  (-nan % deleted)
> Current optimal value 394 after 428 ms
|         0 |     407    26467    52934 |    18041        0   -nan |
> restarts              : 8
> decisions             : 3183  (0 % random)
> conflicts             : 0
> propagations          : 3232
> conflict literals     : 0  (-nan % deleted)
> Current optimal value 393 after 429 ms
|         0 |     408    26467    52934 |    19193        0   -nan |
> restarts              : 9
> decisions             : 3576  (0 % random)
> conflicts             : 0
> propagations          : 3640
> conflict literals     : 0  (-nan % deleted)
> Current optimal value 392 after 431 ms
|         0 |     409    26467    52934 |    20346        0   -nan |
> restarts              : 10
> decisions             : 3968  (0 % random)
> conflicts             : 0
> propagations          : 4049
> conflict literals     : 0  (-nan % deleted)
> Current optimal value 391 after 433 ms
|         0 |     410    26467    52934 |    21498        0   -nan |
> restarts              : 11
> decisions             : 4361  (0 % random)
> conflicts             : 1
> propagations          : 4465
> conflict literals     : 391  (0 % deleted)
> Current optimal value 390 after 435 ms
|         1 |     411    26467    52934 |    22651        1    391 |
> restarts              : 12
> decisions             : 4756  (0 % random)
> conflicts             : 1
> propagations          : 4876
> conflict literals     : 391  (0 % deleted)
> Current optimal value 389 after 437 ms
|         1 |     412    26467    52934 |    23803        1    391 |
> restarts              : 13
> decisions             : 5156  (0 % random)
> conflicts             : 3
> propagations          : 5306
> conflict literals     : 1168  (0 % deleted)
> Current optimal value 388 after 440 ms
|         3 |     413    26467    52934 |    24956        4    390 |
> restarts              : 14
> decisions             : 5549  (0 % random)
> conflicts             : 5
> propagations          : 5743
> conflict literals     : 1943  (0 % deleted)
> Current optimal value 387 after 443 ms
|         5 |     414    26467    52934 |    26110        7    389 |
> restarts              : 15
> decisions             : 5948  (0 % random)
> conflicts             : 7
> propagations          : 6184
> conflict literals     : 2716  (0 % deleted)
> Current optimal value 386 after 446 ms
|         7 |     415    26467    52934 |    27263       10    388 |
> restarts              : 16
> decisions             : 6336  (0 % random)
> conflicts             : 9
> propagations          : 6628
> conflict literals     : 3487  (0 % deleted)
> Current optimal value 385 after 449 ms
|         9 |     416    26467    52934 |    28416       13    388 |
> restarts              : 17
> decisions             : 6731  (0 % random)
> conflicts             : 11
> propagations          : 7065
> conflict literals     : 4256  (0 % deleted)
> Current optimal value 384 after 452 ms
|        11 |     417    26467    52934 |    29570       16    387 |
> restarts              : 18
> decisions             : 7117  (0 % random)
> conflicts             : 15
> propagations          : 7518
> conflict literals     : 5792  (0 % deleted)
> Current optimal value 383 after 456 ms
|        15 |     418    26467    52934 |    30724       21    387 |
> restarts              : 19
> decisions             : 7506  (0 % random)
> conflicts             : 23
> propagations          : 8008
> conflict literals     : 8850  (0 % deleted)
> Current optimal value 382 after 461 ms
|        23 |     419    26467    52934 |    31879       31    385 |
> restarts              : 20
> decisions             : 7900  (0 % random)
> conflicts             : 24
> propagations          : 8445
> conflict literals     : 9234  (0 % deleted)
> Current optimal value 381 after 465 ms
|        24 |     420    26467    52934 |    33032       33    385 |
> restarts              : 21
> decisions             : 8283  (0 % random)
> conflicts             : 27
> propagations          : 8892
> conflict literals     : 10375  (0 % deleted)
> Current optimal value 380 after 469 ms
|        27 |     421    26467    52934 |    34186       36    385 |
> restarts              : 22
> decisions             : 8668  (0 % random)
> conflicts             : 27
> propagations          : 9313
> conflict literals     : 10375  (0 % deleted)
> Current optimal value 379 after 473 ms
|        27 |     422    26467    52934 |    35338       36    385 |
> restarts              : 23
> decisions             : 9051  (0 % random)
> conflicts             : 27
> propagations          : 9735
> conflict literals     : 10375  (0 % deleted)
> Current optimal value 378 after 478 ms
|        27 |     423    26467    52934 |    36490       36    385 |
> restarts              : 24
> decisions             : 9437  (0 % random)
> conflicts             : 30
> propagations          : 10171
> conflict literals     : 11506  (0 % deleted)
> Current optimal value 377 after 482 ms
|        30 |     424    26467    52934 |    37644       39    384 |
> restarts              : 26
> decisions             : 9944  (0 % random)
> conflicts             : 103
> propagations          : 11538
> conflict literals     : 38559  (0.0544323 % deleted)
> Current optimal value 376 after 502 ms
|       103 |     425    26467    52934 |    38821      113    379 |
> restarts              : 27
> decisions             : 10277  (0 % random)
> conflicts             : 141
> propagations          : 12402
> conflict literals     : 52794  (0.0719261 % deleted)
> Current optimal value 375 after 512 ms
|       141 |     426    26467    52934 |    39987      155    378 |
> restarts              : 28
> decisions             : 10343  (0 % random)
> conflicts             : 142
> propagations          : 12833
> conflict literals     : 53169  (0.0714192 % deleted)
> Current optimal value 374 after 516 ms
|       142 |     427    26467    52934 |    41140      156    378 |
> restarts              : 29
> decisions             : 10407  (0 % random)
> conflicts             : 157
> propagations          : 13357
> conflict literals     : 58768  (0.0663186 % deleted)
> Current optimal value 373 after 520 ms
|       157 |     428    26467    52934 |    42297      172    377 |
> restarts              : 30
> decisions             : 10475  (0 % random)
> conflicts             : 161
> propagations          : 13805
> conflict literals     : 60259  (0.0646788 % deleted)
> Current optimal value 372 after 524 ms
|       161 |     429    26467    52934 |    43451      176    377 |
> restarts              : 31
> decisions             : 10639  (0 % random)
> conflicts             : 169
> propagations          : 14326
> conflict literals     : 63225  (0.0616464 % deleted)
> Current optimal value 371 after 529 ms
|       169 |     430    26467    52934 |    44606      185    377 |
> restarts              : 32
> decisions             : 10997  (0 % random)
> conflicts             : 267
> propagations          : 15642
> conflict literals     : 99410  (0.0733794 % deleted)
> Current optimal value 370 after 554 ms
|       267 |     431    26467    52934 |    45792      286    374 |
> restarts              : 33
> decisions             : 11058  (0 % random)
> conflicts             : 268
> propagations          : 16079
> conflict literals     : 99780  (0.0731075 % deleted)
> Current optimal value 369 after 559 ms
|       268 |     432    26467    52934 |    46945      287    374 |
> restarts              : 34
> decisions             : 11173  (0 % random)
> conflicts             : 280
> propagations          : 16626
> conflict literals     : 104195  (0.072887 % deleted)
> Current optimal value 368 after 565 ms
|       280 |     433    26467    52934 |    48102      301    374 |
> restarts              : 35
> decisions             : 11371  (0 % random)
> conflicts             : 281
> propagations          : 17081
> conflict literals     : 104563  (0.0726307 % deleted)
> Current optimal value 367 after 570 ms
|       281 |     434    26467    52934 |    49255      302    374 |
|       382 |     434    26467    52934 |    54180      408    372 |
|       533 |     434    26467    52934 |    59598      569    370 |
> restarts              : 39
> decisions             : 12135  (0 % random)
> conflicts             : 654
> propagations          : 22175
> conflict literals     : 239603  (0.0875682 % deleted)
> Current optimal value 366 after 664 ms
|       654 |     435    26467    52934 |    50541      704    369 |
> restarts              : 40
> decisions             : 12344  (0 % random)
> conflicts             : 674
> propagations          : 22866
> conflict literals     : 246883  (0.08701 % deleted)
> Current optimal value 365 after 676 ms
|       674 |     436    26467    52934 |    51700      725    369 |
> restarts              : 41
> decisions             : 12407  (0 % random)
> conflicts             : 675
> propagations          : 23317
> conflict literals     : 247254  (0.0868796 % deleted)
> Current optimal value 364 after 681 ms
|       675 |     437    26467    52934 |    52853      727    369 |
> restarts              : 42
> decisions             : 12474  (0 % random)
> conflicts             : 679
> propagations          : 23810
> conflict literals     : 248721  (0.0863676 % deleted)
> Current optimal value 363 after 685 ms
|       679 |     438    26467    52934 |    54008      733    369 |
> restarts              : 43
> decisions             : 12557  (0 % random)
> conflicts             : 680
> propagations          : 24254
> conflict literals     : 249084  (0.0862418 % deleted)
> Current optimal value 362 after 689 ms
|       680 |     439    26467    52934 |    55160      734    369 |
> restarts              : 44
> decisions             : 12619  (0 % random)
> conflicts             : 684
> propagations          : 24751
> conflict literals     : 250530  (0.0857445 % deleted)
> Current optimal value 361 after 694 ms
|       684 |     440    26467    52934 |    56315      740    369 |
> restarts              : 45
> decisions             : 12678  (0 % random)
> conflicts             : 686
> propagations          : 25225
> conflict literals     : 251252  (0.0854983 % deleted)
> Current optimal value 360 after 698 ms
|       686 |     441    26467    52934 |    57468      743    369 |
> restarts              : 46
> decisions             : 12741  (0 % random)
> conflicts             : 688
> propagations          : 25699
> conflict literals     : 251972  (0.0852542 % deleted)
> Current optimal value 359 after 703 ms
|       688 |     442    26467    52934 |    58621      746    369 |
> restarts              : 47
> decisions             : 12849  (0 % random)
> conflicts             : 700
> propagations          : 26272
> conflict literals     : 256275  (0.0838239 % deleted)
> Current optimal value 358 after 710 ms
|       700 |     443    26467    52934 |    59780      764    369 |
|       800 |     443    26467    52934 |    65758      870    367 |
> restarts              : 48
> decisions             : 13426  (0 % random)
> conflicts             : 939
> propagations          : 29629
> conflict literals     : 341332  (0.0848891 % deleted)
> Current optimal value 357 after 808 ms
|       939 |     444    26467    52934 |    61016     1017    366 |
> restarts              : 49
> decisions             : 13526  (0 % random)
> conflicts             : 943
> propagations          : 30165
> conflict literals     : 342775  (0.0845321 % deleted)
> Current optimal value 356 after 816 ms
|       943 |     445    26467    52934 |    62171     1023    365 |
> restarts              : 50
> decisions             : 13570  (0 % random)
> conflicts             : 943
> propagations          : 30610
> conflict literals     : 342775  (0.0845321 % deleted)
> Current optimal value 355 after 821 ms
|       943 |     446    26467    52934 |    63323     1023    365 |
> restarts              : 51
> decisions             : 13632  (0 % random)
> conflicts             : 943
> propagations          : 31056
> conflict literals     : 342775  (0.0845321 % deleted)
> Current optimal value 354 after 825 ms
|       943 |     447    26467    52934 |    64475     1023    365 |
> restarts              : 52
> decisions             : 13698  (0 % random)
> conflicts             : 943
> propagations          : 31503
> conflict literals     : 342775  (0.0845321 % deleted)
> Current optimal value 353 after 830 ms
|       943 |     448    26467    52934 |    65628     1023    365 |
> restarts              : 53
> decisions             : 13764  (0 % random)
> conflicts             : 943
> propagations          : 31951
> conflict literals     : 342775  (0.0845321 % deleted)
> Current optimal value 352 after 834 ms
|       943 |     449    26467    52934 |    66780     1023    365 |
> restarts              : 54
> decisions             : 13835  (0 % random)
> conflicts             : 943
> propagations          : 32400
> conflict literals     : 342775  (0.0845321 % deleted)
> Current optimal value 351 after 839 ms
|       943 |     450    26467    52934 |    67932     1023    365 |
> restarts              : 55
> decisions             : 13906  (0 % random)
> conflicts             : 943
> propagations          : 32850
> conflict literals     : 342775  (0.0845321 % deleted)
> Current optimal value 350 after 844 ms
|       943 |     451    26467    52934 |    69085     1023    365 |
> restarts              : 56
> decisions             : 13978  (0 % random)
> conflicts             : 943
> propagations          : 33301
> conflict literals     : 342775  (0.0845321 % deleted)
> Current optimal value 349 after 849 ms
|       943 |     452    26467    52934 |    70237     1023    365 |
> restarts              : 57
> decisions             : 14050  (0 % random)
> conflicts             : 943
> propagations          : 33753
> conflict literals     : 342775  (0.0845321 % deleted)
> Current optimal value 348 after 854 ms
|       943 |     453    26467    52934 |    71389     1023    365 |
> restarts              : 58
> decisions             : 14122  (0 % random)
> conflicts             : 943
> propagations          : 34206
> conflict literals     : 342775  (0.0845321 % deleted)
> Current optimal value 347 after 860 ms
|       943 |     454    26467    52934 |    72542     1023    365 |
> restarts              : 59
> decisions             : 14194  (0 % random)
> conflicts             : 943
> propagations          : 34660
> conflict literals     : 342775  (0.0845321 % deleted)
> Current optimal value 346 after 865 ms
|       943 |     455    26467    52934 |    73694     1023    365 |
> restarts              : 60
> decisions             : 14266  (0 % random)
> conflicts             : 943
> propagations          : 35115
> conflict literals     : 342775  (0.0845321 % deleted)
> Current optimal value 345 after 870 ms
|       943 |     456    26467    52934 |    74846     1023    365 |
> restarts              : 61
> decisions             : 14338  (0 % random)
> conflicts             : 943
> propagations          : 35571
> conflict literals     : 342775  (0.0845321 % deleted)
> Current optimal value 344 after 876 ms
|       943 |     457    26467    52934 |    75999     1023    365 |
> restarts              : 62
> decisions             : 14411  (0 % random)
> conflicts             : 943
> propagations          : 36028
> conflict literals     : 342775  (0.0845321 % deleted)
> Current optimal value 343 after 882 ms
|       943 |     458    26467    52934 |    77151     1023    365 |
> restarts              : 63
> decisions             : 14485  (0 % random)
> conflicts             : 943
> propagations          : 36486
> conflict literals     : 342775  (0.0845321 % deleted)
> Current optimal value 342 after 887 ms
|       943 |     459    26467    52934 |    78303     1023    365 |
> restarts              : 64
> decisions             : 14559  (0 % random)
> conflicts             : 943
> propagations          : 36945
> conflict literals     : 342775  (0.0845321 % deleted)
> Current optimal value 341 after 893 ms
|       943 |     460    26467    52934 |    79456     1023    365 |
> restarts              : 65
> decisions             : 14633  (0 % random)
> conflicts             : 943
> propagations          : 37405
> conflict literals     : 342775  (0.0845321 % deleted)
> Current optimal value 340 after 899 ms
|       943 |     461    26467    52934 |    80608     1023    365 |
> restarts              : 66
> decisions             : 14707  (0 % random)
> conflicts             : 943
> propagations          : 37866
> conflict literals     : 342775  (0.0845321 % deleted)
> Current optimal value 339 after 905 ms
|       943 |     462    26467    52934 |    81760     1023    365 |
> restarts              : 67
> decisions             : 14781  (0 % random)
> conflicts             : 943
> propagations          : 38328
> conflict literals     : 342775  (0.0845321 % deleted)
> Current optimal value 338 after 911 ms
|       943 |     463    26467    52934 |    82913     1023    365 |
> restarts              : 68
> decisions             : 14855  (0 % random)
> conflicts             : 943
> propagations          : 38791
> conflict literals     : 342775  (0.0845321 % deleted)
> Current optimal value 337 after 917 ms
|       943 |     464    26467    52934 |    84065     1023    365 |
> restarts              : 69
> decisions             : 14929  (0 % random)
> conflicts             : 943
> propagations          : 39255
> conflict literals     : 342775  (0.0845321 % deleted)
> Current optimal value 336 after 924 ms
|       943 |     465    26467    52934 |    85217     1023    365 |
> restarts              : 70
> decisions             : 15003  (0 % random)
> conflicts             : 943
> propagations          : 39720
> conflict literals     : 342775  (0.0845321 % deleted)
> Current optimal value 335 after 931 ms
|       943 |     466    26467    52934 |    86370     1023    365 |
> restarts              : 71
> decisions             : 15077  (0 % random)
> conflicts             : 943
> propagations          : 40186
> conflict literals     : 342775  (0.0845321 % deleted)
> Current optimal value 334 after 937 ms
|       943 |     467    26467    52934 |    87522     1023    365 |
> restarts              : 72
> decisions             : 15151  (0 % random)
> conflicts             : 943
> propagations          : 40653
> conflict literals     : 342775  (0.0845321 % deleted)
> Current optimal value 333 after 944 ms
|       943 |     468    26467    52934 |    88674     1023    365 |
> restarts              : 73
> decisions             : 15225  (0 % random)
> conflicts             : 943
> propagations          : 41121
> conflict literals     : 342775  (0.0845321 % deleted)
> Current optimal value 332 after 951 ms
|       943 |     469    26467    52934 |    89827     1023    365 |
> restarts              : 74
> decisions             : 15299  (0 % random)
> conflicts             : 943
> propagations          : 41590
> conflict literals     : 342775  (0.0845321 % deleted)
> Current optimal value 331 after 958 ms
|       943 |     470    26467    52934 |    90979     1023    365 |
> restarts              : 75
> decisions             : 15373  (0 % random)
> conflicts             : 943
> propagations          : 42060
> conflict literals     : 342775  (0.0845321 % deleted)
> Current optimal value 330 after 965 ms
|       943 |     471    26467    52934 |    92131     1023    365 |
> restarts              : 76
> decisions             : 15447  (0 % random)
> conflicts             : 943
> propagations          : 42531
> conflict literals     : 342775  (0.0845321 % deleted)
> Current optimal value 329 after 972 ms
|       943 |     472    26467    52934 |    93284     1023    365 |
> restarts              : 77
> decisions             : 15521  (0 % random)
> conflicts             : 943
> propagations          : 43003
> conflict literals     : 342775  (0.0845321 % deleted)
> Current optimal value 328 after 979 ms
|       943 |     473    26467    52934 |    94436     1023    365 |
> restarts              : 78
> decisions             : 15595  (0 % random)
> conflicts             : 943
> propagations          : 43476
> conflict literals     : 342775  (0.0845321 % deleted)
> Current optimal value 327 after 987 ms
|       943 |     474    26467    52934 |    95588     1023    365 |
> restarts              : 79
> decisions             : 15609  (0 % random)
> conflicts             : 943
> propagations          : 43950
> conflict literals     : 342775  (0.0845321 % deleted)
> Current optimal value 326 after 994 ms
|       943 |     475    26467    52934 |    96741     1023    365 |
|      1044 |     475    26467    52934 |   106415     1129    361 |
|      1195 |     475    26467    52934 |   117056     1295    356 |
|      1422 |     475    26467    52934 |   128762     1536    350 |
|      1761 |     475    26467    52934 |   141638     1911    345 |
|      2269 |     475    26467    52934 |   155802     2459    339 |
|      3033 |     475    26467    52934 |   171382     3335    334 |
|      4174 |     475    26467    52934 |   188520     4642    330 |
|      5884 |     475    26467    52934 |   207372     6552    328 |
|      8459 |     475    26467    52934 |   228110     9354    325 |
|     12319 |     475    26467    52934 |   250921    13532    324 |
|     18087 |     475    26467    52934 |   276013    20027    323 |
|     26754 |     475    26467    52934 |   303614    29769    322 |
|     39773 |     475    26467    52934 |   333976    44111    322 |
|     59297 |     475    26467    52934 |   367373    65696    321 |
|     88522 |     475    26467    52934 |   404111    98288    320 |
|    132438 |     475    26467    52934 |   444522   146664    320 |
