Starting solving at 487 ms
>>> Search start
> Conflicts |          ORIGINAL         |          LEARNT          | Progress
>           |    Vars  Clauses Literals |    Limit  Clauses Lit/Cl |         
|         0 |     425    29892    59784 |    11201        0   -nan |
> restarts              : 1
> decisions             : 426  (0 % random)
> conflicts             : 0
> propagations          : 429
> conflict literals     : 0  (-nan % deleted)
> Current optimal value 425 after 488 ms
|         0 |     426    29892    59784 |    12437        0   -nan |
> restarts              : 2
> decisions             : 851  (0 % random)
> conflicts             : 0
> propagations          : 855
> conflict literals     : 0  (-nan % deleted)
> Current optimal value 424 after 488 ms
|         0 |     427    29892    59784 |    13674        0   -nan |
> restarts              : 3
> decisions             : 1275  (0 % random)
> conflicts             : 0
> propagations          : 1282
> conflict literals     : 0  (-nan % deleted)
> Current optimal value 423 after 489 ms
|         0 |     428    29892    59784 |    14911        0   -nan |
> restarts              : 4
> decisions             : 1698  (0 % random)
> conflicts             : 0
> propagations          : 1710
> conflict literals     : 0  (-nan % deleted)
> Current optimal value 422 after 490 ms
|         0 |     429    29892    59784 |    16147        0   -nan |
> restarts              : 5
> decisions             : 2120  (0 % random)
> conflicts             : 0
> propagations          : 2139
> conflict literals     : 0  (-nan % deleted)
> Current optimal value 421 after 491 ms
|         0 |     430    29892    59784 |    17384        0   -nan |
> restarts              : 6
> decisions             : 2541  (0 % random)
> conflicts             : 0
> propagations          : 2569
> conflict literals     : 0  (-nan % deleted)
> Current optimal value 420 after 492 ms
|         0 |     431    29892    59784 |    18621        0   -nan |
> restarts              : 7
> decisions             : 2962  (0 % random)
> conflicts             : 0
> propagations          : 3000
> conflict literals     : 0  (-nan % deleted)
> Current optimal value 419 after 494 ms
|         0 |     432    29892    59784 |    19857        0   -nan |
> restarts              : 8
> decisions             : 3382  (0 % random)
> conflicts             : 0
> propagations          : 3432
> conflict literals     : 0  (-nan % deleted)
> Current optimal value 418 after 495 ms
|         0 |     433    29892    59784 |    21094        0   -nan |
> restarts              : 9
> decisions             : 3804  (0 % random)
> conflicts             : 0
> propagations          : 3865
> conflict literals     : 0  (-nan % deleted)
> Current optimal value 417 after 497 ms
|         0 |     434    29892    59784 |    22331        0   -nan |
> restarts              : 10
> decisions             : 4222  (0 % random)
> conflicts             : 0
> propagations          : 4299
> conflict literals     : 0  (-nan % deleted)
> Current optimal value 416 after 499 ms
|         0 |     435    29892    59784 |    23567        0   -nan |
> restarts              : 11
> decisions             : 4638  (0 % random)
> conflicts             : 0
> propagations          : 4734
> conflict literals     : 0  (-nan % deleted)
> Current optimal value 415 after 502 ms
|         0 |     436    29892    59784 |    24804        0   -nan |
> restarts              : 12
> decisions             : 5054  (0 % random)
> conflicts             : 1
> propagations          : 5174
> conflict literals     : 415  (0 % deleted)
> Current optimal value 414 after 504 ms
|         1 |     437    29892    59784 |    26041        1    415 |
> restarts              : 13
> decisions             : 5469  (0 % random)
> conflicts             : 2
> propagations          : 5616
> conflict literals     : 829  (0 % deleted)
> Current optimal value 413 after 507 ms
|         2 |     438    29892    59784 |    27278        2    414 |
> restarts              : 14
> decisions             : 5885  (0 % random)
> conflicts             : 4
> propagations          : 6066
> conflict literals     : 1654  (0 % deleted)
> Current optimal value 412 after 510 ms
|         4 |     439    29892    59784 |    28515        4    414 |
> restarts              : 15
> decisions             : 6298  (0 % random)
> conflicts             : 5
> propagations          : 6514
> conflict literals     : 2066  (0 % deleted)
> Current optimal value 411 after 513 ms
|         5 |     440    29892    59784 |    29752        5    413 |
> restarts              : 16
> decisions             : 6713  (0 % random)
> conflicts             : 6
> propagations          : 6958
> conflict literals     : 2477  (0 % deleted)
> Current optimal value 410 after 516 ms
|         6 |     441    29892    59784 |    30989        6    413 |
> restarts              : 17
> decisions             : 7130  (0 % random)
> conflicts             : 7
> propagations          : 7411
> conflict literals     : 2887  (0 % deleted)
> Current optimal value 409 after 520 ms
|         7 |     442    29892    59784 |    32226        7    412 |
> restarts              : 18
> decisions             : 7550  (0 % random)
> conflicts             : 10
> propagations          : 7887
> conflict literals     : 4114  (0 % deleted)
> Current optimal value 408 after 524 ms
|        10 |     443    29892    59784 |    33464       10    411 |
> restarts              : 19
> decisions             : 7959  (0 % random)
> conflicts             : 12
> propagations          : 8353
> conflict literals     : 4929  (0 % deleted)
> Current optimal value 407 after 528 ms
|        12 |     444    29892    59784 |    34701       12    411 |
> restarts              : 20
> decisions             : 8377  (0 % random)
> conflicts             : 14
> propagations          : 8806
> conflict literals     : 5742  (0 % deleted)
> Current optimal value 406 after 532 ms
|        14 |     445    29892    59784 |    35939       14    410 |
> restarts              : 21
> decisions             : 8802  (0 % random)
> conflicts             : 18
> propagations          : 9270
> conflict literals     : 7362  (0.0135814 % deleted)
> Current optimal value 405 after 536 ms
|        18 |     446    29892    59784 |    37177       18    409 |
> restarts              : 22
> decisions             : 9210  (0 % random)
> conflicts             : 20
> propagations          : 9732
> conflict literals     : 8171  (0.0122369 % deleted)
> Current optimal value 404 after 541 ms
|        20 |     447    29892    59784 |    38414       20    409 |
> restarts              : 23
> decisions             : 9618  (0 % random)
> conflicts             : 22
> propagations          : 10189
> conflict literals     : 8978  (0.0111371 % deleted)
> Current optimal value 403 after 546 ms
|        22 |     448    29892    59784 |    39651       22    408 |
> restarts              : 24
> decisions             : 10052  (0 % random)
> conflicts             : 40
> propagations          : 10769
> conflict literals     : 16197  (0.123327 % deleted)
> Current optimal value 402 after 554 ms
|        40 |     449    29892    59784 |    40894       40    405 |
> restarts              : 25
> decisions             : 10464  (0 % random)
> conflicts             : 43
> propagations          : 11245
> conflict literals     : 17400  (0.114811 % deleted)
> Current optimal value 401 after 560 ms
|        43 |     450    29892    59784 |    42132       43    405 |
> restarts              : 26
> decisions             : 10892  (0 % random)
> conflicts             : 53
> propagations          : 11760
> conflict literals     : 21396  (0.107381 % deleted)
> Current optimal value 400 after 567 ms
|        53 |     451    29892    59784 |    43372       53    404 |
> restarts              : 27
> decisions             : 11274  (0 % random)
> conflicts             : 56
> propagations          : 12246
> conflict literals     : 22593  (0.101698 % deleted)
> Current optimal value 399 after 573 ms
|        56 |     452    29892    59784 |    44610       57    403 |
> restarts              : 28
> decisions             : 11708  (0 % random)
> conflicts             : 85
> propagations          : 13011
> conflict literals     : 34101  (0.137636 % deleted)
> Current optimal value 398 after 584 ms
|        85 |     453    29892    59784 |    45857       88    401 |
> restarts              : 30
> decisions             : 12389  (0 % random)
> conflicts             : 112
> propagations          : 14155
> conflict literals     : 44433  (0.112402 % deleted)
> Current optimal value 397 after 601 ms
|       112 |     454    29892    59784 |    47103      117    400 |
> restarts              : 31
> decisions             : 12557  (0 % random)
> conflicts             : 149
> propagations          : 14934
> conflict literals     : 59081  (0.0896269 % deleted)
> Current optimal value 396 after 612 ms
|       149 |     455    29892    59784 |    48353      156    399 |
> restarts              : 32
> decisions             : 12630  (0 % random)
> conflicts             : 157
> propagations          : 15446
> conflict literals     : 62244  (0.0866802 % deleted)
> Current optimal value 395 after 617 ms
|       157 |     456    29892    59784 |    49592      164    399 |
> restarts              : 33
> decisions             : 12748  (0 % random)
> conflicts             : 162
> propagations          : 15971
> conflict literals     : 64214  (0.0855778 % deleted)
> Current optimal value 394 after 622 ms
|       162 |     457    29892    59784 |    50831      170    399 |
|       262 |     457    29892    59784 |    55914      274    397 |
|       412 |     457    29892    59784 |    61505      431    395 |
|       638 |     457    29892    59784 |    67656      665    394 |
> restarts              : 36
> decisions             : 13750  (0 % random)
> conflicts             : 734
> propagations          : 22058
> conflict literals     : 287941  (0.0874414 % deleted)
> Current optimal value 393 after 753 ms
|       734 |     458    29892    59784 |    52267      768    394 |
> restarts              : 38
> decisions             : 14044  (0 % random)
> conflicts             : 834
> propagations          : 23848
> conflict literals     : 326741  (0.0837882 % deleted)
> Current optimal value 392 after 782 ms
|       834 |     459    29892    59784 |    53538      872    394 |
> restarts              : 39
> decisions             : 14108  (0 % random)
> conflicts             : 836
> propagations          : 24330
> conflict literals     : 327525  (0.0835878 % deleted)
> Current optimal value 391 after 787 ms
|       836 |     460    29892    59784 |    54776      875    394 |
> restarts              : 40
> decisions             : 14201  (0 % random)
> conflicts             : 845
> propagations          : 24909
> conflict literals     : 331043  (0.0827003 % deleted)
> Current optimal value 390 after 793 ms
|       845 |     461    29892    59784 |    56016      887    394 |
> restarts              : 41
> decisions             : 14290  (0 % random)
> conflicts             : 848
> propagations          : 25430
> conflict literals     : 332212  (0.0824095 % deleted)
> Current optimal value 389 after 798 ms
|       848 |     462    29892    59784 |    57255      892    394 |
> restarts              : 42
> decisions             : 14353  (0 % random)
> conflicts             : 850
> propagations          : 25931
> conflict literals     : 332990  (0.0822171 % deleted)
> Current optimal value 388 after 802 ms
|       850 |     463    29892    59784 |    58492      895    394 |
> restarts              : 43
> decisions             : 14477  (0 % random)
> conflicts             : 855
> propagations          : 26451
> conflict literals     : 334927  (0.081742 % deleted)
> Current optimal value 387 after 808 ms
|       855 |     464    29892    59784 |    59731      900    394 |
> restarts              : 44
> decisions             : 14539  (0 % random)
> conflicts             : 855
> propagations          : 26915
> conflict literals     : 334927  (0.081742 % deleted)
> Current optimal value 386 after 813 ms
|       855 |     465    29892    59784 |    60967      900    394 |
> restarts              : 45
> decisions             : 14601  (0 % random)
> conflicts             : 855
> propagations          : 27380
> conflict literals     : 334927  (0.081742 % deleted)
> Current optimal value 385 after 817 ms
|       855 |     466    29892    59784 |    62204      900    394 |
> restarts              : 46
> decisions             : 14670  (0 % random)
> conflicts             : 855
> propagations          : 27846
> conflict literals     : 334927  (0.081742 % deleted)
> Current optimal value 384 after 821 ms
|       855 |     467    29892    59784 |    63441      900    394 |
> restarts              : 47
> decisions             : 14743  (0 % random)
> conflicts             : 855
> propagations          : 28313
> conflict literals     : 334927  (0.081742 % deleted)
> Current optimal value 383 after 826 ms
|       855 |     468    29892    59784 |    64677      900    394 |
> restarts              : 48
> decisions             : 14819  (0 % random)
> conflicts             : 855
> propagations          : 28781
> conflict literals     : 334927  (0.081742 % deleted)
> Current optimal value 382 after 830 ms
|       855 |     469    29892    59784 |    65914      900    394 |
> restarts              : 49
> decisions             : 14895  (0 % random)
> conflicts             : 855
> propagations          : 29250
> conflict literals     : 334927  (0.081742 % deleted)
> Current optimal value 381 after 835 ms
|       855 |     470    29892    59784 |    67151      900    394 |
> restarts              : 50
> decisions             : 14971  (0 % random)
> conflicts             : 855
> propagations          : 29720
> conflict literals     : 334927  (0.081742 % deleted)
> Current optimal value 380 after 840 ms
|       855 |     471    29892    59784 |    68387      900    394 |
> restarts              : 51
> decisions             : 15047  (0 % random)
> conflicts             : 855
> propagations          : 30191
> conflict literals     : 334927  (0.081742 % deleted)
> Current optimal value 379 after 845 ms
|       855 |     472    29892    59784 |    69624      900    394 |
> restarts              : 52
> decisions             : 15123  (0 % random)
> conflicts             : 855
> propagations          : 30663
> conflict literals     : 334927  (0.081742 % deleted)
> Current optimal value 378 after 850 ms
|       855 |     473    29892    59784 |    70861      900    394 |
> restarts              : 53
> decisions             : 15199  (0 % random)
> conflicts             : 855
> propagations          : 31136
> conflict literals     : 334927  (0.081742 % deleted)
> Current optimal value 377 after 855 ms
|       855 |     474    29892    59784 |    72097      900    394 |
> restarts              : 54
> decisions             : 15275  (0 % random)
> conflicts             : 855
> propagations          : 31610
> conflict literals     : 334927  (0.081742 % deleted)
> Current optimal value 376 after 861 ms
|       855 |     475    29892    59784 |    73334      900    394 |
> restarts              : 55
> decisions             : 15351  (0 % random)
> conflicts             : 855
> propagations          : 32085
> conflict literals     : 334927  (0.081742 % deleted)
> Current optimal value 375 after 866 ms
|       855 |     476    29892    59784 |    74571      900    394 |
> restarts              : 56
> decisions             : 15427  (0 % random)
> conflicts             : 855
> propagations          : 32561
> conflict literals     : 334927  (0.081742 % deleted)
> Current optimal value 374 after 871 ms
|       855 |     477    29892    59784 |    75807      900    394 |
> restarts              : 57
> decisions             : 15503  (0 % random)
> conflicts             : 855
> propagations          : 33038
> conflict literals     : 334927  (0.081742 % deleted)
> Current optimal value 373 after 877 ms
|       855 |     478    29892    59784 |    77044      900    394 |
> restarts              : 58
> decisions             : 15579  (0 % random)
> conflicts             : 855
> propagations          : 33516
> conflict literals     : 334927  (0.081742 % deleted)
> Current optimal value 372 after 883 ms
|       855 |     479    29892    59784 |    78281      900    394 |
> restarts              : 59
> decisions             : 15655  (0 % random)
> conflicts             : 855
> propagations          : 33995
> conflict literals     : 334927  (0.081742 % deleted)
> Current optimal value 371 after 888 ms
|       855 |     480    29892    59784 |    79517      900    394 |
> restarts              : 60
> decisions             : 15731  (0 % random)
> conflicts             : 855
> propagations          : 34475
> conflict literals     : 334927  (0.081742 % deleted)
> Current optimal value 370 after 894 ms
|       855 |     481    29892    59784 |    80754      900    394 |
> restarts              : 61
> decisions             : 15807  (0 % random)
> conflicts             : 855
> propagations          : 34956
> conflict literals     : 334927  (0.081742 % deleted)
> Current optimal value 369 after 900 ms
|       855 |     482    29892    59784 |    81991      900    394 |
> restarts              : 62
> decisions             : 15883  (0 % random)
> conflicts             : 855
> propagations          : 35438
> conflict literals     : 334927  (0.081742 % deleted)
> Current optimal value 368 after 906 ms
|       855 |     483    29892    59784 |    83227      900    394 |
> restarts              : 63
> decisions             : 15959  (0 % random)
> conflicts             : 855
> propagations          : 35921
> conflict literals     : 334927  (0.081742 % deleted)
> Current optimal value 367 after 912 ms
|       855 |     484    29892    59784 |    84464      900    394 |
> restarts              : 64
> decisions             : 16035  (0 % random)
> conflicts             : 855
> propagations          : 36405
> conflict literals     : 334927  (0.081742 % deleted)
> Current optimal value 366 after 918 ms
|       855 |     485    29892    59784 |    85701      900    394 |
> restarts              : 65
> decisions             : 16111  (0 % random)
> conflicts             : 855
> propagations          : 36890
> conflict literals     : 334927  (0.081742 % deleted)
> Current optimal value 365 after 924 ms
|       855 |     486    29892    59784 |    86937      900    394 |
> restarts              : 66
> decisions             : 16187  (0 % random)
> conflicts             : 855
> propagations          : 37376
> conflict literals     : 334927  (0.081742 % deleted)
> Current optimal value 364 after 931 ms
|       855 |     487    29892    59784 |    88174      900    394 |
> restarts              : 67
> decisions             : 16263  (0 % random)
> conflicts             : 855
> propagations          : 37863
> conflict literals     : 334927  (0.081742 % deleted)
> Current optimal value 363 after 938 ms
|       855 |     488    29892    59784 |    89411      900    394 |
> restarts              : 68
> decisions             : 16339  (0 % random)
> conflicts             : 855
> propagations          : 38351
> conflict literals     : 334927  (0.081742 % deleted)
> Current optimal value 362 after 945 ms
|       855 |     489    29892    59784 |    90647      900    394 |
> restarts              : 69
> decisions             : 16415  (0 % random)
> conflicts             : 855
> propagations          : 38840
> conflict literals     : 334927  (0.081742 % deleted)
> Current optimal value 361 after 953 ms
|       855 |     490    29892    59784 |    91884      900    394 |
> restarts              : 70
> decisions             : 16491  (0 % random)
> conflicts             : 855
> propagations          : 39330
> conflict literals     : 334927  (0.081742 % deleted)
> Current optimal value 360 after 961 ms
|       855 |     491    29892    59784 |    93121      900    394 |
> restarts              : 71
> decisions             : 16567  (0 % random)
> conflicts             : 855
> propagations          : 39821
> conflict literals     : 334927  (0.081742 % deleted)
> Current optimal value 359 after 968 ms
|       855 |     492    29892    59784 |    94357      900    394 |
> restarts              : 72
> decisions             : 16643  (0 % random)
> conflicts             : 855
> propagations          : 40313
> conflict literals     : 334927  (0.081742 % deleted)
> Current optimal value 358 after 976 ms
|       855 |     493    29892    59784 |    95594      900    394 |
> restarts              : 73
> decisions             : 16719  (0 % random)
> conflicts             : 855
> propagations          : 40806
> conflict literals     : 334927  (0.081742 % deleted)
> Current optimal value 357 after 983 ms
|       855 |     494    29892    59784 |    96831      900    394 |
> restarts              : 74
> decisions             : 16795  (0 % random)
> conflicts             : 855
> propagations          : 41300
> conflict literals     : 334927  (0.081742 % deleted)
> Current optimal value 356 after 990 ms
|       855 |     495    29892    59784 |    98067      900    394 |
> restarts              : 75
> decisions             : 16871  (0 % random)
> conflicts             : 855
> propagations          : 41795
> conflict literals     : 334927  (0.081742 % deleted)
> Current optimal value 355 after 997 ms
|       855 |     496    29892    59784 |    99304      900    394 |
> restarts              : 76
> decisions             : 16947  (0 % random)
> conflicts             : 855
> propagations          : 42291
> conflict literals     : 334927  (0.081742 % deleted)
> Current optimal value 354 after 1005 ms
|       855 |     497    29892    59784 |   100541      900    394 |
> restarts              : 77
> decisions             : 17023  (0 % random)
> conflicts             : 855
> propagations          : 42788
> conflict literals     : 334927  (0.081742 % deleted)
> Current optimal value 353 after 1013 ms
|       855 |     498    29892    59784 |   101777      900    394 |
> restarts              : 78
> decisions             : 17099  (0 % random)
> conflicts             : 855
> propagations          : 43286
> conflict literals     : 334927  (0.081742 % deleted)
> Current optimal value 352 after 1021 ms
|       855 |     499    29892    59784 |   103014      900    394 |
> restarts              : 79
> decisions             : 17175  (0 % random)
> conflicts             : 855
> propagations          : 43785
> conflict literals     : 334927  (0.081742 % deleted)
> Current optimal value 351 after 1029 ms
|       855 |     500    29892    59784 |   104251      900    394 |
> restarts              : 80
> decisions             : 17192  (0 % random)
> conflicts             : 855
> propagations          : 44285
> conflict literals     : 334927  (0.081742 % deleted)
> Current optimal value 350 after 1036 ms
|       855 |     501    29892    59784 |   105487      900    394 |
|       955 |     501    29892    59784 |   116036     1012    389 |
|      1106 |     501    29892    59784 |   127640     1187    383 |
|      1333 |     501    29892    59784 |   140404     1453    377 |
|      1672 |     501    29892    59784 |   154444     1830    370 |
|      2180 |     501    29892    59784 |   169888     2417    365 |
> restarts              : 92
> decisions             : 19615  (0 % random)
> conflicts             : 2740
> propagations          : 89334
> conflict literals     : 983626  (0.103083 % deleted)
> Current optimal value 349 after 3014 ms
|      2740 |     502    29892    59784 |   107429     3014    361 |
> restarts              : 93
> decisions             : 19692  (0 % random)
> conflicts             : 2740
> propagations          : 89836
> conflict literals     : 983626  (0.103083 % deleted)
> Current optimal value 348 after 3023 ms
|      2740 |     503    29892    59784 |   108665     3014    361 |
> restarts              : 94
> decisions             : 19774  (0 % random)
> conflicts             : 2740
> propagations          : 90339
> conflict literals     : 983626  (0.103083 % deleted)
> Current optimal value 347 after 3032 ms
|      2740 |     504    29892    59784 |   109902     3014    361 |
> restarts              : 95
> decisions             : 19855  (0 % random)
> conflicts             : 2740
> propagations          : 90843
> conflict literals     : 983626  (0.103083 % deleted)
> Current optimal value 346 after 3041 ms
|      2740 |     505    29892    59784 |   111139     3014    361 |
> restarts              : 96
> decisions             : 19936  (0 % random)
> conflicts             : 2740
> propagations          : 91348
> conflict literals     : 983626  (0.103083 % deleted)
> Current optimal value 345 after 3050 ms
|      2740 |     506    29892    59784 |   112375     3014    361 |
> restarts              : 97
> decisions             : 20018  (0 % random)
> conflicts             : 2740
> propagations          : 91854
> conflict literals     : 983626  (0.103083 % deleted)
> Current optimal value 344 after 3060 ms
|      2740 |     507    29892    59784 |   113612     3014    361 |
> restarts              : 98
> decisions             : 20064  (0 % random)
> conflicts             : 2740
> propagations          : 92361
> conflict literals     : 983626  (0.103083 % deleted)
> Current optimal value 343 after 3069 ms
|      2740 |     508    29892    59784 |   114849     3014    361 |
> restarts              : 99
> decisions             : 20143  (0 % random)
> conflicts             : 2740
> propagations          : 92869
> conflict literals     : 983626  (0.103083 % deleted)
> Current optimal value 342 after 3078 ms
|      2740 |     509    29892    59784 |   116085     3014    361 |
> restarts              : 100
> decisions             : 20190  (0 % random)
> conflicts             : 2740
> propagations          : 93378
> conflict literals     : 983626  (0.103083 % deleted)
> Current optimal value 341 after 3088 ms
|      2740 |     510    29892    59784 |   117322     3014    361 |
> restarts              : 101
> decisions             : 20207  (0 % random)
> conflicts             : 2740
> propagations          : 93888
> conflict literals     : 983626  (0.103083 % deleted)
> Current optimal value 340 after 3097 ms
|      2740 |     511    29892    59784 |   118559     3014    361 |
|      2841 |     511    29892    59784 |   130414     3117    360 |
|      2992 |     511    29892    59784 |   143456     3280    359 |
|      3219 |     511    29892    59784 |   157802     3525    357 |
|      3558 |     511    29892    59784 |   173582     3881    355 |
|      4066 |     511    29892    59784 |   190940     4438    353 |
|      4826 |     511    29892    59784 |   210034     5252    350 |
|      5971 |     511    29892    59784 |   231037     6471    347 |
|      7687 |     511    29892    59784 |   254141     8351    345 |
|     10251 |     511    29892    59784 |   279555    11272    343 |
|     14096 |     511    29892    59784 |   307511    15575    340 |
|     19868 |     511    29892    59784 |   338262    22112    339 |
|     28551 |     511    29892    59784 |   372088    31894    338 |
|     41563 |     511    29892    59784 |   409297    46450    338 |
|     61073 |     511    29892    59784 |   450227    68376    337 |
|     90326 |     511    29892    59784 |   495250   101306    337 |
|    134238 |     511    29892    59784 |   544775   149997    337 |
