Starting solving at 535 ms
>>> Search start
> Conflicts |          ORIGINAL         |          LEARNT          | Progress
>           |    Vars  Clauses Literals |    Limit  Clauses Lit/Cl |         
|         0 |     450    33525    67050 |    12497        0   -nan |
> restarts              : 1
> decisions             : 451  (0 % random)
> conflicts             : 0
> propagations          : 454
> conflict literals     : 0  (-nan % deleted)
> Current optimal value 450 after 536 ms
|         0 |     451    33525    67050 |    13819        0   -nan |
> restarts              : 2
> decisions             : 901  (0 % random)
> conflicts             : 0
> propagations          : 905
> conflict literals     : 0  (-nan % deleted)
> Current optimal value 449 after 537 ms
|         0 |     452    33525    67050 |    15141        0   -nan |
> restarts              : 3
> decisions             : 1350  (0 % random)
> conflicts             : 0
> propagations          : 1357
> conflict literals     : 0  (-nan % deleted)
> Current optimal value 448 after 538 ms
|         0 |     453    33525    67050 |    16463        0   -nan |
> restarts              : 4
> decisions             : 1798  (0 % random)
> conflicts             : 0
> propagations          : 1810
> conflict literals     : 0  (-nan % deleted)
> Current optimal value 447 after 539 ms
|         0 |     454    33525    67050 |    17785        0   -nan |
> restarts              : 5
> decisions             : 2245  (0 % random)
> conflicts             : 0
> propagations          : 2264
> conflict literals     : 0  (-nan % deleted)
> Current optimal value 446 after 540 ms
|         0 |     455    33525    67050 |    19107        0   -nan |
> restarts              : 6
> decisions             : 2691  (0 % random)
> conflicts             : 0
> propagations          : 2719
> conflict literals     : 0  (-nan % deleted)
> Current optimal value 445 after 541 ms
|         0 |     456    33525    67050 |    20429        0   -nan |
> restarts              : 7
> decisions             : 3136  (0 % random)
> conflicts             : 0
> propagations          : 3175
> conflict literals     : 0  (-nan % deleted)
> Current optimal value 444 after 543 ms
|         0 |     457    33525    67050 |    21751        0   -nan |
> restarts              : 8
> decisions             : 3580  (0 % random)
> conflicts             : 0
> propagations          : 3632
> conflict literals     : 0  (-nan % deleted)
> Current optimal value 443 after 545 ms
|         0 |     458    33525    67050 |    23073        0   -nan |
> restarts              : 9
> decisions             : 4023  (0 % random)
> conflicts             : 0
> propagations          : 4090
> conflict literals     : 0  (-nan % deleted)
> Current optimal value 442 after 547 ms
|         0 |     459    33525    67050 |    24395        0   -nan |
> restarts              : 10
> decisions             : 4465  (0 % random)
> conflicts             : 0
> propagations          : 4549
> conflict literals     : 0  (-nan % deleted)
> Current optimal value 441 after 549 ms
|         0 |     460    33525    67050 |    25717        0   -nan |
> restarts              : 11
> decisions             : 4907  (0 % random)
> conflicts             : 0
> propagations          : 5009
> conflict literals     : 0  (-nan % deleted)
> Current optimal value 440 after 551 ms
|         0 |     461    33525    67050 |    27039        0   -nan |
> restarts              : 12
> decisions             : 5348  (0 % random)
> conflicts             : 0
> propagations          : 5470
> conflict literals     : 0  (-nan % deleted)
> Current optimal value 439 after 554 ms
|         0 |     462    33525    67050 |    28361        0   -nan |
> restarts              : 13
> decisions             : 5790  (0 % random)
> conflicts             : 0
> propagations          : 5932
> conflict literals     : 0  (-nan % deleted)
> Current optimal value 438 after 557 ms
|         0 |     463    33525    67050 |    29683        0   -nan |
> restarts              : 14
> decisions             : 6231  (0 % random)
> conflicts             : 0
> propagations          : 6395
> conflict literals     : 0  (-nan % deleted)
> Current optimal value 437 after 559 ms
|         0 |     464    33525    67050 |    31005        0   -nan |
> restarts              : 15
> decisions             : 6669  (0 % random)
> conflicts             : 0
> propagations          : 6859
> conflict literals     : 0  (-nan % deleted)
> Current optimal value 436 after 563 ms
|         0 |     465    33525    67050 |    32327        0   -nan |
> restarts              : 16
> decisions             : 7105  (0 % random)
> conflicts             : 0
> propagations          : 7324
> conflict literals     : 0  (-nan % deleted)
> Current optimal value 435 after 566 ms
|         0 |     466    33525    67050 |    33649        0   -nan |
> restarts              : 17
> decisions             : 7549  (0 % random)
> conflicts             : 2
> propagations          : 7819
> conflict literals     : 869  (0 % deleted)
> Current optimal value 434 after 570 ms
|         2 |     467    33525    67050 |    34972        2    434 |
> restarts              : 18
> decisions             : 7983  (0 % random)
> conflicts             : 2
> propagations          : 8286
> conflict literals     : 869  (0 % deleted)
> Current optimal value 433 after 574 ms
|         2 |     468    33525    67050 |    36294        2    434 |
> restarts              : 19
> decisions             : 8427  (0 % random)
> conflicts             : 9
> propagations          : 8825
> conflict literals     : 3889  (0.102749 % deleted)
> Current optimal value 432 after 578 ms
|         9 |     469    33525    67050 |    37618        9    432 |
> restarts              : 20
> decisions             : 8912  (0 % random)
> conflicts             : 49
> propagations          : 9674
> conflict literals     : 21097  (0.160901 % deleted)
> Current optimal value 431 after 588 ms
|        49 |     470    33525    67050 |    38955       53    431 |
> restarts              : 21
> decisions             : 9368  (0 % random)
> conflicts             : 61
> propagations          : 10257
> conflict literals     : 26249  (0.15975 % deleted)
> Current optimal value 430 after 595 ms
|        61 |     471    33525    67050 |    40281       67    431 |
> restarts              : 22
> decisions             : 9797  (0 % random)
> conflicts             : 64
> propagations          : 10761
> conflict literals     : 27539  (0.152279 % deleted)
> Current optimal value 429 after 600 ms
|        64 |     472    33525    67050 |    41605       71    431 |
> restarts              : 23
> decisions             : 10229  (0 % random)
> conflicts             : 68
> propagations          : 11269
> conflict literals     : 29254  (0.143364 % deleted)
> Current optimal value 428 after 606 ms
|        68 |     473    33525    67050 |    42928       76    430 |
> restarts              : 25
> decisions             : 10738  (0 % random)
> conflicts             : 100
> propagations          : 12453
> conflict literals     : 42486  (0.110502 % deleted)
> Current optimal value 427 after 621 ms
|       100 |     474    33525    67050 |    44261      108    429 |
> restarts              : 26
> decisions             : 10781  (0 % random)
> conflicts             : 100
> propagations          : 12927
> conflict literals     : 42486  (0.110502 % deleted)
> Current optimal value 426 after 624 ms
|       100 |     475    33525    67050 |    45583      108    429 |
> restarts              : 27
> decisions             : 10823  (0 % random)
> conflicts             : 100
> propagations          : 13402
> conflict literals     : 42486  (0.110502 % deleted)
> Current optimal value 425 after 626 ms
|       100 |     476    33525    67050 |    46905      108    429 |
> restarts              : 28
> decisions             : 10863  (0 % random)
> conflicts             : 100
> propagations          : 13878
> conflict literals     : 42486  (0.110502 % deleted)
> Current optimal value 424 after 629 ms
|       100 |     477    33525    67050 |    48227      108    429 |
> restarts              : 29
> decisions             : 10901  (0 % random)
> conflicts             : 100
> propagations          : 14355
> conflict literals     : 42486  (0.110502 % deleted)
> Current optimal value 423 after 632 ms
|       100 |     478    33525    67050 |    49549      108    429 |
> restarts              : 30
> decisions             : 10937  (0 % random)
> conflicts             : 100
> propagations          : 14833
> conflict literals     : 42486  (0.110502 % deleted)
> Current optimal value 422 after 636 ms
|       100 |     479    33525    67050 |    50871      108    429 |
> restarts              : 31
> decisions             : 10973  (0 % random)
> conflicts             : 100
> propagations          : 15312
> conflict literals     : 42486  (0.110502 % deleted)
> Current optimal value 421 after 639 ms
|       100 |     480    33525    67050 |    52193      108    429 |
> restarts              : 32
> decisions             : 11010  (0 % random)
> conflicts             : 102
> propagations          : 15800
> conflict literals     : 43327  (0.10836 % deleted)
> Current optimal value 420 after 642 ms
|       102 |     481    33525    67050 |    53516      111    429 |
> restarts              : 33
> decisions             : 11424  (0 % random)
> conflicts             : 103
> propagations          : 16302
> conflict literals     : 43747  (0.107321 % deleted)
> Current optimal value 419 after 648 ms
|       103 |     482    33525    67050 |    54838      112    429 |
> restarts              : 34
> decisions             : 11645  (0 % random)
> conflicts             : 114
> propagations          : 16867
> conflict literals     : 48349  (0.0991797 % deleted)
> Current optimal value 418 after 657 ms
|       114 |     483    33525    67050 |    56164      123    428 |
> restarts              : 35
> decisions             : 11716  (0 % random)
> conflicts             : 127
> propagations          : 17483
> conflict literals     : 53772  (0.0910425 % deleted)
> Current optimal value 417 after 664 ms
|       127 |     484    33525    67050 |    57490      136    427 |
|       228 |     484    33525    67050 |    63239      242    422 |
|       379 |     484    33525    67050 |    69563      404    420 |
|       605 |     484    33525    67050 |    76520      640    418 |
|       943 |     484    33525    67050 |    84172      989    417 |
> restarts              : 42
> decisions             : 13445  (0 % random)
> conflicts             : 1132
> propagations          : 29750
> conflict literals     : 468886  (0.0797 % deleted)
> Current optimal value 416 after 909 ms
|      1132 |     485    33525    67050 |    59163     1189    417 |
> restarts              : 43
> decisions             : 13564  (0 % random)
> conflicts             : 1141
> propagations          : 30411
> conflict literals     : 472624  (0.0792814 % deleted)
> Current optimal value 415 after 916 ms
|      1141 |     486    33525    67050 |    60489     1201    417 |
> restarts              : 44
> decisions             : 13677  (0 % random)
> conflicts             : 1163
> propagations          : 31156
> conflict literals     : 481738  (0.0779899 % deleted)
> Current optimal value 414 after 927 ms
|      1163 |     487    33525    67050 |    61820     1226    417 |
> restarts              : 45
> decisions             : 13778  (0 % random)
> conflicts             : 1164
> propagations          : 31672
> conflict literals     : 482159  (0.0779218 % deleted)
> Current optimal value 413 after 932 ms
|      1164 |     488    33525    67050 |    63142     1228    417 |
> restarts              : 46
> decisions             : 13932  (0 % random)
> conflicts             : 1165
> propagations          : 32165
> conflict literals     : 482572  (0.0778552 % deleted)
> Current optimal value 412 after 937 ms
|      1165 |     489    33525    67050 |    64465     1229    417 |
> restarts              : 47
> decisions             : 13991  (0 % random)
> conflicts             : 1166
> propagations          : 32660
> conflict literals     : 482984  (0.0777888 % deleted)
> Current optimal value 411 after 942 ms
|      1166 |     490    33525    67050 |    65787     1230    417 |
> restarts              : 48
> decisions             : 14053  (0 % random)
> conflicts             : 1168
> propagations          : 33157
> conflict literals     : 483805  (0.0776569 % deleted)
> Current optimal value 410 after 948 ms
|      1168 |     491    33525    67050 |    67110     1232    417 |
> restarts              : 49
> decisions             : 14108  (0 % random)
> conflicts             : 1168
> propagations          : 33648
> conflict literals     : 483805  (0.0776569 % deleted)
> Current optimal value 409 after 953 ms
|      1168 |     492    33525    67050 |    68432     1232    417 |
> restarts              : 50
> decisions             : 14162  (0 % random)
> conflicts             : 1168
> propagations          : 34140
> conflict literals     : 483805  (0.0776569 % deleted)
> Current optimal value 408 after 958 ms
|      1168 |     493    33525    67050 |    69754     1232    417 |
> restarts              : 51
> decisions             : 14232  (0 % random)
> conflicts             : 1168
> propagations          : 34633
> conflict literals     : 483805  (0.0776569 % deleted)
> Current optimal value 407 after 963 ms
|      1168 |     494    33525    67050 |    71076     1232    417 |
> restarts              : 52
> decisions             : 14302  (0 % random)
> conflicts             : 1168
> propagations          : 35127
> conflict literals     : 483805  (0.0776569 % deleted)
> Current optimal value 406 after 968 ms
|      1168 |     495    33525    67050 |    72398     1232    417 |
> restarts              : 53
> decisions             : 14373  (0 % random)
> conflicts             : 1168
> propagations          : 35622
> conflict literals     : 483805  (0.0776569 % deleted)
> Current optimal value 405 after 973 ms
|      1168 |     496    33525    67050 |    73720     1232    417 |
> restarts              : 54
> decisions             : 14443  (0 % random)
> conflicts             : 1168
> propagations          : 36118
> conflict literals     : 483805  (0.0776569 % deleted)
> Current optimal value 404 after 978 ms
|      1168 |     497    33525    67050 |    75042     1232    417 |
> restarts              : 55
> decisions             : 14515  (0 % random)
> conflicts             : 1168
> propagations          : 36615
> conflict literals     : 483805  (0.0776569 % deleted)
> Current optimal value 403 after 983 ms
|      1168 |     498    33525    67050 |    76364     1232    417 |
> restarts              : 56
> decisions             : 14590  (0 % random)
> conflicts             : 1168
> propagations          : 37113
> conflict literals     : 483805  (0.0776569 % deleted)
> Current optimal value 402 after 989 ms
|      1168 |     499    33525    67050 |    77686     1232    417 |
> restarts              : 57
> decisions             : 14666  (0 % random)
> conflicts             : 1168
> propagations          : 37612
> conflict literals     : 483805  (0.0776569 % deleted)
> Current optimal value 401 after 994 ms
|      1168 |     500    33525    67050 |    79008     1232    417 |
> restarts              : 58
> decisions             : 14742  (0 % random)
> conflicts             : 1168
> propagations          : 38112
> conflict literals     : 483805  (0.0776569 % deleted)
> Current optimal value 400 after 1000 ms
|      1168 |     501    33525    67050 |    80330     1232    417 |
> restarts              : 59
> decisions             : 14818  (0 % random)
> conflicts             : 1168
> propagations          : 38613
> conflict literals     : 483805  (0.0776569 % deleted)
> Current optimal value 399 after 1006 ms
|      1168 |     502    33525    67050 |    81652     1232    417 |
> restarts              : 60
> decisions             : 14894  (0 % random)
> conflicts             : 1168
> propagations          : 39115
> conflict literals     : 483805  (0.0776569 % deleted)
> Current optimal value 398 after 1012 ms
|      1168 |     503    33525    67050 |    82974     1232    417 |
> restarts              : 61
> decisions             : 14970  (0 % random)
> conflicts             : 1168
> propagations          : 39618
> conflict literals     : 483805  (0.0776569 % deleted)
> Current optimal value 397 after 1018 ms
|      1168 |     504    33525    67050 |    84296     1232    417 |
> restarts              : 62
> decisions             : 15046  (0 % random)
> conflicts             : 1168
> propagations          : 40122
> conflict literals     : 483805  (0.0776569 % deleted)
> Current optimal value 396 after 1024 ms
|      1168 |     505    33525    67050 |    85618     1232    417 |
> restarts              : 63
> decisions             : 15122  (0 % random)
> conflicts             : 1168
> propagations          : 40627
> conflict literals     : 483805  (0.0776569 % deleted)
> Current optimal value 395 after 1031 ms
|      1168 |     506    33525    67050 |    86940     1232    417 |
> restarts              : 64
> decisions             : 15198  (0 % random)
> conflicts             : 1168
> propagations          : 41133
> conflict literals     : 483805  (0.0776569 % deleted)
> Current optimal value 394 after 1037 ms
|      1168 |     507    33525    67050 |    88262     1232    417 |
> restarts              : 65
> decisions             : 15274  (0 % random)
> conflicts             : 1168
> propagations          : 41640
> conflict literals     : 483805  (0.0776569 % deleted)
> Current optimal value 393 after 1043 ms
|      1168 |     508    33525    67050 |    89584     1232    417 |
> restarts              : 66
> decisions             : 15350  (0 % random)
> conflicts             : 1168
> propagations          : 42148
> conflict literals     : 483805  (0.0776569 % deleted)
> Current optimal value 392 after 1050 ms
|      1168 |     509    33525    67050 |    90906     1232    417 |
> restarts              : 67
> decisions             : 15426  (0 % random)
> conflicts             : 1168
> propagations          : 42657
> conflict literals     : 483805  (0.0776569 % deleted)
> Current optimal value 391 after 1057 ms
|      1168 |     510    33525    67050 |    92228     1232    417 |
> restarts              : 68
> decisions             : 15502  (0 % random)
> conflicts             : 1168
> propagations          : 43167
> conflict literals     : 483805  (0.0776569 % deleted)
> Current optimal value 390 after 1064 ms
|      1168 |     511    33525    67050 |    93550     1232    417 |
> restarts              : 69
> decisions             : 15578  (0 % random)
> conflicts             : 1168
> propagations          : 43678
> conflict literals     : 483805  (0.0776569 % deleted)
> Current optimal value 389 after 1071 ms
|      1168 |     512    33525    67050 |    94872     1232    417 |
> restarts              : 70
> decisions             : 15654  (0 % random)
> conflicts             : 1168
> propagations          : 44190
> conflict literals     : 483805  (0.0776569 % deleted)
> Current optimal value 388 after 1078 ms
|      1168 |     513    33525    67050 |    96194     1232    417 |
> restarts              : 71
> decisions             : 15730  (0 % random)
> conflicts             : 1168
> propagations          : 44703
> conflict literals     : 483805  (0.0776569 % deleted)
> Current optimal value 387 after 1085 ms
|      1168 |     514    33525    67050 |    97516     1232    417 |
> restarts              : 72
> decisions             : 15806  (0 % random)
> conflicts             : 1168
> propagations          : 45217
> conflict literals     : 483805  (0.0776569 % deleted)
> Current optimal value 386 after 1093 ms
|      1168 |     515    33525    67050 |    98838     1232    417 |
> restarts              : 73
> decisions             : 15882  (0 % random)
> conflicts             : 1168
> propagations          : 45732
> conflict literals     : 483805  (0.0776569 % deleted)
> Current optimal value 385 after 1101 ms
|      1168 |     516    33525    67050 |   100160     1232    417 |
> restarts              : 74
> decisions             : 15958  (0 % random)
> conflicts             : 1168
> propagations          : 46248
> conflict literals     : 483805  (0.0776569 % deleted)
> Current optimal value 384 after 1109 ms
|      1168 |     517    33525    67050 |   101482     1232    417 |
> restarts              : 75
> decisions             : 16034  (0 % random)
> conflicts             : 1168
> propagations          : 46765
> conflict literals     : 483805  (0.0776569 % deleted)
> Current optimal value 383 after 1117 ms
|      1168 |     518    33525    67050 |   102804     1232    417 |
> restarts              : 76
> decisions             : 16110  (0 % random)
> conflicts             : 1168
> propagations          : 47283
> conflict literals     : 483805  (0.0776569 % deleted)
> Current optimal value 382 after 1125 ms
|      1168 |     519    33525    67050 |   104126     1232    417 |
> restarts              : 77
> decisions             : 16186  (0 % random)
> conflicts             : 1168
> propagations          : 47802
> conflict literals     : 483805  (0.0776569 % deleted)
> Current optimal value 381 after 1133 ms
|      1168 |     520    33525    67050 |   105448     1232    417 |
> restarts              : 78
> decisions             : 16262  (0 % random)
> conflicts             : 1168
> propagations          : 48322
> conflict literals     : 483805  (0.0776569 % deleted)
> Current optimal value 380 after 1142 ms
|      1168 |     521    33525    67050 |   106770     1232    417 |
> restarts              : 79
> decisions             : 16338  (0 % random)
> conflicts             : 1168
> propagations          : 48843
> conflict literals     : 483805  (0.0776569 % deleted)
> Current optimal value 379 after 1150 ms
|      1168 |     522    33525    67050 |   108092     1232    417 |
> restarts              : 80
> decisions             : 16414  (0 % random)
> conflicts             : 1168
> propagations          : 49365
> conflict literals     : 483805  (0.0776569 % deleted)
> Current optimal value 378 after 1158 ms
|      1168 |     523    33525    67050 |   109414     1232    417 |
> restarts              : 81
> decisions             : 16481  (0 % random)
> conflicts             : 1168
> propagations          : 49888
> conflict literals     : 483805  (0.0776569 % deleted)
> Current optimal value 377 after 1167 ms
|      1168 |     524    33525    67050 |   110736     1232    417 |
> restarts              : 82
> decisions             : 16498  (0 % random)
> conflicts             : 1168
> propagations          : 50412
> conflict literals     : 483805  (0.0776569 % deleted)
> Current optimal value 376 after 1174 ms
|      1168 |     525    33525    67050 |   112058     1232    417 |
|      1268 |     525    33525    67050 |   123263     1343    414 |
|      1420 |     525    33525    67050 |   135590     1504    409 |
|      1646 |     525    33525    67050 |   149149     1742    404 |
|      1983 |     525    33525    67050 |   164064     2108    398 |
|      2493 |     525    33525    67050 |   180470     2660    393 |
|      3256 |     525    33525    67050 |   198517     3479    388 |
|      4396 |     525    33525    67050 |   218369     4793    384 |
|      6109 |     525    33525    67050 |   240206     6855    380 |
|      8681 |     525    33525    67050 |   264226     9597    378 |
> restarts              : 126
> decisions             : 30181  (0 % random)
> conflicts             : 12058
> propagations          : 326729
> conflict literals     : 4503548  (0.139096 % deleted)
> Current optimal value 375 after 15466 ms
|     12058 |     526    33525    67050 |   117415    13337    376 |
> restarts              : 127
> decisions             : 30246  (0 % random)
> conflicts             : 12058
> propagations          : 327255
> conflict literals     : 4503548  (0.139096 % deleted)
> Current optimal value 374 after 15477 ms
|     12058 |     527    33525    67050 |   118737    13337    376 |
> restarts              : 128
> decisions             : 30323  (0 % random)
> conflicts             : 12058
> propagations          : 327782
> conflict literals     : 4503548  (0.139096 % deleted)
> Current optimal value 373 after 15487 ms
|     12058 |     528    33525    67050 |   120059    13337    376 |
> restarts              : 129
> decisions             : 30394  (0 % random)
> conflicts             : 12058
> propagations          : 328310
> conflict literals     : 4503548  (0.139096 % deleted)
> Current optimal value 372 after 15497 ms
|     12058 |     529    33525    67050 |   121381    13337    376 |
> restarts              : 130
> decisions             : 30469  (0 % random)
> conflicts             : 12058
> propagations          : 328839
> conflict literals     : 4503548  (0.139096 % deleted)
> Current optimal value 371 after 15507 ms
|     12058 |     530    33525    67050 |   122703    13337    376 |
> restarts              : 131
> decisions             : 30517  (0 % random)
> conflicts             : 12058
> propagations          : 329369
> conflict literals     : 4503548  (0.139096 % deleted)
> Current optimal value 370 after 15517 ms
|     12058 |     531    33525    67050 |   124025    13337    376 |
> restarts              : 132
> decisions             : 30540  (0 % random)
> conflicts             : 12058
> propagations          : 329900
> conflict literals     : 4503548  (0.139096 % deleted)
> Current optimal value 369 after 15526 ms
|     12058 |     532    33525    67050 |   125347    13337    376 |
> restarts              : 133
> decisions             : 30558  (0 % random)
> conflicts             : 12058
> propagations          : 330432
> conflict literals     : 4503548  (0.139096 % deleted)
> Current optimal value 368 after 15535 ms
|     12058 |     533    33525    67050 |   126669    13337    376 |
|     12158 |     533    33525    67050 |   139335    13461    376 |
|     12308 |     533    33525    67050 |   153269    13635    376 |
|     12533 |     533    33525    67050 |   168596    13897    376 |
|     12870 |     533    33525    67050 |   185456    14269    376 |
|     13376 |     533    33525    67050 |   204001    14855    375 |
|     14138 |     533    33525    67050 |   224401    15741    375 |
|     15283 |     533    33525    67050 |   246842    17036    374 |
> restarts              : 146
> decisions             : 35344  (0 % random)
> conflicts             : 16202
> propagations          : 442485
> conflict literals     : 6005052  (0.173967 % deleted)
> Current optimal value 367 after 23343 ms
|     16202 |     534    33525    67050 |   129554    18028    373 |
> restarts              : 147
> decisions             : 35408  (0 % random)
> conflicts             : 16202
> propagations          : 443019
> conflict literals     : 6005052  (0.173967 % deleted)
> Current optimal value 366 after 23354 ms
|     16202 |     535    33525    67050 |   130876    18028    373 |
> restarts              : 148
> decisions             : 35486  (0 % random)
> conflicts             : 16202
> propagations          : 443554
> conflict literals     : 6005052  (0.173967 % deleted)
> Current optimal value 365 after 23365 ms
|     16202 |     536    33525    67050 |   132198    18028    373 |
> restarts              : 149
> decisions             : 35576  (0 % random)
> conflicts             : 16202
> propagations          : 444090
> conflict literals     : 6005052  (0.173967 % deleted)
> Current optimal value 364 after 23376 ms
|     16202 |     537    33525    67050 |   133520    18028    373 |
> restarts              : 150
> decisions             : 35658  (0 % random)
> conflicts             : 16202
> propagations          : 444627
> conflict literals     : 6005052  (0.173967 % deleted)
> Current optimal value 363 after 23387 ms
|     16202 |     538    33525    67050 |   134842    18028    373 |
> restarts              : 151
> decisions             : 35749  (0 % random)
> conflicts             : 16202
> propagations          : 445165
> conflict literals     : 6005052  (0.173967 % deleted)
> Current optimal value 362 after 23399 ms
|     16202 |     539    33525    67050 |   136164    18028    373 |
> restarts              : 152
> decisions             : 35838  (0 % random)
> conflicts             : 16202
> propagations          : 445704
> conflict literals     : 6005052  (0.173967 % deleted)
> Current optimal value 361 after 23410 ms
|     16202 |     540    33525    67050 |   137486    18028    373 |
> restarts              : 153
> decisions             : 35857  (0 % random)
> conflicts             : 16202
> propagations          : 446244
> conflict literals     : 6005052  (0.173967 % deleted)
> Current optimal value 360 after 23421 ms
|     16202 |     541    33525    67050 |   138808    18028    373 |
|     16302 |     541    33525    67050 |   152689    18136    373 |
|     16453 |     541    33525    67050 |   167958    18304    373 |
|     16679 |     541    33525    67050 |   184754    18577    373 |
|     17017 |     541    33525    67050 |   203229    18930    372 |
|     17524 |     541    33525    67050 |   223552    19512    372 |
|     18284 |     541    33525    67050 |   245908    20338    371 |
|     19423 |     541    33525    67050 |   270498    21614    370 |
|     21142 |     541    33525    67050 |   297548    23577    369 |
|     23715 |     541    33525    67050 |   327303    26417    367 |
|     27569 |     541    33525    67050 |   360033    30696    366 |
|     33350 |     541    33525    67050 |   396037    37060    364 |
|     42032 |     541    33525    67050 |   435641    46682    362 |
|     55022 |     541    33525    67050 |   479205    61150    360 |
|     74513 |     541    33525    67050 |   527125    83702    359 |
|    103801 |     541    33525    67050 |   579838   116633    358 |
