Starting solving at 655 ms
>>> Search start
> Conflicts |          ORIGINAL         |          LEARNT          | Progress
>           |    Vars  Clauses Literals |    Limit  Clauses Lit/Cl |         
|         0 |     500    41417    82834 |    15300        0   -nan |
> restarts              : 1
> decisions             : 501  (0 % random)
> conflicts             : 0
> propagations          : 504
> conflict literals     : 0  (-nan % deleted)
> Current optimal value 500 after 656 ms
|         0 |     501    41417    82834 |    16794        0   -nan |
> restarts              : 2
> decisions             : 1001  (0 % random)
> conflicts             : 0
> propagations          : 1005
> conflict literals     : 0  (-nan % deleted)
> Current optimal value 499 after 657 ms
|         0 |     502    41417    82834 |    18288        0   -nan |
> restarts              : 3
> decisions             : 1500  (0 % random)
> conflicts             : 0
> propagations          : 1507
> conflict literals     : 0  (-nan % deleted)
> Current optimal value 498 after 658 ms
|         0 |     503    41417    82834 |    19782        0   -nan |
> restarts              : 4
> decisions             : 1998  (0 % random)
> conflicts             : 0
> propagations          : 2010
> conflict literals     : 0  (-nan % deleted)
> Current optimal value 497 after 659 ms
|         0 |     504    41417    82834 |    21276        0   -nan |
> restarts              : 5
> decisions             : 2495  (0 % random)
> conflicts             : 0
> propagations          : 2514
> conflict literals     : 0  (-nan % deleted)
> Current optimal value 496 after 661 ms
|         0 |     505    41417    82834 |    22770        0   -nan |
> restarts              : 6
> decisions             : 2991  (0 % random)
> conflicts             : 0
> propagations          : 3019
> conflict literals     : 0  (-nan % deleted)
> Current optimal value 495 after 663 ms
|         0 |     506    41417    82834 |    24264        0   -nan |
> restarts              : 7
> decisions             : 3486  (0 % random)
> conflicts             : 0
> propagations          : 3525
> conflict literals     : 0  (-nan % deleted)
> Current optimal value 494 after 665 ms
|         0 |     507    41417    82834 |    25758        0   -nan |
> restarts              : 8
> decisions             : 3981  (0 % random)
> conflicts             : 0
> propagations          : 4032
> conflict literals     : 0  (-nan % deleted)
> Current optimal value 493 after 667 ms
|         0 |     508    41417    82834 |    27252        0   -nan |
> restarts              : 9
> decisions             : 4475  (0 % random)
> conflicts             : 0
> propagations          : 4540
> conflict literals     : 0  (-nan % deleted)
> Current optimal value 492 after 670 ms
|         0 |     509    41417    82834 |    28746        0   -nan |
> restarts              : 10
> decisions             : 4967  (0 % random)
> conflicts             : 0
> propagations          : 5049
> conflict literals     : 0  (-nan % deleted)
> Current optimal value 491 after 672 ms
|         0 |     510    41417    82834 |    30240        0   -nan |
> restarts              : 11
> decisions             : 5458  (0 % random)
> conflicts             : 0
> propagations          : 5559
> conflict literals     : 0  (-nan % deleted)
> Current optimal value 490 after 675 ms
|         0 |     511    41417    82834 |    31734        0   -nan |
> restarts              : 12
> decisions             : 5948  (0 % random)
> conflicts             : 0
> propagations          : 6070
> conflict literals     : 0  (-nan % deleted)
> Current optimal value 489 after 679 ms
|         0 |     512    41417    82834 |    33228        0   -nan |
> restarts              : 13
> decisions             : 6437  (0 % random)
> conflicts             : 0
> propagations          : 6582
> conflict literals     : 0  (-nan % deleted)
> Current optimal value 488 after 682 ms
|         0 |     513    41417    82834 |    34722        0   -nan |
> restarts              : 14
> decisions             : 6925  (0 % random)
> conflicts             : 0
> propagations          : 7095
> conflict literals     : 0  (-nan % deleted)
> Current optimal value 487 after 686 ms
|         0 |     514    41417    82834 |    36216        0   -nan |
> restarts              : 15
> decisions             : 7412  (0 % random)
> conflicts             : 0
> propagations          : 7609
> conflict literals     : 0  (-nan % deleted)
> Current optimal value 486 after 690 ms
|         0 |     515    41417    82834 |    37710        0   -nan |
> restarts              : 16
> decisions             : 7898  (0 % random)
> conflicts             : 0
> propagations          : 8124
> conflict literals     : 0  (-nan % deleted)
> Current optimal value 485 after 694 ms
|         0 |     516    41417    82834 |    39204        0   -nan |
> restarts              : 17
> decisions             : 8384  (0 % random)
> conflicts             : 1
> propagations          : 8653
> conflict literals     : 485  (0 % deleted)
> Current optimal value 484 after 699 ms
|         1 |     517    41417    82834 |    40698        1    485 |
> restarts              : 18
> decisions             : 8869  (0 % random)
> conflicts             : 2
> propagations          : 9184
> conflict literals     : 969  (0 % deleted)
> Current optimal value 483 after 704 ms
|         2 |     518    41417    82834 |    42192        2    484 |
> restarts              : 19
> decisions             : 9354  (0 % random)
> conflicts             : 4
> propagations          : 9733
> conflict literals     : 1934  (0 % deleted)
> Current optimal value 482 after 709 ms
|         4 |     519    41417    82834 |    43687        4    484 |
> restarts              : 20
> decisions             : 9842  (0 % random)
> conflicts             : 11
> propagations          : 10325
> conflict literals     : 5299  (0.0565824 % deleted)
> Current optimal value 481 after 715 ms
|        11 |     520    41417    82834 |    45184       12    482 |
> restarts              : 21
> decisions             : 10355  (0 % random)
> conflicts             : 32
> propagations          : 11022
> conflict literals     : 15379  (0.0649815 % deleted)
> Current optimal value 480 after 723 ms
|        32 |     521    41417    82834 |    46685       34    481 |
> restarts              : 22
> decisions             : 10855  (0 % random)
> conflicts             : 43
> propagations          : 11676
> conflict literals     : 20650  (0.0532404 % deleted)
> Current optimal value 479 after 730 ms
|        43 |     522    41417    82834 |    48183       47    480 |
> restarts              : 23
> decisions             : 11348  (0 % random)
> conflicts             : 47
> propagations          : 12255
> conflict literals     : 22564  (0.0487265 % deleted)
> Current optimal value 478 after 737 ms
|        47 |     523    41417    82834 |    49679       52    480 |
> restarts              : 24
> decisions             : 11848  (0 % random)
> conflicts             : 57
> propagations          : 12881
> conflict literals     : 27337  (0.0438773 % deleted)
> Current optimal value 477 after 745 ms
|        57 |     524    41417    82834 |    51177       63    480 |
> restarts              : 25
> decisions             : 12328  (0 % random)
> conflicts             : 58
> propagations          : 13412
> conflict literals     : 27814  (0.0431251 % deleted)
> Current optimal value 476 after 751 ms
|        58 |     525    41417    82834 |    52671       64    480 |
> restarts              : 26
> decisions             : 12800  (0 % random)
> conflicts             : 59
> propagations          : 13944
> conflict literals     : 28290  (0.0423998 % deleted)
> Current optimal value 475 after 758 ms
|        59 |     526    41417    82834 |    54165       65    480 |
> restarts              : 27
> decisions             : 13275  (0 % random)
> conflicts             : 59
> propagations          : 14470
> conflict literals     : 28290  (0.0423998 % deleted)
> Current optimal value 474 after 765 ms
|        59 |     527    41417    82834 |    55659       65    480 |
> restarts              : 28
> decisions             : 13743  (0 % random)
> conflicts             : 59
> propagations          : 14997
> conflict literals     : 28290  (0.0423998 % deleted)
> Current optimal value 473 after 772 ms
|        59 |     528    41417    82834 |    57153       65    480 |
> restarts              : 29
> decisions             : 14207  (0 % random)
> conflicts             : 59
> propagations          : 15525
> conflict literals     : 28290  (0.0423998 % deleted)
> Current optimal value 472 after 780 ms
|        59 |     529    41417    82834 |    58647       65    480 |
> restarts              : 30
> decisions             : 14671  (0 % random)
> conflicts             : 59
> propagations          : 16054
> conflict literals     : 28290  (0.0423998 % deleted)
> Current optimal value 471 after 787 ms
|        59 |     530    41417    82834 |    60141       65    480 |
> restarts              : 31
> decisions             : 15131  (0 % random)
> conflicts             : 59
> propagations          : 16584
> conflict literals     : 28290  (0.0423998 % deleted)
> Current optimal value 470 after 795 ms
|        59 |     531    41417    82834 |    61635       65    480 |
> restarts              : 32
> decisions             : 15589  (0 % random)
> conflicts             : 59
> propagations          : 17115
> conflict literals     : 28290  (0.0423998 % deleted)
> Current optimal value 469 after 803 ms
|        59 |     532    41417    82834 |    63129       65    480 |
> restarts              : 33
> decisions             : 16042  (0 % random)
> conflicts             : 59
> propagations          : 17647
> conflict literals     : 28290  (0.0423998 % deleted)
> Current optimal value 468 after 812 ms
|        59 |     533    41417    82834 |    64623       65    480 |
> restarts              : 34
> decisions             : 16493  (0 % random)
> conflicts             : 59
> propagations          : 18180
> conflict literals     : 28290  (0.0423998 % deleted)
> Current optimal value 467 after 820 ms
|        59 |     534    41417    82834 |    66117       65    480 |
> restarts              : 35
> decisions             : 16944  (0 % random)
> conflicts             : 59
> propagations          : 18714
> conflict literals     : 28290  (0.0423998 % deleted)
> Current optimal value 466 after 829 ms
|        59 |     535    41417    82834 |    67611       65    480 |
> restarts              : 36
> decisions             : 17393  (0 % random)
> conflicts             : 60
> propagations          : 19251
> conflict literals     : 28756  (0.041713 % deleted)
> Current optimal value 465 after 839 ms
|        60 |     536    41417    82834 |    69106       66    479 |
|       161 |     536    41417    82834 |    76016      169    470 |
|       312 |     536    41417    82834 |    83618      322    467 |
|       537 |     536    41417    82834 |    91980      552    466 |
> restarts              : 40
> decisions             : 19005  (0 % random)
> conflicts             : 783
> propagations          : 28635
> conflict literals     : 362569  (0.0939627 % deleted)
> Current optimal value 464 after 1032 ms
|       783 |     537    41417    82834 |    70846      806    465 |
|       884 |     537    41417    82834 |    77931      919    465 |
|      1035 |     537    41417    82834 |    85724     1081    464 |
> restarts              : 43
> decisions             : 19999  (0 % random)
> conflicts             : 1040
> propagations          : 32958
> conflict literals     : 480497  (0.0867099 % deleted)
> Current optimal value 463 after 1126 ms
|      1040 |     538    41417    82834 |    72434     1087    464 |
> restarts              : 44
> decisions             : 20146  (0 % random)
> conflicts             : 1041
> propagations          : 33523
> conflict literals     : 480964  (0.0866258 % deleted)
> Current optimal value 462 after 1132 ms
|      1041 |     539    41417    82834 |    73929     1089    464 |
> restarts              : 45
> decisions             : 20415  (0 % random)
> conflicts             : 1041
> propagations          : 34062
> conflict literals     : 480964  (0.0866258 % deleted)
> Current optimal value 461 after 1139 ms
|      1041 |     540    41417    82834 |    75423     1089    464 |
> restarts              : 46
> decisions             : 20496  (0 % random)
> conflicts             : 1041
> propagations          : 34602
> conflict literals     : 480964  (0.0866258 % deleted)
> Current optimal value 460 after 1145 ms
|      1041 |     541    41417    82834 |    76917     1089    464 |
> restarts              : 47
> decisions             : 20581  (0 % random)
> conflicts             : 1041
> propagations          : 35143
> conflict literals     : 480964  (0.0866258 % deleted)
> Current optimal value 459 after 1150 ms
|      1041 |     542    41417    82834 |    78411     1089    464 |
> restarts              : 48
> decisions             : 20671  (0 % random)
> conflicts             : 1041
> propagations          : 35685
> conflict literals     : 480964  (0.0866258 % deleted)
> Current optimal value 458 after 1156 ms
|      1041 |     543    41417    82834 |    79905     1089    464 |
> restarts              : 49
> decisions             : 20761  (0 % random)
> conflicts             : 1041
> propagations          : 36228
> conflict literals     : 480964  (0.0866258 % deleted)
> Current optimal value 457 after 1161 ms
|      1041 |     544    41417    82834 |    81399     1089    464 |
> restarts              : 50
> decisions             : 20851  (0 % random)
> conflicts             : 1041
> propagations          : 36772
> conflict literals     : 480964  (0.0866258 % deleted)
> Current optimal value 456 after 1167 ms
|      1041 |     545    41417    82834 |    82893     1089    464 |
> restarts              : 51
> decisions             : 20941  (0 % random)
> conflicts             : 1041
> propagations          : 37317
> conflict literals     : 480964  (0.0866258 % deleted)
> Current optimal value 455 after 1173 ms
|      1041 |     546    41417    82834 |    84387     1089    464 |
> restarts              : 52
> decisions             : 21031  (0 % random)
> conflicts             : 1041
> propagations          : 37863
> conflict literals     : 480964  (0.0866258 % deleted)
> Current optimal value 454 after 1178 ms
|      1041 |     547    41417    82834 |    85881     1089    464 |
> restarts              : 53
> decisions             : 21121  (0 % random)
> conflicts             : 1041
> propagations          : 38410
> conflict literals     : 480964  (0.0866258 % deleted)
> Current optimal value 453 after 1185 ms
|      1041 |     548    41417    82834 |    87375     1089    464 |
> restarts              : 54
> decisions             : 21212  (0 % random)
> conflicts             : 1041
> propagations          : 38958
> conflict literals     : 480964  (0.0866258 % deleted)
> Current optimal value 452 after 1191 ms
|      1041 |     549    41417    82834 |    88869     1089    464 |
> restarts              : 55
> decisions             : 21303  (0 % random)
> conflicts             : 1041
> propagations          : 39507
> conflict literals     : 480964  (0.0866258 % deleted)
> Current optimal value 451 after 1198 ms
|      1041 |     550    41417    82834 |    90363     1089    464 |
> restarts              : 56
> decisions             : 21394  (0 % random)
> conflicts             : 1041
> propagations          : 40057
> conflict literals     : 480964  (0.0866258 % deleted)
> Current optimal value 450 after 1204 ms
|      1041 |     551    41417    82834 |    91857     1089    464 |
> restarts              : 57
> decisions             : 21485  (0 % random)
> conflicts             : 1041
> propagations          : 40608
> conflict literals     : 480964  (0.0866258 % deleted)
> Current optimal value 449 after 1211 ms
|      1041 |     552    41417    82834 |    93351     1089    464 |
> restarts              : 58
> decisions             : 21576  (0 % random)
> conflicts             : 1041
> propagations          : 41160
> conflict literals     : 480964  (0.0866258 % deleted)
> Current optimal value 448 after 1218 ms
|      1041 |     553    41417    82834 |    94845     1089    464 |
> restarts              : 59
> decisions             : 21667  (0 % random)
> conflicts             : 1041
> propagations          : 41713
> conflict literals     : 480964  (0.0866258 % deleted)
> Current optimal value 447 after 1225 ms
|      1041 |     554    41417    82834 |    96339     1089    464 |
> restarts              : 60
> decisions             : 21763  (0 % random)
> conflicts             : 1041
> propagations          : 42267
> conflict literals     : 480964  (0.0866258 % deleted)
> Current optimal value 446 after 1233 ms
|      1041 |     555    41417    82834 |    97833     1089    464 |
> restarts              : 61
> decisions             : 21859  (0 % random)
> conflicts             : 1041
> propagations          : 42822
> conflict literals     : 480964  (0.0866258 % deleted)
> Current optimal value 445 after 1240 ms
|      1041 |     556    41417    82834 |    99327     1089    464 |
> restarts              : 62
> decisions             : 21955  (0 % random)
> conflicts             : 1041
> propagations          : 43378
> conflict literals     : 480964  (0.0866258 % deleted)
> Current optimal value 444 after 1248 ms
|      1041 |     557    41417    82834 |   100821     1089    464 |
> restarts              : 63
> decisions             : 22051  (0 % random)
> conflicts             : 1041
> propagations          : 43935
> conflict literals     : 480964  (0.0866258 % deleted)
> Current optimal value 443 after 1256 ms
|      1041 |     558    41417    82834 |   102315     1089    464 |
> restarts              : 64
> decisions             : 22147  (0 % random)
> conflicts             : 1041
> propagations          : 44493
> conflict literals     : 480964  (0.0866258 % deleted)
> Current optimal value 442 after 1263 ms
|      1041 |     559    41417    82834 |   103809     1089    464 |
> restarts              : 65
> decisions             : 22243  (0 % random)
> conflicts             : 1041
> propagations          : 45052
> conflict literals     : 480964  (0.0866258 % deleted)
> Current optimal value 441 after 1271 ms
|      1041 |     560    41417    82834 |   105303     1089    464 |
> restarts              : 66
> decisions             : 22339  (0 % random)
> conflicts             : 1041
> propagations          : 45612
> conflict literals     : 480964  (0.0866258 % deleted)
> Current optimal value 440 after 1279 ms
|      1041 |     561    41417    82834 |   106797     1089    464 |
> restarts              : 67
> decisions             : 22435  (0 % random)
> conflicts             : 1041
> propagations          : 46173
> conflict literals     : 480964  (0.0866258 % deleted)
> Current optimal value 439 after 1286 ms
|      1041 |     562    41417    82834 |   108291     1089    464 |
> restarts              : 68
> decisions             : 22531  (0 % random)
> conflicts             : 1041
> propagations          : 46735
> conflict literals     : 480964  (0.0866258 % deleted)
> Current optimal value 438 after 1294 ms
|      1041 |     563    41417    82834 |   109785     1089    464 |
> restarts              : 69
> decisions             : 22627  (0 % random)
> conflicts             : 1041
> propagations          : 47298
> conflict literals     : 480964  (0.0866258 % deleted)
> Current optimal value 437 after 1303 ms
|      1041 |     564    41417    82834 |   111279     1089    464 |
> restarts              : 70
> decisions             : 22723  (0 % random)
> conflicts             : 1041
> propagations          : 47862
> conflict literals     : 480964  (0.0866258 % deleted)
> Current optimal value 436 after 1312 ms
|      1041 |     565    41417    82834 |   112773     1089    464 |
> restarts              : 71
> decisions             : 22819  (0 % random)
> conflicts             : 1041
> propagations          : 48427
> conflict literals     : 480964  (0.0866258 % deleted)
> Current optimal value 435 after 1321 ms
|      1041 |     566    41417    82834 |   114267     1089    464 |
> restarts              : 72
> decisions             : 22915  (0 % random)
> conflicts             : 1041
> propagations          : 48993
> conflict literals     : 480964  (0.0866258 % deleted)
> Current optimal value 434 after 1329 ms
|      1041 |     567    41417    82834 |   115761     1089    464 |
> restarts              : 73
> decisions             : 23011  (0 % random)
> conflicts             : 1041
> propagations          : 49560
> conflict literals     : 480964  (0.0866258 % deleted)
> Current optimal value 433 after 1338 ms
|      1041 |     568    41417    82834 |   117255     1089    464 |
> restarts              : 74
> decisions             : 23107  (0 % random)
> conflicts             : 1041
> propagations          : 50128
> conflict literals     : 480964  (0.0866258 % deleted)
> Current optimal value 432 after 1347 ms
|      1041 |     569    41417    82834 |   118749     1089    464 |
> restarts              : 75
> decisions             : 23203  (0 % random)
> conflicts             : 1041
> propagations          : 50697
> conflict literals     : 480964  (0.0866258 % deleted)
> Current optimal value 431 after 1356 ms
|      1041 |     570    41417    82834 |   120243     1089    464 |
> restarts              : 76
> decisions             : 23299  (0 % random)
> conflicts             : 1041
> propagations          : 51267
> conflict literals     : 480964  (0.0866258 % deleted)
> Current optimal value 430 after 1366 ms
|      1041 |     571    41417    82834 |   121737     1089    464 |
> restarts              : 77
> decisions             : 23395  (0 % random)
> conflicts             : 1041
> propagations          : 51838
> conflict literals     : 480964  (0.0866258 % deleted)
> Current optimal value 429 after 1375 ms
|      1041 |     572    41417    82834 |   123231     1089    464 |
> restarts              : 78
> decisions             : 23491  (0 % random)
> conflicts             : 1041
> propagations          : 52410
> conflict literals     : 480964  (0.0866258 % deleted)
> Current optimal value 428 after 1385 ms
|      1041 |     573    41417    82834 |   124725     1089    464 |
> restarts              : 79
> decisions             : 23587  (0 % random)
> conflicts             : 1041
> propagations          : 52983
> conflict literals     : 480964  (0.0866258 % deleted)
> Current optimal value 427 after 1394 ms
|      1041 |     574    41417    82834 |   126219     1089    464 |
> restarts              : 80
> decisions             : 23683  (0 % random)
> conflicts             : 1041
> propagations          : 53557
> conflict literals     : 480964  (0.0866258 % deleted)
> Current optimal value 426 after 1404 ms
|      1041 |     575    41417    82834 |   127713     1089    464 |
> restarts              : 81
> decisions             : 23779  (0 % random)
> conflicts             : 1041
> propagations          : 54132
> conflict literals     : 480964  (0.0866258 % deleted)
> Current optimal value 425 after 1414 ms
|      1041 |     576    41417    82834 |   129207     1089    464 |
> restarts              : 82
> decisions             : 23875  (0 % random)
> conflicts             : 1041
> propagations          : 54708
> conflict literals     : 480964  (0.0866258 % deleted)
> Current optimal value 424 after 1424 ms
|      1041 |     577    41417    82834 |   130701     1089    464 |
> restarts              : 83
> decisions             : 23971  (0 % random)
> conflicts             : 1041
> propagations          : 55285
> conflict literals     : 480964  (0.0866258 % deleted)
> Current optimal value 423 after 1434 ms
|      1041 |     578    41417    82834 |   132195     1089    464 |
> restarts              : 84
> decisions             : 24067  (0 % random)
> conflicts             : 1041
> propagations          : 55863
> conflict literals     : 480964  (0.0866258 % deleted)
> Current optimal value 422 after 1445 ms
|      1041 |     579    41417    82834 |   133689     1089    464 |
> restarts              : 85
> decisions             : 24163  (0 % random)
> conflicts             : 1041
> propagations          : 56442
> conflict literals     : 480964  (0.0866258 % deleted)
> Current optimal value 421 after 1455 ms
|      1041 |     580    41417    82834 |   135183     1089    464 |
> restarts              : 86
> decisions             : 24259  (0 % random)
> conflicts             : 1041
> propagations          : 57022
> conflict literals     : 480964  (0.0866258 % deleted)
> Current optimal value 420 after 1466 ms
|      1041 |     581    41417    82834 |   136677     1089    464 |
> restarts              : 87
> decisions             : 24355  (0 % random)
> conflicts             : 1041
> propagations          : 57603
> conflict literals     : 480964  (0.0866258 % deleted)
> Current optimal value 419 after 1477 ms
|      1041 |     582    41417    82834 |   138171     1089    464 |
> restarts              : 88
> decisions             : 24451  (0 % random)
> conflicts             : 1041
> propagations          : 58185
> conflict literals     : 480964  (0.0866258 % deleted)
> Current optimal value 418 after 1488 ms
|      1041 |     583    41417    82834 |   139665     1089    464 |
> restarts              : 89
> decisions             : 24547  (0 % random)
> conflicts             : 1041
> propagations          : 58768
> conflict literals     : 480964  (0.0866258 % deleted)
> Current optimal value 417 after 1500 ms
|      1041 |     584    41417    82834 |   141159     1089    464 |
> restarts              : 90
> decisions             : 24643  (0 % random)
> conflicts             : 1041
> propagations          : 59352
> conflict literals     : 480964  (0.0866258 % deleted)
> Current optimal value 416 after 1512 ms
|      1041 |     585    41417    82834 |   142653     1089    464 |
> restarts              : 91
> decisions             : 24739  (0 % random)
> conflicts             : 1041
> propagations          : 59937
> conflict literals     : 480964  (0.0866258 % deleted)
> Current optimal value 415 after 1524 ms
|      1041 |     586    41417    82834 |   144147     1089    464 |
> restarts              : 92
> decisions             : 24835  (0 % random)
> conflicts             : 1041
> propagations          : 60523
> conflict literals     : 480964  (0.0866258 % deleted)
> Current optimal value 414 after 1536 ms
|      1041 |     587    41417    82834 |   145641     1089    464 |
> restarts              : 93
> decisions             : 24931  (0 % random)
> conflicts             : 1041
> propagations          : 61110
> conflict literals     : 480964  (0.0866258 % deleted)
> Current optimal value 413 after 1549 ms
|      1041 |     588    41417    82834 |   147135     1089    464 |
> restarts              : 94
> decisions             : 25027  (0 % random)
> conflicts             : 1041
> propagations          : 61698
> conflict literals     : 480964  (0.0866258 % deleted)
> Current optimal value 412 after 1561 ms
|      1041 |     589    41417    82834 |   148629     1089    464 |
> restarts              : 95
> decisions             : 25123  (0 % random)
> conflicts             : 1041
> propagations          : 62287
> conflict literals     : 480964  (0.0866258 % deleted)
> Current optimal value 411 after 1574 ms
|      1041 |     590    41417    82834 |   150123     1089    464 |
> restarts              : 96
> decisions             : 25219  (0 % random)
> conflicts             : 1041
> propagations          : 62877
> conflict literals     : 480964  (0.0866258 % deleted)
> Current optimal value 410 after 1587 ms
|      1041 |     591    41417    82834 |   151617     1089    464 |
> restarts              : 97
> decisions             : 25315  (0 % random)
> conflicts             : 1041
> propagations          : 63468
> conflict literals     : 480964  (0.0866258 % deleted)
> Current optimal value 409 after 1599 ms
|      1041 |     592    41417    82834 |   153111     1089    464 |
> restarts              : 98
> decisions             : 25411  (0 % random)
> conflicts             : 1041
> propagations          : 64060
> conflict literals     : 480964  (0.0866258 % deleted)
> Current optimal value 408 after 1612 ms
|      1041 |     593    41417    82834 |   154605     1089    464 |
> restarts              : 99
> decisions             : 25507  (0 % random)
> conflicts             : 1041
> propagations          : 64653
> conflict literals     : 480964  (0.0866258 % deleted)
> Current optimal value 407 after 1625 ms
|      1041 |     594    41417    82834 |   156099     1089    464 |
> restarts              : 100
> decisions             : 25603  (0 % random)
> conflicts             : 1041
> propagations          : 65247
> conflict literals     : 480964  (0.0866258 % deleted)
> Current optimal value 406 after 1638 ms
|      1041 |     595    41417    82834 |   157593     1089    464 |
> restarts              : 101
> decisions             : 25621  (0 % random)
> conflicts             : 1041
> propagations          : 65842
> conflict literals     : 480964  (0.0866258 % deleted)
> Current optimal value 405 after 1650 ms
|      1041 |     596    41417    82834 |   159087     1089    464 |
|      1142 |     596    41417    82834 |   174995     1198    459 |
|      1293 |     596    41417    82834 |   192495     1352    452 |
|      1520 |     596    41417    82834 |   211744     1595    444 |
|      1859 |     596    41417    82834 |   232919     1946    435 |
|      2367 |     596    41417    82834 |   256211     2503    427 |
|      3127 |     596    41417    82834 |   281832     3382    420 |
|      4272 |     596    41417    82834 |   310015     4598    415 |
|      5988 |     596    41417    82834 |   341017     6579    411 |
|      8552 |     596    41417    82834 |   375118     9422    407 |
|     12397 |     596    41417    82834 |   412630    13693    405 |
|     18169 |     596    41417    82834 |   453893    19872    403 |
|     26852 |     596    41417    82834 |   499283    29716    402 |
|     39864 |     596    41417    82834 |   549211    44322    402 |
|     59374 |     596    41417    82834 |   604132    66356    401 |
|     88627 |     596    41417    82834 |   664545    98833    401 |
|    132539 |     596    41417    82834 |   731000   148269    401 |
