Starting solving at 42 ms
>>> Search start
> Conflicts |          ORIGINAL         |          LEARNT          | Progress
>           |    Vars  Clauses Literals |    Limit  Clauses Lit/Cl |         
|         0 |     121       11      121 |      561        0   -nan |
|       101 |     121       11      121 |      617      142     22 |
> restarts              : 2
> decisions             : 208  (0 % random)
> conflicts             : 101
> propagations          : 2004
> conflict literals     : 3085  (0.419626 % deleted)
> Current optimal value 61 after 43 ms
|       101 |     122       11      121 |      888      142     22 |
> restarts              : 3
> decisions             : 282  (0 % random)
> conflicts             : 109
> propagations          : 2191
> conflict literals     : 3407  (0.409237 % deleted)
> Current optimal value 58 after 44 ms
|       109 |     123       11      121 |     1172      157     23 |
> restarts              : 4
> decisions             : 326  (0 % random)
> conflicts             : 110
> propagations          : 2328
> conflict literals     : 3442  (0.405093 % deleted)
> Current optimal value 53 after 44 ms
|       110 |     124       11      121 |     1451      159     23 |
> restarts              : 5
> decisions             : 364  (0 % random)
> conflicts             : 112
> propagations          : 2471
> conflict literals     : 3514  (0.396825 % deleted)
> Current optimal value 51 after 44 ms
|       112 |     125       11      121 |     1731      162     23 |
> restarts              : 6
> decisions             : 401  (0 % random)
> conflicts             : 118
> propagations          : 2728
> conflict literals     : 3693  (0.458221 % deleted)
> Current optimal value 48 after 45 ms
|       118 |     126       11      121 |     2014      172     23 |
> restarts              : 7
> decisions             : 432  (0 % random)
> conflicts             : 133
> propagations          : 3214
> conflict literals     : 4228  (0.423928 % deleted)
> Current optimal value 46 after 46 ms
|       133 |     127       11      121 |     2300      193     23 |
> restarts              : 8
> decisions             : 466  (0 % random)
> conflicts             : 139
> propagations          : 3478
> conflict literals     : 4454  (0.402504 % deleted)
> Current optimal value 45 after 46 ms
|       139 |     128       11      121 |     2581      201     24 |
> restarts              : 9
> decisions             : 511  (0 % random)
> conflicts             : 153
> propagations          : 3981
> conflict literals     : 4986  (0.736612 % deleted)
> Current optimal value 41 after 48 ms
|       153 |     129       11      121 |     2868      224     24 |
> restarts              : 10
> decisions             : 569  (0 % random)
> conflicts             : 171
> propagations          : 4532
> conflict literals     : 5852  (0.931099 % deleted)
> Current optimal value 39 after 49 ms
|       171 |     130       11      121 |     3157      255     25 |
> restarts              : 11
> decisions             : 604  (0 % random)
> conflicts             : 174
> propagations          : 4742
> conflict literals     : 5935  (0.934735 % deleted)
> Current optimal value 38 after 50 ms
|       174 |     131       11      121 |     3438      261     25 |
> restarts              : 13
> decisions             : 717  (0 % random)
> conflicts             : 217
> propagations          : 6082
> conflict literals     : 7805  (1.5887 % deleted)
> Current optimal value 36 after 53 ms
|       217 |     132       11      121 |     3739      325     26 |
|       318 |     132       11      121 |     4112      464     29 |
> restarts              : 15
> decisions             : 1171  (0 % random)
> conflicts             : 464
> propagations          : 13349
> conflict literals     : 18882  (2.57971 % deleted)
> Current optimal value 34 after 74 ms
|       464 |     133       11      121 |     4137      683     30 |
> restarts              : 16
> decisions             : 1211  (0 % random)
> conflicts             : 465
> propagations          : 13487
> conflict literals     : 18901  (2.58221 % deleted)
> Current optimal value 33 after 75 ms
|       465 |     134       11      121 |     4417      685     30 |
|       565 |     134       11      121 |     4858      834     32 |
|       716 |     134       11      121 |     5344     1048     33 |
|       942 |     134       11      121 |     5879     1354     35 |
|      1282 |     134       11      121 |     6466     1815     36 |
|      1789 |     134       11      121 |     7113     2557     36 |
> restarts              : 25
> decisions             : 3659  (0 % random)
> conflicts             : 1912
> propagations          : 51784
> conflict literals     : 90370  (4.05156 % deleted)
> Current optimal value 31 after 203 ms
|      1912 |     135       11      121 |     5374     2720     36 |
|      2013 |     135       11      121 |     5911     2867     36 |
|      2164 |     135       11      121 |     6502     3073     37 |
|      2390 |     135       11      121 |     7153     3390     37 |
|      2728 |     135       11      121 |     7868     3854     38 |
|      3235 |     135       11      121 |     8655     4541     39 |
|      3995 |     135       11      121 |     9520     5551     39 |
> restarts              : 32
> decisions             : 7803  (0 % random)
> conflicts             : 4302
> propagations          : 114935
> conflict literals     : 216104  (5.08141 % deleted)
> Current optimal value 29 after 449 ms
|      4302 |     136       11      121 |     6734     5963     39 |
|      4402 |     136       11      121 |     7407     6103     39 |
> restarts              : 33
> decisions             : 8095  (0 % random)
> conflicts             : 4461
> propagations          : 119927
> conflict literals     : 224915  (5.09395 % deleted)
> Current optimal value 28 after 467 ms
|      4461 |     137       11      121 |     7087     6185     39 |
> restarts              : 34
> decisions             : 8149  (0 % random)
> conflicts             : 4462
> propagations          : 120069
> conflict literals     : 224939  (5.09504 % deleted)
> Current optimal value 27 after 468 ms
|      4462 |     138       11      121 |     7367     6187     39 |
> restarts              : 35
> decisions             : 8236  (0 % random)
> conflicts             : 4497
> propagations          : 121042
> conflict literals     : 226546  (5.13983 % deleted)
> Current optimal value 26 after 472 ms
|      4497 |     139       11      121 |     7664     6242     39 |
> restarts              : 36
> decisions             : 8336  (0 % random)
> conflicts             : 4536
> propagations          : 122172
> conflict literals     : 228095  (5.16983 % deleted)
> Current optimal value 24 after 476 ms
|      4536 |     140       11      121 |     7961     6296     39 |
> restarts              : 37
> decisions             : 8403  (0 % random)
> conflicts             : 4566
> propagations          : 123150
> conflict literals     : 229649  (5.18952 % deleted)
> Current optimal value 23 after 480 ms
|      4566 |     141       11      121 |     8255     6342     39 |
> restarts              : 38
> decisions             : 8516  (0 % random)
> conflicts             : 4613
> propagations          : 124740
> conflict literals     : 231983  (5.23803 % deleted)
> Current optimal value 22 after 487 ms
|      4613 |     142       11      121 |     8558     6413     39 |
> restarts              : 39
> decisions             : 8636  (0 % random)
> conflicts             : 4673
> propagations          : 126340
> conflict literals     : 235238  (5.24798 % deleted)
> Current optimal value 21 after 494 ms
|      4673 |     143       11      121 |     8866     6501     39 |
|      4773 |     143       11      121 |     9753     6649     39 |
> restarts              : 40
> decisions             : 8930  (0 % random)
> conflicts             : 4849
> propagations          : 131265
> conflict literals     : 245229  (5.30748 % deleted)
> Current optimal value 20 after 516 ms
|      4849 |     144       11      121 |     9235     6769     39 |
|      4949 |     144       11      121 |    10158     6914     39 |
|      5099 |     144       11      121 |    11174     7126     39 |
|      5325 |     144       11      121 |    12291     7453     40 |
|      5665 |     144       11      121 |    13520     7914     40 |
|      6172 |     144       11      121 |    14873     8618     40 |
> restarts              : 47
> decisions             : 12821  (0 % random)
> conflicts             : 6926
> propagations          : 187439
> conflict literals     : 363502  (5.08343 % deleted)
> Current optimal value 19 after 801 ms
|      6926 |     145       11      121 |    10478     9663     40 |
|      7027 |     145       11      121 |    11526     9797     40 |
|      7178 |     145       11      121 |    12679    10015     40 |
|      7405 |     145       11      121 |    13947    10316     40 |
|      7744 |     145       11      121 |    15341    10806     40 |
|      8252 |     145       11      121 |    16875    11486     40 |
|      9016 |     145       11      121 |    18563    12481     41 |
|     10157 |     145       11      121 |    20419    13982     41 |
|     11866 |     145       11      121 |    22461    16372     42 |
> restarts              : 64
> decisions             : 25250  (0 % random)
> conflicts             : 14125
> propagations          : 375871
> conflict literals     : 792075  (6.24589 % deleted)
> Current optimal value 17 after 1846 ms
|     14125 |     146       11      121 |    14016    19440     43 |
|     14225 |     146       11      121 |    15418     9865     45 |
|     14375 |     146       11      121 |    16960    10092     45 |
|     14600 |     146       11      121 |    18656    10400     46 |
|     14938 |     146       11      121 |    20521    10848     46 |
|     15448 |     146       11      121 |    22573    11487     46 |
|     16211 |     146       11      121 |    24831    12449     47 |
|     17355 |     146       11      121 |    27314    13997     47 |
|     19070 |     146       11      121 |    30045    16224     48 |
|     21641 |     146       11      121 |    33050    19494     49 |
|     25500 |     146       11      121 |    36355    24490     50 |
> restarts              : 125
> decisions             : 50394  (0 % random)
> conflicts             : 28626
> propagations          : 737576
> conflict literals     : 1728706  (6.90947 % deleted)
>>> Search done
bestvalue&&17
nrmodels&&1
total-solving-time4581 ms
