Starting solving at 44 ms
>>> Search start
> Conflicts |          ORIGINAL         |          LEARNT          | Progress
>           |    Vars  Clauses Literals |    Limit  Clauses Lit/Cl |         
|         0 |     289       17      289 |     1575        0   -nan |
|       101 |     289       17      289 |     1732      142     38 |
> restarts              : 2
> decisions             : 332  (0 % random)
> conflicts             : 101
> propagations          : 3088
> conflict literals     : 5335  (0.243082 % deleted)
> Current optimal value 157 after 46 ms
|       101 |     290       17      289 |     2410      142     38 |
> restarts              : 3
> decisions             : 498  (0 % random)
> conflicts             : 102
> propagations          : 3394
> conflict literals     : 5409  (0.239764 % deleted)
> Current optimal value 153 after 47 ms
|       102 |     291       17      289 |     3198      144     38 |
> restarts              : 4
> decisions             : 635  (0 % random)
> conflicts             : 106
> propagations          : 3740
> conflict literals     : 5659  (0.229196 % deleted)
> Current optimal value 147 after 47 ms
|       106 |     292       17      289 |     3988      152     38 |
> restarts              : 5
> decisions             : 739  (0 % random)
> conflicts             : 113
> propagations          : 4182
> conflict literals     : 5975  (0.217101 % deleted)
> Current optimal value 144 after 48 ms
|       113 |     293       17      289 |     4779      164     38 |
> restarts              : 6
> decisions             : 786  (0 % random)
> conflicts             : 125
> propagations          : 4829
> conflict literals     : 6555  (0.213122 % deleted)
> Current optimal value 142 after 49 ms
|       125 |     294       17      289 |     5572      182     38 |
> restarts              : 7
> decisions             : 811  (0 % random)
> conflicts             : 130
> propagations          : 5333
> conflict literals     : 6826  (0.204678 % deleted)
> Current optimal value 141 after 50 ms
|       130 |     295       17      289 |     6363      192     37 |
> restarts              : 8
> decisions             : 833  (0 % random)
> conflicts             : 135
> propagations          : 5800
> conflict literals     : 7146  (0.223401 % deleted)
> Current optimal value 140 after 51 ms
|       135 |     296       17      289 |     7153      199     38 |
> restarts              : 9
> decisions             : 857  (0 % random)
> conflicts             : 136
> propagations          : 6181
> conflict literals     : 7225  (0.220964 % deleted)
> Current optimal value 131 after 52 ms
|       136 |     297       17      289 |     7941      201     38 |
> restarts              : 10
> decisions             : 894  (0 % random)
> conflicts             : 137
> propagations          : 6511
> conflict literals     : 7282  (0.219238 % deleted)
> Current optimal value 129 after 53 ms
|       137 |     298       17      289 |     8728      202     38 |
> restarts              : 11
> decisions             : 986  (0 % random)
> conflicts             : 179
> propagations          : 8094
> conflict literals     : 10057  (0.356683 % deleted)
> Current optimal value 128 after 57 ms
|       179 |     299       17      289 |     9537      266     41 |
> restarts              : 12
> decisions             : 1009  (0 % random)
> conflicts             : 180
> propagations          : 8470
> conflict literals     : 10128  (0.363994 % deleted)
> Current optimal value 126 after 58 ms
|       180 |     300       17      289 |    10325      268     41 |
> restarts              : 13
> decisions             : 1065  (0 % random)
> conflicts             : 198
> propagations          : 9634
> conflict literals     : 11405  (0.445182 % deleted)
> Current optimal value 120 after 61 ms
|       198 |     301       17      289 |    11122      296     41 |
> restarts              : 15
> decisions             : 1133  (0 % random)
> conflicts             : 208
> propagations          : 10562
> conflict literals     : 12043  (0.553262 % deleted)
> Current optimal value 119 after 64 ms
|       208 |     302       17      289 |    11913      309     42 |
> restarts              : 16
> decisions             : 1178  (0 % random)
> conflicts             : 215
> propagations          : 11275
> conflict literals     : 12561  (0.617137 % deleted)
> Current optimal value 112 after 66 ms
|       215 |     303       17      289 |    12705      323     42 |
|       315 |     303       17      289 |    13976      460     48 |
|       465 |     303       17      289 |    15373      667     51 |
> restarts              : 17
> decisions             : 1837  (0 % random)
> conflicts             : 558
> propagations          : 25280
> conflict literals     : 39212  (1.6627 % deleted)
> Current optimal value 105 after 114 ms
|       558 |     304       17      289 |    13653      803     52 |
> restarts              : 19
> decisions             : 1987  (0 % random)
> conflicts             : 614
> propagations          : 27961
> conflict literals     : 43421  (1.69127 % deleted)
> Current optimal value 103 after 123 ms
|       614 |     305       17      289 |    14467      885     53 |
|       714 |     305       17      289 |    15914     1024     54 |
> restarts              : 20
> decisions             : 2175  (0 % random)
> conflicts             : 739
> propagations          : 32851
> conflict literals     : 53950  (1.70177 % deleted)
> Current optimal value 102 after 140 ms
|       739 |     306       17      289 |    15313     1060     55 |
|       840 |     306       17      289 |    16844     1193     56 |
> restarts              : 22
> decisions             : 2463  (0 % random)
> conflicts             : 862
> propagations          : 37769
> conflict literals     : 63916  (1.7946 % deleted)
> Current optimal value 101 after 161 ms
|       862 |     307       17      289 |    16154     1221     56 |
|       962 |     307       17      289 |    17769     1361     58 |
|      1114 |     307       17      289 |    19546     1564     62 |
> restarts              : 25
> decisions             : 3026  (0 % random)
> conflicts             : 1162
> propagations          : 49948
> conflict literals     : 96192  (1.99291 % deleted)
> Current optimal value 100 after 214 ms
|      1162 |     308       17      289 |    17077     1628     63 |
|      1263 |     308       17      289 |    18785     1772     63 |
|      1415 |     308       17      289 |    20663     1975     64 |
|      1641 |     308       17      289 |    22729     2302     65 |
> restarts              : 30
> decisions             : 4258  (0 % random)
> conflicts             : 1780
> propagations          : 75724
> conflict literals     : 154656  (2.58626 % deleted)
> Current optimal value 98 after 326 ms
|      1780 |     309       17      289 |    18156     2503     66 |
|      1880 |     309       17      289 |    19971     2661     65 |
> restarts              : 32
> decisions             : 4706  (0 % random)
> conflicts             : 2006
> propagations          : 86247
> conflict literals     : 173605  (2.85658 % deleted)
> Current optimal value 95 after 367 ms
|      2006 |     310       17      289 |    19056     2841     65 |
> restarts              : 33
> decisions             : 4746  (0 % random)
> conflicts             : 2007
> propagations          : 86611
> conflict literals     : 173660  (2.85733 % deleted)
> Current optimal value 94 after 369 ms
|      2007 |     311       17      289 |    19844     2843     65 |
> restarts              : 34
> decisions             : 4831  (0 % random)
> conflicts             : 2031
> propagations          : 88119
> conflict literals     : 175178  (2.88176 % deleted)
> Current optimal value 93 after 375 ms
|      2031 |     312       17      289 |    20645     2883     65 |
> restarts              : 35
> decisions             : 4881  (0 % random)
> conflicts             : 2053
> propagations          : 89288
> conflict literals     : 176904  (2.89017 % deleted)
> Current optimal value 92 after 381 ms
|      2053 |     313       17      289 |    21442     2914     65 |
> restarts              : 36
> decisions             : 4967  (0 % random)
> conflicts             : 2058
> propagations          : 89824
> conflict literals     : 177215  (2.89217 % deleted)
> Current optimal value 90 after 384 ms
|      2058 |     314       17      289 |    22233     2923     65 |
> restarts              : 37
> decisions             : 5031  (0 % random)
> conflicts             : 2059
> propagations          : 90179
> conflict literals     : 177287  (2.89209 % deleted)
> Current optimal value 87 after 386 ms
|      2059 |     315       17      289 |    23021     2925     65 |
> restarts              : 38
> decisions             : 5150  (0 % random)
> conflicts             : 2096
> propagations          : 92214
> conflict literals     : 180504  (2.89793 % deleted)
> Current optimal value 84 after 395 ms
|      2096 |     316       17      289 |    23826     2978     65 |
> restarts              : 39
> decisions             : 5208  (0 % random)
> conflicts             : 2097
> propagations          : 92553
> conflict literals     : 180549  (2.89776 % deleted)
> Current optimal value 83 after 397 ms
|      2097 |     317       17      289 |    24614     2980     65 |
> restarts              : 40
> decisions             : 5399  (0 % random)
> conflicts             : 2141
> propagations          : 94654
> conflict literals     : 184127  (2.91272 % deleted)
> Current optimal value 80 after 409 ms
|      2141 |     318       17      289 |    25422     3042     65 |
> restarts              : 41
> decisions             : 5444  (0 % random)
> conflicts             : 2142
> propagations          : 95001
> conflict literals     : 184196  (2.91319 % deleted)
> Current optimal value 79 after 411 ms
|      2142 |     319       17      289 |    26209     3043     65 |
|      2242 |     319       17      289 |    28830     3184     65 |
|      2392 |     319       17      289 |    31713     3400     65 |
|      2617 |     319       17      289 |    34885     3701     65 |
|      2954 |     319       17      289 |    38373     4181     65 |
|      3460 |     319       17      289 |    42210     4876     66 |
|      4223 |     319       17      289 |    46432     5916     66 |
> restarts              : 47
> decisions             : 10604  (0 % random)
> conflicts             : 5041
> propagations          : 218148
> conflict literals     : 442330  (3.39777 % deleted)
> Current optimal value 77 after 1137 ms
|      5041 |     320       17      289 |    28332     7049     67 |
|      5141 |     320       17      289 |    31165     7182     67 |
|      5292 |     320       17      289 |    34282     7397     67 |
|      5519 |     320       17      289 |    37710     7683     68 |
> restarts              : 53
> decisions             : 12178  (0 % random)
> conflicts             : 5844
> propagations          : 253700
> conflict literals     : 524001  (3.58785 % deleted)
> Current optimal value 75 after 1351 ms
|      5844 |     321       17      289 |    29476     8118     69 |
|      5945 |     321       17      289 |    32423     8256     69 |
|      6096 |     321       17      289 |    35665     8456     69 |
|      6323 |     321       17      289 |    39232     8748     70 |
|      6662 |     321       17      289 |    43155     9192     71 |
|      7170 |     321       17      289 |    47471     9865     71 |
|      7930 |     321       17      289 |    52218    10865     71 |
|      9069 |     321       17      289 |    57440    12330     73 |
|     10778 |     321       17      289 |    63184    14607     75 |
|     13346 |     321       17      289 |    69502    17898     78 |
|     17208 |     321       17      289 |    76453    22905     80 |
|     22995 |     321       17      289 |    84098    30555     83 |
|     31662 |     321       17      289 |    92508    41658     83 |
> restarts              : 140
> decisions             : 84562  (0 % random)
> conflicts             : 40032
> propagations          : 1757775
> conflict literals     : 4101914  (5.04809 % deleted)
> Current optimal value 74 after 12407 ms
|     40032 |     322       17      289 |    45160    52808     81 |
|     40133 |     322       17      289 |    49676    16408     71 |
|     40283 |     322       17      289 |    54643    16606     71 |
|     40509 |     322       17      289 |    60107    16910     71 |
|     40846 |     322       17      289 |    66118    17374     72 |
|     41353 |     322       17      289 |    72730    18074     72 |
> restarts              : 149
> decisions             : 88882  (0 % random)
> conflicts             : 42016
> propagations          : 1836260
> conflict literals     : 4301442  (5.21435 % deleted)
> Current optimal value 73 after 12990 ms
|     42016 |     323       17      289 |    34655    18931     72 |
|     42117 |     323       17      289 |    38120    19074     72 |
|     42268 |     323       17      289 |    41932    19285     72 |
|     42494 |     323       17      289 |    46125    19584     72 |
|     42834 |     323       17      289 |    50738    20046     72 |
|     43342 |     323       17      289 |    55812    20707     72 |
|     44102 |     323       17      289 |    61393    21707     73 |
> restarts              : 159
> decisions             : 94357  (0 % random)
> conflicts             : 44637
> propagations          : 1952455
> conflict literals     : 4546476  (5.48073 % deleted)
> Current optimal value 70 after 13868 ms
|     44637 |     324       17      289 |    36593    22383     73 |
|     44737 |     324       17      289 |    40252    22519     72 |
|     44887 |     324       17      289 |    44277    22711     72 |
|     45112 |     324       17      289 |    48705    23013     73 |
|     45449 |     324       17      289 |    53575    23441     73 |
> restarts              : 160
> decisions             : 96395  (0 % random)
> conflicts             : 45659
> propagations          : 1996992
> conflict literals     : 4637402  (5.63287 % deleted)
> Current optimal value 69 after 14192 ms
|     45659 |     325       17      289 |    37826    23722     72 |
|     45760 |     325       17      289 |    41609    23858     72 |
|     45911 |     325       17      289 |    45770    24058     73 |
|     46138 |     325       17      289 |    50347    24342     73 |
> restarts              : 165
> decisions             : 97894  (0 % random)
> conflicts             : 46226
> propagations          : 2023491
> conflict literals     : 4696276  (5.69988 % deleted)
> Current optimal value 66 after 14393 ms
|     46226 |     326       17      289 |    38859    24459     73 |
|     46327 |     326       17      289 |    42745    24602     73 |
|     46478 |     326       17      289 |    47020    24794     73 |
|     46705 |     326       17      289 |    51722    25077     73 |
|     47044 |     326       17      289 |    56894    25539     73 |
|     47552 |     326       17      289 |    62583    26152     74 |
|     48312 |     326       17      289 |    68842    27138     74 |
|     49457 |     326       17      289 |    75726    28520     75 |
|     51173 |     326       17      289 |    83299    30679     75 |
|     53737 |     326       17      289 |    91629    33999     76 |
|     57589 |     326       17      289 |   100791    39057     77 |
|     63378 |     326       17      289 |   110871    46230     80 |
|     72058 |     326       17      289 |   121958    56619     83 |
|     85035 |     326       17      289 |   134154    72976     82 |
> restarts              : 256
> decisions             : 176259  (0 % random)
> conflicts             : 85152
> propagations          : 3744830
> conflict literals     : 8795386  (7.63033 % deleted)
> Current optimal value 65 after 28772 ms
|     85152 |     327       17      289 |    55877    73151     82 |
|     85252 |     327       17      289 |    61465    16521     76 |
|     85402 |     327       17      289 |    67611    16732     76 |
|     85627 |     327       17      289 |    74373    17043     76 |
|     85964 |     327       17      289 |    81810    17496     76 |
|     86470 |     327       17      289 |    89991    18141     77 |
|     87229 |     327       17      289 |    98990    19123     77 |
|     88368 |     327       17      289 |   108889    20621     78 |
|     90076 |     327       17      289 |   119778    22828     79 |
> restarts              : 257
> decisions             : 188880  (0 % random)
> conflicts             : 91962
> propagations          : 4025162
> conflict literals     : 9520738  (7.85966 % deleted)
> Current optimal value 64 after 31505 ms
|     91962 |     328       17      289 |    40666    25156     80 |
> restarts              : 258
> decisions             : 188945  (0 % random)
> conflicts             : 91963
> propagations          : 4025505
> conflict literals     : 9520818  (7.86002 % deleted)
> Current optimal value 63 after 31509 ms
|     91963 |     329       17      289 |    41454    25158     80 |
|     92063 |     329       17      289 |    45600    25298     79 |
|     92213 |     329       17      289 |    50160    25516     79 |
|     92438 |     329       17      289 |    55176    25810     79 |
|     92775 |     329       17      289 |    60693    26210     79 |
|     93281 |     329       17      289 |    66763    26798     80 |
|     94040 |     329       17      289 |    73439    27727     80 |
> restarts              : 261
> decisions             : 194090  (0 % random)
> conflicts             : 94849
> propagations          : 4148487
> conflict literals     : 9800954  (8.08287 % deleted)
> Current optimal value 62 after 32593 ms
|     94849 |     330       17      289 |    43440    28752     80 |
|     94950 |     330       17      289 |    47784    28883     80 |
|     95100 |     330       17      289 |    52562    29054     79 |
|     95326 |     330       17      289 |    57818    29355     79 |
> restarts              : 266
> decisions             : 195339  (0 % random)
> conflicts             : 95549
> propagations          : 4178400
> conflict literals     : 9853780  (8.15866 % deleted)
> Current optimal value 61 after 32815 ms
|     95549 |     331       17      289 |    44521    29633     79 |
|     95649 |     331       17      289 |    48973    29761     79 |
|     95801 |     331       17      289 |    53870    29953     79 |
|     96027 |     331       17      289 |    59257    30228     79 |
|     96364 |     331       17      289 |    65183    30654     79 |
|     96871 |     331       17      289 |    71701    31315     78 |
|     97634 |     331       17      289 |    78871    32284     78 |
|     98779 |     331       17      289 |    86758    33741     77 |
|    100493 |     331       17      289 |    95434    35938     77 |
|    103062 |     331       17      289 |   104978    39289     76 |
|    106926 |     331       17      289 |   115476    44228     77 |
|    112697 |     331       17      289 |   127023    51601     78 |
|    121379 |     331       17      289 |   139725    62701     77 |
|    134384 |     331       17      289 |   153698    79502     76 |
|    153907 |     331       17      289 |   169068   104249     76 |
|    183164 |     331       17      289 |   185975   141200     77 |
|    226982 |     331       17      289 |   204572    29743     79 |
> restarts              : 575
> decisions             : 497379  (0 % random)
> conflicts             : 241036
> propagations          : 10540459
> conflict literals     : 23968240  (10.0392 % deleted)
> Current optimal value 60 after 97981 ms
|    241036 |     332       17      289 |    51433    48009     74 |
|    241136 |     332       17      289 |    56577    48137     74 |
|    241287 |     332       17      289 |    62234    48341     74 |
|    241514 |     332       17      289 |    68458    48664     74 |
|    241853 |     332       17      289 |    75304    49141     74 |
|    242361 |     332       17      289 |    82834    49821     74 |
|    243126 |     332       17      289 |    91117    50832     74 |
|    244266 |     332       17      289 |   100229    52299     74 |
|    245985 |     332       17      289 |   110252    54521     74 |
|    248552 |     332       17      289 |   121277    57696     74 |
|    252413 |     332       17      289 |   133405    62481     75 |
|    258194 |     332       17      289 |   146746    69663     77 |
|    266846 |     332       17      289 |   161420    80455     78 |
|    279877 |     332       17      289 |   177562    97142     77 |
|    299402 |     332       17      289 |   195319   122310     76 |
|    328621 |     332       17      289 |   214851   159922     77 |
|    372533 |     332       17      289 |   236336    19138     74 |
> restarts              : 1020
> decisions             : 853097  (0 % random)
> conflicts             : 405171
> propagations          : 17768953
> conflict literals     : 39297451  (10.951 % deleted)
> Current optimal value 58 after 174111 ms
|    405171 |     333       17      289 |    56452    60704     68 |
|    405271 |     333       17      289 |    62097    17317     55 |
|    405421 |     333       17      289 |    68307    17514     55 |
|    405646 |     333       17      289 |    75138    17795     56 |
|    405983 |     333       17      289 |    82652    18227     56 |
|    406489 |     333       17      289 |    90917    18917     57 |
> restarts              : 1021
> decisions             : 856320  (0 % random)
> conflicts             : 406836
> propagations          : 17848121
> conflict literals     : 39443484  (10.9663 % deleted)
> Current optimal value 52 after 174880 ms
|    406836 |     334       17      289 |    43466    19383     57 |
|    406936 |     334       17      289 |    47812    19507     57 |
|    407086 |     334       17      289 |    52594    19696     57 |
|    407311 |     334       17      289 |    57853    19991     57 |
|    407649 |     334       17      289 |    63639    20399     57 |
|    408155 |     334       17      289 |    70002    21008     58 |
|    408914 |     334       17      289 |    77003    21942     58 |
|    410053 |     334       17      289 |    84703    23368     59 |
|    411761 |     334       17      289 |    93173    25483     59 |
|    414323 |     334       17      289 |   102491    28598     60 |
|    418167 |     334       17      289 |   112740    33261     61 |
|    423933 |     334       17      289 |   124014    40126     63 |
|    432582 |     334       17      289 |   136415    50520     65 |
|    445557 |     334       17      289 |   150057    66410     68 |
|    465018 |     334       17      289 |   165063    90126     69 |
|    494254 |     334       17      289 |   181569   125666     71 |
|    538164 |     334       17      289 |   199726   177104     74 |
|    604001 |     334       17      289 |   219699    74596     75 |
|    702720 |     334       17      289 |   241669   192694     80 |
> restarts              : 1662
> decisions             : 1656691  (0 % random)
> conflicts             : 756840
> propagations          : 32919679
> conflict literals     : 71627256  (11.2044 % deleted)
> Current optimal value 51 after 356567 ms
|    756840 |     335       17      289 |    48965    33517     66 |
|    756940 |     335       17      289 |    53861    33657     66 |
|    757090 |     335       17      289 |    59247    33846     66 |
|    757315 |     335       17      289 |    65172    34118     66 |
> restarts              : 1663
> decisions             : 1657612  (0 % random)
> conflicts             : 757377
> propagations          : 32947794
> conflict literals     : 71673398  (11.2125 % deleted)
> Current optimal value 49 after 356829 ms
|    757377 |     336       17      289 |    49977    34193     66 |
|    757477 |     336       17      289 |    54975    34325     66 |
|    757627 |     336       17      289 |    60472    34521     66 |
|    757852 |     336       17      289 |    66520    34805     67 |
|    758189 |     336       17      289 |    73172    35225     67 |
|    758695 |     336       17      289 |    80489    35842     67 |
|    759454 |     336       17      289 |    88538    36788     67 |
|    760599 |     336       17      289 |    97392    38234     67 |
|    762314 |     336       17      289 |   107131    40390     68 |
|    764890 |     336       17      289 |   117844    43592     69 |
|    768746 |     336       17      289 |   129629    48370     69 |
|    774533 |     336       17      289 |   142592    55580     70 |
|    783208 |     336       17      289 |   156851    66228     71 |
|    796220 |     336       17      289 |   172536    82315     71 |
|    815683 |     336       17      289 |   189790   106674     72 |
|    844976 |     336       17      289 |   208769   142904     72 |
> restarts              : 1917
> decisions             : 1919298  (0 % random)
> conflicts             : 861060
> propagations          : 37597945
> conflict literals     : 80888216  (11.075 % deleted)
> Current optimal value 48 after 413705 ms
|    861060 |     337       17      289 |    93685   162954     72 |
|    861160 |     337       17      289 |   103053    18621     65 |
|    861310 |     337       17      289 |   113359    18792     65 |
|    861535 |     337       17      289 |   124695    19082     65 |
|    861874 |     337       17      289 |   137164    19515     65 |
|    862383 |     337       17      289 |   150881    20142     65 |
|    863146 |     337       17      289 |   165969    21084     66 |
|    864290 |     337       17      289 |   182566    22507     66 |
|    866006 |     337       17      289 |   200822    24588     68 |
|    868576 |     337       17      289 |   220905    27621     70 |
|    872435 |     337       17      289 |   242995    32191     72 |
|    878218 |     337       17      289 |   267295    39457     72 |
|    886897 |     337       17      289 |   294024    50318     73 |
|    899904 |     337       17      289 |   323427    66996     72 |
|    919368 |     337       17      289 |   355769    91546     74 |
|    948561 |     337       17      289 |   391346   128274     75 |
|    992350 |     337       17      289 |   430481   181743     78 |
|   1058035 |     337       17      289 |   473529   262559     78 |
|   1156748 |     337       17      289 |   520882   385013     78 |
