Starting solving at 48 ms
>>> Search start
> Conflicts |          ORIGINAL         |          LEARNT          | Progress
>           |    Vars  Clauses Literals |    Limit  Clauses Lit/Cl |         
|         0 |     441       21      441 |     2586        0   -nan |
|       101 |     441       21      441 |     2845      142     49 |
> restarts              : 3
> decisions             : 812  (0 % random)
> conflicts             : 202
> propagations          : 6732
> conflict literals     : 18986  (0.278376 % deleted)
> Current optimal value 284 after 54 ms
|       202 |     442       21      441 |     3972      282     68 |
> restarts              : 4
> decisions             : 1048  (0 % random)
> conflicts             : 203
> propagations          : 7184
> conflict literals     : 19026  (0.277792 % deleted)
> Current optimal value 267 after 54 ms
|       203 |     443       21      441 |     5264      284     68 |
> restarts              : 5
> decisions             : 1275  (0 % random)
> conflicts             : 204
> propagations          : 7634
> conflict literals     : 19102  (0.27669 % deleted)
> Current optimal value 247 after 55 ms
|       204 |     444       21      441 |     6556      286     67 |
> restarts              : 6
> decisions             : 1488  (0 % random)
> conflicts             : 207
> propagations          : 8111
> conflict literals     : 19253  (0.279691 % deleted)
> Current optimal value 240 after 56 ms
|       207 |     445       21      441 |     7848      290     67 |
> restarts              : 7
> decisions             : 1713  (0 % random)
> conflicts             : 211
> propagations          : 8622
> conflict literals     : 19539  (0.31631 % deleted)
> Current optimal value 238 after 57 ms
|       211 |     446       21      441 |     9142      297     67 |
> restarts              : 8
> decisions             : 1850  (0 % random)
> conflicts             : 213
> propagations          : 9107
> conflict literals     : 19636  (0.319813 % deleted)
> Current optimal value 234 after 58 ms
|       213 |     447       21      441 |    10435      301     66 |
> restarts              : 9
> decisions             : 1981  (0 % random)
> conflicts             : 214
> propagations          : 9566
> conflict literals     : 19675  (0.324231 % deleted)
> Current optimal value 231 after 59 ms
|       214 |     448       21      441 |    11727      303     66 |
> restarts              : 10
> decisions             : 2109  (0 % random)
> conflicts             : 220
> propagations          : 10206
> conflict literals     : 20075  (0.401865 % deleted)
> Current optimal value 225 after 61 ms
|       220 |     449       21      441 |    13022      314     65 |
> restarts              : 11
> decisions             : 2134  (0 % random)
> conflicts             : 221
> propagations          : 10693
> conflict literals     : 20149  (0.410241 % deleted)
> Current optimal value 223 after 62 ms
|       221 |     450       21      441 |    14314      316     65 |
> restarts              : 12
> decisions             : 2196  (0 % random)
> conflicts             : 231
> propagations          : 11734
> conflict literals     : 20900  (0.480929 % deleted)
> Current optimal value 213 after 64 ms
|       231 |     451       21      441 |    15611      333     64 |
> restarts              : 13
> decisions             : 2276  (0 % random)
> conflicts             : 244
> propagations          : 12974
> conflict literals     : 21982  (0.596907 % deleted)
> Current optimal value 193 after 67 ms
|       244 |     452       21      441 |    16909      355     64 |
> restarts              : 14
> decisions             : 2374  (0 % random)
> conflicts             : 276
> propagations          : 14760
> conflict literals     : 24901  (0.887598 % deleted)
> Current optimal value 191 after 73 ms
|       276 |     453       21      441 |    18217      403     64 |
> restarts              : 15
> decisions             : 2437  (0 % random)
> conflicts             : 278
> propagations          : 15261
> conflict literals     : 25073  (0.90115 % deleted)
> Current optimal value 189 after 74 ms
|       278 |     454       21      441 |    19509      407     64 |
> restarts              : 17
> decisions             : 2669  (0 % random)
> conflicts             : 356
> propagations          : 20005
> conflict literals     : 34393  (1.45555 % deleted)
> Current optimal value 179 after 91 ms
|       356 |     455       21      441 |    20840      524     68 |
> restarts              : 19
> decisions             : 2902  (0 % random)
> conflicts             : 407
> propagations          : 23716
> conflict literals     : 39993  (1.63801 % deleted)
> Current optimal value 164 after 103 ms
|       407 |     456       21      441 |    22155      595     70 |
> restarts              : 20
> decisions             : 3124  (0 % random)
> conflicts             : 454
> propagations          : 25631
> conflict literals     : 45818  (1.75822 % deleted)
> Current optimal value 162 after 113 ms
|       454 |     457       21      441 |    23466      654     73 |
|       554 |     457       21      441 |    25812      796     77 |
|       705 |     457       21      441 |    28393      989     83 |
|       931 |     457       21      441 |    31233     1277     92 |
> restarts              : 23
> decisions             : 4412  (0 % random)
> conflicts             : 939
> propagations          : 47149
> conflict literals     : 113515  (1.88596 % deleted)
> Current optimal value 160 after 225 ms
|       939 |     458       21      441 |    24969     1289     91 |
|      1039 |     458       21      441 |    27465     1435     93 |
|      1189 |     458       21      441 |    30212     1635     99 |
|      1416 |     458       21      441 |    33233     1934    105 |
|      1756 |     458       21      441 |    36557     2392    106 |
|      2263 |     458       21      441 |    40212     3084    113 |
|      3023 |     458       21      441 |    44234     4102    115 |
|      4163 |     458       21      441 |    48657     5596    119 |
|      5878 |     458       21      441 |    53523     7870    117 |
> restarts              : 46
> decisions             : 18130  (0 % random)
> conflicts             : 6783
> propagations          : 318241
> conflict literals     : 1015153  (2.39749 % deleted)
> Current optimal value 158 after 1631 ms
|      6783 |     459       21      441 |    28855     9073    116 |
|      6883 |     459       21      441 |    31740     9215    116 |
|      7033 |     459       21      441 |    34914     9425    116 |
|      7260 |     459       21      441 |    38406     9718    116 |
|      7599 |     459       21      441 |    42246    10157    117 |
|      8108 |     459       21      441 |    46471    10823    119 |
|      8872 |     459       21      441 |    51118    11840    119 |
|     10014 |     459       21      441 |    56230    13337    119 |
|     11723 |     459       21      441 |    61853    15627    119 |
|     14286 |     459       21      441 |    68038    19011    120 |
|     18145 |     459       21      441 |    74842    24117    119 |
|     23934 |     459       21      441 |    82326    31707    115 |
> restarts              : 125
> decisions             : 68007  (0 % random)
> conflicts             : 29197
> propagations          : 1420995
> conflict literals     : 4234972  (3.49653 % deleted)
> Current optimal value 154 after 7396 ms
|     29197 |     460       21      441 |    39925    38411    114 |
|     29297 |     460       21      441 |    43918    38550    114 |
|     29447 |     460       21      441 |    48310    38748    114 |
> restarts              : 126
> decisions             : 68728  (0 % random)
> conflicts             : 29483
> propagations          : 1437059
> conflict literals     : 4269912  (3.50538 % deleted)
> Current optimal value 153 after 7471 ms
|     29483 |     461       21      441 |    41346    38798    114 |
|     29584 |     461       21      441 |    45480    38946    114 |
|     29734 |     461       21      441 |    50028    39149    114 |
> restarts              : 128
> decisions             : 69491  (0 % random)
> conflicts             : 29833
> propagations          : 1455559
> conflict literals     : 4309712  (3.52625 % deleted)
> Current optimal value 151 after 7570 ms
|     29833 |     462       21      441 |    42802    39292    114 |
|     29933 |     462       21      441 |    47082    39420    114 |
|     30083 |     462       21      441 |    51790    39613    114 |
> restarts              : 129
> decisions             : 70610  (0 % random)
> conflicts             : 30305
> propagations          : 1478808
> conflict literals     : 4372118  (3.54955 % deleted)
> Current optimal value 145 after 7705 ms
|     30305 |     463       21      441 |    44306    39932    114 |
> restarts              : 130
> decisions             : 70671  (0 % random)
> conflicts             : 30310
> propagations          : 1479503
> conflict literals     : 4372588  (3.55065 % deleted)
> Current optimal value 141 after 7709 ms
|     30310 |     464       21      441 |    45600    39940    114 |
|     30410 |     464       21      441 |    50160    40074    114 |
|     30560 |     464       21      441 |    55176    40260    114 |
|     30785 |     464       21      441 |    60694    40552    114 |
|     31122 |     464       21      441 |    66763    40982    113 |
|     31628 |     464       21      441 |    73440    41594    114 |
|     32387 |     464       21      441 |    80784    42488    114 |
> restarts              : 131
> decisions             : 75226  (0 % random)
> conflicts             : 32545
> propagations          : 1596770
> conflict literals     : 4692796  (3.63374 % deleted)
> Current optimal value 140 after 8364 ms
|     32545 |     465       21      441 |    47804    42678    114 |
|     32645 |     465       21      441 |    52585    42817    114 |
|     32795 |     465       21      441 |    57843    43028    114 |
> restarts              : 132
> decisions             : 75930  (0 % random)
> conflicts             : 32806
> propagations          : 1611807
> conflict literals     : 4729467  (3.65551 % deleted)
> Current optimal value 138 after 8453 ms
|     32806 |     466       21      441 |    49218    43044    114 |
> restarts              : 133
> decisions             : 76093  (0 % random)
> conflicts             : 32851
> propagations          : 1614768
> conflict literals     : 4736024  (3.66543 % deleted)
> Current optimal value 133 after 8471 ms
|     32851 |     467       21      441 |    50531    43109    114 |
> restarts              : 134
> decisions             : 76242  (0 % random)
> conflicts             : 32889
> propagations          : 1617661
> conflict literals     : 4742031  (3.67544 % deleted)
> Current optimal value 132 after 8488 ms
|     32889 |     468       21      441 |    51840    43163    114 |
|     32989 |     468       21      441 |    57024    43308    114 |
|     33139 |     468       21      441 |    62726    43513    114 |
|     33364 |     468       21      441 |    68999    43805    114 |
|     33701 |     468       21      441 |    75899    44203    114 |
|     34207 |     468       21      441 |    83489    44813    115 |
|     34966 |     468       21      441 |    91838    45815    115 |
|     36108 |     468       21      441 |   101022    47274    115 |
|     37821 |     468       21      441 |   111124    49487    116 |
|     40398 |     468       21      441 |   122236    52773    117 |
|     44253 |     468       21      441 |   134460    57735    116 |
> restarts              : 184
> decisions             : 113619  (0 % random)
> conflicts             : 47360
> propagations          : 2333913
> conflict literals     : 6976054  (3.74187 % deleted)
> Current optimal value 131 after 13927 ms
|     47360 |     469       21      441 |    59323    61739    117 |
|     47460 |     469       21      441 |    65256    16342    116 |
|     47612 |     469       21      441 |    71781    16540    116 |
|     47838 |     469       21      441 |    78959    16861    116 |
|     48175 |     469       21      441 |    86855    17292    116 |
|     48682 |     469       21      441 |    95541    17975    116 |
|     49442 |     469       21      441 |   105095    18979    116 |
|     50581 |     469       21      441 |   115605    20495    117 |
|     52290 |     469       21      441 |   127165    22613    121 |
|     54859 |     469       21      441 |   139882    25953    122 |
|     58723 |     469       21      441 |   153870    30901    121 |
|     64508 |     469       21      441 |   169257    38359    121 |
> restarts              : 254
> decisions             : 177783  (0 % random)
> conflicts             : 72700
> propagations          : 3659110
> conflict literals     : 10756100  (3.91967 % deleted)
> Current optimal value 130 after 24106 ms
|     72700 |     470       21      441 |    56286    48753    118 |
> restarts              : 255
> decisions             : 177841  (0 % random)
> conflicts             : 72701
> propagations          : 3659604
> conflict literals     : 10756163  (3.91976 % deleted)
> Current optimal value 128 after 24110 ms
|     72701 |     471       21      441 |    57578    48755    118 |
|     72801 |     471       21      441 |    63336    48885    118 |
|     72951 |     471       21      441 |    69669    49079    118 |
|     73178 |     471       21      441 |    76636    49358    118 |
|     73518 |     471       21      441 |    84300    49818    118 |
> restarts              : 263
> decisions             : 181104  (0 % random)
> conflicts             : 73930
> propagations          : 3725287
> conflict literals     : 10938347  (3.9159 % deleted)
> Current optimal value 127 after 24632 ms
|     73930 |     472       21      441 |    59402    50354    118 |
|     74030 |     472       21      441 |    65342    50496    118 |
|     74180 |     472       21      441 |    71877    50696    118 |
|     74407 |     472       21      441 |    79064    50996    118 |
|     74747 |     472       21      441 |    86971    51436    118 |
|     75254 |     472       21      441 |    95668    52074    118 |
|     76014 |     472       21      441 |   105235    53062    118 |
|     77160 |     472       21      441 |   115758    54528    118 |
> restarts              : 281
> decisions             : 192114  (0 % random)
> conflicts             : 77670
> propagations          : 3932018
> conflict literals     : 11444204  (3.9732 % deleted)
> Current optimal value 126 after 26269 ms
|     77670 |     473       21      441 |    62310    55202    118 |
|     77771 |     473       21      441 |    68541    55346    117 |
|     77922 |     473       21      441 |    75395    55558    117 |
|     78148 |     473       21      441 |    82934    55845    117 |
|     78486 |     473       21      441 |    91228    56298    117 |
|     78992 |     473       21      441 |   100350    56926    117 |
|     79752 |     473       21      441 |   110385    57884    117 |
|     80892 |     473       21      441 |   121424    59352    117 |
|     82612 |     473       21      441 |   133567    61569    117 |
> restarts              : 302
> decisions             : 209031  (0 % random)
> conflicts             : 83867
> propagations          : 4235506
> conflict literals     : 12353678  (3.99055 % deleted)
> Current optimal value 125 after 28967 ms
|     83867 |     474       21      441 |    66258    63172    118 |
|     83967 |     474       21      441 |    72883    63307    117 |
|     84119 |     474       21      441 |    80172    63505    117 |
|     84345 |     474       21      441 |    88189    63803    117 |
|     84684 |     474       21      441 |    97008    64260    118 |
|     85192 |     474       21      441 |   106709    64895    118 |
|     85957 |     474       21      441 |   117380    65880    117 |
|     87097 |     474       21      441 |   129118    67359    118 |
|     88807 |     474       21      441 |   142029    69644    117 |
|     91369 |     474       21      441 |   156232    73040    117 |
> restarts              : 326
> decisions             : 231716  (0 % random)
> conflicts             : 92819
> propagations          : 4728219
> conflict literals     : 13673089  (4.0981 % deleted)
> Current optimal value 124 after 33216 ms
|     92819 |     475       21      441 |    71476    74954    117 |
|     92919 |     475       21      441 |    78624    17292    109 |
|     93069 |     475       21      441 |    86486    17511    109 |
|     93296 |     475       21      441 |    95135    17819    109 |
|     93636 |     475       21      441 |   104648    18279    109 |
> restarts              : 333
> decisions             : 234646  (0 % random)
> conflicts             : 94033
> propagations          : 4798734
> conflict literals     : 13850159  (4.14554 % deleted)
> Current optimal value 123 after 33809 ms
|     94033 |     476       21      441 |    54053    18809    109 |
> restarts              : 334
> decisions             : 234772  (0 % random)
> conflicts             : 94047
> propagations          : 4800089
> conflict literals     : 13851961  (4.14761 % deleted)
> Current optimal value 122 after 33820 ms
|     94047 |     477       21      441 |    55352    18834    109 |
> restarts              : 335
> decisions             : 234871  (0 % random)
> conflicts             : 94064
> propagations          : 4801846
> conflict literals     : 13854592  (4.14868 % deleted)
> Current optimal value 121 after 33834 ms
|     94064 |     478       21      441 |    56652    18858    109 |
|     94164 |     478       21      441 |    62317    18984    109 |
|     94315 |     478       21      441 |    68548    19182    110 |
|     94542 |     478       21      441 |    75403    19487    110 |
|     94881 |     478       21      441 |    82944    19932    111 |
|     95389 |     478       21      441 |    91238    20605    112 |
|     96153 |     478       21      441 |   100362    21634    113 |
|     97294 |     478       21      441 |   110398    23087    115 |
|     99005 |     478       21      441 |   121438    25260    118 |
|    101579 |     478       21      441 |   133582    28626    118 |
|    105439 |     478       21      441 |   146940    33779    119 |
|    111207 |     478       21      441 |   161634    41303    121 |
|    119874 |     478       21      441 |   177798    52579    123 |
|    132893 |     478       21      441 |   195578    69643    124 |
|    152417 |     478       21      441 |   215135    95095    123 |
|    181612 |     478       21      441 |   236649   133484    119 |
> restarts              : 512
> decisions             : 454529  (0 % random)
> conflicts             : 195609
> propagations          : 10453120
> conflict literals     : 29017087  (5.67599 % deleted)
> Current optimal value 117 after 88450 ms
|    195609 |     479       21      441 |   102530   152619    116 |
|    195709 |     479       21      441 |   112783    19808     88 |
|    195859 |     479       21      441 |   124061    20010     88 |
|    196084 |     479       21      441 |   136467    20317     89 |
|    196421 |     479       21      441 |   150114    20757     89 |
|    196927 |     479       21      441 |   165126    21484     90 |
|    197686 |     479       21      441 |   181638    22528     90 |
|    198825 |     479       21      441 |   199802    24131     91 |
|    200539 |     479       21      441 |   219782    26454     92 |
|    203113 |     479       21      441 |   241761    29824     96 |
|    206969 |     479       21      441 |   265937    34949     98 |
|    212764 |     479       21      441 |   292531    42461     99 |
|    221431 |     479       21      441 |   321784    53443    102 |
|    234452 |     479       21      441 |   353962    70125    102 |
> restarts              : 638
> decisions             : 543346  (0 % random)
> conflicts             : 235426
> propagations          : 12852555
> conflict literals     : 34336431  (6.40498 % deleted)
> Current optimal value 116 after 110219 ms
|    235426 |     480       21      441 |    76752    71411    102 |
|    235526 |     480       21      441 |    84427    71563    102 |
> restarts              : 639
> decisions             : 543644  (0 % random)
> conflicts             : 235570
> propagations          : 12861915
> conflict literals     : 34349337  (6.41247 % deleted)
> Current optimal value 114 after 110291 ms
|    235570 |     481       21      441 |    78116    71628    101 |
|    235670 |     481       21      441 |    85927    71771    101 |
|    235820 |     481       21      441 |    94520    71965    101 |
|    236045 |     481       21      441 |   103972    72251    101 |
|    236382 |     481       21      441 |   114369    72655    101 |
> restarts              : 640
> decisions             : 545963  (0 % random)
> conflicts             : 236845
> propagations          : 12939356
> conflict literals     : 34482631  (6.46665 % deleted)
> Current optimal value 113 after 110911 ms
|    236845 |     482       21      441 |    79932    73203    101 |
> restarts              : 641
> decisions             : 546079  (0 % random)
> conflicts             : 236866
> propagations          : 12941458
> conflict literals     : 34485094  (6.46815 % deleted)
> Current optimal value 112 after 110927 ms
|    236866 |     483       21      441 |    81233    73233    101 |
|    236966 |     483       21      441 |    89357    73373    101 |
|    237116 |     483       21      441 |    98292    73569    101 |
|    237341 |     483       21      441 |   108122    73857    101 |
|    237678 |     483       21      441 |   118934    74293    101 |
|    238187 |     483       21      441 |   130827    74962    101 |
|    238950 |     483       21      441 |   143910    75961    101 |
|    240094 |     483       21      441 |   158301    77444    101 |
|    241809 |     483       21      441 |   174131    79539    101 |
|    244380 |     483       21      441 |   191544    82833    100 |
|    248239 |     483       21      441 |   210699    87660    100 |
> restarts              : 701
> decisions             : 582050  (0 % random)
> conflicts             : 251924
> propagations          : 13794869
> conflict literals     : 36266289  (6.80021 % deleted)
> Current optimal value 110 after 119293 ms
|    251924 |     484       21      441 |    88875    92284    100 |
|    252024 |     484       21      441 |    97762    17587     87 |
|    252174 |     484       21      441 |   107539    17784     87 |
|    252399 |     484       21      441 |   118293    18080     87 |
|    252736 |     484       21      441 |   130122    18541     87 |
|    253242 |     484       21      441 |   143134    19229     87 |
|    254006 |     484       21      441 |   157448    20249     88 |
> restarts              : 708
> decisions             : 586239  (0 % random)
> conflicts             : 254284
> propagations          : 13943560
> conflict literals     : 36534335  (6.92118 % deleted)
> Current optimal value 109 after 120575 ms
|    254284 |     485       21      441 |    66278    20618     88 |
> restarts              : 709
> decisions             : 586322  (0 % random)
> conflicts             : 254290
> propagations          : 13944284
> conflict literals     : 36534754  (6.92161 % deleted)
> Current optimal value 108 after 120582 ms
|    254290 |     486       21      441 |    67573    20630     88 |
|    254391 |     486       21      441 |    74330    20765     88 |
|    254542 |     486       21      441 |    81763    20961     88 |
|    254769 |     486       21      441 |    89940    21255     88 |
|    255108 |     486       21      441 |    98934    21709     88 |
|    255615 |     486       21      441 |   108827    22373     88 |
> restarts              : 717
> decisions             : 589659  (0 % random)
> conflicts             : 255696
> propagations          : 14030651
> conflict literals     : 36691785  (6.96488 % deleted)
> Current optimal value 107 after 121399 ms
|    255696 |     487       21      441 |    69481    22479     88 |
> restarts              : 718
> decisions             : 589772  (0 % random)
> conflicts             : 255728
> propagations          : 14033016
> conflict literals     : 36694828  (6.96636 % deleted)
> Current optimal value 106 after 121420 ms
|    255728 |     488       21      441 |    70789    22529     88 |
|    255828 |     488       21      441 |    77867    22671     88 |
|    255978 |     488       21      441 |    85654    22862     88 |
|    256204 |     488       21      441 |    94220    23163     88 |
> restarts              : 720
> decisions             : 591021  (0 % random)
> conflicts             : 256325
> propagations          : 14068720
> conflict literals     : 36753767  (6.99069 % deleted)
> Current optimal value 105 after 121748 ms
|    256325 |     489       21      441 |    72344    23322     87 |
|    256426 |     489       21      441 |    79579    23468     87 |
|    256577 |     489       21      441 |    87537    23685     87 |
|    256803 |     489       21      441 |    96290    23986     87 |
|    257141 |     489       21      441 |   105919    24467     87 |
|    257651 |     489       21      441 |   116511    25152     87 |
|    258413 |     489       21      441 |   128162    26172     87 |
> restarts              : 732
> decisions             : 595894  (0 % random)
> conflicts             : 258505
> propagations          : 14197156
> conflict literals     : 36978829  (7.05339 % deleted)
> Current optimal value 103 after 122989 ms
|    258505 |     490       21      441 |    74629    26301     87 |
> restarts              : 733
> decisions             : 595958  (0 % random)
> conflicts             : 258522
> propagations          : 14198593
> conflict literals     : 36980488  (7.05446 % deleted)
> Current optimal value 101 after 123002 ms
|    258522 |     491       21      441 |    75928    26325     87 |
|    258622 |     491       21      441 |    83521    26466     87 |
|    258772 |     491       21      441 |    91873    26666     87 |
|    258997 |     491       21      441 |   101060    26954     87 |
|    259336 |     491       21      441 |   111166    27384     87 |
|    259846 |     491       21      441 |   122283    28075     87 |
|    260609 |     491       21      441 |   134511    29074     88 |
|    261752 |     491       21      441 |   147962    30529     88 |
|    263468 |     491       21      441 |   162759    32785     89 |
|    266038 |     491       21      441 |   179035    36004     90 |
|    269883 |     491       21      441 |   196938    40959     92 |
|    275650 |     491       21      441 |   216632    48337     94 |
|    284300 |     491       21      441 |   238295    59391     96 |
|    297305 |     491       21      441 |   262125    76034     99 |
|    316832 |     491       21      441 |   288337   100682    107 |
|    346106 |     491       21      441 |   317171   138575    112 |
|    389971 |     491       21      441 |   348888   195161    112 |
|    455657 |     491       21      441 |   383777   279356    114 |
> restarts              : 1180
> decisions             : 1187120  (0 % random)
> conflicts             : 518985
> propagations          : 28446065
> conflict literals     : 74686569  (8.99427 % deleted)
> Current optimal value 100 after 300837 ms
|    518985 |     492       21      441 |   188460   360048    114 |
|    519086 |     492       21      441 |   207306    20761     98 |
> restarts              : 1182
> decisions             : 1187574  (0 % random)
> conflicts             : 519118
> propagations          : 28455643
> conflict literals     : 74701184  (8.99716 % deleted)
> Current optimal value 99 after 301026 ms
|    519118 |     493       21      441 |    76670    20804     98 |
|    519218 |     493       21      441 |    84337    20944     98 |
|    519368 |     493       21      441 |    92771    21144     98 |
|    519593 |     493       21      441 |   102048    21442     98 |
|    519930 |     493       21      441 |   112253    21874     98 |
|    520436 |     493       21      441 |   123478    22538     97 |
|    521200 |     493       21      441 |   135826    23493     98 |
|    522346 |     493       21      441 |   149409    24953     98 |
|    524059 |     493       21      441 |   164350    27164     98 |
|    526633 |     493       21      441 |   180785    30505     99 |
|    530479 |     493       21      441 |   198863    35608     97 |
|    536269 |     493       21      441 |   218750    43067     98 |
|    544954 |     493       21      441 |   240625    54271    100 |
> restarts              : 1278
> decisions             : 1277304  (0 % random)
> conflicts             : 555060
> propagations          : 30439026
> conflict literals     : 79200946  (9.12134 % deleted)
> Current optimal value 98 after 322740 ms
|    555060 |     494       21      441 |    93479    67355     99 |
|    555160 |     494       21      441 |   102826    67486     99 |
|    555310 |     494       21      441 |   113109    67693     99 |
|    555535 |     494       21      441 |   124420    67993     99 |
|    555872 |     494       21      441 |   136862    68466     99 |
|    556378 |     494       21      441 |   150548    69158     99 |
|    557137 |     494       21      441 |   165603    70176     99 |
|    558283 |     494       21      441 |   182164    71654     99 |
|    559999 |     494       21      441 |   200380    73865     98 |
|    562575 |     494       21      441 |   220418    77196     98 |
|    566428 |     494       21      441 |   242460    82187     98 |
|    572218 |     494       21      441 |   266706    89766     97 |
|    580890 |     494       21      441 |   293377   100972     98 |
|    593905 |     494       21      441 |   322714   117840    100 |
|    613415 |     494       21      441 |   354986   143555    102 |
|    642686 |     494       21      441 |   390484   180887    105 |
> restarts              : 1535
> decisions             : 1566039  (0 % random)
> conflicts             : 678808
> propagations          : 37344563
> conflict literals     : 96549805  (9.4834 % deleted)
> Current optimal value 95 after 400410 ms
|    678808 |     495       21      441 |   148126   227423    108 |
|    678908 |     495       21      441 |   162938    20121    111 |
|    679058 |     495       21      441 |   179232    20322    111 |
|    679283 |     495       21      441 |   197156    20628    111 |
|    679620 |     495       21      441 |   216871    21059    111 |
|    680126 |     495       21      441 |   238558    21741    111 |
|    680885 |     495       21      441 |   262414    22681    112 |
|    682024 |     495       21      441 |   288656    24130    113 |
|    683732 |     495       21      441 |   317521    26332    114 |
|    686300 |     495       21      441 |   349274    29465    116 |
|    690164 |     495       21      441 |   384201    34371    118 |
|    695949 |     495       21      441 |   422621    41731    114 |
|    704618 |     495       21      441 |   464883    52369    114 |
|    717649 |     495       21      441 |   511372    68413    114 |
|    737145 |     495       21      441 |   562509    93342    111 |
> restarts              : 1788
> decisions             : 1773568  (0 % random)
> conflicts             : 765717
> propagations          : 42455680
> conflict literals     : 108156564  (9.80093 % deleted)
> Current optimal value 94 after 460987 ms
|    765717 |     496       21      441 |   117007   130192    109 |
|    765817 |     496       21      441 |   128708    19570     84 |
|    765967 |     496       21      441 |   141578    19772     84 |
|    766192 |     496       21      441 |   155736    20076     83 |
> restarts              : 1789
> decisions             : 1775094  (0 % random)
> conflicts             : 766475
> propagations          : 42503454
> conflict literals     : 108230487  (9.81454 % deleted)
> Current optimal value 93 after 461524 ms
|    766475 |     497       21      441 |    81712    20432     84 |
> restarts              : 1790
> decisions             : 1775190  (0 % random)
> conflicts             : 766478
> propagations          : 42504085
> conflict literals     : 108230712  (9.81462 % deleted)
> Current optimal value 89 after 461532 ms
|    766478 |     498       21      441 |    83005    20438     84 |
|    766578 |     498       21      441 |    91305    20569     84 |
|    766728 |     498       21      441 |   100436    20762     84 |
|    766953 |     498       21      441 |   110480    21058     84 |
|    767290 |     498       21      441 |   121528    21495     84 |
|    767796 |     498       21      441 |   133680    22177     85 |
|    768557 |     498       21      441 |   147049    23150     85 |
> restarts              : 1793
> decisions             : 1779552  (0 % random)
> conflicts             : 768643
> propagations          : 42644225
> conflict literals     : 108493192  (9.84368 % deleted)
> Current optimal value 87 after 463132 ms
|    768643 |     499       21      441 |    85241    23273     85 |
|    768744 |     499       21      441 |    93765    23401     85 |
|    768895 |     499       21      441 |   103142    23604     85 |
|    769121 |     499       21      441 |   113456    23904     85 |
|    769459 |     499       21      441 |   124802    24334     85 |
> restarts              : 1798
> decisions             : 1781435  (0 % random)
> conflicts             : 769486
> propagations          : 42692780
> conflict literals     : 108568603  (9.85814 % deleted)
> Current optimal value 86 after 463656 ms
|    769486 |     500       21      441 |    86897    24365     85 |
|    769587 |     500       21      441 |    95586    24511     85 |
|    769738 |     500       21      441 |   105145    24714     84 |
|    769965 |     500       21      441 |   115659    25004     84 |
|    770303 |     500       21      441 |   127225    25447     84 |
|    770810 |     500       21      441 |   139948    26154     84 |
|    771572 |     500       21      441 |   153943    27145     84 |
|    772718 |     500       21      441 |   169337    28611     85 |
|    774431 |     500       21      441 |   186271    30808     87 |
|    777001 |     500       21      441 |   204898    34055     90 |
|    780863 |     500       21      441 |   225388    38845     93 |
|    786636 |     500       21      441 |   247927    45872     97 |
|    795317 |     500       21      441 |   272720    56875     99 |
|    808323 |     500       21      441 |   299992    73223    102 |
|    827846 |     500       21      441 |   329991    97708    105 |
|    857103 |     500       21      441 |   362990   134214    107 |
|    900895 |     500       21      441 |   399289   188873    110 |
