alpha: 0.5
beta: 0.5
gamma: 1.5
stagT: 5
Random frameSizes and framesize is choosen randomly between 1 - maxframesize
When an improvement is found the usefullFramesize is set to the size of the removedassumptions
Maximum runtime: 600

Starting solving at: 10745 ms
done
PrepModelIt duration: 11097 ms
amount madeAssumptions: 18629
Objval best sol: 640956
search limit: 7
useful search limit: 7
max frame size: 254
frame size: 127
useful frame size: 127
stag: 0/5
total spend time up to now: 590 ms
max time: 600
> Current optimal value 640956 after 11100 ms
> Current optimal value 635682 after 822 ms
> Current optimal value 634804 after 1078 ms
> Current optimal value 634704 after 1462 ms
> Current optimal value 633036 after 1594 ms
> Current optimal value 632709 after 1933 ms
> Current optimal value 623188 after 2750 ms
> Current optimal value 619604 after 2883 ms
> Current optimal value 618836 after 3021 ms
> Current optimal value 618565 after 3740 ms
> Current optimal value 617487 after 4732 ms
> Current optimal value 605703 after 5059 ms
> Current optimal value 600861 after 5678 ms
> Current optimal value 600429 after 6673 ms
> Current optimal value 598880 after 6907 ms
> Current optimal value 598133 after 7559 ms
> Current optimal value 592835 after 9072 ms
> Current optimal value 592523 after 10903 ms
> Current optimal value 585936 after 11891 ms
> Current optimal value 584328 after 13136 ms
> Current optimal value 582888 after 14206 ms
> Current optimal value 577036 after 15035 ms
> Current optimal value 575415 after 16564 ms
> Current optimal value 574057 after 16754 ms
> Current optimal value 571076 after 18890 ms
> Current optimal value 570903 after 19227 ms
> Current optimal value 570611 after 19721 ms
> Current optimal value 566657 after 21088 ms
> Current optimal value 554491 after 21933 ms
> Current optimal value 553459 after 22568 ms
> Current optimal value 552439 after 23805 ms
> Current optimal value 550057 after 24920 ms
> Current optimal value 546525 after 25643 ms
> Current optimal value 544872 after 28076 ms
> Current optimal value 541543 after 28364 ms
> Current optimal value 541439 after 30173 ms
> Current optimal value 541208 after 30918 ms
> Current optimal value 539937 after 31924 ms
> Current optimal value 539288 after 34036 ms
> Current optimal value 535185 after 34706 ms
> Current optimal value 533336 after 34828 ms
> Current optimal value 522823 after 35853 ms
> Current optimal value 514509 after 37798 ms
> Current optimal value 512614 after 38849 ms
> Current optimal value 510634 after 38978 ms
> Current optimal value 505955 after 40158 ms
> Current optimal value 505435 after 40943 ms
> Current optimal value 504573 after 41803 ms
> Current optimal value 499635 after 42225 ms
> Current optimal value 497641 after 42860 ms
> Current optimal value 496832 after 44258 ms
> Current optimal value 493290 after 44998 ms
> Current optimal value 491805 after 46024 ms
> Current optimal value 490015 after 47041 ms
> Current optimal value 489623 after 48385 ms
> Current optimal value 482907 after 48711 ms
> Current optimal value 481526 after 51139 ms
> Current optimal value 478653 after 51928 ms
> Current optimal value 476920 after 52241 ms
> Current optimal value 476630 after 52672 ms
> Current optimal value 474954 after 53139 ms
> Current optimal value 472993 after 56150 ms
> Current optimal value 472562 after 56260 ms
> Current optimal value 471140 after 57212 ms
> Current optimal value 467163 after 57516 ms
> Current optimal value 467041 after 58537 ms
> Current optimal value 466086 after 59164 ms
> Current optimal value 463061 after 59804 ms
> Current optimal value 461298 after 60910 ms
> Current optimal value 460586 after 61123 ms
> Current optimal value 456307 after 63671 ms
> Current optimal value 453682 after 63895 ms
> Current optimal value 452210 after 64883 ms
> Current optimal value 449594 after 67234 ms
> Current optimal value 448893 after 67509 ms
> Current optimal value 446281 after 68615 ms
> Current optimal value 441281 after 69204 ms
> Current optimal value 437189 after 70383 ms
> Current optimal value 435565 after 71380 ms
> Current optimal value 433825 after 72462 ms
> Current optimal value 433520 after 74934 ms
> Current optimal value 427062 after 75265 ms
> Current optimal value 425503 after 75712 ms
> Current optimal value 421099 after 76010 ms
> Current optimal value 420832 after 76490 ms
> Current optimal value 419997 after 79118 ms
> Current optimal value 419600 after 80480 ms
> Current optimal value 419237 after 80868 ms
> Current optimal value 416955 after 81684 ms
> Current optimal value 415911 after 82968 ms
> Current optimal value 415713 after 83125 ms
> Current optimal value 415526 after 83321 ms
> Current optimal value 412477 after 86369 ms
> Current optimal value 411221 after 86708 ms
> Current optimal value 409421 after 88636 ms
> Current optimal value 407691 after 89192 ms
> Current optimal value 405334 after 90325 ms
> Current optimal value 404762 after 92948 ms
> Current optimal value 400915 after 93302 ms
> Current optimal value 393572 after 95410 ms
> Current optimal value 392470 after 97566 ms
> Current optimal value 392009 after 99059 ms
> Current optimal value 389865 after 100846 ms
> Current optimal value 388715 after 101210 ms
> Current optimal value 382258 after 102363 ms
> Current optimal value 380066 after 103085 ms
> Current optimal value 378425 after 103578 ms
> Current optimal value 376582 after 104385 ms
> Current optimal value 375169 after 105133 ms
> Current optimal value 373689 after 105819 ms
> Current optimal value 372011 after 108302 ms
> Current optimal value 370301 after 108879 ms
> Current optimal value 369193 after 110729 ms
> Current optimal value 367272 after 111281 ms
> Current optimal value 366279 after 116068 ms
> Current optimal value 365057 after 119479 ms
> Current optimal value 363736 after 121558 ms
> Current optimal value 362542 after 122014 ms
> Current optimal value 358343 after 124145 ms
> Current optimal value 357336 after 127314 ms
> Current optimal value 356256 after 128918 ms
> Current optimal value 355034 after 131568 ms
> Current optimal value 353948 after 132282 ms
> Current optimal value 353769 after 132860 ms
> Current optimal value 353501 after 132972 ms
> Current optimal value 350877 after 135332 ms
> Current optimal value 344365 after 135727 ms
> Current optimal value 343605 after 137707 ms
> Current optimal value 341578 after 138189 ms
> Current optimal value 340071 after 140852 ms
> Current optimal value 337790 after 142349 ms
> Current optimal value 336694 after 142601 ms
> Current optimal value 334223 after 144053 ms
> Current optimal value 334137 after 144974 ms
> Current optimal value 333113 after 146197 ms
> Current optimal value 330594 after 146316 ms
> Current optimal value 329631 after 154679 ms
> Current optimal value 328217 after 159290 ms
> Current optimal value 328039 after 168848 ms
> Current optimal value 324712 after 171682 ms
> Current optimal value 324292 after 176416 ms
> Current optimal value 320102 after 180753 ms
> Current optimal value 320021 after 180920 ms
> Current optimal value 316642 after 193057 ms
> Current optimal value 314813 after 193175 ms
> Current optimal value 314484 after 193638 ms
> Current optimal value 314179 after 195468 ms
> Current optimal value 314094 after 211941 ms
> Current optimal value 311941 after 216149 ms
> Current optimal value 309972 after 217108 ms
> Current optimal value 307272 after 217862 ms
> Current optimal value 305536 after 221684 ms
> Current optimal value 304542 after 227332 ms
> Current optimal value 304490 after 287836 ms
> Current optimal value 304157 after 358312 ms
> Current optimal value 304153 after 369907 ms
> Current optimal value 302588 after 380682 ms
> Current optimal value 299540 after 380958 ms
> Current optimal value 299330 after 387135 ms
> Current optimal value 299236 after 389433 ms
> Current optimal value 298914 after 500452 ms
> Current optimal value 298815 after 522487 ms
> Current optimal value 297759 after 523645 ms
> Current optimal value 297053 after 588672 ms
