alpha: 0.5
beta: 0.5
gamma: 1.5
stagT: 5
Random frameSizes and framesize is choosen randomly between 1 - maxframesize
When an improvement is found the usefullFramesize is set to the size of the removedassumptions
Maximum runtime: 600

Starting solving at: 192 ms
done
PrepModelIt duration: 308 ms
amount madeAssumptions: 21083
Objval best sol: 250
search limit: 1
useful search limit: 1
max frame size: 0
frame size: 0
useful frame size: 0
stag: 0/5
total spend time up to now: 278 ms
max time: 600
> Current optimal value 250 after 309 ms
> Current optimal value 249 after 329 ms
> Current optimal value 248 after 380 ms
> Current optimal value 247 after 443 ms
> Current optimal value 246 after 551 ms
> Current optimal value 245 after 602 ms
> Current optimal value 244 after 698 ms
> Current optimal value 243 after 733 ms
> Current optimal value 242 after 848 ms
> Current optimal value 241 after 911 ms
> Current optimal value 240 after 969 ms
> Current optimal value 239 after 1050 ms
> Current optimal value 238 after 1105 ms
> Current optimal value 237 after 1183 ms
> Current optimal value 236 after 1237 ms
> Current optimal value 235 after 1288 ms
> Current optimal value 234 after 1383 ms
> Current optimal value 233 after 1435 ms
> Current optimal value 232 after 1532 ms
> Current optimal value 231 after 1669 ms
> Current optimal value 230 after 2253 ms
> Current optimal value 229 after 221562 ms
> Current optimal value 228 after 224831 ms
> Current optimal value 227 after 225561 ms
> Current optimal value 226 after 226196 ms
> Current optimal value 225 after 226233 ms
> Current optimal value 224 after 226273 ms
> Current optimal value 223 after 226312 ms
> Current optimal value 222 after 226350 ms
> Current optimal value 221 after 226485 ms
> Current optimal value 220 after 226524 ms
> Current optimal value 219 after 226562 ms
> Current optimal value 218 after 226602 ms
> Current optimal value 217 after 226639 ms
> Current optimal value 216 after 226680 ms
> Current optimal value 215 after 226717 ms
> Current optimal value 214 after 226756 ms
> Current optimal value 213 after 226794 ms
> Current optimal value 212 after 226831 ms
