alpha: 0.5
beta: 0.5
gamma: 1.5
stagT: 5
Random frameSizes and framesize is choosen randomly between 1 - maxframesize
When an improvement is found the usefullFramesize is set to the size of the removedassumptions
Maximum runtime: 600

Starting solving at: 270 ms
done
PrepModelIt duration: 437 ms
amount madeAssumptions: 30300
Objval best sol: 300
search limit: 1
useful search limit: 1
max frame size: 0
frame size: 0
useful frame size: 0
stag: 0/5
total spend time up to now: 396 ms
max time: 600
> Current optimal value 300 after 438 ms
> Current optimal value 299 after 481 ms
> Current optimal value 298 after 597 ms
> Current optimal value 297 after 761 ms
> Current optimal value 296 after 852 ms
> Current optimal value 295 after 1057 ms
> Current optimal value 294 after 1169 ms
> Current optimal value 293 after 1317 ms
> Current optimal value 292 after 1415 ms
> Current optimal value 291 after 1559 ms
> Current optimal value 290 after 1656 ms
> Current optimal value 289 after 1751 ms
> Current optimal value 288 after 1877 ms
> Current optimal value 287 after 1968 ms
> Current optimal value 286 after 2097 ms
> Current optimal value 285 after 2185 ms
> Current optimal value 284 after 2307 ms
> Current optimal value 283 after 2457 ms
> Current optimal value 282 after 2595 ms
> Current optimal value 281 after 2777 ms
> Current optimal value 280 after 2896 ms
> Current optimal value 279 after 2982 ms
> Current optimal value 278 after 3069 ms
> Current optimal value 277 after 3187 ms
> Current optimal value 276 after 5442 ms
> Current optimal value 275 after 6991 ms
> Current optimal value 274 after 16489 ms
> Current optimal value 273 after 25845 ms
> Current optimal value 272 after 25894 ms
> Current optimal value 271 after 28409 ms
> Current optimal value 270 after 28614 ms
> Current optimal value 269 after 28656 ms
> Current optimal value 268 after 28697 ms
> Current optimal value 267 after 28791 ms
> Current optimal value 266 after 29073 ms
> Current optimal value 265 after 29113 ms
> Current optimal value 264 after 29181 ms
> Current optimal value 263 after 37493 ms
> Current optimal value 262 after 37539 ms
> Current optimal value 261 after 37615 ms
> Current optimal value 260 after 37661 ms
> Current optimal value 259 after 37706 ms
> Current optimal value 258 after 37751 ms
> Current optimal value 257 after 38138 ms
> Current optimal value 256 after 38182 ms
> Current optimal value 255 after 38811 ms
> Current optimal value 254 after 38908 ms
> Current optimal value 253 after 39006 ms
> Current optimal value 252 after 39076 ms
> Current optimal value 251 after 39117 ms
> Current optimal value 250 after 39160 ms
> Current optimal value 249 after 39201 ms
> Current optimal value 248 after 39242 ms
> Current optimal value 247 after 39284 ms
> Current optimal value 246 after 39325 ms
