alpha: 0.5
beta: 0.5
gamma: 1.5
stagT: 5
Random frameSizes and framesize is choosen randomly between 1 - maxframesize
When an improvement is found the usefullFramesize is set to the size of the removedassumptions
Maximum runtime: 600

Starting solving at: 515 ms
done
PrepModelIt duration: 853 ms
amount madeAssumptions: 60633
Objval best sol: 425
search limit: 1
useful search limit: 1
max frame size: 0
frame size: 0
useful frame size: 0
stag: 0/5
total spend time up to now: 775 ms
max time: 600
> Current optimal value 425 after 855 ms
> Current optimal value 424 after 976 ms
> Current optimal value 423 after 1271 ms
> Current optimal value 422 after 1695 ms
> Current optimal value 421 after 2149 ms
> Current optimal value 420 after 2578 ms
> Current optimal value 419 after 2861 ms
> Current optimal value 418 after 3131 ms
> Current optimal value 417 after 3273 ms
> Current optimal value 416 after 3452 ms
> Current optimal value 415 after 3800 ms
> Current optimal value 414 after 4070 ms
> Current optimal value 413 after 4399 ms
> Current optimal value 412 after 4622 ms
> Current optimal value 411 after 4743 ms
> Current optimal value 410 after 4862 ms
> Current optimal value 409 after 5263 ms
> Current optimal value 408 after 5560 ms
> Current optimal value 407 after 5764 ms
> Current optimal value 406 after 5961 ms
> Current optimal value 405 after 6235 ms
> Current optimal value 404 after 6424 ms
> Current optimal value 403 after 6691 ms
> Current optimal value 402 after 7023 ms
> Current optimal value 401 after 7275 ms
> Current optimal value 400 after 7455 ms
> Current optimal value 399 after 7635 ms
> Current optimal value 398 after 7885 ms
> Current optimal value 397 after 8059 ms
> Current optimal value 396 after 8230 ms
> Current optimal value 395 after 8479 ms
> Current optimal value 394 after 8655 ms
> Current optimal value 393 after 9046 ms
> Current optimal value 392 after 9289 ms
> Current optimal value 391 after 9610 ms
> Current optimal value 390 after 15512 ms
> Current optimal value 389 after 19172 ms
> Current optimal value 388 after 20368 ms
> Current optimal value 387 after 20913 ms
> Current optimal value 386 after 21384 ms
> Current optimal value 385 after 22928 ms
> Current optimal value 384 after 23043 ms
> Current optimal value 383 after 25029 ms
> Current optimal value 382 after 25143 ms
> Current optimal value 381 after 26047 ms
> Current optimal value 380 after 26815 ms
> Current optimal value 379 after 26933 ms
> Current optimal value 378 after 27124 ms
> Current optimal value 377 after 27242 ms
> Current optimal value 376 after 31733 ms
> Current optimal value 375 after 31854 ms
> Current optimal value 374 after 32123 ms
> Current optimal value 373 after 32387 ms
> Current optimal value 372 after 36326 ms
> Current optimal value 371 after 45814 ms
> Current optimal value 370 after 46073 ms
> Current optimal value 369 after 46326 ms
> Current optimal value 368 after 46439 ms
> Current optimal value 367 after 46694 ms
> Current optimal value 366 after 48724 ms
> Current optimal value 365 after 48833 ms
> Current optimal value 364 after 48942 ms
> Current optimal value 363 after 49052 ms
> Current optimal value 362 after 49163 ms
> Current optimal value 361 after 413468 ms
> Current optimal value 360 after 413637 ms
> Current optimal value 359 after 413756 ms
> Current optimal value 358 after 413878 ms
> Current optimal value 357 after 413997 ms
> Current optimal value 356 after 414114 ms
> Current optimal value 355 after 414232 ms
> Current optimal value 354 after 414351 ms
> Current optimal value 353 after 414468 ms
> Current optimal value 352 after 414586 ms
> Current optimal value 351 after 414703 ms
> Current optimal value 350 after 415114 ms
