alpha: 0.5
beta: 0.5
gamma: 1.5
stagT: 5
Random frameSizes and framesize is choosen randomly between 1 - maxframesize
When an improvement is found the usefullFramesize is set to the size of the removedassumptions
Maximum runtime: 600

Starting solving at: 1078 ms
done
PrepModelIt duration: 1766 ms
amount madeAssumptions: 120600
Objval best sol: 600
search limit: 1
useful search limit: 1
max frame size: 0
frame size: 0
useful frame size: 0
stag: 0/5
total spend time up to now: 1607 ms
max time: 600
> Current optimal value 600 after 1768 ms
> Current optimal value 599 after 2163 ms
> Current optimal value 598 after 3055 ms
> Current optimal value 597 after 4266 ms
> Current optimal value 596 after 5481 ms
> Current optimal value 595 after 6582 ms
> Current optimal value 594 after 6958 ms
> Current optimal value 593 after 7902 ms
> Current optimal value 592 after 8510 ms
> Current optimal value 591 after 9362 ms
> Current optimal value 590 after 9910 ms
> Current optimal value 589 after 10447 ms
> Current optimal value 588 after 11167 ms
> Current optimal value 587 after 11662 ms
> Current optimal value 586 after 12353 ms
> Current optimal value 585 after 12818 ms
> Current optimal value 584 after 13401 ms
> Current optimal value 583 after 13840 ms
> Current optimal value 582 after 14471 ms
> Current optimal value 581 after 14899 ms
> Current optimal value 580 after 15504 ms
> Current optimal value 579 after 15918 ms
> Current optimal value 578 after 16332 ms
> Current optimal value 577 after 16732 ms
> Current optimal value 576 after 17289 ms
> Current optimal value 575 after 17671 ms
> Current optimal value 574 after 18049 ms
> Current optimal value 573 after 18578 ms
> Current optimal value 572 after 18948 ms
> Current optimal value 571 after 19473 ms
> Current optimal value 570 after 19845 ms
> Current optimal value 569 after 20520 ms
> Current optimal value 568 after 20877 ms
> Current optimal value 567 after 21237 ms
> Current optimal value 566 after 21752 ms
> Current optimal value 565 after 22107 ms
> Current optimal value 564 after 22461 ms
> Current optimal value 563 after 22961 ms
> Current optimal value 562 after 23317 ms
> Current optimal value 561 after 23811 ms
> Current optimal value 560 after 24158 ms
> Current optimal value 559 after 24793 ms
> Current optimal value 558 after 25720 ms
> Current optimal value 557 after 26496 ms
> Current optimal value 556 after 33073 ms
> Current optimal value 555 after 34002 ms
> Current optimal value 554 after 34934 ms
> Current optimal value 553 after 35138 ms
> Current optimal value 552 after 35779 ms
> Current optimal value 551 after 38317 ms
> Current optimal value 550 after 39253 ms
> Current optimal value 549 after 39756 ms
> Current optimal value 548 after 40401 ms
> Current optimal value 547 after 40905 ms
> Current optimal value 546 after 45791 ms
> Current optimal value 545 after 46294 ms
> Current optimal value 544 after 47381 ms
> Current optimal value 543 after 47595 ms
> Current optimal value 542 after 59507 ms
> Current optimal value 541 after 61639 ms
> Current optimal value 540 after 62158 ms
> Current optimal value 539 after 62673 ms
> Current optimal value 538 after 63197 ms
> Current optimal value 537 after 63568 ms
> Current optimal value 536 after 63944 ms
> Current optimal value 535 after 64313 ms
> Current optimal value 534 after 73810 ms
> Current optimal value 533 after 74336 ms
> Current optimal value 532 after 75304 ms
> Current optimal value 531 after 78049 ms
> Current optimal value 530 after 78724 ms
> Current optimal value 529 after 82519 ms
> Current optimal value 528 after 83502 ms
> Current optimal value 527 after 84037 ms
> Current optimal value 526 after 84576 ms
> Current optimal value 525 after 84967 ms
> Current optimal value 524 after 85361 ms
> Current optimal value 523 after 85902 ms
> Current optimal value 522 after 86287 ms
> Current optimal value 521 after 86673 ms
> Current optimal value 520 after 87211 ms
> Current optimal value 519 after 87594 ms
> Current optimal value 518 after 89020 ms
> Current optimal value 517 after 89566 ms
> Current optimal value 516 after 89965 ms
> Current optimal value 515 after 90361 ms
> Current optimal value 514 after 90914 ms
> Current optimal value 513 after 91310 ms
> Current optimal value 512 after 91703 ms
> Current optimal value 511 after 92245 ms
> Current optimal value 510 after 92640 ms
> Current optimal value 509 after 93183 ms
> Current optimal value 508 after 93574 ms
> Current optimal value 507 after 93963 ms
> Current optimal value 506 after 94499 ms
> Current optimal value 505 after 297036 ms
> Current optimal value 504 after 297260 ms
> Current optimal value 503 after 297486 ms
> Current optimal value 502 after 297709 ms
> Current optimal value 501 after 297931 ms
> Current optimal value 500 after 298150 ms
> Current optimal value 499 after 298372 ms
> Current optimal value 498 after 298589 ms
> Current optimal value 497 after 298806 ms
> Current optimal value 496 after 299023 ms
> Current optimal value 495 after 299237 ms
> Current optimal value 494 after 299450 ms
> Current optimal value 493 after 299663 ms
> Current optimal value 492 after 299875 ms
> Current optimal value 491 after 300087 ms
> Current optimal value 490 after 300298 ms
> Current optimal value 489 after 300512 ms
