Starting solving at 74 ms
>>> Search start
> Conflicts |          ORIGINAL         |          LEARNT          | Progress
>           |    Vars  Clauses Literals |    Limit  Clauses Lit/Cl |         
|       101 |     441       21      441 |     1447      142     49 |
> restarts              : 2
> decisions             : 475  (0 % random)
> conflicts             : 105
> propagations          : 3999
> conflict literals     : 7064  (0.183694 % deleted)
> 1 model found
>>> Search done
nrmodels&&1
total-solving-time2 ms
First objective value: 196 at 77 ms
DETECTED HARD NEIGHBORHOODS: 
Assignment/1 <- "t18" "t16" "t8" "t15" "t2" "t9" "t17" "t7" "t14" "t10" "t13" "t5" "t19" "t21" "t3" "t20" "t1" "t6" "t11" "t4" "t12" 
Assignment/0 <- "a16" "a15" "a17" "a18" "a19" "a20" "a21" "a14" "a2" "a13" "a3" "a1" "a7" "a4" "a10" "a11" "a8" "a12" "a6" "a9" "a5" 
Starting local search at 86 ms
Initial objective value: 196 at 86 ms
Strengthened objective value: 71 at 385 ms
Starting solving at 763 ms
>>> Search start
|       101 |     441       21      441 |    10110      117     26 |
|       252 |     441       21      441 |    11121      297     31 |
|       478 |     441       21      441 |    12233      555     31 |
|       818 |     441       21      441 |    13457      978     35 |
|      1326 |     441       21      441 |    14802     1612     38 |
|      2090 |     441       21      441 |    16283     2471     36 |
|      3231 |     441       21      441 |    17911     3886     39 |
|      4950 |     441       21      441 |    19702     5829     38 |
|      7517 |     441       21      441 |    21672     8777     37 |
|     11377 |     441       21      441 |    23839    13184     36 |
|     17159 |     441       21      441 |    26223    19709     37 |
|     25839 |     441       21      441 |    28846    29737     37 |
|     38846 |     441       21      441 |    31730    44967     37 |
|     58367 |     441       21      441 |    34904    22735     38 |
|     87626 |     441       21      441 |    38394    56375     37 |
|    131523 |     441       21      441 |    42233    55002     35 |
|    197355 |     441       21      441 |    46457    19893     35 |
|    296082 |     441       21      441 |    51103    15183     35 |
|    444182 |     441       21      441 |    56213    60572     38 |
|    666279 |     441       21      441 |    61834    43094     35 |
|    999414 |     441       21      441 |    68018    62478     42 |
|   1499096 |     441       21      441 |    74819    86536     35 |
|   2248432 |     441       21      441 |    82301   100106     40 |
