alpha: 0.5
beta: 0.5
gamma: 1.5
stagT: 5
Random frameSizes and framesize is choosen randomly between 1 - maxframesize
When an improvement is found the usefullFramesize is set to the size of the removedassumptions
Maximum runtime: 600

Starting solving at: 6687 ms
done
PrepModelIt duration: 9898 ms
amount madeAssumptions: 15187
Objval best sol: 98
search limit: 1419
useful search limit: 1419
max frame size: 559
frame size: 279
useful frame size: 279
stag: 0/5
total spend time up to now: 9877 ms
max time: 600
> Current optimal value 98 after 9901 ms
