alpha: 0.5
beta: 0.5
gamma: 1.5
stagT: 5
Random frameSizes and framesize is choosen randomly between 1 - maxframesize
When an improvement is found the usefullFramesize is set to the size of the removedassumptions
Maximum runtime: 600

Starting solving at: 3985 ms
done
PrepModelIt duration: 5218 ms
amount madeAssumptions: 9169
Objval best sol: 76
search limit: 351
useful search limit: 351
max frame size: 450
frame size: 225
useful frame size: 225
stag: 0/5
total spend time up to now: 5204 ms
max time: 600
> Current optimal value 76 after 5221 ms
> Current optimal value 75 after 85327 ms
> Current optimal value 74 after 292541 ms
> Current optimal value 73 after 346871 ms
