alpha: 0.5
beta: 0.5
gamma: 1.5
stagT: 5
Random frameSizes and framesize is choosen randomly between 1 - maxframesize
When an improvement is found the usefullFramesize is set to the size of the removedassumptions
Maximum runtime: 600

Starting solving at: 41 ms
done
PrepModelIt duration: 46 ms
amount madeAssumptions: 437
Objval best sol: 0
search limit: 1
useful search limit: 1
max frame size: 0
frame size: 0
useful frame size: 0
stag: 0/5
total spend time up to now: 35 ms
max time: 600
> Current optimal value 0 after 47 ms
> Current optimal value -7 after 37 ms
> Current optimal value -13 after 40 ms
> Current optimal value -29 after 42 ms
> Current optimal value -41 after 45 ms
> Current optimal value -58 after 48 ms
> Current optimal value -59 after 50 ms
> Current optimal value -67 after 57 ms
> Current optimal value -73 after 64 ms
> Current optimal value -82 after 66 ms
> Current optimal value -88 after 69 ms
> Current optimal value -92 after 71 ms
> Current optimal value -107 after 76 ms
> Current optimal value -123 after 81 ms
> Current optimal value -138 after 86 ms
> Current optimal value -156 after 90 ms
> Current optimal value -169 after 95 ms
> Current optimal value -173 after 102 ms
> Current optimal value -178 after 125 ms
> Current optimal value -182 after 130 ms
> Current optimal value -190 after 133 ms
> Current optimal value -195 after 136 ms
> Current optimal value -202 after 141 ms
> Current optimal value -207 after 145 ms
> Current optimal value -208 after 152 ms
> Current optimal value -210 after 159 ms
> Current optimal value -222 after 181 ms
> Current optimal value -225 after 193 ms
> Current optimal value -226 after 331 ms
> Current optimal value -227 after 526 ms
> Current optimal value -231 after 557 ms
> Current optimal value -241 after 607 ms
> Current optimal value -246 after 863 ms
> Current optimal value -249 after 1146 ms
> Current optimal value -250 after 1563 ms
> Current optimal value -252 after 1643 ms
