alpha: 0.5
beta: 0.5
gamma: 1.5
stagT: 5
Random frameSizes and framesize is choosen randomly between 1 - maxframesize
When an improvement is found the usefullFramesize is set to the size of the removedassumptions
Maximum runtime: 600

Starting solving at: 38 ms
done
PrepModelIt duration: 41 ms
amount madeAssumptions: 206
Objval best sol: 0
search limit: 1
useful search limit: 1
max frame size: 0
frame size: 0
useful frame size: 0
stag: 0/5
total spend time up to now: 34 ms
max time: 600
> Current optimal value 0 after 42 ms
> Current optimal value -13 after 35 ms
> Current optimal value -23 after 37 ms
> Current optimal value -36 after 39 ms
> Current optimal value -39 after 41 ms
> Current optimal value -48 after 44 ms
> Current optimal value -60 after 46 ms
> Current optimal value -62 after 49 ms
> Current optimal value -66 after 53 ms
> Current optimal value -79 after 55 ms
> Current optimal value -98 after 57 ms
> Current optimal value -104 after 67 ms
> Current optimal value -127 after 71 ms
> Current optimal value -134 after 80 ms
> Current optimal value -137 after 83 ms
> Current optimal value -143 after 88 ms
> Current optimal value -146 after 95 ms
> Current optimal value -154 after 98 ms
> Current optimal value -155 after 100 ms
