alpha: 0.5
beta: 0.5
gamma: 1.5
stagT: 5
Random frameSizes and framesize is choosen randomly between 1 - maxframesize
When an improvement is found the usefullFramesize is set to the size of the removedassumptions
Maximum runtime: 600

Starting solving at: 38 ms
done
PrepModelIt duration: 42 ms
amount madeAssumptions: 206
Objval best sol: 0
search limit: 1
useful search limit: 1
max frame size: 0
frame size: 0
useful frame size: 0
stag: 0/5
total spend time up to now: 34 ms
max time: 600
> Current optimal value 0 after 43 ms
> Current optimal value -1 after 36 ms
> Current optimal value -5 after 38 ms
> Current optimal value -17 after 40 ms
> Current optimal value -30 after 42 ms
> Current optimal value -42 after 44 ms
> Current optimal value -46 after 48 ms
> Current optimal value -58 after 51 ms
> Current optimal value -67 after 55 ms
> Current optimal value -84 after 60 ms
> Current optimal value -90 after 63 ms
> Current optimal value -109 after 65 ms
> Current optimal value -118 after 68 ms
> Current optimal value -131 after 72 ms
> Current optimal value -143 after 75 ms
> Current optimal value -154 after 82 ms
> Current optimal value -155 after 90 ms
