alpha: 0.5
beta: 0.5
gamma: 1.5
stagT: 5
Random frameSizes and framesize is choosen randomly between 1 - maxframesize
When an improvement is found the usefullFramesize is set to the size of the removedassumptions
Maximum runtime: 600

Starting solving at: 39 ms
done
PrepModelIt duration: 43 ms
amount madeAssumptions: 274
Objval best sol: 0
search limit: 1
useful search limit: 1
max frame size: 0
frame size: 0
useful frame size: 0
stag: 0/5
total spend time up to now: 34 ms
max time: 600
> Current optimal value 0 after 44 ms
> Current optimal value -1 after 36 ms
> Current optimal value -17 after 38 ms
> Current optimal value -27 after 41 ms
> Current optimal value -31 after 43 ms
> Current optimal value -48 after 45 ms
> Current optimal value -63 after 52 ms
> Current optimal value -69 after 58 ms
> Current optimal value -77 after 61 ms
> Current optimal value -81 after 63 ms
> Current optimal value -87 after 68 ms
> Current optimal value -94 after 72 ms
> Current optimal value -112 after 77 ms
> Current optimal value -128 after 80 ms
> Current optimal value -140 after 82 ms
> Current optimal value -153 after 88 ms
> Current optimal value -158 after 108 ms
> Current optimal value -177 after 116 ms
> Current optimal value -178 after 119 ms
> Current optimal value -180 after 197 ms
> Current optimal value -194 after 217 ms
> Current optimal value -202 after 236 ms
> Current optimal value -205 after 282 ms
> Current optimal value -206 after 16369 ms
> Current optimal value -213 after 16845 ms
