Starting solving at 1130 ms
>>> Search start
> Conflicts |          ORIGINAL         |          LEARNT          | Progress
>           |    Vars  Clauses Literals |    Limit  Clauses Lit/Cl |         
|         0 |   50771   110257   264843 |    68130     1980      2 |
>>> Initializing inductive definition 1454
> Number of rules : 1900.
|       101 |   50799    98824   238708 |    74943    10757      3 |
> restarts              : 3
> decisions             : 3499  (0 % random)
> conflicts             : 210
> propagations          : 804696
> conflict literals     : 10662  (1.88645 % deleted)
> Current optimal value 94516 after 4835 ms
|       210 |   51240    99702   240464 |    70163    39327     38 |
> restarts              : 4
> decisions             : 3858  (0 % random)
> conflicts             : 212
> propagations          : 856284
> conflict literals     : 11052  (1.82981 % deleted)
> Current optimal value 92727 after 5151 ms
|       212 |   51299    99819   240698 |    70558    40395     38 |
> restarts              : 5
> decisions             : 3989  (0 % random)
> conflicts             : 213
> propagations          : 908003
> conflict literals     : 11233  (2.16009 % deleted)
> Current optimal value 92226 after 5341 ms
|       213 |   51351    99923   240906 |    70889    41283     37 |
> restarts              : 6
> decisions             : 4096  (0 % random)
> conflicts             : 228
> propagations          : 988566
> conflict literals     : 13453  (6.02822 % deleted)
> Current optimal value 92023 after 5588 ms
|       228 |   51478   100177   241414 |    71450    42712     37 |
> restarts              : 7
> decisions             : 4158  (0 % random)
> conflicts             : 229
> propagations          : 1040778
> conflict literals     : 13694  (6.74838 % deleted)
> Current optimal value 91960 after 5725 ms
|       229 |   51541   100303   241666 |    71724    43408     37 |
> restarts              : 8
> decisions             : 4221  (0 % random)
> conflicts             : 233
> propagations          : 1094747
> conflict literals     : 14573  (8.20736 % deleted)
> Current optimal value 91789 after 5871 ms
|       233 |   51604   100429   241918 |    71874    43734     37 |
> restarts              : 9
> decisions             : 4281  (0 % random)
> conflicts             : 234
> propagations          : 1147095
> conflict literals     : 14767  (8.69915 % deleted)
> Current optimal value 91726 after 6002 ms
|       234 |   51659   100539   242138 |    72069    44207     37 |
> restarts              : 10
> decisions             : 4363  (0 % random)
> conflicts             : 256
> propagations          : 1212179
> conflict literals     : 19865  (15.016 % deleted)
> Current optimal value 91678 after 6226 ms
|       256 |   51766   100753   242566 |    72355    44853     37 |
> restarts              : 11
> decisions             : 4434  (0 % random)
> conflicts             : 266
> propagations          : 1280849
> conflict literals     : 21888  (16.3495 % deleted)
> Current optimal value 91459 after 6415 ms
|       266 |   51862   100944   242948 |    72715    45740     37 |
> restarts              : 12
> decisions             : 4489  (0 % random)
> conflicts             : 267
> propagations          : 1333182
> conflict literals     : 22037  (16.4316 % deleted)
> Current optimal value 91225 after 6526 ms
|       267 |   51909   101038   243136 |    72768    45807     37 |
> restarts              : 13
> decisions             : 4546  (0 % random)
> conflicts             : 275
> propagations          : 1393060
> conflict literals     : 23501  (17.4795 % deleted)
> Current optimal value 91177 after 6673 ms
|       275 |   51964   101148   243356 |    72855    45957     37 |
> restarts              : 14
> decisions             : 4631  (0 % random)
> conflicts             : 297
> propagations          : 1475815
> conflict literals     : 28851  (18.4309 % deleted)
> Current optimal value 90965 after 6898 ms
|       297 |   52080   101380   243820 |    73042    46285     38 |
> restarts              : 16
> decisions             : 4738  (0 % random)
> conflicts             : 301
> propagations          : 1582938
> conflict literals     : 29435  (18.6654 % deleted)
> Current optimal value 90903 after 7126 ms
|       301 |   52166   101552   244164 |    73198    46581     38 |
> restarts              : 17
> decisions             : 4793  (0 % random)
> conflicts             : 302
> propagations          : 1635216
> conflict literals     : 29585  (18.6801 % deleted)
> Current optimal value 90902 after 7249 ms
|       302 |   52208   101636   244332 |    73264    46695     38 |
> restarts              : 18
> decisions             : 4860  (0 % random)
> conflicts             : 320
> propagations          : 1706311
> conflict literals     : 32773  (19.2564 % deleted)
> Current optimal value 90854 after 7447 ms
|       320 |   52291   101802   244664 |    73379    46876     38 |
> restarts              : 19
> decisions             : 4916  (0 % random)
> conflicts             : 326
> propagations          : 1768669
> conflict literals     : 34076  (19.6832 % deleted)
> Current optimal value 90272 after 7587 ms
|       326 |   52355   101930   244920 |    73493    47088     39 |
> restarts              : 20
> decisions             : 4967  (0 % random)
> conflicts             : 327
> propagations          : 1821183
> conflict literals     : 34224  (19.7016 % deleted)
> Current optimal value 90038 after 7704 ms
|       327 |   52394   102008   245076 |    73553    47190     39 |
|       427 |   52707   102634   246328 |    80908    48034     40 |
|       577 |   53108   103436   247932 |    88999    49456     41 |
> restarts              : 21
> decisions             : 5488  (0 % random)
> conflicts             : 639
> propagations          : 2456677
> conflict literals     : 109459  (21.2684 % deleted)
> Current optimal value 89846 after 9583 ms
|       639 |   53294   103808   248676 |    75131    50125     41 |
> restarts              : 22
> decisions             : 5562  (0 % random)
> conflicts             : 659
> propagations          : 2535543
> conflict literals     : 118028  (21.6073 % deleted)
> Current optimal value 89844 after 9802 ms
|       659 |   53391   104002   249064 |    75236    50247     42 |
|       759 |   53674   104568   250196 |    82760    50805     42 |
> restarts              : 23
> decisions             : 5831  (0 % random)
> conflicts             : 830
> propagations          : 2904898
> conflict literals     : 163378  (21.8324 % deleted)
> Current optimal value 89422 after 10863 ms
|       830 |   53803   104826   250712 |    75801    51116     43 |
|       930 |   54054   105328   251716 |    83381    51635     44 |
|      1080 |   54438   106096   253252 |    91719    52194     45 |
|      1307 |   55019   107258   255576 |   100891    53064     47 |
|      1647 |   56030   109280   259620 |   110980    55011     52 |
> restarts              : 30
> decisions             : 7501  (0 % random)
> conflicts             : 2006
> propagations          : 5187755
> conflict literals     : 463180  (23.683 % deleted)
> Current optimal value 88783 after 17749 ms
|      2006 |   56958   111136   263332 |    79643    56332     55 |
|      2106 |   57130   111479   264018 |    87607    56716     55 |
|      2257 |   57558   112335   265730 |    96368    57630     56 |
|      2482 |   58080   113379   267818 |   106004    58461     58 |
> restarts              : 32
> decisions             : 8254  (0 % random)
> conflicts             : 2524
> propagations          : 6365104
> conflict literals     : 596434  (23.9114 % deleted)
> Current optimal value 88623 after 20882 ms
|      2524 |   58175   113569   268198 |    81222    58637     59 |
> restarts              : 33
> decisions             : 8312  (0 % random)
> conflicts             : 2525
> propagations          : 6423438
> conflict literals     : 596595  (23.9109 % deleted)
> Current optimal value 88122 after 21003 ms
|      2525 |   58228   113675   268410 |    81301    58768     59 |
|      2625 |   58447   114113   269286 |    89431    59187     60 |
|      2775 |   58729   114677   270414 |    98374    59695     60 |
> restarts              : 34
> decisions             : 8697  (0 % random)
> conflicts             : 2781
> propagations          : 7117754
> conflict literals     : 669597  (23.8452 % deleted)
> Current optimal value 87574 after 22616 ms
|      2781 |   58743   114705   270470 |    81960    59714     61 |
|      2881 |   58920   115059   271178 |    90156    59967     61 |
> restarts              : 35
> decisions             : 8955  (0 % random)
> conflicts             : 2924
> propagations          : 7570386
> conflict literals     : 723737  (23.7919 % deleted)
> Current optimal value 87350 after 23587 ms
|      2924 |   59027   115273   271606 |    82396    60455     62 |
|      3024 |   59305   115829   272718 |    90635    61106     62 |
|      3174 |   59667   116553   274166 |    99699    62316     62 |
|      3399 |   60219   117657   276374 |   109669    63114     64 |
> restarts              : 36
> decisions             : 10412  (0 % random)
> conflicts             : 3682
> propagations          : 9657637
> conflict literals     : 1000037  (23.3245 % deleted)
> Current optimal value 86408 after 28693 ms
|      3682 |   60801   118821   278702 |    84854    64282     66 |
> restarts              : 37
> decisions             : 10545  (0 % random)
> conflicts             : 3752
> propagations          : 9871320
> conflict literals     : 1026231  (23.2214 % deleted)
> Current optimal value 85021 after 29190 ms
|      3752 |   60988   119195   279450 |    85052    64501     67 |
> restarts              : 38
> decisions             : 10806  (0 % random)
> conflicts             : 3756
> propagations          : 9934396
> conflict literals     : 1027083  (23.2164 % deleted)
> Current optimal value 84396 after 29518 ms
|      3756 |   61030   119279   279618 |    85097    64551     67 |
> restarts              : 39
> decisions             : 10861  (0 % random)
> conflicts             : 3757
> propagations          : 9995773
> conflict literals     : 1027246  (23.2167 % deleted)
> Current optimal value 83905 after 29642 ms
|      3757 |   61064   119347   279754 |    85131    64587     67 |
|      3858 |   61352   119923   280906 |    93644    65217     68 |
|      4009 |   61736   120691   282442 |   103009    66759     68 |
|      4236 |   62339   121897   284854 |   113310    68058     69 |
|      4575 |   63155   123528   288116 |   124641    69666     70 |
|      5082 |   64324   125866   292792 |   137105    71374     73 |
|      5843 |   66126   129470   300000 |   150815    74096     78 |
|      6988 |   68646   134510   310080 |   165897    78351     85 |
|      8703 |   71934   141086   323232 |   182487   101087     71 |
|     11267 |   74531   146279   333618 |   200736   111838     66 |
|     15121 |   81652   160520   362100 |   220809   134105     82 |
> restarts              : 81
> decisions             : 122940  (0 % random)
> conflicts             : 17026
> propagations          : 47948306
> conflict literals     : 3455844  (21.8638 % deleted)
> Current optimal value 83151 after 180172 ms
|     17026 |   84708   166632   374324 |   126708   142031     86 |
|     17127 |   84946   167108   375276 |   139378   142510     86 |
|     17278 |   85190   167596   376252 |   153316   143104     86 |
|     17505 |   85618   168452   377964 |   168648   144112     87 |
|     17842 |   86215   169646   380352 |   185513   145430     88 |
|     18352 |   87199   171614   384288 |   204064   147687     89 |
|     19115 |   88510   174236   389532 |   224470   151523     92 |
|     20255 |   90386   177988   397036 |   246918   157075     95 |
|     21967 |   93156   183528   408116 |   271609   165215     99 |
|     24540 |   96934   191084   423228 |   298770   177095    106 |
|     28400 |  102423   202062   445184 |   328647   192980    114 |
|     34168 |  109604   216423   473906 |   361512   216179    123 |
|     42837 |  120158   237530   516120 |   397663   249214    130 |
|     55854 |  132859   262932   566924 |   437430   303978    140 |
