Starting solving at 8307 ms
>>> Search start
> Conflicts |          ORIGINAL         |          LEARNT          | Progress
>           |    Vars  Clauses Literals |    Limit  Clauses Lit/Cl |         
|         0 | 1291622   970019  2100839 | -682291477        0   -nan |
|       101 | 1290414   967607  2096015 | -750520625       95     10 |
|       252 | 1290414   967607  2096015 | -825572687      166     45 |
|       478 | 1290414   967607  2096015 | -908129956      243     38 |
|       818 | 1290414   967607  2096015 | -998942952      248     32 |
|      1326 | 1290414   967607  2096015 | -1098837247      249     34 |
|      2090 | 1290414   967607  2096015 | -1208720972      468     29 |
|      3231 | 1290414   967607  2096015 | -1329593069      497     16 |
> restarts              : 25
> decisions             : 8154721  (0 % random)
> conflicts             : 4615
> propagations          : 18573175
> conflict literals     : 3113908  (0.561394 % deleted)
> Current optimal value 7661 after 141623 ms
|      4615 | 1290415   967607  2096015 | -681435416      667     11 |
> restarts              : 26
> decisions             : 8857443  (0 % random)
> conflicts             : 4617
> propagations          : 19863609
> conflict literals     : 3117816  (0.560758 % deleted)
> Current optimal value 7655 after 156258 ms
|      4617 | 1290416   967607  2096015 | -680578778      653      7 |
|      4718 | 1290416   967607  2096015 | -748636656      656      7 |
|      4869 | 1290416   967607  2096015 | -823500322      672      6 |
|      5095 | 1290416   967607  2096015 | -905850354      695      7 |
|      5433 | 1290416   967607  2096015 | -996435389      721      9 |
|      5939 | 1290416   967607  2096015 | -1096078928      755      7 |
|      6699 | 1290416   967607  2096015 | -1205686821      795      7 |
|      7839 | 1290416   967607  2096015 | -1326255503      819      6 |
|      9558 | 1290416   967607  2096015 | -1458881054      973      8 |
|     12130 | 1290416   967607  2096015 | -1604769159     1134      5 |
|     15984 | 1290416   967607  2096015 | -1765246075     1326      4 |
|     21765 | 1290416   967607  2096015 | -1941770683     1570      5 |
|     30448 | 1290416   967607  2096015 | -2135947751     1987      4 |
|     43437 | 1290416   967607  2096015 | -2147483648     2256      3 |
|     62961 | 1290416   967607  2096015 | -2147483648     2723      3 |
|     92218 | 1290416   967607  2096015 | -2147483648     3148      3 |
|    136132 | 1290416   967607  2096015 | -2147483648     3739      3 |
|    201946 | 1290416   967607  2096015 | -2147483648     4507      3 |
|    300694 | 1290416   967607  2096015 | -2147483648     5375      3 |
|    448773 | 1290416   967607  2096015 | -2147483648     6525      3 |
