Starting solving at 7285 ms
>>> Search start
> Conflicts |          ORIGINAL         |          LEARNT          | Progress
>           |    Vars  Clauses Literals |    Limit  Clauses Lit/Cl |         
|         0 |  199234   149935   324519 | 38413186        0   -nan |
|       101 |  198758   149935   324519 | 42254504      149     80 |
|       252 |  198758   149935   324519 | 46479955      342    105 |
|       478 |  198758   149935   324519 | 51127951      604    111 |
|       818 |  198758   148987   322623 | 56240746     1146    172 |
> restarts              : 8
> decisions             : 234347  (0 % random)
> conflicts             : 933
> propagations          : 887829
> conflict literals     : 210455  (0.605938 % deleted)
> Current optimal value 355162 after 10211 ms
|       933 |  198759   148987   322623 | 38534024     1320    187 |
> restarts              : 9
> decisions             : 330711  (0 % random)
> conflicts             : 934
> propagations          : 1086591
> conflict literals     : 210889  (0.604698 % deleted)
> Current optimal value 353659 after 10856 ms
|       934 |  198760   148987   322623 | 38654739     1322    187 |
> restarts              : 10
> decisions             : 427731  (0 % random)
> conflicts             : 935
> propagations          : 1285359
> conflict literals     : 211167  (0.603907 % deleted)
> Current optimal value 352995 after 11461 ms
|       935 |  198761   148987   322623 | 38775454     1324    187 |
> restarts              : 11
> decisions             : 524792  (0 % random)
> conflicts             : 936
> propagations          : 1484128
> conflict literals     : 211445  (0.603118 % deleted)
> Current optimal value 352805 after 12062 ms
|       936 |  198762   148987   322623 | 38896169     1326    187 |
|      1036 |  198762   148987   322623 | 42785786     1463    254 |
|      1186 |  198762   148987   322623 | 47064365     1667    406 |
|      1413 |  198762   148987   322623 | 51770801     1960    578 |
|      1751 |  198762   148987   322623 | 56947882     2451    838 |
|      2258 |  198762   148987   322623 | 62642670     3105   1425 |
|      3020 |  198762   148987   322623 | 68906937     4101   1799 |
|      4165 |  198762   148987   322623 | 75797630     5547   1802 |
|      5879 |  198762   148987   322623 | 83377394     7636   2061 |
|      8449 |  198762   148987   322623 | 91715133    10824   2605 |
|     12311 |  198762   148987   322623 | 100886646    15540   2572 |
|     18084 |  198762   148987   322623 | 110975311    22629   2362 |
|     26764 |  198762   148987   322623 | 122072842    33245   2642 |
|     39771 |  198762   148987   322623 | 134280126    49217   2558 |
|     59294 |  198762   148987   322623 | 147708139    73121   2378 |
|     88551 |  198762   148987   322623 | 162478953   108866   2243 |
