alpha: 0.5
beta: 0.5
gamma: 1.5
stagT: 5
Random frameSizes and framesize is choosen randomly between 1 - maxframesize
When an improvement is found the usefullFramesize is set to the size of the removedassumptions
Maximum runtime: 600

Starting solving at: 140 ms
done
PrepModelIt duration: 147 ms
amount madeAssumptions: 675
Objval best sol: 17369
search limit: 1
useful search limit: 1
max frame size: 480
frame size: 240
useful frame size: 240
stag: 0/5
total spend time up to now: 141 ms
max time: 600
> Current optimal value 17369 after 152 ms
> Current optimal value 16214 after 241 ms
> Current optimal value 15929 after 274 ms
> Current optimal value 15543 after 364 ms
> Current optimal value 14811 after 422 ms
> Current optimal value 14748 after 557 ms
> Current optimal value 14463 after 680 ms
> Current optimal value 14425 after 1663 ms
> Current optimal value 14362 after 3069 ms
> Current optimal value 14077 after 3669 ms
no more models to explore, program will end
end program after: 23695 ms
Total time spend: 23695 ms
Amount of new found models: 2591
Feasible object value: 17369
Result object value: 14077
