alpha: 0.5
beta: 0.5
gamma: 1.5
stagT: 5
Random frameSizes and framesize is choosen randomly between 1 - maxframesize
When an improvement is found the usefullFramesize is set to the size of the removedassumptions
Maximum runtime: 600

Starting solving at: 747 ms
done
PrepModelIt duration: 819 ms
amount madeAssumptions: 3070
Objval best sol: 49995
search limit: 10
useful search limit: 10
max frame size: 2520
frame size: 1260
useful frame size: 1260
stag: 0/5
total spend time up to now: 818 ms
max time: 600
> Current optimal value 49995 after 837 ms
> Current optimal value 48944 after 14913 ms
> Current optimal value 48482 after 15520 ms
> Current optimal value 47986 after 56339 ms
> Current optimal value 47978 after 76926 ms
> Current optimal value 47781 after 78590 ms
> Current optimal value 47540 after 122907 ms
> Current optimal value 46681 after 214852 ms
> Current optimal value 45896 after 223351 ms
> Current optimal value 45880 after 267089 ms
> Current optimal value 45876 after 270248 ms
