alpha: 0.5
beta: 0.5
gamma: 1.5
stagT: 5
Random frameSizes and framesize is choosen randomly between 1 - maxframesize
When an improvement is found the usefullFramesize is set to the size of the removedassumptions
Maximum runtime: 600

Starting solving at: 117 ms
done
PrepModelIt duration: 130 ms
amount madeAssumptions: 1185
Objval best sol: 5488
search limit: 1
useful search limit: 1
max frame size: 58
frame size: 29
useful frame size: 29
stag: 0/5
total spend time up to now: 71 ms
max time: 600
> Current optimal value 5488 after 130 ms
> Current optimal value 5382 after 91 ms
> Current optimal value 5203 after 119 ms
> Current optimal value 5163 after 135 ms
> Current optimal value 4874 after 150 ms
> Current optimal value 4806 after 165 ms
> Current optimal value 4645 after 204 ms
> Current optimal value 4433 after 234 ms
> Current optimal value 4425 after 276 ms
> Current optimal value 4204 after 398 ms
> Current optimal value 4169 after 433 ms
> Current optimal value 3951 after 442 ms
> Current optimal value 3907 after 507 ms
> Current optimal value 3783 after 524 ms
> Current optimal value 3706 after 583 ms
> Current optimal value 3696 after 3999 ms
> Current optimal value 3662 after 6206 ms
> Current optimal value 3659 after 6225 ms
> Current optimal value 3426 after 6363 ms
> Current optimal value 3388 after 6414 ms
> Current optimal value 3358 after 8016 ms
> Current optimal value 3296 after 8150 ms
> Current optimal value 3205 after 8445 ms
> Current optimal value 3165 after 8545 ms
> Current optimal value 3061 after 8563 ms
> Current optimal value 3019 after 8929 ms
> Current optimal value 2985 after 14166 ms
> Current optimal value 2958 after 23823 ms
> Current optimal value 2911 after 26478 ms
> Current optimal value 2869 after 26534 ms
> Current optimal value 2825 after 31335 ms
> Current optimal value 2747 after 36053 ms
> Current optimal value 2669 after 45214 ms
> Current optimal value 2653 after 46599 ms
> Current optimal value 2642 after 46838 ms
> Current optimal value 2633 after 46874 ms
> Current optimal value 2600 after 47665 ms
> Current optimal value 2588 after 50333 ms
> Current optimal value 2548 after 89214 ms
> Current optimal value 2532 after 89617 ms
> Current optimal value 2494 after 119899 ms
> Current optimal value 2485 after 127552 ms
> Current optimal value 2465 after 129412 ms
> Current optimal value 2448 after 149076 ms
> Current optimal value 2381 after 171053 ms
> Current optimal value 2376 after 420769 ms
> Current optimal value 2351 after 430659 ms
> Current optimal value 2330 after 525977 ms
