alpha: 0.5
beta: 0.5
gamma: 1.5
stagT: 5
Random frameSizes and framesize is choosen randomly between 1 - maxframesize
When an improvement is found the usefullFramesize is set to the size of the removedassumptions
Maximum runtime: 600

Starting solving at: 8113 ms
done
PrepModelIt duration: 8310 ms
amount madeAssumptions: 12938
Objval best sol: 175564
search limit: 6
useful search limit: 6
max frame size: 200
frame size: 100
useful frame size: 100
stag: 0/5
total spend time up to now: 362 ms
max time: 600
> Current optimal value 175564 after 8312 ms
> Current optimal value 173490 after 764 ms
> Current optimal value 172699 after 919 ms
> Current optimal value 172666 after 1119 ms
> Current optimal value 171517 after 1250 ms
> Current optimal value 169710 after 1330 ms
> Current optimal value 168228 after 1641 ms
> Current optimal value 165748 after 2407 ms
> Current optimal value 165386 after 2589 ms
> Current optimal value 165142 after 3372 ms
> Current optimal value 164196 after 3528 ms
> Current optimal value 159895 after 4066 ms
> Current optimal value 157647 after 4703 ms
> Current optimal value 153041 after 4932 ms
> Current optimal value 152600 after 5652 ms
> Current optimal value 152092 after 5806 ms
> Current optimal value 147472 after 6392 ms
> Current optimal value 144346 after 7227 ms
> Current optimal value 140885 after 7584 ms
> Current optimal value 139702 after 7830 ms
> Current optimal value 137045 after 8856 ms
> Current optimal value 136573 after 9396 ms
> Current optimal value 136423 after 11034 ms
> Current optimal value 136011 after 11214 ms
> Current optimal value 135968 after 11382 ms
> Current optimal value 134116 after 11948 ms
> Current optimal value 132639 after 12073 ms
> Current optimal value 131725 after 12563 ms
> Current optimal value 129748 after 12687 ms
> Current optimal value 129733 after 13761 ms
> Current optimal value 129183 after 14125 ms
> Current optimal value 125606 after 14650 ms
> Current optimal value 123609 after 14888 ms
> Current optimal value 122720 after 16656 ms
> Current optimal value 121066 after 17597 ms
> Current optimal value 120611 after 18268 ms
> Current optimal value 120140 after 18765 ms
> Current optimal value 117776 after 20042 ms
> Current optimal value 116590 after 20903 ms
> Current optimal value 116535 after 21030 ms
> Current optimal value 115833 after 21643 ms
> Current optimal value 114854 after 21848 ms
> Current optimal value 113918 after 23381 ms
> Current optimal value 113225 after 24056 ms
> Current optimal value 112899 after 24289 ms
> Current optimal value 112834 after 24659 ms
> Current optimal value 112199 after 25085 ms
> Current optimal value 108074 after 25954 ms
> Current optimal value 107725 after 26989 ms
> Current optimal value 106485 after 27110 ms
> Current optimal value 104691 after 28004 ms
> Current optimal value 104558 after 28236 ms
> Current optimal value 103666 after 29371 ms
> Current optimal value 100960 after 29855 ms
> Current optimal value 98357 after 29931 ms
> Current optimal value 97020 after 30003 ms
> Current optimal value 95260 after 30604 ms
> Current optimal value 95181 after 32082 ms
> Current optimal value 93122 after 33930 ms
> Current optimal value 91505 after 34627 ms
> Current optimal value 91467 after 37716 ms
> Current optimal value 91005 after 39345 ms
> Current optimal value 89649 after 39545 ms
> Current optimal value 89220 after 39732 ms
> Current optimal value 87513 after 40250 ms
> Current optimal value 85682 after 41211 ms
> Current optimal value 84744 after 41574 ms
> Current optimal value 83876 after 42270 ms
> Current optimal value 83622 after 43464 ms
> Current optimal value 82785 after 43744 ms
> Current optimal value 82718 after 44126 ms
> Current optimal value 81632 after 45810 ms
> Current optimal value 81183 after 47019 ms
> Current optimal value 80554 after 47320 ms
> Current optimal value 80448 after 47704 ms
> Current optimal value 79778 after 51020 ms
> Current optimal value 79624 after 51495 ms
> Current optimal value 79090 after 52225 ms
> Current optimal value 79005 after 53981 ms
> Current optimal value 78515 after 54051 ms
> Current optimal value 78270 after 54628 ms
> Current optimal value 76841 after 55899 ms
> Current optimal value 75890 after 57463 ms
> Current optimal value 75248 after 61656 ms
> Current optimal value 74989 after 62687 ms
> Current optimal value 73976 after 63794 ms
> Current optimal value 72605 after 64093 ms
> Current optimal value 72405 after 66511 ms
> Current optimal value 72375 after 67306 ms
> Current optimal value 71437 after 67602 ms
> Current optimal value 70925 after 69604 ms
> Current optimal value 69909 after 70323 ms
> Current optimal value 69870 after 72024 ms
> Current optimal value 69848 after 76226 ms
> Current optimal value 69722 after 78044 ms
> Current optimal value 69383 after 79675 ms
> Current optimal value 68812 after 81890 ms
> Current optimal value 68802 after 85449 ms
> Current optimal value 68105 after 88244 ms
> Current optimal value 67498 after 88981 ms
> Current optimal value 66998 after 97693 ms
> Current optimal value 66818 after 131297 ms
> Current optimal value 66727 after 142483 ms
> Current optimal value 66159 after 160825 ms
> Current optimal value 66095 after 162705 ms
> Current optimal value 65781 after 167993 ms
> Current optimal value 65385 after 182798 ms
> Current optimal value 64754 after 183538 ms
> Current optimal value 64670 after 183716 ms
> Current optimal value 64171 after 193983 ms
> Current optimal value 63600 after 202476 ms
> Current optimal value 63211 after 204284 ms
> Current optimal value 63083 after 205069 ms
> Current optimal value 62914 after 211145 ms
> Current optimal value 62908 after 218783 ms
> Current optimal value 62431 after 229971 ms
> Current optimal value 61512 after 245903 ms
> Current optimal value 61151 after 270426 ms
> Current optimal value 60946 after 271185 ms
> Current optimal value 60709 after 271727 ms
> Current optimal value 60326 after 317057 ms
> Current optimal value 59947 after 342662 ms
> Current optimal value 59846 after 343633 ms
> Current optimal value 59554 after 343944 ms
> Current optimal value 59466 after 352602 ms
> Current optimal value 59361 after 359401 ms
> Current optimal value 58897 after 362238 ms
> Current optimal value 58528 after 362706 ms
> Current optimal value 58045 after 364832 ms
> Current optimal value 57921 after 366527 ms
> Current optimal value 57918 after 371538 ms
> Current optimal value 57648 after 388208 ms
> Current optimal value 56876 after 389390 ms
> Current optimal value 55923 after 407650 ms
> Current optimal value 55841 after 425552 ms
> Current optimal value 55164 after 446560 ms
