alpha: 0.5
beta: 0.5
gamma: 1.5
stagT: 5
Random frameSizes and framesize is choosen randomly between 1 - maxframesize
When an improvement is found the usefullFramesize is set to the size of the removedassumptions
Maximum runtime: 600

Starting solving at: 26090 ms
done
PrepModelIt duration: 34319 ms
amount madeAssumptions: 197611
Objval best sol: 8231
search limit: 10
useful search limit: 10
max frame size: 886
frame size: 443
useful frame size: 443
stag: 0/5
total spend time up to now: 31536 ms
max time: 600
> Current optimal value 8231 after 34337 ms
> Current optimal value 8227 after 42274 ms
> Current optimal value 8200 after 46632 ms
> Current optimal value 8199 after 53773 ms
> Current optimal value 8197 after 55604 ms
> Current optimal value 8194 after 57398 ms
> Current optimal value 8174 after 62795 ms
> Current optimal value 8148 after 64649 ms
> Current optimal value 8146 after 72492 ms
> Current optimal value 8132 after 85966 ms
> Current optimal value 8127 after 96568 ms
> Current optimal value 8105 after 102485 ms
> Current optimal value 8101 after 133111 ms
> Current optimal value 8090 after 134933 ms
> Current optimal value 8079 after 143119 ms
> Current optimal value 8063 after 170587 ms
> Current optimal value 8057 after 187758 ms
> Current optimal value 8054 after 192613 ms
> Current optimal value 8048 after 227772 ms
> Current optimal value 8042 after 234944 ms
> Current optimal value 8004 after 244289 ms
> Current optimal value 7988 after 270030 ms
> Current optimal value 7978 after 290080 ms
> Current optimal value 7976 after 309816 ms
> Current optimal value 7974 after 313612 ms
> Current optimal value 7958 after 327840 ms
> Current optimal value 7947 after 348383 ms
> Current optimal value 7942 after 385105 ms
> Current optimal value 7941 after 409998 ms
> Current optimal value 7929 after 411844 ms
> Current optimal value 7928 after 425338 ms
> Current optimal value 7911 after 440227 ms
> Current optimal value 7876 after 469224 ms
> Current optimal value 7868 after 475794 ms
> Current optimal value 7840 after 477575 ms
> Current optimal value 7838 after 506335 ms
> Current optimal value 7827 after 544507 ms
> Current optimal value 7823 after 554154 ms
> Current optimal value 7822 after 571348 ms
> Current optimal value 7813 after 585153 ms
