alpha: 0.5
beta: 0.5
gamma: 1.5
stagT: 5
Random frameSizes and framesize is choosen randomly between 1 - maxframesize
When an improvement is found the usefullFramesize is set to the size of the removedassumptions
Maximum runtime: 600

Starting solving at: 6710 ms
done
PrepModelIt duration: 10046 ms
amount madeAssumptions: 15187
Objval best sol: 98
search limit: 1419
useful search limit: 1419
max frame size: 559
frame size: 279
useful frame size: 279
stag: 0/5
total spend time up to now: 10024 ms
max time: 600
> Current optimal value 98 after 10049 ms
> Current optimal value 97 after 161632 ms
> Current optimal value 96 after 444425 ms
