alpha: 0.5
beta: 0.5
gamma: 1.5
stagT: 5
Random frameSizes and framesize is choosen randomly between 1 - maxframesize
When an improvement is found the usefullFramesize is set to the size of the removedassumptions
Maximum runtime: 600

Starting solving at: 8165 ms
done
PrepModelIt duration: 11418 ms
amount madeAssumptions: 17750
Objval best sol: 84
search limit: 605
useful search limit: 605
max frame size: 450
frame size: 225
useful frame size: 225
stag: 0/5
total spend time up to now: 11393 ms
max time: 600
> Current optimal value 84 after 11420 ms
> Current optimal value 83 after 16834 ms
> Current optimal value 82 after 242702 ms
> Current optimal value 81 after 243873 ms
> Current optimal value 80 after 264200 ms
